<?xml version="1.0" encoding="UTF-8" standalone="no"?>
<!-- Created with Inkscape (http://www.inkscape.org/) -->

<svg
   xmlns:dc="http://purl.org/dc/elements/1.1/"
   xmlns:cc="http://creativecommons.org/ns#"
   xmlns:rdf="http://www.w3.org/1999/02/22-rdf-syntax-ns#"
   xmlns:svg="http://www.w3.org/2000/svg"
   xmlns="http://www.w3.org/2000/svg"
   xmlns:sodipodi="http://sodipodi.sourceforge.net/DTD/sodipodi-0.dtd"
   xmlns:inkscape="http://www.inkscape.org/namespaces/inkscape"
   width="435.9866"
   height="268.59424"
   id="svg2"
   version="1.1"
   inkscape:version="0.48.3.1 r9886"
   sodipodi:docname="trip_pool.svg">
  <defs
     id="defs4">
    <marker
       inkscape:stockid="Arrow1Mend"
       orient="auto"
       refY="0"
       refX="0"
       id="Arrow1Mend"
       style="overflow:visible">
      <path
         id="path4001"
         d="M 0,0 5,-5 -12.5,0 5,5 0,0 z"
         style="fill-rule:evenodd;stroke:#000000;stroke-width:1pt"
         transform="matrix(-0.4,0,0,-0.4,-4,0)"
         inkscape:connector-curvature="0" />
    </marker>
    <marker
       inkscape:stockid="Arrow2Lend"
       orient="auto"
       refY="0"
       refX="0"
       id="Arrow2Lend"
       style="overflow:visible">
      <path
         id="path4013"
         style="fill-rule:evenodd;stroke-width:0.625;stroke-linejoin:round"
         d="M 8.7185878,4.0337352 -2.2072895,0.01601326 8.7185884,-4.0017078 c -1.7454984,2.3720609 -1.7354408,5.6174519 -6e-7,8.035443 z"
         transform="matrix(-1.1,0,0,-1.1,-1.1,0)"
         inkscape:connector-curvature="0" />
    </marker>
    <clipPath
       id="clipPath3001"
       clipPathUnits="userSpaceOnUse">
      <path
         id="path3003"
         d="m 0,4778 9580,0 L 9580,18 0,18 0,4778 z"
         inkscape:connector-curvature="0" />
    </clipPath>
    <marker
       inkscape:stockid="Arrow1Mend"
       orient="auto"
       refY="0"
       refX="0"
       id="Arrow1Mend-0"
       style="overflow:visible">
      <path
         inkscape:connector-curvature="0"
         id="path4001-1"
         d="M 0,0 5,-5 -12.5,0 5,5 0,0 z"
         style="fill-rule:evenodd;stroke:#000000;stroke-width:1pt"
         transform="matrix(-0.4,0,0,-0.4,-4,0)" />
    </marker>
    <marker
       inkscape:stockid="Arrow1Mend"
       orient="auto"
       refY="0"
       refX="0"
       id="Arrow1Mend-1"
       style="overflow:visible">
      <path
         inkscape:connector-curvature="0"
         id="path4001-8"
         d="M 0,0 5,-5 -12.5,0 5,5 0,0 z"
         style="fill-rule:evenodd;stroke:#000000;stroke-width:1pt"
         transform="matrix(-0.4,0,0,-0.4,-4,0)" />
    </marker>
    <marker
       inkscape:stockid="Arrow1Mend"
       orient="auto"
       refY="0"
       refX="0"
       id="Arrow1Mend-9"
       style="overflow:visible">
      <path
         inkscape:connector-curvature="0"
         id="path4001-5"
         d="M 0,0 5,-5 -12.5,0 5,5 0,0 z"
         style="fill-rule:evenodd;stroke:#000000;stroke-width:1pt"
         transform="matrix(-0.4,0,0,-0.4,-4,0)" />
    </marker>
    <clipPath
       id="clipPath3034"
       clipPathUnits="userSpaceOnUse">
      <path
         id="path3036"
         d="m 0,8242 5320,0 L 5320,12 0,12 0,8242 z"
         inkscape:connector-curvature="0" />
    </clipPath>
    <clipPath
       id="clipPath3083"
       clipPathUnits="userSpaceOnUse">
      <path
         id="path3085"
         d="m 0,8242 5320,0 L 5320,12 0,12 0,8242 z"
         inkscape:connector-curvature="0" />
    </clipPath>
    <clipPath
       id="clipPath3085"
       clipPathUnits="userSpaceOnUse">
      <path
         id="path3087"
         d="m 0,1642 2510,0 L 2510,12 0,12 0,1642 z"
         inkscape:connector-curvature="0" />
    </clipPath>
    <clipPath
       id="clipPath3059"
       clipPathUnits="userSpaceOnUse">
      <path
         id="path3061"
         d="m 0,2346 3680,0 L 3680,16 0,16 0,2346 z"
         inkscape:connector-curvature="0" />
    </clipPath>
    <clipPath
       id="clipPath3043"
       clipPathUnits="userSpaceOnUse">
      <path
         id="path3045"
         d="m 0,16 3679.92,0 0,2330 L 0,2346 0,16 z"
         inkscape:connector-curvature="0" />
    </clipPath>
    <clipPath
       id="clipPath3033"
       clipPathUnits="userSpaceOnUse">
      <path
         id="path3035"
         d="m 0,2346 3680,0 L 3680,16 0,16 0,2346 z"
         inkscape:connector-curvature="0" />
    </clipPath>
  </defs>
  <sodipodi:namedview
     id="base"
     pagecolor="#ffffff"
     bordercolor="#666666"
     borderopacity="1.0"
     inkscape:pageopacity="0.0"
     inkscape:pageshadow="2"
     inkscape:zoom="0.7"
     inkscape:cx="215.72172"
     inkscape:cy="170.8033"
     inkscape:document-units="px"
     inkscape:current-layer="layer1"
     showgrid="false"
     fit-margin-top="0"
     fit-margin-left="0"
     fit-margin-right="0"
     fit-margin-bottom="0"
     inkscape:window-width="1280"
     inkscape:window-height="1000"
     inkscape:window-x="1440"
     inkscape:window-y="24"
     inkscape:window-maximized="1" />
  <metadata
     id="metadata7">
    <rdf:RDF>
      <cc:Work
         rdf:about="">
        <dc:format>image/svg+xml</dc:format>
        <dc:type
           rdf:resource="http://purl.org/dc/dcmitype/StillImage" />
        <dc:title />
      </cc:Work>
    </rdf:RDF>
  </metadata>
  <g
     inkscape:label="Calque 1"
     inkscape:groupmode="layer"
     id="layer1"
     transform="translate(-78.836526,-329.37683)">
    <g
       id="g3039"
       transform="matrix(0.125,0,0,-0.125,66.834826,610.625)">
      <g
         clip-path="url(#clipPath3043)"
         id="g3041">
        <path
           id="path3047"
           style="fill:#ffffff;fill-opacity:1;fill-rule:nonzero;stroke:none"
           d="m 106.68,1941.35 1461.29,0 0,297.969 -1461.29,0 0,-297.969 z"
           inkscape:connector-curvature="0" />
        <path
           id="path3049"
           style="fill:none;stroke:#000000;stroke-width:21.33279991;stroke-linecap:square;stroke-linejoin:miter;stroke-miterlimit:10;stroke-opacity:1;stroke-dasharray:none"
           d="m 106.68,1941.35 1461.29,0 0,297.969 -1461.29,0 0,-297.969 z"
           inkscape:connector-curvature="0" />
        <path
           id="path3051"
           style="fill:#ffffff;fill-opacity:1;fill-rule:nonzero;stroke:none"
           d="m 106.68,111.898 3466.56,0 0,1829.45 -3466.56,0 0,-1829.45 z"
           inkscape:connector-curvature="0" />
        <path
           id="path3053"
           style="fill:none;stroke:#000000;stroke-width:21.33279991;stroke-linecap:square;stroke-linejoin:miter;stroke-miterlimit:10;stroke-opacity:1;stroke-dasharray:none"
           d="m 106.68,111.898 3466.56,0 0,1829.45 -3466.56,0 0,-1829.45 z"
           inkscape:connector-curvature="0" />
      </g>
    </g>
    <g
       id="g3057"
       clip-path="url(#clipPath3059)"
       transform="matrix(0.125,0,0,-0.125,66.834826,610.625)">
      <path
         inkscape:connector-curvature="0"
         d="m 306.949,2174.36 -64.488,-22.97 64.488,-22.69 0,-11.49 -80.148,29.18 0,10.31 80.148,29.03 0,-11.37 z m 107.27,0 -64.489,-22.97 64.489,-22.69 0,-11.49 -80.16,29.18 0,10.31 80.16,29.03 0,-11.37 z m 52.73,-0.98 c -6.09,0 -10.969,-2.42 -14.57,-7.26 -3.629,-4.85 -5.43,-11.41 -5.43,-19.73 0,-8.48 1.801,-15.08 5.352,-19.84 3.558,-4.77 8.437,-7.19 14.648,-7.19 6.141,0 10.981,2.42 14.61,7.26 3.601,4.85 5.39,11.41 5.39,19.77 0,8.2 -1.789,14.77 -5.39,19.65 -3.629,4.88 -8.469,7.34 -14.61,7.34 z m 0,9.65 c 10,0 17.852,-3.24 23.602,-9.73 5.699,-6.52 8.59,-15.46 8.59,-26.91 0,-11.44 -2.891,-20.47 -8.59,-27.03 -5.75,-6.52 -13.602,-9.81 -23.602,-9.81 -10,0 -17.847,3.29 -23.551,9.81 -5.738,6.56 -8.597,15.59 -8.597,27.03 0,11.45 2.859,20.39 8.597,26.91 5.704,6.49 13.551,9.73 23.551,9.73 z m 91.84,-12.3 c -1.367,0.66 -2.769,1.17 -4.258,1.56 -1.519,0.39 -3.203,0.59 -5.082,0.59 -6.437,0 -11.437,-2.11 -14.918,-6.33 -3.511,-4.22 -5.269,-10.35 -5.269,-18.32 l 0,-36.84 -11.492,0 0,70 11.492,0 0,-10.86 c 2.457,4.22 5.617,7.38 9.527,9.42 3.871,2.07 8.59,3.08 14.141,3.08 0.781,0 1.64,-0.04 2.582,-0.15 0.968,-0.12 1.988,-0.28 3.078,-0.51 l 0.199,-11.64 z m 58.121,-23.52 c 0,8.32 -1.75,14.77 -5.191,19.34 -3.438,4.53 -8.278,6.83 -14.489,6.83 -6.101,0 -10.902,-2.3 -14.339,-6.83 -3.442,-4.57 -5.161,-11.02 -5.161,-19.34 0,-8.32 1.719,-14.76 5.161,-19.33 3.437,-4.58 8.238,-6.84 14.339,-6.84 6.211,0 11.051,2.26 14.489,6.84 3.441,4.57 5.191,11.01 5.191,19.33 z m 11.488,-27.19 c 0,-11.87 -2.66,-20.74 -7.929,-26.56 -5.27,-5.82 -13.399,-8.75 -24.418,-8.75 -3.981,0 -7.813,0.31 -11.403,0.9 -3.597,0.62 -7.07,1.56 -10.429,2.77 l 0,11.17 c 3.359,-1.79 6.679,-3.12 10,-4.02 3.359,-0.86 6.679,-1.33 10,-1.33 7.582,0 13.242,2 16.992,5.94 3.789,3.95 5.699,9.88 5.699,17.89 l 0,5.67 c -2.461,-4.11 -5.5,-7.19 -9.18,-9.22 -3.671,-2.07 -8.121,-3.09 -13.32,-3.09 -8.551,0 -15.5,3.28 -20.781,9.81 -5.27,6.56 -7.891,15.23 -7.891,26.01 0,10.78 2.621,19.45 7.891,26.02 5.281,6.52 12.23,9.8 20.781,9.8 5.199,0 9.649,-1.01 13.32,-3.08 3.68,-2.04 6.719,-5.12 9.18,-9.22 l 0,10.66 11.488,0 0,-61.37 z m 55.43,26.53 c -9.258,0 -15.668,-1.06 -19.258,-3.17 -3.629,-2.11 -5.429,-5.74 -5.429,-10.86 0,-4.1 1.371,-7.34 4.097,-9.72 2.703,-2.39 6.332,-3.6 10.903,-3.6 6.449,0 11.597,2.27 15.429,6.76 3.828,4.49 5.739,10.51 5.739,18.09 l 0,2.5 -11.481,0 z m 22.973,4.84 0,-40 -11.492,0 0,10.66 c -2.649,-4.21 -5.93,-7.38 -9.84,-9.41 -3.867,-2.07 -8.668,-3.09 -14.34,-3.09 -7.219,0 -12.93,2.04 -17.149,6.06 -4.21,4.06 -6.32,9.41 -6.32,16.09 0,7.89 2.61,13.83 7.891,17.85 5.269,3.99 13.16,5.98 23.59,5.98 l 16.168,0 0,1.17 c 0,5.35 -1.758,9.46 -5.231,12.35 -3.519,2.89 -8.359,4.33 -14.609,4.33 -3.989,0 -7.891,-0.5 -11.758,-1.52 -3.832,-0.98 -7.461,-2.42 -10.902,-4.34 l 0,10.71 c 4.222,1.64 8.32,2.85 12.269,3.63 3.942,0.78 7.774,1.17 11.563,1.17 10.121,0 17.66,-2.62 22.66,-7.81 5,-5.24 7.5,-13.17 7.5,-23.83 z m 81.949,2.31 0,-42.31 -11.52,0 0,41.84 c 0,6.64 -1.289,11.6 -3.91,14.88 -2.621,3.28 -6.441,4.92 -11.558,4.92 -6.25,0 -11.141,-1.95 -14.774,-5.9 -3.59,-3.94 -5.429,-9.37 -5.429,-16.25 l 0,-39.49 -11.481,0 0,70 11.481,0 0,-10.86 c 2.82,4.22 6.062,7.38 9.769,9.42 3.711,2.07 8.051,3.08 12.934,3.08 7.968,0 14.058,-2.46 18.238,-7.42 4.18,-4.92 6.25,-12.23 6.25,-21.91 z m 22.77,27.69 11.531,0 0,-70 -11.531,0 0,70 z m 0,27.31 11.531,0 0,-14.65 -11.531,0 0,14.65 z m 30.589,-27.31 54.653,0 0,-10.51 -43.172,-50.35 43.172,0 0,-9.14 -56.172,0 0,10.47 43.359,50.35 -41.84,0 0,9.18 z m 104.02,-34.84 c -9.25,0 -15.66,-1.06 -19.25,-3.17 -3.641,-2.11 -5.43,-5.74 -5.43,-10.86 0,-4.1 1.36,-7.34 4.102,-9.72 2.687,-2.39 6.328,-3.6 10.898,-3.6 6.442,0 11.602,2.27 15.43,6.76 3.82,4.49 5.742,10.51 5.742,18.09 l 0,2.5 -11.492,0 z m 22.973,4.84 0,-40 -11.481,0 0,10.66 c -2.66,-4.21 -5.941,-7.38 -9.851,-9.41 -3.86,-2.07 -8.668,-3.09 -14.329,-3.09 -7.23,0 -12.929,2.04 -17.152,6.06 -4.219,4.06 -6.328,9.41 -6.328,16.09 0,7.89 2.617,13.83 7.891,17.85 5.308,3.99 13.168,5.98 23.597,5.98 l 16.172,0 0,1.17 c 0,5.35 -1.762,9.46 -5.242,12.35 -3.508,2.89 -8.359,4.33 -14.609,4.33 -3.981,0 -7.891,-0.5 -11.75,-1.52 -3.829,-0.98 -7.469,-2.42 -10.899,-4.34 l 0,10.71 c 4.219,1.64 8.32,2.85 12.258,3.63 3.949,0.78 7.781,1.17 11.57,1.17 10.11,0 17.653,-2.62 22.653,-7.81 5,-5.24 7.5,-13.17 7.5,-23.83 z m 35.118,49.81 0,-19.81 23.67,0 0,-9.02 -23.67,0 0,-38.01 c 0,-5.66 0.78,-9.3 2.34,-10.9 1.56,-1.6 4.73,-2.42 9.49,-2.42 l 11.84,0 0,-9.65 -11.84,0 c -8.9,0 -15.03,1.64 -18.429,5 -3.359,3.32 -5.082,9.34 -5.082,17.97 l 0,38.01 -8.32,0 0,9.02 8.32,0 0,19.81 11.681,0 z m 38.67,-19.81 11.52,0 0,-70 -11.52,0 0,70 z m 0,27.31 11.52,0 0,-14.65 -11.52,0 0,14.65 z m 62.73,-35.32 c -6.09,0 -10.97,-2.42 -14.57,-7.26 -3.63,-4.85 -5.43,-11.41 -5.43,-19.73 0,-8.48 1.8,-15.08 5.36,-19.84 3.55,-4.77 8.43,-7.19 14.64,-7.19 6.14,0 10.98,2.42 14.61,7.26 3.6,4.85 5.39,11.41 5.39,19.77 0,8.2 -1.79,14.77 -5.39,19.65 -3.63,4.88 -8.47,7.34 -14.61,7.34 z m 0,9.65 c 10,0 17.86,-3.24 23.6,-9.73 5.7,-6.52 8.59,-15.46 8.59,-26.91 0,-11.44 -2.89,-20.47 -8.59,-27.03 -5.74,-6.52 -13.6,-9.81 -23.6,-9.81 -10,0 -17.85,3.29 -23.55,9.81 -5.74,6.56 -8.59,15.59 -8.59,27.03 0,11.45 2.85,20.39 8.59,26.91 5.7,6.49 13.55,9.73 23.55,9.73 z m 109.5,-29.33 0,-42.31 -11.53,0 0,41.84 c 0,6.64 -1.29,11.6 -3.9,14.88 -2.62,3.28 -6.49,4.92 -11.57,4.92 -6.24,0 -11.17,-1.95 -14.76,-5.9 -3.59,-3.94 -5.43,-9.37 -5.43,-16.25 l 0,-39.49 -11.48,0 0,70 11.48,0 0,-10.86 c 2.77,4.22 6.05,7.38 9.77,9.42 3.71,2.07 8,3.08 12.92,3.08 7.97,0 14.07,-2.46 18.25,-7.42 4.14,-4.92 6.25,-12.23 6.25,-21.91 z m 24.29,20.66 0,11.37 80.16,-29.03 0,-10.31 -80.16,-29.18 0,11.49 64.5,22.69 -64.5,22.97 z m 107.23,0 0,11.37 80.16,-29.03 0,-10.31 -80.16,-29.18 0,11.49 64.49,22.69 -64.49,22.97 z"
         style="fill:#000000;fill-opacity:1;fill-rule:nonzero;stroke:none"
         id="path3063" />
      <path
         inkscape:connector-curvature="0"
         d="m 507.301,2055.73 85.98,0 0,-18.17 -30.98,0 0,-75.19 -24.02,0 0,75.19 -30.98,0 0,18.17 z m 149.461,-42.35 c -1.992,0.9 -3.953,1.57 -5.903,2 -1.949,0.42 -3.91,0.66 -5.937,0.66 -5.66,0 -10.043,-1.88 -13.16,-5.59 -3.09,-3.71 -4.653,-8.94 -4.653,-15.74 l 0,-32.34 -22.339,0 0,70 22.339,0 0,-11.49 c 2.891,4.53 6.172,7.89 9.922,10 3.707,2.11 8.168,3.17 13.399,3.17 0.66,0 1.449,-0.04 2.34,-0.08 0.902,-0.08 2.152,-0.2 3.832,-0.43 l 0.16,-20.16 z m 11.129,18.99 22.339,0 0,-70 -22.339,0 0,70 z m 0,27.34 22.339,0 0,-18.32 -22.339,0 0,18.32 z m 66.211,-87.15 0,-36.83 -22.34,0 0,96.64 22.34,0 0,-10.16 c 3.128,3.99 6.519,6.95 10.238,8.91 3.75,1.95 8.039,2.93 12.93,2.93 8.671,0 15.742,-3.44 21.25,-10.24 5.5,-6.83 8.242,-15.66 8.242,-26.44 0,-10.78 -2.742,-19.61 -8.242,-26.49 -5.508,-6.87 -12.579,-10.35 -21.25,-10.35 -4.891,0 -9.18,0.98 -12.93,2.93 -3.719,1.95 -7.11,4.96 -10.238,9.1 z m 14.847,45.32 c -4.808,0 -8.437,-1.76 -11.019,-5.32 -2.539,-3.55 -3.828,-8.63 -3.828,-15.19 0,-6.64 1.289,-11.72 3.828,-15.24 2.582,-3.51 6.211,-5.23 11.019,-5.23 4.762,0 8.43,1.72 10.973,5.23 2.578,3.52 3.828,8.6 3.828,15.24 0,6.68 -1.25,11.75 -3.828,15.27 -2.543,3.48 -6.211,5.24 -10.973,5.24 z m 121.321,-45.32 0,-36.83 -22.301,0 0,96.64 22.301,0 0,-10.16 c 3.128,3.99 6.531,6.95 10.281,8.91 3.711,1.95 8,2.93 12.89,2.93 8.668,0 15.778,-3.44 21.25,-10.24 5.508,-6.83 8.278,-15.66 8.278,-26.44 0,-10.78 -2.77,-19.61 -8.278,-26.49 -5.472,-6.87 -12.582,-10.35 -21.25,-10.35 -4.89,0 -9.179,0.98 -12.89,2.93 -3.75,1.95 -7.153,4.96 -10.281,9.1 z m 14.851,45.32 c -4.769,0 -8.441,-1.76 -11.019,-5.32 -2.543,-3.55 -3.832,-8.63 -3.832,-15.19 0,-6.64 1.289,-11.72 3.832,-15.24 2.578,-3.51 6.25,-5.23 11.019,-5.23 4.758,0 8.43,1.72 11.008,5.23 2.543,3.52 3.832,8.6 3.832,15.24 0,6.68 -1.289,11.75 -3.832,15.27 -2.578,3.48 -6.25,5.24 -11.008,5.24 z m 87.609,0.15 c -4.878,0 -8.628,-1.76 -11.25,-5.31 -2.609,-3.56 -3.902,-8.67 -3.902,-15.35 0,-6.76 1.293,-11.92 3.902,-15.51 2.622,-3.56 6.372,-5.31 11.25,-5.31 4.891,0 8.641,1.75 11.25,5.31 2.622,3.59 3.911,8.75 3.911,15.51 0,6.68 -1.289,11.79 -3.911,15.35 -2.609,3.55 -6.359,5.31 -11.25,5.31 z m 0,16.02 c 12.11,0 21.571,-3.25 28.32,-9.77 6.8,-6.48 10.2,-15.47 10.2,-26.91 0,-11.57 -3.4,-20.59 -10.2,-27.07 -6.749,-6.49 -16.21,-9.77 -28.32,-9.77 -11.992,0 -21.402,3.28 -28.242,9.77 -6.828,6.48 -10.226,15.5 -10.226,27.07 0,11.44 3.398,20.43 10.226,26.91 6.84,6.52 16.25,9.77 28.242,9.77 z m 87.93,-16.02 c -4.88,0 -8.63,-1.76 -11.25,-5.31 -2.61,-3.56 -3.9,-8.67 -3.9,-15.35 0,-6.76 1.29,-11.92 3.9,-15.51 2.62,-3.56 6.37,-5.31 11.25,-5.31 4.89,0 8.64,1.75 11.25,5.31 2.62,3.59 3.95,8.75 3.95,15.51 0,6.68 -1.33,11.79 -3.95,15.35 -2.61,3.55 -6.36,5.31 -11.25,5.31 z m 0,16.02 c 12.11,0 21.57,-3.25 28.36,-9.77 6.76,-6.48 10.16,-15.47 10.16,-26.91 0,-11.57 -3.4,-20.59 -10.16,-27.07 -6.79,-6.49 -16.25,-9.77 -28.36,-9.77 -11.99,0 -21.4,3.28 -28.24,9.77 -6.83,6.48 -10.23,15.5 -10.23,27.07 0,11.44 3.4,20.43 10.23,26.91 6.84,6.52 16.25,9.77 28.24,9.77 z m 54.77,25.66 22.34,0 0,-97.34 -22.34,0 0,97.34 z"
         style="fill:#000000;fill-opacity:1;fill-rule:nonzero;stroke:none"
         id="path3065" />
      <path
         inkscape:connector-curvature="0"
         d="m 746.641,1317.21 895.98,0 0,383.359 -895.98,0 0,-383.359 z"
         style="fill:#ffffff;fill-opacity:1;fill-rule:nonzero;stroke:none"
         id="path3067" />
      <path
         inkscape:connector-curvature="0"
         d="m 746.641,1317.21 895.98,0 0,383.359 -895.98,0 0,-383.359 z"
         style="fill:none;stroke:#000000;stroke-width:21.33279991;stroke-linecap:square;stroke-linejoin:miter;stroke-miterlimit:10;stroke-opacity:1;stroke-dasharray:none"
         id="path3069" />
      <path
         inkscape:connector-curvature="0"
         d="m 946.949,1592.88 -64.488,-22.97 64.488,-22.7 0,-11.48 -80.148,29.18 0,10.31 80.148,29.02 0,-11.36 z m 107.231,0 -64.489,-22.97 64.489,-22.7 0,-11.48 -80.16,29.18 0,10.31 80.16,29.02 0,-11.36 z m 66.25,-3.68 c -1.33,0.71 -2.73,1.21 -4.22,1.6 -1.52,0.4 -3.2,0.59 -5.12,0.59 -6.4,0 -11.4,-2.11 -14.88,-6.33 -3.51,-4.22 -5.27,-10.35 -5.27,-18.32 l 0,-36.83 -11.49,0 0,70 11.49,0 0,-10.86 c 2.46,4.22 5.62,7.38 9.49,9.41 3.91,2.07 8.63,3.09 14.18,3.09 0.78,0 1.64,-0.04 2.58,-0.16 0.93,-0.12 1.99,-0.27 3.08,-0.51 l 0.16,-11.68 z m 39.14,2.7 c -6.09,0 -10.98,-2.42 -14.57,-7.27 -3.63,-4.84 -5.43,-11.4 -5.43,-19.72 0,-8.48 1.76,-15.08 5.35,-19.85 3.56,-4.76 8.44,-7.18 14.65,-7.18 6.09,0 10.98,2.42 14.57,7.26 3.63,4.84 5.43,11.41 5.43,19.77 0,8.2 -1.8,14.76 -5.43,19.64 -3.59,4.89 -8.48,7.35 -14.57,7.35 z m 0,9.65 c 10,0 17.85,-3.25 23.59,-9.73 5.71,-6.52 8.56,-15.47 8.56,-26.91 0,-11.45 -2.85,-20.47 -8.56,-27.03 -5.74,-6.53 -13.59,-9.81 -23.59,-9.81 -10,0 -17.85,3.28 -23.59,9.81 -5.71,6.56 -8.56,15.58 -8.56,27.03 0,11.44 2.85,20.39 8.56,26.91 5.74,6.48 13.59,9.73 23.59,9.73 z m 51.13,25.66 11.53,0 0,-97.3 -11.53,0 0,97.3 z m 95.59,-59.49 0,-5.51 -53.01,0 c 0.55,-7.97 2.97,-14.06 7.23,-18.16 4.29,-4.1 10.19,-6.17 17.77,-6.17 4.45,0 8.75,0.54 12.93,1.6 4.14,1.05 8.28,2.69 12.38,4.92 l 0,-11.02 c -4.21,-1.64 -8.47,-2.97 -12.81,-3.9 -4.33,-0.94 -8.71,-1.41 -13.16,-1.41 -11.14,0 -19.96,3.24 -26.53,9.73 -6.52,6.52 -9.8,15.31 -9.8,26.44 0,11.41 3.09,20.51 9.33,27.23 6.22,6.72 14.54,10.08 25,10.08 9.42,0 16.92,-3.01 22.39,-9.07 5.51,-6.05 8.28,-14.33 8.28,-24.76 z m -11.52,3.51 c -0.12,6.22 -1.88,11.22 -5.32,15 -3.43,3.75 -8,5.67 -13.67,5.67 -6.44,0 -11.6,-1.84 -15.43,-5.51 -3.83,-3.67 -6.01,-8.79 -6.56,-15.35 l 40.98,0.19 z m 31.75,21.65 0,11.36 80.16,-29.02 0,-10.31 -80.16,-29.18 0,11.48 64.5,22.7 -64.5,22.97 z m 107.27,0 0,11.36 80.16,-29.02 0,-10.31 -80.16,-29.18 0,11.48 64.49,22.7 -64.49,22.97 z"
         style="fill:#000000;fill-opacity:1;fill-rule:nonzero;stroke:none"
         id="path3071" />
      <path
         inkscape:connector-curvature="0"
         d="m 1006.45,1456.08 0,-57.03 8.67,0 c 9.76,0 17.26,2.46 22.5,7.34 5.23,4.88 7.81,11.99 7.81,21.33 0,9.22 -2.58,16.25 -7.73,21.09 -5.16,4.85 -12.7,7.27 -22.58,7.27 l -8.67,0 z m -23.989,18.16 25.309,0 c 14.11,0 24.65,-1.01 31.61,-3.01 6.95,-1.99 12.89,-5.46 17.89,-10.35 4.33,-4.22 7.57,-9.06 9.68,-14.57 2.11,-5.51 3.17,-11.68 3.17,-18.59 0,-7.11 -1.06,-13.4 -3.17,-18.91 -2.11,-5.51 -5.35,-10.35 -9.68,-14.57 -5,-4.92 -10.98,-8.36 -17.97,-10.35 -7.03,-1.99 -17.5,-3.01 -31.53,-3.01 l -25.309,0 0,93.36 z m 157.229,-42.34 c -1.99,0.9 -3.95,1.56 -5.9,1.99 -1.95,0.43 -3.95,0.66 -5.94,0.66 -5.66,0 -10.04,-1.87 -13.16,-5.58 -3.09,-3.71 -4.65,-8.95 -4.65,-15.74 l 0,-32.35 -22.34,0 0,70 22.34,0 0,-11.48 c 2.89,4.53 6.17,7.89 9.92,10 3.71,2.11 8.16,3.16 13.4,3.16 0.66,0 1.44,-0.04 2.34,-0.08 0.9,-0.07 2.15,-0.19 3.83,-0.43 l 0.16,-20.15 z m 11.13,18.98 22.34,0 0,-70 -22.34,0 0,70 z m 0,27.35 22.34,0 0,-18.32 -22.34,0 0,18.32 z m 35.04,-27.35 22.34,0 17.5,-48.32 17.31,48.32 22.34,0 -27.5,-70 -24.49,0 -27.5,70 z m 162.11,-34.8 0,-6.37 -52.35,0 c 0.55,-5.19 2.47,-9.14 5.67,-11.83 3.24,-2.66 7.77,-3.99 13.67,-3.99 4.65,0 9.49,0.74 14.42,2.19 4.96,1.44 10.03,3.55 15.23,6.33 l 0,-17.19 c -5.31,-1.99 -10.63,-3.52 -15.9,-4.57 -5.27,-1.06 -10.59,-1.6 -15.9,-1.6 -12.69,0 -22.5,3.24 -29.53,9.68 -6.99,6.45 -10.47,15.51 -10.47,27.15 0,11.33 3.44,20.28 10.31,26.84 6.88,6.56 16.41,9.84 28.52,9.84 10.98,0 19.81,-3.32 26.41,-9.92 6.6,-6.6 9.92,-15.47 9.92,-26.56 z m -23.01,7.5 c 0,4.22 -1.25,7.62 -3.75,10.23 -2.5,2.62 -5.74,3.91 -9.76,3.91 -4.34,0 -7.86,-1.21 -10.59,-3.67 -2.7,-2.43 -4.41,-5.94 -5.08,-10.47 l 29.18,0 z m 91.99,8.32 c -2.03,0.9 -3.98,1.56 -5.93,1.99 -1.96,0.43 -3.91,0.66 -5.9,0.66 -5.67,0 -10.08,-1.87 -13.17,-5.58 -3.12,-3.71 -4.68,-8.95 -4.68,-15.74 l 0,-32.35 -22.35,0 0,70 22.35,0 0,-11.48 c 2.89,4.53 6.21,7.89 9.92,10 3.71,2.11 8.2,3.16 13.4,3.16 0.7,0 1.44,-0.04 2.34,-0.08 0.9,-0.07 2.19,-0.19 3.83,-0.43 l 0.19,-20.15 z"
         style="fill:#000000;fill-opacity:1;fill-rule:nonzero;stroke:none"
         id="path3073" />
      <path
         inkscape:connector-curvature="0"
         d="m 2389.26,1317.21 1023.95,0 0,383.359 -1023.95,0 0,-383.359 z"
         style="fill:#ffffff;fill-opacity:1;fill-rule:nonzero;stroke:none"
         id="path3075" />
      <path
         inkscape:connector-curvature="0"
         d="m 2389.26,1317.21 1023.95,0 0,383.359 -1023.95,0 0,-383.359 z"
         style="fill:none;stroke:#000000;stroke-width:21.33279991;stroke-linecap:square;stroke-linejoin:miter;stroke-miterlimit:10;stroke-opacity:1;stroke-dasharray:none"
         id="path3077" />
      <path
         inkscape:connector-curvature="0"
         d="m 2653.55,1592.88 -64.49,-22.97 64.49,-22.7 0,-11.48 -80.15,29.18 0,10.31 80.15,29.02 0,-11.36 z m 107.27,0 -64.49,-22.97 64.49,-22.7 0,-11.48 -80.16,29.18 0,10.31 80.16,29.02 0,-11.36 z m 66.25,-3.68 c -1.33,0.71 -2.73,1.21 -4.26,1.6 -1.48,0.4 -3.2,0.59 -5.08,0.59 -6.44,0 -11.4,-2.11 -14.92,-6.33 -3.47,-4.22 -5.23,-10.35 -5.23,-18.32 l 0,-36.83 -11.53,0 0,70 11.53,0 0,-10.86 c 2.42,4.22 5.58,7.38 9.49,9.41 3.91,2.07 8.59,3.09 14.18,3.09 0.78,0 1.64,-0.04 2.58,-0.16 0.94,-0.12 1.95,-0.27 3.08,-0.51 l 0.16,-11.68 z m 39.14,2.7 c -6.13,0 -10.98,-2.42 -14.61,-7.27 -3.59,-4.84 -5.39,-11.4 -5.39,-19.72 0,-8.48 1.76,-15.08 5.31,-19.85 3.56,-4.76 8.44,-7.18 14.69,-7.18 6.09,0 10.94,2.42 14.57,7.26 3.6,4.84 5.43,11.41 5.43,19.77 0,8.2 -1.83,14.76 -5.43,19.64 -3.63,4.89 -8.48,7.35 -14.57,7.35 z m 0,9.65 c 10,0 17.85,-3.25 23.56,-9.73 5.74,-6.52 8.59,-15.47 8.59,-26.91 0,-11.45 -2.85,-20.47 -8.59,-27.03 -5.71,-6.53 -13.56,-9.81 -23.56,-9.81 -10,0 -17.89,3.28 -23.59,9.81 -5.74,6.56 -8.6,15.58 -8.6,27.03 0,11.44 2.86,20.39 8.6,26.91 5.7,6.48 13.59,9.73 23.59,9.73 z m 51.13,25.66 11.49,0 0,-97.3 -11.49,0 0,97.3 z m 95.55,-59.49 0,-5.51 -53.01,0 c 0.59,-7.97 3.01,-14.06 7.27,-18.16 4.3,-4.1 10.19,-6.17 17.73,-6.17 4.46,0 8.75,0.54 12.93,1.6 4.18,1.05 8.32,2.69 12.42,4.92 l 0,-11.02 c -4.21,-1.64 -8.51,-2.97 -12.85,-3.9 -4.33,-0.94 -8.71,-1.41 -13.16,-1.41 -11.1,0 -19.92,3.24 -26.49,9.73 -6.56,6.52 -9.84,15.31 -9.84,26.44 0,11.41 3.13,20.51 9.34,27.23 6.21,6.72 14.57,10.08 25,10.08 9.45,0 16.91,-3.01 22.42,-9.07 5.51,-6.05 8.24,-14.33 8.24,-24.76 z m -11.48,3.51 c -0.12,6.22 -1.92,11.22 -5.36,15 -3.43,3.75 -8,5.67 -13.67,5.67 -6.44,0 -11.56,-1.84 -15.39,-5.51 -3.83,-3.67 -6.05,-8.79 -6.6,-15.35 l 41.02,0.19 z m 31.75,21.65 0,11.36 80.16,-29.02 0,-10.31 -80.16,-29.18 0,11.48 64.5,22.7 -64.5,22.97 z m 107.23,0 0,11.36 80.16,-29.02 0,-10.31 -80.16,-29.18 0,11.48 64.49,22.7 -64.49,22.97 z"
         style="fill:#000000;fill-opacity:1;fill-rule:nonzero;stroke:none"
         id="path3079" />
      <path
         inkscape:connector-curvature="0"
         d="m 2507.73,1474.24 39.85,0 c 11.87,0 21.01,-2.65 27.34,-7.93 6.33,-5.27 9.49,-12.81 9.49,-22.58 0,-9.8 -3.16,-17.3 -9.49,-22.57 -6.33,-5.28 -15.47,-7.93 -27.34,-7.93 l -15.82,0 0,-32.35 -24.03,0 0,93.36 z m 24.03,-17.5 0,-26.01 13.32,0 c 4.65,0 8.28,1.13 10.82,3.39 2.58,2.31 3.83,5.51 3.83,9.61 0,4.22 -1.25,7.43 -3.83,9.65 -2.54,2.23 -6.17,3.36 -10.82,3.36 l -13.32,0 z m 100.12,-44.33 c -4.65,0 -8.17,-0.79 -10.59,-2.35 -2.38,-1.56 -3.56,-3.9 -3.56,-6.99 0,-2.89 0.98,-5.16 2.89,-6.76 1.96,-1.6 4.61,-2.42 7.93,-2.42 4.22,0 7.78,1.52 10.67,4.57 2.89,3.09 4.33,6.88 4.33,11.45 l 0,2.5 -11.67,0 z m 34.17,8.47 0,-40 -22.5,0 0,10.35 c -3,-4.21 -6.4,-7.3 -10.15,-9.25 -3.79,-1.96 -8.36,-2.93 -13.67,-2.93 -7.35,0 -13.25,2.11 -17.78,6.33 -4.49,4.25 -6.72,9.72 -6.72,16.52 0,8.2 2.82,14.26 8.48,18.08 5.67,3.83 14.49,5.75 26.52,5.75 l 13.32,0 0,1.68 c 0,3.55 -1.4,6.17 -4.25,7.81 -2.82,1.68 -7.19,2.5 -13.09,2.5 -4.76,0 -9.22,-0.47 -13.32,-1.41 -4.1,-0.93 -7.93,-2.42 -11.48,-4.41 l 0,17.15 c 4.76,1.13 9.57,1.99 14.41,2.57 4.8,0.63 9.61,0.94 14.41,0.94 12.66,0 21.8,-2.46 27.39,-7.42 5.62,-4.96 8.43,-13.01 8.43,-24.26 z m 75.55,27.85 0,-16.99 c -4.8,1.99 -9.41,3.48 -13.9,4.49 -4.54,0.98 -8.72,1.49 -12.62,1.49 -4.34,0 -7.5,-0.51 -9.57,-1.56 -2.07,-1.06 -3.09,-2.7 -3.09,-4.93 0,-1.79 0.78,-3.16 2.35,-4.1 1.56,-0.93 4.37,-1.68 8.47,-2.22 l 3.87,-0.51 c 11.52,-1.45 19.3,-3.83 23.24,-7.19 3.95,-3.32 5.9,-8.55 5.9,-15.66 0,-7.43 -2.73,-13.05 -8.24,-16.84 -5.51,-3.75 -13.71,-5.66 -24.57,-5.66 -4.69,0 -9.49,0.39 -14.42,1.09 -4.96,0.74 -10.04,1.8 -15.27,3.24 l 0,17 c 4.45,-2.11 9.02,-3.72 13.75,-4.81 4.73,-1.13 9.49,-1.68 14.26,-1.68 4.45,0 7.73,0.63 9.92,1.84 2.15,1.21 3.24,3.04 3.24,5.5 0,2 -0.74,3.48 -2.22,4.42 -1.53,0.94 -4.54,1.68 -9.11,2.23 l -3.98,0.5 c -9.92,1.25 -16.84,3.56 -20.86,6.92 -3.98,3.4 -5.98,8.55 -5.98,15.43 0,7.46 2.5,12.93 7.58,16.48 5.04,3.56 12.85,5.35 23.4,5.35 4.14,0 8.44,-0.31 13.01,-0.94 4.57,-0.58 9.49,-1.56 14.84,-2.89 z m 76.17,0 0,-16.99 c -4.76,1.99 -9.41,3.48 -13.9,4.49 -4.49,0.98 -8.71,1.49 -12.58,1.49 -4.34,0 -7.54,-0.51 -9.61,-1.56 -2.03,-1.06 -3.09,-2.7 -3.09,-4.93 0,-1.79 0.79,-3.16 2.35,-4.1 1.56,-0.93 4.41,-1.68 8.51,-2.22 l 3.83,-0.51 c 11.56,-1.45 19.3,-3.83 23.24,-7.19 3.95,-3.32 5.94,-8.55 5.94,-15.66 0,-7.43 -2.77,-13.05 -8.28,-16.84 -5.47,-3.75 -13.67,-5.66 -24.57,-5.66 -4.65,0 -9.45,0.39 -14.41,1.09 -4.97,0.74 -10.04,1.8 -15.24,3.24 l 0,17 c 4.42,-2.11 9.02,-3.72 13.75,-4.81 4.69,-1.13 9.45,-1.68 14.22,-1.68 4.45,0 7.77,0.63 9.92,1.84 2.19,1.21 3.24,3.04 3.24,5.5 0,2 -0.74,3.48 -2.22,4.42 -1.53,0.94 -4.53,1.68 -9.1,2.23 l -3.99,0.5 c -9.88,1.25 -16.83,3.56 -20.82,6.92 -4.02,3.4 -6.01,8.55 -6.01,15.43 0,7.46 2.53,12.93 7.57,16.48 5.08,3.56 12.86,5.35 23.44,5.35 4.1,0 8.44,-0.31 12.97,-0.94 4.57,-0.58 9.53,-1.56 14.84,-2.89 z m 91.37,-32.65 0,-6.37 -52.34,0 c 0.54,-5.19 2.46,-9.14 5.66,-11.83 3.24,-2.66 7.77,-3.99 13.67,-3.99 4.65,0 9.46,0.74 14.42,2.19 4.96,1.44 10.04,3.55 15.23,6.33 l 0,-17.19 c -5.31,-1.99 -10.62,-3.52 -15.9,-4.57 -5.27,-1.06 -10.58,-1.6 -15.93,-1.6 -12.66,0 -22.5,3.24 -29.5,9.68 -6.99,6.45 -10.47,15.51 -10.47,27.15 0,11.33 3.44,20.28 10.32,26.84 6.87,6.56 16.4,9.84 28.51,9.84 10.98,0 19.81,-3.32 26.41,-9.92 6.6,-6.6 9.92,-15.47 9.92,-26.56 z m -23.01,7.5 c 0,4.22 -1.25,7.62 -3.75,10.23 -2.5,2.62 -5.74,3.91 -9.76,3.91 -4.34,0 -7.85,-1.21 -10.59,-3.67 -2.69,-2.43 -4.41,-5.94 -5.08,-10.47 l 29.18,0 z m 110.32,0 0,-42.7 -22.5,0 0,32.7 c 0,5.97 -0.16,10.12 -0.43,12.38 -0.28,2.31 -0.75,3.99 -1.41,5.12 -0.9,1.4 -2.07,2.58 -3.59,3.4 -1.49,0.82 -3.21,1.25 -5.08,1.25 -4.65,0 -8.32,-1.8 -10.98,-5.43 -2.69,-3.6 -4.02,-8.56 -4.02,-14.92 l 0,-34.5 -22.35,0 0,70 22.35,0 0,-10.15 c 3.32,3.98 6.87,6.95 10.66,8.9 3.79,1.96 8.01,2.93 12.66,2.93 8.01,0 14.14,-2.46 18.36,-7.42 4.22,-4.96 6.33,-12.15 6.33,-21.56 z m 68.28,-30.86 c -3.01,-3.99 -6.37,-6.95 -10.08,-8.91 -3.71,-1.95 -8.05,-2.93 -12.93,-2.93 -8.56,0 -15.59,3.36 -21.17,10.08 -5.55,6.72 -8.32,15.31 -8.32,25.78 0,10.43 2.77,18.99 8.32,25.67 5.58,6.64 12.61,10 21.17,10 4.88,0 9.22,-0.98 12.93,-2.86 3.71,-1.87 7.07,-4.88 10.08,-8.98 l 0,10.31 22.5,0 0,-63 c 0,-11.22 -3.56,-19.81 -10.67,-25.75 -7.11,-5.93 -17.38,-8.9 -30.82,-8.9 -4.33,0 -8.55,0.35 -12.69,1.01 -4.1,0.67 -8.21,1.72 -12.31,3.17 l 0,17.3 c 3.87,-2.19 7.7,-3.87 11.49,-5 3.79,-1.09 7.57,-1.64 11.32,-1.64 7.35,0 12.7,1.6 16.1,4.81 3.4,3.24 5.08,8.24 5.08,15 l 0,4.84 z m -14.65,43.67 c -4.69,0 -8.28,-1.72 -10.86,-5.16 -2.54,-3.43 -3.83,-8.28 -3.83,-14.49 0,-6.44 1.25,-11.33 3.75,-14.61 2.5,-3.28 6.13,-4.92 10.94,-4.92 4.65,0 8.28,1.72 10.82,5.12 2.54,3.36 3.83,8.16 3.83,14.41 0,6.21 -1.29,11.06 -3.83,14.49 -2.54,3.44 -6.17,5.16 -10.82,5.16 z m 128.59,-20.31 0,-6.37 -52.3,0 c 0.54,-5.19 2.42,-9.14 5.66,-11.83 3.2,-2.66 7.77,-3.99 13.67,-3.99 4.65,0 9.46,0.74 14.42,2.19 4.92,1.44 10,3.55 15.23,6.33 l 0,-17.19 c -5.35,-1.99 -10.62,-3.52 -15.9,-4.57 -5.31,-1.06 -10.58,-1.6 -15.93,-1.6 -12.66,0 -22.5,3.24 -29.5,9.68 -6.99,6.45 -10.5,15.51 -10.5,27.15 0,11.33 3.43,20.28 10.35,26.84 6.87,6.56 16.36,9.84 28.47,9.84 11.02,0 19.81,-3.32 26.41,-9.92 6.64,-6.6 9.92,-15.47 9.92,-26.56 z m -22.97,7.5 c 0,4.22 -1.25,7.62 -3.75,10.23 -2.5,2.62 -5.78,3.91 -9.76,3.91 -4.34,0 -7.85,-1.21 -10.59,-3.67 -2.73,-2.43 -4.41,-5.94 -5.08,-10.47 l 29.18,0 z m 91.96,8.32 c -2,0.9 -3.99,1.56 -5.9,1.99 -1.96,0.43 -3.95,0.66 -5.94,0.66 -5.66,0 -10.04,-1.87 -13.16,-5.58 -3.09,-3.71 -4.65,-8.95 -4.65,-15.74 l 0,-32.35 -22.35,0 0,70 22.35,0 0,-11.48 c 2.89,4.53 6.17,7.89 9.92,10 3.71,2.11 8.16,3.16 13.4,3.16 0.66,0 1.44,-0.04 2.34,-0.08 0.9,-0.07 2.15,-0.19 3.83,-0.43 l 0.16,-20.15 z"
         style="fill:#000000;fill-opacity:1;fill-rule:nonzero;stroke:none"
         id="path3081" />
      <path
         inkscape:connector-curvature="0"
         d="m 309.301,271.941 1770.62,0 0,383.32 -1770.62,0 0,-383.32 z"
         style="fill:#ffffff;fill-opacity:1;fill-rule:nonzero;stroke:none"
         id="path3083" />
      <path
         inkscape:connector-curvature="0"
         d="m 309.301,271.941 1770.63,0 0,383.32 -1770.63,0 0,-383.32 z"
         style="fill:none;stroke:#000000;stroke-width:21.33279991;stroke-linecap:square;stroke-linejoin:miter;stroke-miterlimit:10;stroke-opacity:1;stroke-dasharray:none"
         id="path3085-9" />
      <path
         inkscape:connector-curvature="0"
         d="m 509.609,547.559 -64.488,-22.969 64.488,-22.692 0,-11.488 -80.16,29.18 0,10.32 80.16,29.02 0,-11.371 z m 107.27,0 -64.5,-22.969 64.5,-22.692 0,-11.488 -80.16,29.18 0,10.32 80.16,29.02 0,-11.371 z m 85.582,-25.149 0,-5.512 -53.012,0 c 0.551,-7.968 2.973,-14.019 7.27,-18.168 4.261,-4.101 10.191,-6.128 17.73,-6.128 4.461,0 8.75,0.507 12.93,1.558 4.141,1.059 8.281,2.699 12.422,4.93 l 0,-11.02 c -4.211,-1.64 -8.512,-2.968 -12.852,-3.91 -4.328,-0.93 -8.711,-1.398 -13.16,-1.398 -11.09,0 -19.961,3.238 -26.488,9.718 -6.563,6.532 -9.84,15.321 -9.84,26.45 0,11.449 3.129,20.511 9.34,27.23 6.211,6.719 14.527,10.07 25,10.07 9.449,0 16.91,-3 22.418,-9.058 5.472,-6.051 8.242,-14.293 8.242,-24.762 z m -11.52,3.512 c -0.082,6.207 -1.882,11.207 -5.32,15 -3.43,3.789 -8,5.668 -13.672,5.668 -6.437,0 -11.558,-1.84 -15.429,-5.508 -3.821,-3.672 -6.008,-8.793 -6.559,-15.312 l 40.98,0.152 z m 88.59,0.976 0,-42.308 -11.48,0 0,41.84 c 0,6.64 -1.332,11.64 -3.949,14.922 -2.582,3.238 -6.442,4.878 -11.563,4.878 -6.211,0 -11.129,-1.949 -14.769,-5.89 -3.59,-3.949 -5.391,-9.379 -5.391,-16.25 l 0,-39.5 -11.52,0 0,70 11.52,0 0,-10.86 c 2.781,4.219 6.019,7.391 9.73,9.418 3.75,2.071 8.051,3.082 12.93,3.082 8.012,0 14.102,-2.46 18.242,-7.421 4.18,-4.918 6.25,-12.219 6.25,-21.911 z m 14.649,27.692 12.148,0 21.832,-58.668 22,58.668 12.18,0 -26.36,-70 -15.671,0 -26.129,70 z m 83.91,0 11.48,0 0,-70 -11.48,0 0,70 z m 0,27.308 11.48,0 0,-14.648 -11.48,0 0,14.648 z m 76.211,-37.968 c -1.332,0.66 -2.742,1.172 -4.262,1.558 -1.488,0.391 -3.16,0.594 -5.078,0.594 -6.441,0 -11.41,-2.113 -14.922,-6.332 -3.48,-4.219 -5.238,-10.352 -5.238,-18.32 l 0,-36.84 -11.481,0 0,70 11.481,0 0,-10.86 c 2.469,4.219 5.629,7.391 9.5,9.418 3.898,2.071 8.629,3.082 14.179,3.082 0.782,0 1.641,-0.031 2.571,-0.148 0.937,-0.121 1.961,-0.281 3.09,-0.512 l 0.16,-11.64 z m 39.14,2.66 c -6.14,0 -10.98,-2.43 -14.613,-7.27 -3.598,-4.8 -5.387,-11.41 -5.387,-19.73 0,-8.43 1.758,-15.07 5.309,-19.84 3.551,-4.77 8.441,-7.148 14.691,-7.148 6.09,0 10.969,2.378 14.569,7.226 3.63,4.844 5.43,11.402 5.43,19.762 0,8.211 -1.8,14.769 -5.43,19.648 -3.6,4.883 -8.479,7.352 -14.569,7.352 z m 0,9.64 c 9.999,0 17.849,-3.242 23.549,-9.718 5.74,-6.532 8.6,-15.473 8.6,-26.922 0,-11.442 -2.86,-20.469 -8.6,-26.988 -5.7,-6.563 -13.55,-9.84 -23.549,-9.84 -10,0 -17.851,3.277 -23.601,9.84 -5.699,6.519 -8.59,15.546 -8.59,26.988 0,11.449 2.891,20.39 8.59,26.922 5.75,6.476 13.601,9.718 23.601,9.718 z m 109.449,-29.332 0,-42.308 -11.48,0 0,41.84 c 0,6.64 -1.29,11.64 -3.91,14.922 -2.62,3.238 -6.48,4.878 -11.6,4.878 -6.21,0 -11.13,-1.949 -14.73,-5.89 -3.63,-3.949 -5.43,-9.379 -5.43,-16.25 l 0,-39.5 -11.48,0 0,70 11.48,0 0,-10.86 c 2.78,4.219 6.02,7.391 9.77,9.418 3.71,2.071 8.01,3.082 12.89,3.082 8.01,0 14.1,-2.46 18.24,-7.421 4.18,-4.918 6.25,-12.219 6.25,-21.911 z m 77.31,14.184 c 2.89,5.227 6.32,9.059 10.31,11.477 4.02,2.461 8.75,3.671 14.18,3.671 7.34,0 12.97,-2.531 16.91,-7.648 3.95,-5.121 5.94,-12.352 5.94,-21.684 l 0,-42.308 -11.52,0 0,41.84 c 0,6.761 -1.18,11.761 -3.56,15 -2.42,3.199 -6.05,4.8 -10.94,4.8 -6.01,0 -10.7,-1.949 -14.18,-5.89 -3.43,-3.949 -5.15,-9.379 -5.15,-16.25 l 0,-39.5 -11.49,0 0,41.84 c 0,6.761 -1.21,11.761 -3.59,15 -2.38,3.199 -6.09,4.8 -11.09,4.8 -5.86,0 -10.55,-1.949 -13.99,-5.89 -3.44,-3.949 -5.15,-9.379 -5.15,-16.25 l 0,-39.5 -11.53,0 0,70 11.53,0 0,-10.86 c 2.65,4.219 5.82,7.391 9.49,9.418 3.67,2.071 8.01,3.082 13.01,3.082 5.07,0 9.41,-1.25 12.96,-3.82 3.56,-2.539 6.18,-6.328 7.86,-11.328 z m 130.19,-18.672 0,-5.512 -53.01,0 c 0.55,-7.968 2.97,-14.019 7.27,-18.168 4.26,-4.101 10.15,-6.128 17.73,-6.128 4.46,0 8.75,0.507 12.93,1.558 4.14,1.059 8.28,2.699 12.39,4.93 l 0,-11.02 c -4.22,-1.64 -8.48,-2.968 -12.82,-3.91 -4.33,-0.93 -8.71,-1.398 -13.16,-1.398 -11.13,0 -19.96,3.238 -26.52,9.718 -6.53,6.532 -9.81,15.321 -9.81,26.45 0,11.449 3.09,20.511 9.34,27.23 6.21,6.719 14.53,10.07 25,10.07 9.41,0 16.91,-3 22.38,-9.058 5.51,-6.051 8.28,-14.293 8.28,-24.762 z m -11.52,3.512 c -0.12,6.207 -1.88,11.207 -5.32,15 -3.43,3.789 -8,5.668 -13.67,5.668 -6.44,0 -11.6,-1.84 -15.43,-5.508 -3.83,-3.672 -6.01,-8.793 -6.56,-15.312 l 40.98,0.152 z m 88.59,0.976 0,-42.308 -11.48,0 0,41.84 c 0,6.64 -1.33,11.64 -3.95,14.922 -2.62,3.238 -6.44,4.878 -11.56,4.878 -6.25,0 -11.13,-1.949 -14.77,-5.89 -3.59,-3.949 -5.39,-9.379 -5.39,-16.25 l 0,-39.5 -11.52,0 0,70 11.52,0 0,-10.86 c 2.78,4.219 6.02,7.391 9.73,9.418 3.71,2.071 8.05,3.082 12.93,3.082 8.01,0 14.06,-2.46 18.24,-7.421 4.18,-4.918 6.25,-12.219 6.25,-21.911 z m 34.3,47.5 0,-19.808 23.67,0 0,-9.02 -23.67,0 0,-37.968 c 0,-5.704 0.78,-9.332 2.34,-10.942 1.52,-1.601 4.69,-2.422 9.49,-2.422 l 11.84,0 0,-9.648 -11.84,0 c -8.9,0 -15.04,1.64 -18.43,5 -3.36,3.32 -5.08,9.34 -5.08,18.012 l 0,37.968 -8.32,0 0,9.02 8.32,0 0,19.808 11.68,0 z M 1541.8,543.93 c -1.33,0.66 -2.78,1.172 -4.26,1.558 -1.49,0.391 -3.2,0.594 -5.08,0.594 -6.44,0 -11.41,-2.113 -14.92,-6.332 -3.52,-4.219 -5.24,-10.352 -5.24,-18.32 l 0,-36.84 -11.52,0 0,70 11.52,0 0,-10.86 c 2.43,4.219 5.59,7.391 9.5,9.418 3.86,2.071 8.59,3.082 14.14,3.082 0.78,0 1.64,-0.031 2.61,-0.148 0.94,-0.121 1.96,-0.281 3.09,-0.512 l 0.16,-11.64 z m 39.1,2.66 c -6.1,0 -10.98,-2.43 -14.57,-7.27 -3.6,-4.8 -5.43,-11.41 -5.43,-19.73 0,-8.43 1.8,-15.07 5.35,-19.84 3.55,-4.77 8.44,-7.148 14.65,-7.148 6.13,0 10.98,2.378 14.61,7.226 3.59,4.844 5.39,11.402 5.39,19.762 0,8.211 -1.8,14.769 -5.39,19.648 -3.63,4.883 -8.48,7.352 -14.61,7.352 z m 0,9.64 c 10,0 17.89,-3.242 23.59,-9.718 5.74,-6.532 8.6,-15.473 8.6,-26.922 0,-11.442 -2.86,-20.469 -8.6,-26.988 -5.7,-6.563 -13.59,-9.84 -23.59,-9.84 -10,0 -17.85,3.277 -23.56,9.84 -5.74,6.519 -8.59,15.546 -8.59,26.988 0,11.449 2.85,20.39 8.59,26.922 5.71,6.476 13.56,9.718 23.56,9.718 z m 51.17,25.668 11.48,0 0,-97.308 -11.48,0 0,97.308 z m 95.55,-59.488 0,-5.512 -53.01,0 c 0.55,-7.968 2.97,-14.019 7.27,-18.168 4.25,-4.101 10.19,-6.128 17.73,-6.128 4.45,0 8.75,0.507 12.93,1.558 4.18,1.059 8.32,2.699 12.42,4.93 l 0,-11.02 c -4.22,-1.64 -8.51,-2.968 -12.85,-3.91 -4.34,-0.93 -8.71,-1.398 -13.16,-1.398 -11.1,0 -19.93,3.238 -26.49,9.718 -6.56,6.532 -9.84,15.321 -9.84,26.45 0,11.449 3.12,20.511 9.33,27.23 6.21,6.719 14.57,10.07 25,10.07 9.46,0 16.92,-3 22.43,-9.058 5.5,-6.051 8.24,-14.293 8.24,-24.762 z m -11.49,3.512 c -0.11,6.207 -1.91,11.207 -5.35,15 -3.44,3.789 -8.01,5.668 -13.67,5.668 -6.45,0 -11.56,-1.84 -15.39,-5.508 -3.87,-3.672 -6.06,-8.793 -6.6,-15.312 l 41.01,0.152 z m 31.72,21.637 0,11.371 80.2,-29.02 0,-10.32 -80.2,-29.18 0,11.488 64.53,22.692 -64.53,22.969 z m 107.27,0 0,11.371 80.15,-29.02 0,-10.32 -80.15,-29.18 0,11.488 64.49,22.692 -64.49,22.969 z"
         style="fill:#000000;fill-opacity:1;fill-rule:nonzero;stroke:none"
         id="path3087-4" />
      <path
         inkscape:connector-curvature="0"
         d="m 1152.46,340.77 c -4.45,-2.348 -9.06,-4.11 -13.87,-5.282 -4.76,-1.168 -9.76,-1.758 -15,-1.758 -15.54,0 -27.85,4.379 -36.99,13.09 -9.1,8.75 -13.67,20.469 -13.67,35.27 0,15 4.57,26.84 13.67,35.512 9.14,8.628 21.45,12.968 36.99,12.968 5.24,0 10.24,-0.59 15,-1.718 4.81,-1.172 9.42,-2.93 13.87,-5.274 l 0,-19.137 c -4.57,2.969 -9.02,5.149 -13.36,6.559 -4.33,1.41 -8.87,2.07 -13.67,2.07 -8.55,0 -15.27,-2.73 -20.16,-8.242 -4.88,-5.508 -7.34,-13.09 -7.34,-22.738 0,-9.57 2.46,-17.11 7.34,-22.57 4.89,-5.508 11.61,-8.29 20.16,-8.29 4.8,0 9.34,0.711 13.67,2.11 4.34,1.371 8.79,3.64 13.36,6.762 l 0,-19.332 z m 50.24,26.32 c -4.65,0 -8.17,-0.781 -10.55,-2.34 -2.42,-1.559 -3.6,-3.871 -3.6,-6.988 0,-2.891 0.98,-5.16 2.93,-6.762 1.92,-1.602 4.57,-2.422 7.9,-2.422 4.21,0 7.77,1.524 10.66,4.613 2.89,3.039 4.34,6.829 4.34,11.399 l 0,2.5 -11.68,0 z m 34.18,8.48 0,-40 -22.5,0 0,10.352 c -3.01,-4.223 -6.37,-7.301 -10.16,-9.262 -3.79,-1.949 -8.32,-2.93 -13.67,-2.93 -7.35,0 -13.25,2.149 -17.74,6.372 -4.53,4.218 -6.76,9.726 -6.76,16.488 0,8.199 2.82,14.25 8.48,18.082 5.67,3.828 14.53,5.738 26.52,5.738 l 13.33,0 0,1.68 c 0,3.558 -1.41,6.18 -4.26,7.82 -2.82,1.68 -7.19,2.5 -13.09,2.5 -4.76,0 -9.22,-0.469 -13.32,-1.41 -4.1,-0.941 -7.93,-2.422 -11.48,-4.41 l 0,17.14 c 4.76,1.141 9.57,2 14.41,2.622 4.81,0.589 9.65,0.898 14.41,0.898 12.66,0 21.8,-2.461 27.43,-7.422 5.58,-4.918 8.4,-13.008 8.4,-24.258 z m 72.89,11.02 c -2.04,0.89 -3.99,1.558 -5.94,1.988 -1.95,0.473 -3.91,0.66 -5.9,0.66 -5.66,0 -10.08,-1.828 -13.16,-5.578 -3.13,-3.711 -4.69,-8.949 -4.69,-15.75 l 0,-32.34 -22.31,0 0,70 22.31,0 0,-11.48 c 2.89,4.57 6.21,7.89 9.92,10 3.71,2.109 8.2,3.16 13.44,3.16 0.66,0 1.44,-0.039 2.3,-0.078 0.9,-0.082 2.19,-0.192 3.83,-0.434 l 0.2,-20.148 z"
         style="fill:#000000;fill-opacity:1;fill-rule:nonzero;stroke:none"
         id="path3089" />
      <path
         inkscape:connector-curvature="0"
         d="m 1642.62,1508.89 746.64,0"
         style="fill:none;stroke:#000000;stroke-width:10.66639996;stroke-linecap:square;stroke-linejoin:miter;stroke-miterlimit:10;stroke-opacity:1;stroke-dasharray:none"
         id="path3091" />
      <path
         inkscape:connector-curvature="0"
         d="m 1445.74,1317.21 378.21,-288.63"
         style="fill:none;stroke:#000000;stroke-width:10.66639996;stroke-linecap:square;stroke-linejoin:miter;stroke-miterlimit:10;stroke-opacity:1;stroke-dasharray:none"
         id="path3093" />
      <path
         inkscape:connector-curvature="0"
         d="M 1823.95,1028.58 1408.09,655.262"
         style="fill:none;stroke:#000000;stroke-width:10.66639996;stroke-linecap:square;stroke-linejoin:miter;stroke-miterlimit:10;stroke-opacity:1;stroke-dasharray:none"
         id="path3095" />
      <path
         inkscape:connector-curvature="0"
         d="m 1408.09,655.262 39.72,121.679"
         style="fill:none;stroke:#000000;stroke-width:10.66639996;stroke-linecap:square;stroke-linejoin:miter;stroke-miterlimit:10;stroke-opacity:1;stroke-dasharray:none"
         id="path3097" />
      <path
         inkscape:connector-curvature="0"
         d="m 1408.09,655.262 125.23,26.398"
         style="fill:none;stroke:#000000;stroke-width:10.66639996;stroke-linecap:square;stroke-linejoin:miter;stroke-miterlimit:10;stroke-opacity:1;stroke-dasharray:none"
         id="path3099" />
      <path
         inkscape:connector-curvature="0"
         d="m 1983.52,961.309 0,-10.821 c -3.32,1.883 -6.61,3.282 -9.85,4.184 -3.2,0.898 -6.48,1.328 -9.8,1.328 -7.58,0 -13.4,-2.379 -17.5,-7.07 -4.1,-4.731 -6.17,-11.371 -6.17,-19.918 0,-8.563 2.07,-15.203 6.17,-19.922 4.1,-4.731 9.92,-7.07 17.5,-7.07 3.32,0 6.6,0.429 9.8,1.32 3.24,0.859 6.53,2.23 9.85,3.992 l 0,-10.672 c -3.21,-1.441 -6.57,-2.539 -10,-3.32 -3.44,-0.781 -7.11,-1.168 -10.98,-1.168 -10.59,0 -18.95,3.277 -25.2,9.918 -6.21,6.609 -9.33,15.59 -9.33,26.922 0,11.328 3.16,20.269 9.41,26.828 6.29,6.531 14.92,9.808 25.94,9.808 3.44,0 6.87,-0.347 10.23,-1.058 3.4,-0.738 6.72,-1.828 9.93,-3.281 z M 2030.55,956 c -6.1,0 -10.94,-2.418 -14.57,-7.27 -3.6,-4.8 -5.43,-11.398 -5.43,-19.718 0,-8.442 1.79,-15.082 5.35,-19.852 3.55,-4.762 8.44,-7.14 14.65,-7.14 6.13,0 10.97,2.378 14.61,7.218 3.59,4.852 5.39,11.41 5.39,19.774 0,8.199 -1.8,14.758 -5.39,19.648 -3.64,4.879 -8.48,7.34 -14.61,7.34 z m 0,9.648 c 10,0 17.89,-3.238 23.59,-9.726 5.74,-6.524 8.59,-15.473 8.59,-26.91 0,-11.453 -2.85,-20.473 -8.59,-26.992 -5.7,-6.571 -13.59,-9.848 -23.59,-9.848 -10,0 -17.85,3.277 -23.56,9.848 -5.74,6.519 -8.59,15.539 -8.59,26.992 0,11.437 2.85,20.386 8.59,26.91 5.71,6.488 13.56,9.726 23.56,9.726 z m 109.49,-29.339 0,-42.297 -11.49,0 0,41.828 c 0,6.64 -1.32,11.64 -3.94,14.89 -2.58,3.282 -6.45,4.918 -11.56,4.918 -6.21,0 -11.14,-1.949 -14.77,-5.898 -3.59,-3.949 -5.39,-9.371 -5.39,-16.25 l 0,-39.488 -11.52,0 0,70 11.52,0 0,-10.864 c 2.77,4.223 6.02,7.383 9.73,9.411 3.71,2.07 8.04,3.089 12.93,3.089 8,0 14.06,-2.457 18.24,-7.418 4.18,-4.929 6.25,-12.23 6.25,-21.921 z m 34.3,47.5 0,-19.797 23.67,0 0,-9.032 -23.67,0 0,-37.96 c 0,-5.711 0.78,-9.34 2.34,-10.938 1.52,-1.602 4.69,-2.422 9.49,-2.422 l 11.84,0 0,-9.648 -11.84,0 c -8.9,0 -15.04,1.636 -18.44,5 -3.35,3.32 -5.07,9.328 -5.07,18.008 l 0,37.96 -8.32,0 0,9.032 8.32,0 0,19.797 11.68,0 z m 79.33,-30.469 c -1.33,0.672 -2.73,1.18 -4.26,1.57 -1.48,0.391 -3.16,0.578 -5.07,0.578 -6.45,0 -11.41,-2.109 -14.89,-6.328 -3.51,-4.211 -5.27,-10.351 -5.27,-18.32 l 0,-36.828 -11.48,0 0,70 11.48,0 0,-10.864 c 2.46,4.223 5.62,7.383 9.49,9.411 3.91,2.07 8.63,3.089 14.18,3.089 0.78,0 1.64,-0.039 2.58,-0.16 0.94,-0.109 1.99,-0.269 3.09,-0.508 l 0.15,-11.64 z m 39.14,2.66 c -6.13,0 -10.97,-2.418 -14.57,-7.27 -3.63,-4.8 -5.43,-11.398 -5.43,-19.718 0,-8.442 1.76,-15.082 5.31,-19.852 3.56,-4.762 8.48,-7.14 14.69,-7.14 6.1,0 10.98,2.378 14.57,7.218 3.64,4.852 5.43,11.41 5.43,19.774 0,8.199 -1.79,14.758 -5.43,19.648 -3.59,4.879 -8.47,7.34 -14.57,7.34 z m 0,9.648 c 10,0 17.85,-3.238 23.6,-9.726 5.7,-6.524 8.55,-15.473 8.55,-26.91 0,-11.453 -2.85,-20.473 -8.55,-26.992 -5.75,-6.571 -13.6,-9.848 -23.6,-9.848 -10,0 -17.85,3.277 -23.59,9.848 -5.7,6.519 -8.6,15.539 -8.6,26.992 0,11.437 2.9,20.386 8.6,26.91 5.74,6.488 13.59,9.726 23.59,9.726 z m 51.14,25.661 11.52,0 0,-97.297 -11.52,0 0,97.297 z"
         style="fill:#000000;fill-opacity:1;fill-rule:nonzero;stroke:none"
         id="path3101" />
      <path
         inkscape:connector-curvature="0"
         d="M 966.09,655.262 597.301,964.551"
         style="fill:none;stroke:#000000;stroke-width:10.66639996;stroke-linecap:square;stroke-linejoin:miter;stroke-miterlimit:10;stroke-opacity:1;stroke-dasharray:none"
         id="path3103" />
      <path
         inkscape:connector-curvature="0"
         d="m 597.301,964.551 387,352.659"
         style="fill:none;stroke:#000000;stroke-width:10.66639996;stroke-linecap:square;stroke-linejoin:miter;stroke-miterlimit:10;stroke-opacity:1;stroke-dasharray:none"
         id="path3105" />
      <path
         inkscape:connector-curvature="0"
         d="M 984.301,1317.21 945.469,1195.26"
         style="fill:none;stroke:#000000;stroke-width:10.66639996;stroke-linecap:square;stroke-linejoin:miter;stroke-miterlimit:10;stroke-opacity:1;stroke-dasharray:none"
         id="path3107" />
      <path
         inkscape:connector-curvature="0"
         d="M 984.301,1317.21 859.262,1289.87"
         style="fill:none;stroke:#000000;stroke-width:10.66639996;stroke-linecap:square;stroke-linejoin:miter;stroke-miterlimit:10;stroke-opacity:1;stroke-dasharray:none"
         id="path3109" />
      <path
         inkscape:connector-curvature="0"
         d="m 262.73,925.141 0,-37.192 -11.48,0 0,96.68 11.48,0 0,-10.66 c 2.469,4.222 5.508,7.301 9.18,9.332 3.68,2 8.051,2.969 13.168,2.969 8.551,0 15.512,-3.36 20.82,-10.071 5.352,-6.719 8.012,-15.59 8.012,-26.57 0,-11.008 -2.66,-19.879 -8.012,-26.68 -5.308,-6.75 -12.269,-10.148 -20.82,-10.148 -5.117,0 -9.488,1.008 -13.168,3.078 -3.672,2.031 -6.711,5.121 -9.18,9.262 z m 39.18,24.488 c 0,8.441 -1.75,15.043 -5.269,19.851 -3.481,4.758 -8.243,7.141 -14.219,7.141 -6.133,0 -10.942,-2.383 -14.41,-7.141 -3.524,-4.808 -5.282,-11.41 -5.282,-19.851 0,-8.43 1.758,-15.078 5.282,-19.918 3.468,-4.84 8.277,-7.262 14.41,-7.262 5.976,0 10.738,2.422 14.219,7.262 3.519,4.84 5.269,11.488 5.269,19.918 z m 90.899,2.82 0,-5.469 -53.008,0 c 0.59,-8.011 3.008,-14.07 7.269,-18.171 4.301,-4.137 10.2,-6.168 17.731,-6.168 4.461,0 8.75,0.507 12.929,1.558 4.18,1.063 8.321,2.699 12.43,4.922 l 0,-11.012 c -4.219,-1.64 -8.519,-2.968 -12.859,-3.91 -4.332,-0.929 -8.711,-1.398 -13.16,-1.398 -11.09,0 -19.922,3.238 -26.481,9.758 -6.57,6.492 -9.851,15.281 -9.851,26.41 0,11.441 3.132,20.511 9.339,27.23 6.211,6.711 14.571,10.071 25,10.071 9.454,0 16.911,-3 22.422,-9.059 5.508,-6.051 8.239,-14.301 8.239,-24.762 z m -11.481,3.512 c -0.117,6.211 -1.918,11.211 -5.348,15 -3.441,3.789 -8.011,5.66 -13.679,5.66 -6.442,0 -11.563,-1.832 -15.391,-5.5 -3.82,-3.672 -6.051,-8.75 -6.601,-15.32 l 41.019,0.16 z m 70.902,18.008 c -1.332,0.66 -2.742,1.172 -4.261,1.562 -1.489,0.391 -3.168,0.59 -5.078,0.59 -6.442,0 -11.411,-2.109 -14.922,-6.332 -3.481,-4.219 -5.239,-10.309 -5.239,-18.32 l 0,-36.84 -11.48,0 0,70 11.48,0 0,-10.859 c 2.469,4.261 5.629,7.39 9.5,9.46 3.899,2.032 8.629,3.04 14.18,3.04 0.781,0 1.641,-0.04 2.57,-0.149 0.942,-0.121 2,-0.281 3.09,-0.512 l 0.16,-11.64 z m 62.461,8.011 0,-10.859 c -3.32,1.91 -6.601,3.277 -9.851,4.18 -3.199,0.898 -6.481,1.32 -9.801,1.32 -7.578,0 -13.398,-2.34 -17.5,-7.07 -4.141,-4.719 -6.168,-11.36 -6.168,-19.922 0,-8.547 2.027,-15.188 6.168,-19.918 4.102,-4.731 9.922,-7.07 17.5,-7.07 3.32,0 6.602,0.429 9.801,1.328 3.25,0.902 6.531,2.23 9.851,3.98 l 0,-10.66 c -3.211,-1.449 -6.57,-2.539 -10,-3.32 -3.441,-0.778 -7.113,-1.168 -10.98,-1.168 -10.59,0 -18.941,3.32 -25.191,9.918 -6.219,6.601 -9.34,15.582 -9.34,26.91 0,11.332 3.16,20.281 9.41,26.84 6.289,6.562 14.93,9.801 25.941,9.801 3.438,0 6.879,-0.348 10.239,-1.051 3.39,-0.739 6.71,-1.797 9.921,-3.239 z m 79.879,-29.531 0,-5.469 -53.011,0 c 0.55,-8.011 2.972,-14.07 7.269,-18.171 4.262,-4.137 10.192,-6.168 17.731,-6.168 4.461,0 8.75,0.507 12.929,1.558 4.141,1.063 8.282,2.699 12.422,4.922 l 0,-11.012 c -4.211,-1.64 -8.512,-2.968 -12.851,-3.91 -4.329,-0.929 -8.707,-1.398 -13.161,-1.398 -11.097,0 -19.957,3.238 -26.488,9.758 -6.558,6.492 -9.84,15.281 -9.84,26.41 0,11.441 3.129,20.511 9.34,27.23 6.211,6.711 14.531,10.071 25,10.071 9.449,0 16.91,-3 22.418,-9.059 5.473,-6.051 8.242,-14.301 8.242,-24.762 z m -11.519,3.512 c -0.082,6.211 -1.879,11.211 -5.321,15 -3.429,3.789 -8,5.66 -13.671,5.66 -6.438,0 -11.559,-1.832 -15.43,-5.5 -3.828,-3.672 -6.008,-8.75 -6.559,-15.32 l 40.981,0.16 z m 30.269,28.668 11.481,0 0,-70 -11.481,0 0,70 z m 0,27.351 11.481,0 0,-14.691 -11.481,0 0,14.691 z m 27.379,-27.351 12.192,0 21.839,-58.668 21.989,58.668 12.152,0 -26.332,-70 -15.66,0 -26.18,70 z m 143.91,-32.18 0,-5.469 -52.968,0 c 0.55,-8.011 2.968,-14.07 7.23,-18.171 4.289,-4.137 10.188,-6.168 17.77,-6.168 4.41,0 8.75,0.507 12.89,1.558 4.18,1.063 8.321,2.699 12.418,4.922 l 0,-11.012 c -4.219,-1.64 -8.508,-2.968 -12.808,-3.91 -4.34,-0.929 -8.75,-1.398 -13.2,-1.398 -11.101,0 -19.921,3.238 -26.492,9.758 -6.558,6.492 -9.84,15.281 -9.84,26.41 0,11.441 3.121,20.511 9.34,27.23 6.25,6.711 14.571,10.071 25,10.071 9.449,0 16.91,-3 22.422,-9.059 5.508,-6.051 8.238,-14.301 8.238,-24.762 z m -11.488,3.512 c -0.109,6.211 -1.871,11.211 -5.351,15 -3.43,3.789 -7.969,5.66 -13.629,5.66 -6.442,0 -11.602,-1.832 -15.43,-5.5 -3.832,-3.672 -6.012,-8.75 -6.602,-15.32 l 41.012,0.16 z m 102.777,-6.172 c -9.218,0 -15.668,-1.059 -19.257,-3.168 -3.59,-2.101 -5.43,-5.699 -5.43,-10.82 0,-4.141 1.367,-7.379 4.098,-9.762 2.742,-2.379 6.371,-3.59 10.902,-3.59 6.449,0 11.598,2.262 15.43,6.75 3.828,4.5 5.738,10.551 5.738,18.09 l 0,2.5 -11.481,0 z m 23.012,4.84 0,-40 -11.531,0 0,10.672 c -2.649,-4.219 -5.93,-7.391 -9.84,-9.422 -3.867,-2.07 -8.629,-3.078 -14.301,-3.078 -7.218,0 -12.968,2.031 -17.187,6.09 -4.211,4.019 -6.321,9.41 -6.321,16.058 0,7.891 2.649,13.821 7.93,17.852 5.27,3.98 13.121,5.969 23.551,5.969 l 16.168,0 0,1.179 c 0,5.352 -1.758,9.449 -5.231,12.34 -3.519,2.891 -8.359,4.332 -14.609,4.332 -3.988,0 -7.891,-0.5 -11.719,-1.48 -3.832,-1.02 -7.5,-2.461 -10.941,-4.34 l 0,10.668 c 4.223,1.64 8.32,2.89 12.269,3.672 3.942,0.781 7.813,1.129 11.563,1.129 10.117,0 17.699,-2.571 22.699,-7.809 5,-5.231 7.5,-13.16 7.5,-23.832 z m 64.25,19.34 c -1.32,0.66 -2.73,1.172 -4.25,1.562 -1.488,0.391 -3.211,0.59 -5.082,0.59 -6.449,0 -11.406,-2.109 -14.918,-6.332 -3.48,-4.219 -5.238,-10.309 -5.238,-18.32 l 0,-36.84 -11.524,0 0,70 11.524,0 0,-10.859 c 2.418,4.261 5.59,7.39 9.488,9.46 3.871,2.032 8.602,3.04 14.18,3.04 0.75,0 1.64,-0.04 2.582,-0.149 0.937,-0.121 1.957,-0.281 3.09,-0.512 l 0.148,-11.64 z m 39.11,2.652 c -6.098,0 -10.942,-2.422 -14.571,-7.262 -3.597,-4.808 -5.429,-11.41 -5.429,-19.73 0,-8.43 1.789,-15.078 5.351,-19.84 3.551,-4.769 8.43,-7.148 14.649,-7.148 6.13,0 10.97,2.418 14.61,7.23 3.59,4.84 5.39,11.438 5.39,19.758 0,8.211 -1.8,14.769 -5.39,19.652 -3.64,4.879 -8.48,7.34 -14.61,7.34 z m 0,9.649 c 10,0 17.89,-3.239 23.59,-9.719 5.74,-6.531 8.59,-15.469 8.59,-26.922 0,-11.438 -2.85,-20.469 -8.59,-26.988 -5.7,-6.559 -13.59,-9.84 -23.59,-9.84 -10,0 -17.86,3.281 -23.559,9.84 -5.742,6.519 -8.59,15.55 -8.59,26.988 0,11.453 2.848,20.391 8.59,26.922 5.699,6.48 13.559,9.719 23.559,9.719 z m 50,-43.981 0,42.34 11.48,0 0,-41.988 c 0,-6.559 1.33,-11.52 3.95,-14.84 2.57,-3.321 6.44,-5 11.56,-5 6.21,0 11.13,1.949 14.76,5.898 3.6,3.942 5.39,9.371 5.39,16.25 l 0,39.68 11.53,0 0,-70 -11.53,0 0,10.82 c -2.77,-4.328 -5.97,-7.539 -9.64,-9.57 -3.68,-2.07 -7.93,-3.078 -12.86,-3.078 -8.08,0 -14.21,2.5 -18.39,7.5 -4.18,5 -6.25,12.34 -6.25,21.988 z m 140.62,14.691 0,-42.351 -11.52,0 0,41.84 c 0,6.64 -1.29,11.64 -3.91,14.922 -2.62,3.281 -6.48,4.879 -11.56,4.879 -6.25,0 -11.17,-1.95 -14.77,-5.891 -3.59,-3.949 -5.43,-9.379 -5.43,-16.258 l 0,-39.492 -11.48,0 0,70 11.48,0 0,-10.859 c 2.78,4.261 6.06,7.39 9.77,9.46 3.71,2.032 8.01,3.04 12.93,3.04 7.97,0 14.06,-2.461 18.24,-7.379 4.14,-4.961 6.25,-12.27 6.25,-21.911 z m 68.95,16.989 0,38.011 11.52,0 0,-97.351 -11.52,0 0,10.512 c -2.43,-4.141 -5.51,-7.231 -9.18,-9.262 -3.64,-2.07 -8.09,-3.078 -13.32,-3.078 -8.44,0 -15.32,3.398 -20.67,10.148 -5.31,6.801 -8.01,15.672 -8.01,26.68 0,10.98 2.7,19.851 8.01,26.57 5.35,6.711 12.23,10.071 20.67,10.071 5.23,0 9.68,-0.969 13.32,-2.969 3.67,-2.031 6.75,-5.11 9.18,-9.332 z m -39.18,-24.34 c 0,-8.43 1.75,-15.078 5.19,-19.918 3.44,-4.84 8.2,-7.262 14.34,-7.262 6.09,0 10.9,2.422 14.41,7.262 3.48,4.84 5.24,11.488 5.24,19.918 0,8.441 -1.76,15.043 -5.24,19.851 -3.51,4.758 -8.32,7.141 -14.41,7.141 -6.14,0 -10.9,-2.383 -14.34,-7.141 -3.44,-4.808 -5.19,-11.41 -5.19,-19.851 z"
         style="fill:#000000;fill-opacity:1;fill-rule:nonzero;stroke:none"
         id="path3111" />
    </g>
  </g>
</svg>
