<?xml version="1.0" encoding="UTF-8" standalone="no"?>
<!-- Created with Inkscape (http://www.inkscape.org/) -->

<svg
   xmlns:dc="http://purl.org/dc/elements/1.1/"
   xmlns:cc="http://creativecommons.org/ns#"
   xmlns:rdf="http://www.w3.org/1999/02/22-rdf-syntax-ns#"
   xmlns:svg="http://www.w3.org/2000/svg"
   xmlns="http://www.w3.org/2000/svg"
   xmlns:xlink="http://www.w3.org/1999/xlink"
   xmlns:sodipodi="http://sodipodi.sourceforge.net/DTD/sodipodi-0.dtd"
   xmlns:inkscape="http://www.inkscape.org/namespaces/inkscape"
   width="156.48552"
   height="277.96664"
   id="svg2"
   version="1.1"
   inkscape:version="0.48.4 r9939"
   sodipodi:docname="1d5example.svg">
  <defs
     id="defs4">
    <marker
       inkscape:stockid="Arrow1Mend"
       orient="auto"
       refY="0"
       refX="0"
       id="Arrow1Mend"
       style="overflow:visible">
      <path
         id="path3879"
         d="M 0,0 5,-5 -12.5,0 5,5 0,0 z"
         style="fill-rule:evenodd;stroke:#000000;stroke-width:1pt"
         transform="matrix(-0.4,0,0,-0.4,-4,0)"
         inkscape:connector-curvature="0" />
    </marker>
    <marker
       inkscape:stockid="Arrow1Mstart"
       orient="auto"
       refY="0"
       refX="0"
       id="Arrow1Mstart"
       style="overflow:visible">
      <path
         id="path3876"
         d="M 0,0 5,-5 -12.5,0 5,5 0,0 z"
         style="fill-rule:evenodd;stroke:#000000;stroke-width:1pt"
         transform="matrix(0.4,0,0,0.4,4,0)"
         inkscape:connector-curvature="0" />
    </marker>
    <marker
       inkscape:stockid="Arrow1Sstart"
       orient="auto"
       refY="0"
       refX="0"
       id="Arrow1Sstart"
       style="overflow:visible">
      <path
         id="path3882"
         d="M 0,0 5,-5 -12.5,0 5,5 0,0 z"
         style="fill-rule:evenodd;stroke:#000000;stroke-width:1pt"
         transform="matrix(0.2,0,0,0.2,1.2,0)"
         inkscape:connector-curvature="0" />
    </marker>
    <marker
       inkscape:stockid="Arrow1Lstart"
       orient="auto"
       refY="0"
       refX="0"
       id="Arrow1Lstart"
       style="overflow:visible">
      <path
         id="path3870"
         d="M 0,0 5,-5 -12.5,0 5,5 0,0 z"
         style="fill-rule:evenodd;stroke:#000000;stroke-width:1pt"
         transform="matrix(0.8,0,0,0.8,10,0)"
         inkscape:connector-curvature="0" />
    </marker>
    <linearGradient
       id="linearGradient5465-03-0-8-1-1">
      <stop
         style="stop-color:#ffffff;stop-opacity:1;"
         offset="0"
         id="stop5467-3-4-5-0-7" />
      <stop
         style="stop-color:#cc7aaa;stop-opacity:1;"
         offset="1"
         id="stop5469-3-4-9-8-6" />
    </linearGradient>
    <linearGradient
       id="linearGradient5459-6-9-4-1-4">
      <stop
         style="stop-color:#127bca;stop-opacity:1;"
         offset="0"
         id="stop5461-3-8-7-5-3" />
      <stop
         style="stop-color:#dfeff7;stop-opacity:1;"
         offset="1"
         id="stop5463-51-9-3-3-7" />
    </linearGradient>
    <linearGradient
       id="linearGradient3215-06-6-1-1-0"
       inkscape:collect="always">
      <stop
         id="stop3217-0-3-4-2-6"
         offset="0"
         style="stop-color:#ffccaa;stop-opacity:1;" />
      <stop
         id="stop3219-5-2-7-2-0"
         offset="1"
         style="stop-color:#fa9351;stop-opacity:1" />
    </linearGradient>
    <linearGradient
       id="linearGradient5451-8-6-7-2-6"
       inkscape:collect="always">
      <stop
         id="stop5453-8-5-8-9-5"
         offset="0"
         style="stop-color:#e4b762;stop-opacity:1" />
      <stop
         id="stop5455-1-0-4-5-7"
         offset="1"
         style="stop-color:#85724f;stop-opacity:1" />
    </linearGradient>
    <linearGradient
       id="linearGradient3275-9-0-5-5"
       inkscape:collect="always">
      <stop
         id="stop3277-1-8-7-9"
         offset="0"
         style="stop-color:#6e6e6e;stop-opacity:1" />
      <stop
         id="stop3279-4-4-0-1"
         offset="1"
         style="stop-color:#292929;stop-opacity:1" />
    </linearGradient>
    <radialGradient
       inkscape:collect="always"
       xlink:href="#linearGradient5465-03-0-8-6"
       id="radialGradient4280-5-9-2"
       gradientUnits="userSpaceOnUse"
       gradientTransform="matrix(-1.2141703,-0.3374805,-0.2313312,0.8322719,604.01264,128.99733)"
       cx="212.99527"
       cy="342.63647"
       fx="212.99527"
       fy="342.63647"
       r="46.492542" />
    <linearGradient
       id="linearGradient5465-03-0-8-6">
      <stop
         style="stop-color:#ffffff;stop-opacity:1;"
         offset="0"
         id="stop5467-3-4-5-6" />
      <stop
         style="stop-color:#cc7aaa;stop-opacity:1;"
         offset="1"
         id="stop5469-3-4-9-5" />
    </linearGradient>
    <linearGradient
       inkscape:collect="always"
       xlink:href="#linearGradient5459-6-9-4-4"
       id="linearGradient4282-3-7-7"
       gradientUnits="userSpaceOnUse"
       gradientTransform="matrix(-1,0,0,1,479.13287,1.691221)"
       x1="250.83124"
       y1="349.88623"
       x2="241.00351"
       y2="317.9021" />
    <linearGradient
       id="linearGradient5459-6-9-4-4">
      <stop
         style="stop-color:#127bca;stop-opacity:1;"
         offset="0"
         id="stop5461-3-8-7-4" />
      <stop
         style="stop-color:#dfeff7;stop-opacity:1;"
         offset="1"
         id="stop5463-51-9-3-7" />
    </linearGradient>
    <radialGradient
       inkscape:collect="always"
       xlink:href="#linearGradient3215-06-6-1-9"
       id="radialGradient4284-0-9-3"
       gradientUnits="userSpaceOnUse"
       cx="438.74796"
       cy="332.53036"
       fx="438.74796"
       fy="332.53036"
       r="49.090309" />
    <linearGradient
       id="linearGradient3215-06-6-1-9"
       inkscape:collect="always">
      <stop
         id="stop3217-0-3-4-8"
         offset="0"
         style="stop-color:#ffccaa;stop-opacity:1;" />
      <stop
         id="stop3219-5-2-7-6"
         offset="1"
         style="stop-color:#fa9351;stop-opacity:1" />
    </linearGradient>
    <radialGradient
       inkscape:collect="always"
       xlink:href="#linearGradient5451-8-6-7-7"
       id="radialGradient4286-5-7-8"
       gradientUnits="userSpaceOnUse"
       gradientTransform="matrix(-1,0,0,0.8475176,484.20653,41.219128)"
       cx="211.49677"
       cy="261.49875"
       fx="211.49677"
       fy="261.49875"
       r="45.738976" />
    <linearGradient
       id="linearGradient5451-8-6-7-7"
       inkscape:collect="always">
      <stop
         id="stop5453-8-5-8-3"
         offset="0"
         style="stop-color:#e4b762;stop-opacity:1" />
      <stop
         id="stop5455-1-0-4-3"
         offset="1"
         style="stop-color:#85724f;stop-opacity:1" />
    </linearGradient>
    <radialGradient
       gradientUnits="userSpaceOnUse"
       gradientTransform="matrix(1,0,0,1.0645162,0,-3.5321331)"
       r="7.4766045"
       fy="54.748039"
       fx="34.488853"
       cy="54.748039"
       cx="34.488853"
       id="radialGradient3281-2-0-0"
       xlink:href="#linearGradient3275-9-0-1"
       inkscape:collect="always" />
    <linearGradient
       id="linearGradient3275-9-0-1"
       inkscape:collect="always">
      <stop
         id="stop3277-1-8-4"
         offset="0"
         style="stop-color:#6e6e6e;stop-opacity:1" />
      <stop
         id="stop3279-4-4-2"
         offset="1"
         style="stop-color:#292929;stop-opacity:1" />
    </linearGradient>
    <radialGradient
       r="7.4766045"
       fy="54.748039"
       fx="34.488853"
       cy="54.748039"
       cx="34.488853"
       gradientTransform="matrix(1,0,0,1.0645162,0,-3.5321331)"
       gradientUnits="userSpaceOnUse"
       id="radialGradient3291-1-1-9"
       xlink:href="#linearGradient3275-9-0-1"
       inkscape:collect="always" />
    <radialGradient
       inkscape:collect="always"
       xlink:href="#linearGradient5465-03-0-8-1-1"
       id="radialGradient3123"
       gradientUnits="userSpaceOnUse"
       gradientTransform="matrix(-1.2141703,-0.3374805,-0.2313312,0.8322719,604.01264,128.99733)"
       cx="212.99527"
       cy="342.63647"
       fx="212.99527"
       fy="342.63647"
       r="46.492542" />
    <linearGradient
       inkscape:collect="always"
       xlink:href="#linearGradient5459-6-9-4-1-4"
       id="linearGradient3125"
       gradientUnits="userSpaceOnUse"
       gradientTransform="matrix(-1,0,0,1,479.13287,1.691221)"
       x1="250.83124"
       y1="349.88623"
       x2="241.00351"
       y2="317.9021" />
    <radialGradient
       inkscape:collect="always"
       xlink:href="#linearGradient3215-06-6-1-1-0"
       id="radialGradient3127"
       gradientUnits="userSpaceOnUse"
       cx="438.74796"
       cy="332.53036"
       fx="438.74796"
       fy="332.53036"
       r="49.090309" />
    <radialGradient
       inkscape:collect="always"
       xlink:href="#linearGradient5451-8-6-7-2-6"
       id="radialGradient3129"
       gradientUnits="userSpaceOnUse"
       gradientTransform="matrix(-1,0,0,0.8475176,484.20653,41.219128)"
       cx="211.49677"
       cy="261.49875"
       fx="211.49677"
       fy="261.49875"
       r="45.738976" />
    <radialGradient
       inkscape:collect="always"
       xlink:href="#linearGradient3275-9-0-5-5"
       id="radialGradient3131"
       gradientUnits="userSpaceOnUse"
       gradientTransform="matrix(1,0,0,1.0645162,0,-3.5321331)"
       cx="34.488853"
       cy="54.748039"
       fx="34.488853"
       fy="54.748039"
       r="7.4766045" />
    <radialGradient
       inkscape:collect="always"
       xlink:href="#linearGradient3275-9-0-5-5"
       id="radialGradient3133"
       gradientUnits="userSpaceOnUse"
       gradientTransform="matrix(1,0,0,1.0645162,0,-3.5321331)"
       cx="34.488853"
       cy="54.748039"
       fx="34.488853"
       fy="54.748039"
       r="7.4766045" />
  </defs>
  <sodipodi:namedview
     id="base"
     pagecolor="#ffffff"
     bordercolor="#666666"
     borderopacity="1.0"
     inkscape:pageopacity="0.0"
     inkscape:pageshadow="2"
     inkscape:zoom="2.13094"
     inkscape:cx="174.16444"
     inkscape:cy="47.28699"
     inkscape:document-units="px"
     inkscape:current-layer="layer5"
     showgrid="false"
     fit-margin-top="1"
     fit-margin-left="1"
     fit-margin-right="1"
     fit-margin-bottom="1"
     inkscape:window-width="952"
     inkscape:window-height="824"
     inkscape:window-x="910"
     inkscape:window-y="187"
     inkscape:window-maximized="0" />
  <metadata
     id="metadata7">
    <rdf:RDF>
      <cc:Work
         rdf:about="">
        <dc:format>image/svg+xml</dc:format>
        <dc:type
           rdf:resource="http://purl.org/dc/dcmitype/StillImage" />
        <dc:title />
      </cc:Work>
    </rdf:RDF>
  </metadata>
  <g
     inkscape:groupmode="layer"
     id="layer5"
     inkscape:label="All"
     transform="translate(463.89951,208.04246)"
     style="display:inline">
    <path
       style="fill:none;stroke:#000000;stroke-width:1;stroke-linecap:butt;stroke-linejoin:miter;stroke-miterlimit:4;stroke-opacity:1;stroke-dasharray:3, 1;stroke-dashoffset:0"
       d="m -352.3484,18.616743 26.81884,46.451599"
       id="path3962"
       inkscape:connector-curvature="0" />
    <g
       id="layer1-1-7"
       transform="matrix(-0.01188764,-0.04474182,-0.01534726,0.04294045,-336.76953,-1.9863027)"
       style="fill:#a20d59;fill-opacity:1;stroke:none"
       inkscape:transform-center-x="-2.093522"
       inkscape:transform-center-y="-32.662954">
      <path
         style="font-size:medium;font-style:normal;font-variant:normal;font-weight:normal;font-stretch:normal;text-indent:0;text-align:start;text-decoration:none;line-height:normal;letter-spacing:normal;word-spacing:normal;text-transform:none;direction:ltr;block-progression:tb;writing-mode:lr-tb;text-anchor:start;baseline-shift:baseline;color:#000000;fill:#a20d59;fill-opacity:1;stroke:none;stroke-width:40;marker:none;visibility:visible;display:inline;overflow:visible;enable-background:accumulate;font-family:Sans;-inkscape-font-specification:Sans"
         d="m 751.25029,-434.01896 c 81.89296,82.1696 163.75403,164.37099 245.625,246.5625 C 827.99376,-19.286023 308.27297,481.62733 139.375,649.78125 258.69379,769.53789 381.86235,893.17065 490.21875,1002 659.03822,833.77774 1178.8401,332.95626 1347.6878,164.76229 c 81.3462,81.66424 162.6956,163.32523 244.0312,245 -57.5175,-218.03211 -115.0411,-436.062643 -172.5624,-654.09375 l -0.125,0.0312 0.031,-0.125 c -222.6073,-63.18652 -445.19723,-126.43446 -667.81231,-189.5937 z"
         id="path1872-0"
         inkscape:connector-curvature="0"
         sodipodi:nodetypes="cccccccccc" />
    </g>
    <path
       style="fill:none;stroke:#000000;stroke-width:1;stroke-miterlimit:4;stroke-opacity:1;stroke-dasharray:none;stroke-dashoffset:0;display:inline"
       d="m -455.99364,-203.24203 c 0,0 87.07362,-4.44331 81.81825,26.56137 -4.19444,24.74566 -80.69385,-2.14374 -77.90432,22.79938 3.61939,32.36341 82.46229,37.58679 83.54112,70.134075 1.04706,31.589029 -90.68239,97.88361 -90.68239,97.88361"
       id="path4403-23"
       inkscape:connector-curvature="0"
       sodipodi:nodetypes="csssc" />
    <path
       style="fill:none;stroke:#000000;stroke-width:1px;stroke-linecap:butt;stroke-linejoin:miter;stroke-opacity:1"
       d="m -185.83348,163.94726 c 19.89127,-3.97817 45.46624,1.22502 50.21258,-27.21804"
       id="path3931"
       inkscape:connector-curvature="0"
       transform="translate(-258.49311,-277.1972)"
       sodipodi:nodetypes="cc" />
    <text
       xml:space="preserve"
       style="font-size:12px;font-style:normal;font-variant:normal;font-weight:normal;font-stretch:normal;text-align:center;line-height:125%;letter-spacing:0px;word-spacing:0px;text-anchor:middle;fill:#000000;fill-opacity:1;stroke:none;font-family:DejaVu Sans;-inkscape-font-specification:DejaVu Sans"
       x="-449.14703"
       y="20.735399"
       id="text3933"
       sodipodi:linespacing="125%"><tspan
         sodipodi:role="line"
         id="tspan3935"
         x="-449.14703"
         y="20.735399">0</tspan></text>
    <text
       xml:space="preserve"
       style="font-size:12px;font-style:normal;font-variant:normal;font-weight:normal;font-stretch:normal;text-align:center;line-height:125%;letter-spacing:0px;word-spacing:0px;text-anchor:middle;fill:#000000;fill-opacity:1;stroke:none;display:inline;font-family:DejaVu Sans;-inkscape-font-specification:DejaVu Sans"
       x="-406.30936"
       y="-105.12757"
       id="text3933-0"
       sodipodi:linespacing="125%"><tspan
         sodipodi:role="line"
         id="tspan3935-0"
         x="-406.30936"
         y="-105.12757">1</tspan></text>
    <text
       xml:space="preserve"
       style="font-size:12px;font-style:normal;font-variant:normal;font-weight:normal;font-stretch:normal;text-align:center;line-height:125%;letter-spacing:0px;word-spacing:0px;text-anchor:middle;fill:#000000;fill-opacity:1;stroke:none;font-family:DejaVu Sans;-inkscape-font-specification:DejaVu Sans"
       x="-403.96881"
       y="42.549831"
       id="text3958"
       sodipodi:linespacing="125%"><tspan
         sodipodi:role="line"
         id="tspan3960"
         x="-403.96881"
         y="42.549831">p=(0.3;5)</tspan></text>
    <path
       inkscape:connector-curvature="0"
       id="path3966"
       d="m -326.09738,-10.754127 c 28.33094,29.42977 18.06441,49.29265 -5.0635,65.967663"
       style="fill:none;stroke:#000000;stroke-width:1;stroke-linecap:butt;stroke-linejoin:miter;stroke-miterlimit:4;stroke-opacity:1;stroke-dasharray:3, 1;stroke-dashoffset:0"
       sodipodi:nodetypes="cc" />
    <text
       xml:space="preserve"
       style="font-size:12px;font-style:normal;font-variant:normal;font-weight:normal;font-stretch:normal;text-align:center;line-height:125%;letter-spacing:0px;word-spacing:0px;text-anchor:middle;fill:#000000;fill-opacity:1;stroke:none;display:inline;font-family:DejaVu Sans;-inkscape-font-specification:DejaVu Sans"
       x="-358.97983"
       y="67.810913"
       id="text3958-5"
       sodipodi:linespacing="125%"><tspan
         sodipodi:role="line"
         id="tspan3960-9"
         x="-358.97983"
         y="67.810913">o=-2π/3</tspan></text>
    <path
       sodipodi:type="arc"
       style="fill:#000000;fill-opacity:1;stroke:none"
       id="path3993"
       sodipodi:cx="-152.64114"
       sodipodi:cy="142.49336"
       sodipodi:rx="3.9819429"
       sodipodi:ry="3.9819429"
       d="m -148.6592,142.49336 c 0,2.19917 -1.78278,3.98195 -3.98194,3.98195 -2.19917,0 -3.98195,-1.78278 -3.98195,-3.98195 0,-2.19916 1.78278,-3.98194 3.98195,-3.98194 2.19916,0 3.98194,1.78278 3.98194,3.98194 z"
       transform="translate(-258.16128,-261.93309)" />
    <path
       sodipodi:type="arc"
       style="fill:#000000;fill-opacity:1;stroke:none;display:inline"
       id="path3993-1"
       sodipodi:cx="-152.64114"
       sodipodi:cy="142.49336"
       sodipodi:rx="3.9819429"
       sodipodi:ry="3.9819429"
       d="m -148.6592,142.49336 c 0,2.19917 -1.78278,3.98195 -3.98194,3.98195 -2.19917,0 -3.98195,-1.78278 -3.98195,-3.98195 0,-2.19916 1.78278,-3.98194 3.98195,-3.98194 2.19916,0 3.98194,1.78278 3.98194,3.98194 z"
       transform="translate(-301.63082,-345.55388)" />
    <path
       sodipodi:type="arc"
       style="fill:#000000;fill-opacity:1;stroke:none;display:inline"
       id="path3993-3"
       sodipodi:cx="-152.64114"
       sodipodi:cy="142.49336"
       sodipodi:rx="3.9819429"
       sodipodi:ry="3.9819429"
       d="m -148.6592,142.49336 c 0,2.19917 -1.78278,3.98195 -3.98194,3.98195 -2.19917,0 -3.98195,-1.78278 -3.98195,-3.98195 0,-2.19916 1.78278,-3.98194 3.98195,-3.98194 2.19916,0 3.98194,1.78278 3.98194,3.98194 z"
       transform="translate(-291.01231,-255.62834)" />
    <path
       sodipodi:type="arc"
       style="fill:#000000;fill-opacity:1;stroke:none;display:inline"
       id="path3993-2"
       sodipodi:cx="-152.64114"
       sodipodi:cy="142.49336"
       sodipodi:rx="3.9819429"
       sodipodi:ry="3.9819429"
       d="m -148.6592,142.49336 c 0,2.19917 -1.78278,3.98195 -3.98194,3.98195 -2.19917,0 -3.98195,-1.78278 -3.98195,-3.98195 0,-2.19916 1.78278,-3.98194 3.98195,-3.98194 2.19916,0 3.98194,1.78278 3.98194,3.98194 z"
       transform="translate(-240.90619,-283.17011)" />
    <path
       sodipodi:type="arc"
       style="fill:#000000;fill-opacity:1;stroke:none;display:inline"
       id="path3993-7"
       sodipodi:cx="-152.64114"
       sodipodi:cy="142.49336"
       sodipodi:rx="3.9819429"
       sodipodi:ry="3.9819429"
       d="m -148.6592,142.49336 c 0,2.19917 -1.78278,3.98195 -3.98194,3.98195 -2.19917,0 -3.98195,-1.78278 -3.98195,-3.98195 0,-2.19916 1.78278,-3.98194 3.98195,-3.98194 2.19916,0 3.98194,1.78278 3.98194,3.98194 z"
       transform="translate(-306.27642,-129.53348)" />
    <path
       style="fill:none;stroke:#000000;stroke-width:1;stroke-linecap:butt;stroke-linejoin:miter;stroke-miterlimit:4;stroke-opacity:1;stroke-dasharray:3, 1;stroke-dashoffset:0;display:inline"
       d="m -408.45707,-27.518201 54.03688,51.144365"
       id="path3962-7"
       inkscape:connector-curvature="0"
       sodipodi:nodetypes="cc" />
    <g
       transform="matrix(-0.40684931,0,0,0.40684931,-253.47423,-119.7684)"
       id="layer1-4-1"
       inkscape:label="Layer 1"
       style="display:inline">
      <path
         sodipodi:nodetypes="cssz"
         id="path7363-6-3"
         d="m 249.16416,290.84494 c 29.16762,0.82788 52.04657,48.59132 41.25726,64.78842 -10.78929,16.1971 -74.10016,16.1971 -84.41448,0 -10.31431,-16.1971 13.04054,-65.64324 43.15722,-64.78842 z"
         style="fill:url(#radialGradient3123);fill-opacity:1;fill-rule:evenodd;stroke:#383838;stroke-width:3.37548995;stroke-linecap:butt;stroke-linejoin:miter;stroke-miterlimit:4;stroke-opacity:1;stroke-dasharray:none"
         inkscape:connector-curvature="0" />
      <path
         sodipodi:nodetypes="cccccccc"
         id="path7365-1-3"
         d="m 246.97821,320.14762 -6.89459,7.16271 3.89488,23.0917 -16.9692,9.76515 -6.34956,-15.47521 12.06165,-18.56007 -2.55204,-9.69706 16.80886,3.71278 z"
         style="fill:url(#linearGradient3125);fill-opacity:1;fill-rule:evenodd;stroke:#383838;stroke-width:3.07961988;stroke-linecap:butt;stroke-linejoin:miter;stroke-miterlimit:4;stroke-opacity:1;stroke-dasharray:none"
         inkscape:connector-curvature="0" />
      <path
         transform="matrix(0.778675,0,0,0.869413,-104.19713,1.609961)"
         d="m 496.96329,320.73038 c 0,25.73111 -20.85919,46.59031 -46.5903,46.59031 -25.73112,0 -46.59031,-20.8592 -46.59031,-46.59031 0,-25.73112 20.85919,-46.59031 46.59031,-46.59031 25.73111,0 46.5903,20.85919 46.5903,46.59031 z"
         sodipodi:ry="46.590309"
         sodipodi:rx="46.590309"
         sodipodi:cy="320.73038"
         sodipodi:cx="450.37299"
         id="path7367-7-5"
         style="fill:url(#radialGradient3127);fill-opacity:1;fill-rule:evenodd;stroke:#383838;stroke-width:5.00003576;stroke-linecap:butt;stroke-linejoin:miter;stroke-miterlimit:4;stroke-opacity:1;stroke-dasharray:none"
         sodipodi:type="arc" />
      <path
         sodipodi:nodetypes="czczzcccc"
         id="path7441-1-3"
         d="m 261.32487,261.04504 c 0,0 -13.3262,14.15253 -28.19148,14.15253 -13.98097,0 -27.62058,-10.22613 -27.62058,-10.22613 0,0 7.11866,-28.44437 29.78608,-30.97224 22.63369,-2.52412 48.84831,3.92887 56.15342,29.63581 7.39063,26.00787 -12.21234,43.51357 -12.21234,43.51357 l -6.13393,-27.11738 -8.16006,0.20892 -3.62111,-19.19508 z"
         style="fill:url(#radialGradient3129);fill-opacity:1;fill-rule:evenodd;stroke:#383838;stroke-width:3.87308121;stroke-linecap:butt;stroke-linejoin:miter;stroke-miterlimit:4;stroke-opacity:1;stroke-dasharray:none"
         inkscape:connector-curvature="0" />
      <path
         sodipodi:nodetypes="csc"
         id="path7443-6-5"
         d="m 266.81768,282.19115 c 2.84209,-8.04979 12.39065,-5.30532 12.92512,3.6066 0.60899,10.1546 -12.08342,11.87471 -12.08342,11.87471"
         style="fill:#fa9e62;fill-opacity:1;fill-rule:evenodd;stroke:#383838;stroke-width:3.87308121;stroke-linecap:butt;stroke-linejoin:miter;stroke-miterlimit:4;stroke-opacity:1"
         inkscape:connector-curvature="0" />
      <path
         sodipodi:type="arc"
         style="fill:#ffffff;fill-opacity:1;fill-rule:evenodd;stroke:none;display:inline"
         id="path3271-0-4"
         sodipodi:cx="34.488853"
         sodipodi:cy="54.748039"
         sodipodi:rx="7.4766045"
         sodipodi:ry="7.9589663"
         d="m 41.965458,54.748039 c 0,4.395616 -3.34739,7.958967 -7.476605,7.958967 -4.129214,0 -7.476604,-3.563351 -7.476604,-7.958967 0,-4.395615 3.34739,-7.958966 7.476604,-7.958966 4.105587,0 7.443108,3.524186 7.47636,7.894506"
         transform="matrix(-1.2272275,0,0,1.1528501,291.6728,225.04329)"
         sodipodi:start="0"
         sodipodi:end="6.2750861"
         sodipodi:open="true" />
      <path
         sodipodi:type="arc"
         style="fill:url(#radialGradient3131);fill-opacity:1;fill-rule:evenodd;stroke:none;display:inline"
         id="path3273-3-0"
         sodipodi:cx="34.488853"
         sodipodi:cy="54.748039"
         sodipodi:rx="7.4766045"
         sodipodi:ry="7.9589663"
         d="m 41.965458,54.748039 c 0,4.395616 -3.34739,7.958967 -7.476605,7.958967 -4.129214,0 -7.476604,-3.563351 -7.476604,-7.958967 0,-4.395615 3.34739,-7.958966 7.476604,-7.958966 4.105587,0 7.443108,3.524186 7.47636,7.894506"
         transform="matrix(-0.81815179,0,0,0.74323901,274.50573,247.67027)"
         sodipodi:start="0"
         sodipodi:end="6.2750861"
         sodipodi:open="true" />
      <path
         sodipodi:type="arc"
         style="fill:#ffffff;fill-opacity:1;fill-rule:evenodd;stroke:none;display:inline"
         id="path3283-8-5"
         sodipodi:cx="34.488853"
         sodipodi:cy="54.748039"
         sodipodi:rx="7.4766045"
         sodipodi:ry="7.9589663"
         d="m 41.965458,54.748039 c 0,4.395616 -3.34739,7.958967 -7.476605,7.958967 -4.129214,0 -7.476604,-3.563351 -7.476604,-7.958967 0,-4.395615 3.34739,-7.958966 7.476604,-7.958966 4.105587,0 7.443108,3.524186 7.47636,7.894506"
         transform="matrix(-0.29750968,0,0,0.27947876,254.88112,272.30255)"
         sodipodi:start="0"
         sodipodi:end="6.2750861"
         sodipodi:open="true" />
      <path
         sodipodi:type="arc"
         style="fill:#ffffff;fill-opacity:1;fill-rule:evenodd;stroke:none;display:inline"
         id="path3285-7-5"
         sodipodi:cx="34.488853"
         sodipodi:cy="54.748039"
         sodipodi:rx="7.4766045"
         sodipodi:ry="7.9589663"
         d="m 41.965458,54.748039 c 0,4.395616 -3.34739,7.958967 -7.476605,7.958967 -4.129214,0 -7.476604,-3.563351 -7.476604,-7.958967 0,-4.395615 3.34739,-7.958966 7.476604,-7.958966 4.105587,0 7.443108,3.524186 7.47636,7.894506"
         transform="matrix(-1.2272275,0,0,1.1528501,263.5562,223.1783)"
         sodipodi:start="0"
         sodipodi:end="6.2750861"
         sodipodi:open="true" />
      <path
         sodipodi:type="arc"
         style="fill:url(#radialGradient3133);fill-opacity:1;fill-rule:evenodd;stroke:none;display:inline"
         id="path3287-6-9"
         sodipodi:cx="34.488853"
         sodipodi:cy="54.748039"
         sodipodi:rx="7.4766045"
         sodipodi:ry="7.9589663"
         d="m 41.965458,54.748039 c 0,4.395616 -3.34739,7.958967 -7.476605,7.958967 -4.129214,0 -7.476604,-3.563351 -7.476604,-7.958967 0,-4.395615 3.34739,-7.958966 7.476604,-7.958966 4.105587,0 7.443108,3.524186 7.47636,7.894506"
         transform="matrix(-0.81815179,0,0,0.74323901,246.38913,245.80528)"
         sodipodi:start="0"
         sodipodi:end="6.2750861"
         sodipodi:open="true" />
      <path
         sodipodi:type="arc"
         style="fill:#ffffff;fill-opacity:1;fill-rule:evenodd;stroke:none;display:inline"
         id="path3289-5-8"
         sodipodi:cx="34.488853"
         sodipodi:cy="54.748039"
         sodipodi:rx="7.4766045"
         sodipodi:ry="7.9589663"
         d="m 41.965458,54.748039 c 0,4.395616 -3.34739,7.958967 -7.476605,7.958967 -4.129214,0 -7.476604,-3.563351 -7.476604,-7.958967 0,-4.395615 3.34739,-7.958966 7.476604,-7.958966 4.105587,0 7.443108,3.524186 7.47636,7.894506"
         transform="matrix(-0.29750968,0,0,0.27947876,226.76454,270.43756)"
         sodipodi:start="0"
         sodipodi:end="6.2750861"
         sodipodi:open="true" />
      <path
         sodipodi:type="arc"
         style="opacity:0.84513275;fill:#ffffff;fill-opacity:1;fill-rule:evenodd;stroke:none;display:inline"
         id="path3293-9-7"
         sodipodi:cx="34.488853"
         sodipodi:cy="54.748039"
         sodipodi:rx="7.4766045"
         sodipodi:ry="7.9589663"
         d="m 41.965458,54.748039 c 0,4.395616 -3.34739,7.958967 -7.476605,7.958967 -4.129214,0 -7.476604,-3.563351 -7.476604,-7.958967 0,-4.395615 3.34739,-7.958966 7.476604,-7.958966 4.105587,0 7.443108,3.524186 7.47636,7.894506"
         transform="matrix(-0.18594354,0,0,0.19214161,254.64794,280.55968)"
         sodipodi:start="0"
         sodipodi:end="6.2750861"
         sodipodi:open="true" />
      <path
         sodipodi:type="arc"
         style="opacity:0.84513275;fill:#ffffff;fill-opacity:1;fill-rule:evenodd;stroke:none;display:inline"
         id="path3295-3-9"
         sodipodi:cx="34.488853"
         sodipodi:cy="54.748039"
         sodipodi:rx="7.4766045"
         sodipodi:ry="7.9589663"
         d="m 41.965458,54.748039 c 0,4.395616 -3.34739,7.958967 -7.476605,7.958967 -4.129214,0 -7.476604,-3.563351 -7.476604,-7.958967 0,-4.395615 3.34739,-7.958966 7.476604,-7.958966 4.105587,0 7.443108,3.524186 7.47636,7.894506"
         transform="matrix(-0.18594354,0,0,0.19214161,225.97523,279.11175)"
         sodipodi:start="0"
         sodipodi:end="6.2750861"
         sodipodi:open="true" />
    </g>
    <text
       xml:space="preserve"
       style="font-size:10px;font-style:normal;font-variant:normal;font-weight:normal;font-stretch:normal;text-align:center;line-height:125%;letter-spacing:0px;word-spacing:0px;text-anchor:middle;fill:#000000;fill-opacity:1;stroke:none;display:inline;font-family:DejaVu Sans;-inkscape-font-specification:DejaVu Sans"
       x="-401.64389"
       y="7.9285383"
       id="text3958-50"
       sodipodi:linespacing="125%"><tspan
         sodipodi:role="line"
         id="tspan3960-7"
         x="-401.64389"
         y="7.9285383">5</tspan></text>
    <path
       style="fill:none;stroke:#000000;stroke-width:1px;stroke-linecap:butt;stroke-linejoin:miter;stroke-opacity:1;marker-start:url(#Arrow1Mstart);marker-end:url(#Arrow1Mend)"
       d="M 57.721006,191.07959 95.7324,225.80605"
       id="path3096"
       inkscape:connector-curvature="0"
       transform="translate(-472.47827,-208.04246)" />
    <path
       inkscape:connector-curvature="0"
       id="path3069"
       d="m -352.3484,18.616743 29.16522,-30.979018"
       style="fill:none;stroke:#000000;stroke-width:1;stroke-linecap:butt;stroke-linejoin:miter;stroke-miterlimit:4;stroke-opacity:1;stroke-dasharray:3, 1;stroke-dashoffset:0"
       sodipodi:nodetypes="cc" />
    <text
       xml:space="preserve"
       style="font-size:9px;font-style:normal;font-variant:normal;font-weight:normal;font-stretch:normal;text-align:center;line-height:125%;letter-spacing:0px;word-spacing:0px;text-anchor:middle;fill:#000000;fill-opacity:1;stroke:none;display:inline;font-family:DejaVu Sans;-inkscape-font-specification:DejaVu Sans"
       x="-336.60696"
       y="-90.082748"
       id="text3958-5-0"
       sodipodi:linespacing="125%"><tspan
         sodipodi:role="line"
         id="tspan3960-9-7"
         x="-336.60696"
         y="-90.082748">lm=(2;-1)</tspan><tspan
         sodipodi:role="line"
         x="-336.60696"
         y="-78.832748"
         id="tspan3129">am=2π/3</tspan></text>
  </g>
</svg>
