<?xml version="1.0" encoding="UTF-8" standalone="no"?>
<!-- Created with Inkscape (http://www.inkscape.org/) -->

<svg
   xmlns:dc="http://purl.org/dc/elements/1.1/"
   xmlns:cc="http://creativecommons.org/ns#"
   xmlns:rdf="http://www.w3.org/1999/02/22-rdf-syntax-ns#"
   xmlns:svg="http://www.w3.org/2000/svg"
   xmlns="http://www.w3.org/2000/svg"
   xmlns:xlink="http://www.w3.org/1999/xlink"
   xmlns:sodipodi="http://sodipodi.sourceforge.net/DTD/sodipodi-0.dtd"
   xmlns:inkscape="http://www.inkscape.org/namespaces/inkscape"
   width="403.62418"
   height="193.93115"
   id="svg2"
   version="1.1"
   inkscape:version="0.48.4 r9939"
   sodipodi:docname="kinematic_wander_principle+layers.svg">
  <defs
     id="defs4">
    <marker
       inkscape:stockid="Arrow1Mend"
       orient="auto"
       refY="0.0"
       refX="0.0"
       id="Arrow1Mend"
       style="overflow:visible;">
      <path
         id="path3956"
         d="M 0.0,0.0 L 5.0,-5.0 L -12.5,0.0 L 5.0,5.0 L 0.0,0.0 z "
         style="fill-rule:evenodd;stroke:#000000;stroke-width:1.0pt;"
         transform="scale(0.4) rotate(180) translate(10,0)" />
    </marker>
    <radialGradient
       inkscape:collect="always"
       xlink:href="#linearGradient5465-03-0-8-6-9"
       id="radialGradient3194-0"
       gradientUnits="userSpaceOnUse"
       gradientTransform="matrix(-1.2141703,-0.3374805,-0.2313312,0.8322719,604.01264,128.99733)"
       cx="212.99527"
       cy="342.63647"
       fx="212.99527"
       fy="342.63647"
       r="46.492542" />
    <linearGradient
       id="linearGradient5465-03-0-8-6-9">
      <stop
         style="stop-color:#ffffff;stop-opacity:1;"
         offset="0"
         id="stop5467-3-4-5-6-3" />
      <stop
         style="stop-color:#cc7aaa;stop-opacity:1;"
         offset="1"
         id="stop5469-3-4-9-5-2" />
    </linearGradient>
    <linearGradient
       inkscape:collect="always"
       xlink:href="#linearGradient5459-6-9-4-4-6"
       id="linearGradient3196-2"
       gradientUnits="userSpaceOnUse"
       gradientTransform="matrix(-1,0,0,1,479.13287,1.691221)"
       x1="250.83124"
       y1="349.88623"
       x2="241.00351"
       y2="317.9021" />
    <linearGradient
       id="linearGradient5459-6-9-4-4-6">
      <stop
         style="stop-color:#127bca;stop-opacity:1;"
         offset="0"
         id="stop5461-3-8-7-4-4" />
      <stop
         style="stop-color:#dfeff7;stop-opacity:1;"
         offset="1"
         id="stop5463-51-9-3-7-1" />
    </linearGradient>
    <radialGradient
       inkscape:collect="always"
       xlink:href="#linearGradient3215-06-6-1-9-3"
       id="radialGradient3198-7"
       gradientUnits="userSpaceOnUse"
       cx="438.74796"
       cy="332.53036"
       fx="438.74796"
       fy="332.53036"
       r="49.090309" />
    <linearGradient
       id="linearGradient3215-06-6-1-9-3"
       inkscape:collect="always">
      <stop
         id="stop3217-0-3-4-8-7"
         offset="0"
         style="stop-color:#ffccaa;stop-opacity:1;" />
      <stop
         id="stop3219-5-2-7-6-8"
         offset="1"
         style="stop-color:#fa9351;stop-opacity:1" />
    </linearGradient>
    <radialGradient
       inkscape:collect="always"
       xlink:href="#linearGradient5451-8-6-7-7-7"
       id="radialGradient3200-2"
       gradientUnits="userSpaceOnUse"
       gradientTransform="matrix(-1,0,0,0.8475176,484.20653,41.219128)"
       cx="211.49677"
       cy="261.49875"
       fx="211.49677"
       fy="261.49875"
       r="45.738976" />
    <linearGradient
       id="linearGradient5451-8-6-7-7-7"
       inkscape:collect="always">
      <stop
         id="stop5453-8-5-8-3-2"
         offset="0"
         style="stop-color:#e4b762;stop-opacity:1" />
      <stop
         id="stop5455-1-0-4-3-1"
         offset="1"
         style="stop-color:#85724f;stop-opacity:1" />
    </linearGradient>
    <radialGradient
       inkscape:collect="always"
       xlink:href="#linearGradient3275-9-0-1-4"
       id="radialGradient3202-8"
       gradientUnits="userSpaceOnUse"
       gradientTransform="matrix(1,0,0,1.0645162,0,-3.5321331)"
       cx="34.488853"
       cy="54.748039"
       fx="34.488853"
       fy="54.748039"
       r="7.4766045" />
    <linearGradient
       id="linearGradient3275-9-0-1-4"
       inkscape:collect="always">
      <stop
         id="stop3277-1-8-4-4"
         offset="0"
         style="stop-color:#6e6e6e;stop-opacity:1" />
      <stop
         id="stop3279-4-4-2-8"
         offset="1"
         style="stop-color:#292929;stop-opacity:1" />
    </linearGradient>
    <radialGradient
       inkscape:collect="always"
       xlink:href="#linearGradient3275-9-0-1-4"
       id="radialGradient3204-7"
       gradientUnits="userSpaceOnUse"
       gradientTransform="matrix(1,0,0,1.0645162,0,-3.5321331)"
       cx="34.488853"
       cy="54.748039"
       fx="34.488853"
       fy="54.748039"
       r="7.4766045" />
    <radialGradient
       inkscape:collect="always"
       xlink:href="#linearGradient5465-03-0-8-6-9-0"
       id="radialGradient3194-0-3"
       gradientUnits="userSpaceOnUse"
       gradientTransform="matrix(-1.2141703,-0.3374805,-0.2313312,0.8322719,604.01264,128.99733)"
       cx="212.99527"
       cy="342.63647"
       fx="212.99527"
       fy="342.63647"
       r="46.492542" />
    <linearGradient
       id="linearGradient5465-03-0-8-6-9-0">
      <stop
         style="stop-color:#ffffff;stop-opacity:1;"
         offset="0"
         id="stop5467-3-4-5-6-3-3" />
      <stop
         style="stop-color:#cc7aaa;stop-opacity:1;"
         offset="1"
         id="stop5469-3-4-9-5-2-7" />
    </linearGradient>
    <linearGradient
       inkscape:collect="always"
       xlink:href="#linearGradient5459-6-9-4-4-6-1"
       id="linearGradient3196-2-5"
       gradientUnits="userSpaceOnUse"
       gradientTransform="matrix(-1,0,0,1,479.13287,1.691221)"
       x1="250.83124"
       y1="349.88623"
       x2="241.00351"
       y2="317.9021" />
    <linearGradient
       id="linearGradient5459-6-9-4-4-6-1">
      <stop
         style="stop-color:#127bca;stop-opacity:1;"
         offset="0"
         id="stop5461-3-8-7-4-4-2" />
      <stop
         style="stop-color:#dfeff7;stop-opacity:1;"
         offset="1"
         id="stop5463-51-9-3-7-1-6" />
    </linearGradient>
    <radialGradient
       inkscape:collect="always"
       xlink:href="#linearGradient3215-06-6-1-9-3-0"
       id="radialGradient3198-7-1"
       gradientUnits="userSpaceOnUse"
       cx="438.74796"
       cy="332.53036"
       fx="438.74796"
       fy="332.53036"
       r="49.090309" />
    <linearGradient
       id="linearGradient3215-06-6-1-9-3-0"
       inkscape:collect="always">
      <stop
         id="stop3217-0-3-4-8-7-9"
         offset="0"
         style="stop-color:#ffccaa;stop-opacity:1;" />
      <stop
         id="stop3219-5-2-7-6-8-3"
         offset="1"
         style="stop-color:#fa9351;stop-opacity:1" />
    </linearGradient>
    <radialGradient
       inkscape:collect="always"
       xlink:href="#linearGradient5451-8-6-7-7-7-4"
       id="radialGradient3200-2-9"
       gradientUnits="userSpaceOnUse"
       gradientTransform="matrix(-1,0,0,0.8475176,484.20653,41.219128)"
       cx="211.49677"
       cy="261.49875"
       fx="211.49677"
       fy="261.49875"
       r="45.738976" />
    <linearGradient
       id="linearGradient5451-8-6-7-7-7-4"
       inkscape:collect="always">
      <stop
         id="stop5453-8-5-8-3-2-7"
         offset="0"
         style="stop-color:#e4b762;stop-opacity:1" />
      <stop
         id="stop5455-1-0-4-3-1-1"
         offset="1"
         style="stop-color:#85724f;stop-opacity:1" />
    </linearGradient>
    <radialGradient
       inkscape:collect="always"
       xlink:href="#linearGradient3275-9-0-1-4-4"
       id="radialGradient3202-8-2"
       gradientUnits="userSpaceOnUse"
       gradientTransform="matrix(1,0,0,1.0645162,0,-3.5321331)"
       cx="34.488853"
       cy="54.748039"
       fx="34.488853"
       fy="54.748039"
       r="7.4766045" />
    <linearGradient
       id="linearGradient3275-9-0-1-4-4"
       inkscape:collect="always">
      <stop
         id="stop3277-1-8-4-4-3"
         offset="0"
         style="stop-color:#6e6e6e;stop-opacity:1" />
      <stop
         id="stop3279-4-4-2-8-7"
         offset="1"
         style="stop-color:#292929;stop-opacity:1" />
    </linearGradient>
    <radialGradient
       inkscape:collect="always"
       xlink:href="#linearGradient3275-9-0-1-4-4"
       id="radialGradient3204-7-2"
       gradientUnits="userSpaceOnUse"
       gradientTransform="matrix(1,0,0,1.0645162,0,-3.5321331)"
       cx="34.488853"
       cy="54.748039"
       fx="34.488853"
       fy="54.748039"
       r="7.4766045" />
    <radialGradient
       inkscape:collect="always"
       xlink:href="#linearGradient5465-03-0-8-6-9-2"
       id="radialGradient3194-0-9"
       gradientUnits="userSpaceOnUse"
       gradientTransform="matrix(-1.2141703,-0.3374805,-0.2313312,0.8322719,604.01264,128.99733)"
       cx="212.99527"
       cy="342.63647"
       fx="212.99527"
       fy="342.63647"
       r="46.492542" />
    <linearGradient
       id="linearGradient5465-03-0-8-6-9-2">
      <stop
         style="stop-color:#ffffff;stop-opacity:1;"
         offset="0"
         id="stop5467-3-4-5-6-3-4" />
      <stop
         style="stop-color:#cc7aaa;stop-opacity:1;"
         offset="1"
         id="stop5469-3-4-9-5-2-74" />
    </linearGradient>
    <linearGradient
       inkscape:collect="always"
       xlink:href="#linearGradient5459-6-9-4-4-6-6"
       id="linearGradient3196-2-6"
       gradientUnits="userSpaceOnUse"
       gradientTransform="matrix(-1,0,0,1,479.13287,1.691221)"
       x1="250.83124"
       y1="349.88623"
       x2="241.00351"
       y2="317.9021" />
    <linearGradient
       id="linearGradient5459-6-9-4-4-6-6">
      <stop
         style="stop-color:#127bca;stop-opacity:1;"
         offset="0"
         id="stop5461-3-8-7-4-4-9" />
      <stop
         style="stop-color:#dfeff7;stop-opacity:1;"
         offset="1"
         id="stop5463-51-9-3-7-1-7" />
    </linearGradient>
    <radialGradient
       inkscape:collect="always"
       xlink:href="#linearGradient3215-06-6-1-9-3-6"
       id="radialGradient3198-7-3"
       gradientUnits="userSpaceOnUse"
       cx="438.74796"
       cy="332.53036"
       fx="438.74796"
       fy="332.53036"
       r="49.090309" />
    <linearGradient
       id="linearGradient3215-06-6-1-9-3-6"
       inkscape:collect="always">
      <stop
         id="stop3217-0-3-4-8-7-97"
         offset="0"
         style="stop-color:#ffccaa;stop-opacity:1;" />
      <stop
         id="stop3219-5-2-7-6-8-1"
         offset="1"
         style="stop-color:#fa9351;stop-opacity:1" />
    </linearGradient>
    <radialGradient
       inkscape:collect="always"
       xlink:href="#linearGradient5451-8-6-7-7-7-45"
       id="radialGradient3200-2-4"
       gradientUnits="userSpaceOnUse"
       gradientTransform="matrix(-1,0,0,0.8475176,484.20653,41.219128)"
       cx="211.49677"
       cy="261.49875"
       fx="211.49677"
       fy="261.49875"
       r="45.738976" />
    <linearGradient
       id="linearGradient5451-8-6-7-7-7-45"
       inkscape:collect="always">
      <stop
         id="stop5453-8-5-8-3-2-0"
         offset="0"
         style="stop-color:#e4b762;stop-opacity:1" />
      <stop
         id="stop5455-1-0-4-3-1-8"
         offset="1"
         style="stop-color:#85724f;stop-opacity:1" />
    </linearGradient>
    <radialGradient
       inkscape:collect="always"
       xlink:href="#linearGradient3275-9-0-1-4-3"
       id="radialGradient3202-8-5"
       gradientUnits="userSpaceOnUse"
       gradientTransform="matrix(1,0,0,1.0645162,0,-3.5321331)"
       cx="34.488853"
       cy="54.748039"
       fx="34.488853"
       fy="54.748039"
       r="7.4766045" />
    <linearGradient
       id="linearGradient3275-9-0-1-4-3"
       inkscape:collect="always">
      <stop
         id="stop3277-1-8-4-4-8"
         offset="0"
         style="stop-color:#6e6e6e;stop-opacity:1" />
      <stop
         id="stop3279-4-4-2-8-5"
         offset="1"
         style="stop-color:#292929;stop-opacity:1" />
    </linearGradient>
    <radialGradient
       inkscape:collect="always"
       xlink:href="#linearGradient3275-9-0-1-4-3"
       id="radialGradient3204-7-7"
       gradientUnits="userSpaceOnUse"
       gradientTransform="matrix(1,0,0,1.0645162,0,-3.5321331)"
       cx="34.488853"
       cy="54.748039"
       fx="34.488853"
       fy="54.748039"
       r="7.4766045" />
    <radialGradient
       inkscape:collect="always"
       xlink:href="#linearGradient5465-03-0-8-6-9-1"
       id="radialGradient3194-0-32"
       gradientUnits="userSpaceOnUse"
       gradientTransform="matrix(-1.2141703,-0.3374805,-0.2313312,0.8322719,604.01264,128.99733)"
       cx="212.99527"
       cy="342.63647"
       fx="212.99527"
       fy="342.63647"
       r="46.492542" />
    <linearGradient
       id="linearGradient5465-03-0-8-6-9-1">
      <stop
         style="stop-color:#ffffff;stop-opacity:1;"
         offset="0"
         id="stop5467-3-4-5-6-3-40" />
      <stop
         style="stop-color:#cc7aaa;stop-opacity:1;"
         offset="1"
         id="stop5469-3-4-9-5-2-4" />
    </linearGradient>
    <linearGradient
       inkscape:collect="always"
       xlink:href="#linearGradient5459-6-9-4-4-6-60"
       id="linearGradient3196-2-0"
       gradientUnits="userSpaceOnUse"
       gradientTransform="matrix(-1,0,0,1,479.13287,1.691221)"
       x1="250.83124"
       y1="349.88623"
       x2="241.00351"
       y2="317.9021" />
    <linearGradient
       id="linearGradient5459-6-9-4-4-6-60">
      <stop
         style="stop-color:#127bca;stop-opacity:1;"
         offset="0"
         id="stop5461-3-8-7-4-4-0" />
      <stop
         style="stop-color:#dfeff7;stop-opacity:1;"
         offset="1"
         id="stop5463-51-9-3-7-1-5" />
    </linearGradient>
    <radialGradient
       inkscape:collect="always"
       xlink:href="#linearGradient3215-06-6-1-9-3-4"
       id="radialGradient3198-7-5"
       gradientUnits="userSpaceOnUse"
       cx="438.74796"
       cy="332.53036"
       fx="438.74796"
       fy="332.53036"
       r="49.090309" />
    <linearGradient
       id="linearGradient3215-06-6-1-9-3-4"
       inkscape:collect="always">
      <stop
         id="stop3217-0-3-4-8-7-5"
         offset="0"
         style="stop-color:#ffccaa;stop-opacity:1;" />
      <stop
         id="stop3219-5-2-7-6-8-2"
         offset="1"
         style="stop-color:#fa9351;stop-opacity:1" />
    </linearGradient>
    <radialGradient
       inkscape:collect="always"
       xlink:href="#linearGradient5451-8-6-7-7-7-5"
       id="radialGradient3200-2-3"
       gradientUnits="userSpaceOnUse"
       gradientTransform="matrix(-1,0,0,0.8475176,484.20653,41.219128)"
       cx="211.49677"
       cy="261.49875"
       fx="211.49677"
       fy="261.49875"
       r="45.738976" />
    <linearGradient
       id="linearGradient5451-8-6-7-7-7-5"
       inkscape:collect="always">
      <stop
         id="stop5453-8-5-8-3-2-1"
         offset="0"
         style="stop-color:#e4b762;stop-opacity:1" />
      <stop
         id="stop5455-1-0-4-3-1-7"
         offset="1"
         style="stop-color:#85724f;stop-opacity:1" />
    </linearGradient>
    <radialGradient
       inkscape:collect="always"
       xlink:href="#linearGradient3275-9-0-1-4-2"
       id="radialGradient3202-8-7"
       gradientUnits="userSpaceOnUse"
       gradientTransform="matrix(1,0,0,1.0645162,0,-3.5321331)"
       cx="34.488853"
       cy="54.748039"
       fx="34.488853"
       fy="54.748039"
       r="7.4766045" />
    <linearGradient
       id="linearGradient3275-9-0-1-4-2"
       inkscape:collect="always">
      <stop
         id="stop3277-1-8-4-4-32"
         offset="0"
         style="stop-color:#6e6e6e;stop-opacity:1" />
      <stop
         id="stop3279-4-4-2-8-6"
         offset="1"
         style="stop-color:#292929;stop-opacity:1" />
    </linearGradient>
    <radialGradient
       inkscape:collect="always"
       xlink:href="#linearGradient3275-9-0-1-4-2"
       id="radialGradient3204-7-1"
       gradientUnits="userSpaceOnUse"
       gradientTransform="matrix(1,0,0,1.0645162,0,-3.5321331)"
       cx="34.488853"
       cy="54.748039"
       fx="34.488853"
       fy="54.748039"
       r="7.4766045" />
    <radialGradient
       inkscape:collect="always"
       xlink:href="#linearGradient5465-03-0-8-6-9-7"
       id="radialGradient3194-0-2"
       gradientUnits="userSpaceOnUse"
       gradientTransform="matrix(-1.2141703,-0.3374805,-0.2313312,0.8322719,604.01264,128.99733)"
       cx="212.99527"
       cy="342.63647"
       fx="212.99527"
       fy="342.63647"
       r="46.492542" />
    <linearGradient
       id="linearGradient5465-03-0-8-6-9-7">
      <stop
         style="stop-color:#ffffff;stop-opacity:1;"
         offset="0"
         id="stop5467-3-4-5-6-3-8" />
      <stop
         style="stop-color:#cc7aaa;stop-opacity:1;"
         offset="1"
         id="stop5469-3-4-9-5-2-79" />
    </linearGradient>
    <linearGradient
       inkscape:collect="always"
       xlink:href="#linearGradient5459-6-9-4-4-6-3"
       id="linearGradient3196-2-66"
       gradientUnits="userSpaceOnUse"
       gradientTransform="matrix(-1,0,0,1,479.13287,1.691221)"
       x1="250.83124"
       y1="349.88623"
       x2="241.00351"
       y2="317.9021" />
    <linearGradient
       id="linearGradient5459-6-9-4-4-6-3">
      <stop
         style="stop-color:#127bca;stop-opacity:1;"
         offset="0"
         id="stop5461-3-8-7-4-4-1" />
      <stop
         style="stop-color:#dfeff7;stop-opacity:1;"
         offset="1"
         id="stop5463-51-9-3-7-1-9" />
    </linearGradient>
    <radialGradient
       inkscape:collect="always"
       xlink:href="#linearGradient3215-06-6-1-9-3-2"
       id="radialGradient3198-7-0"
       gradientUnits="userSpaceOnUse"
       cx="438.74796"
       cy="332.53036"
       fx="438.74796"
       fy="332.53036"
       r="49.090309" />
    <linearGradient
       id="linearGradient3215-06-6-1-9-3-2"
       inkscape:collect="always">
      <stop
         id="stop3217-0-3-4-8-7-1"
         offset="0"
         style="stop-color:#ffccaa;stop-opacity:1;" />
      <stop
         id="stop3219-5-2-7-6-8-7"
         offset="1"
         style="stop-color:#fa9351;stop-opacity:1" />
    </linearGradient>
    <radialGradient
       inkscape:collect="always"
       xlink:href="#linearGradient5451-8-6-7-7-7-49"
       id="radialGradient3200-2-90"
       gradientUnits="userSpaceOnUse"
       gradientTransform="matrix(-1,0,0,0.8475176,484.20653,41.219128)"
       cx="211.49677"
       cy="261.49875"
       fx="211.49677"
       fy="261.49875"
       r="45.738976" />
    <linearGradient
       id="linearGradient5451-8-6-7-7-7-49"
       inkscape:collect="always">
      <stop
         id="stop5453-8-5-8-3-2-5"
         offset="0"
         style="stop-color:#e4b762;stop-opacity:1" />
      <stop
         id="stop5455-1-0-4-3-1-6"
         offset="1"
         style="stop-color:#85724f;stop-opacity:1" />
    </linearGradient>
    <radialGradient
       inkscape:collect="always"
       xlink:href="#linearGradient3275-9-0-1-4-37"
       id="radialGradient3202-8-0"
       gradientUnits="userSpaceOnUse"
       gradientTransform="matrix(1,0,0,1.0645162,0,-3.5321331)"
       cx="34.488853"
       cy="54.748039"
       fx="34.488853"
       fy="54.748039"
       r="7.4766045" />
    <linearGradient
       id="linearGradient3275-9-0-1-4-37"
       inkscape:collect="always">
      <stop
         id="stop3277-1-8-4-4-84"
         offset="0"
         style="stop-color:#6e6e6e;stop-opacity:1" />
      <stop
         id="stop3279-4-4-2-8-76"
         offset="1"
         style="stop-color:#292929;stop-opacity:1" />
    </linearGradient>
    <radialGradient
       inkscape:collect="always"
       xlink:href="#linearGradient3275-9-0-1-4-37"
       id="radialGradient3204-7-4"
       gradientUnits="userSpaceOnUse"
       gradientTransform="matrix(1,0,0,1.0645162,0,-3.5321331)"
       cx="34.488853"
       cy="54.748039"
       fx="34.488853"
       fy="54.748039"
       r="7.4766045" />
    <marker
       inkscape:stockid="Arrow1Mend"
       orient="auto"
       refY="0"
       refX="0"
       id="Arrow1Mend-5"
       style="overflow:visible">
      <path
         inkscape:connector-curvature="0"
         id="path3956-6"
         d="M 0,0 5,-5 -12.5,0 5,5 0,0 z"
         style="fill-rule:evenodd;stroke:#000000;stroke-width:1pt"
         transform="matrix(-0.4,0,0,-0.4,-4,0)" />
    </marker>
    <marker
       inkscape:stockid="Arrow1Mend"
       orient="auto"
       refY="0"
       refX="0"
       id="Arrow1Mend-7"
       style="overflow:visible">
      <path
         inkscape:connector-curvature="0"
         id="path3956-3"
         d="M 0,0 5,-5 -12.5,0 5,5 0,0 z"
         style="fill-rule:evenodd;stroke:#000000;stroke-width:1pt"
         transform="matrix(-0.4,0,0,-0.4,-4,0)" />
    </marker>
    <marker
       inkscape:stockid="Arrow1Mend"
       orient="auto"
       refY="0"
       refX="0"
       id="Arrow1Mend-53"
       style="overflow:visible">
      <path
         inkscape:connector-curvature="0"
         id="path3956-5"
         d="M 0,0 5,-5 -12.5,0 5,5 0,0 z"
         style="fill-rule:evenodd;stroke:#000000;stroke-width:1pt"
         transform="matrix(-0.4,0,0,-0.4,-4,0)" />
    </marker>
    <marker
       inkscape:stockid="Arrow1Mend"
       orient="auto"
       refY="0"
       refX="0"
       id="Arrow1Mend-52"
       style="overflow:visible">
      <path
         inkscape:connector-curvature="0"
         id="path3956-1"
         d="M 0,0 5,-5 -12.5,0 5,5 0,0 z"
         style="fill-rule:evenodd;stroke:#000000;stroke-width:1pt"
         transform="matrix(-0.4,0,0,-0.4,-4,0)" />
    </marker>
  </defs>
  <sodipodi:namedview
     id="base"
     pagecolor="#ffffff"
     bordercolor="#666666"
     borderopacity="1.0"
     inkscape:pageopacity="0.0"
     inkscape:pageshadow="2"
     inkscape:zoom="1.4"
     inkscape:cx="265.46844"
     inkscape:cy="124.44667"
     inkscape:document-units="px"
     inkscape:current-layer="layer4"
     showgrid="false"
     fit-margin-top="5"
     fit-margin-left="5"
     fit-margin-right="5"
     fit-margin-bottom="5"
     inkscape:window-width="1920"
     inkscape:window-height="1056"
     inkscape:window-x="0"
     inkscape:window-y="24"
     inkscape:window-maximized="1" />
  <metadata
     id="metadata7">
    <rdf:RDF>
      <cc:Work
         rdf:about="">
        <dc:format>image/svg+xml</dc:format>
        <dc:type
           rdf:resource="http://purl.org/dc/dcmitype/StillImage" />
        <dc:title />
      </cc:Work>
    </rdf:RDF>
  </metadata>
  <g
     inkscape:groupmode="layer"
     id="layer5"
     inkscape:label="base &lt;1-&gt;"
     transform="translate(285.01075,-89.582838)"
     style="display:inline"
     sodipodi:insensitive="true">
    <g
       id="layer1-1-7-8"
       transform="matrix(0.07212992,-0.01831471,-0.07082025,-0.0186534,42.817204,283.95461)"
       style="fill:#a20d59;fill-opacity:1;stroke:none">
      <path
         style="font-size:medium;font-style:normal;font-variant:normal;font-weight:normal;font-stretch:normal;text-indent:0;text-align:start;text-decoration:none;line-height:normal;letter-spacing:normal;word-spacing:normal;text-transform:none;direction:ltr;block-progression:tb;writing-mode:lr-tb;text-anchor:start;baseline-shift:baseline;color:#000000;fill:#a20d59;fill-opacity:1;stroke:none;stroke-width:40;marker:none;visibility:visible;display:inline;overflow:visible;enable-background:accumulate;font-family:Sans;-inkscape-font-specification:Sans"
         d="m 400.3125,-101.375 c 81.89296,82.169604 163.75403,164.370989 245.625,246.5625 -168.88153,168.17044 -2362.6166,2324.6248 -2531.5146,2492.7788 119.3188,119.7566 242.4874,243.3894 350.8438,352.2187 C -1365.9139,2821.9628 827.90233,665.60022 996.75,497.40625 c 81.3462,81.66424 162.6956,163.32523 244.0312,245 C 1183.2637,524.37414 1125.7401,306.34361 1068.2188,88.3125 l -0.125,0.03125 0.031,-0.125 C 845.51748,25.032185 622.92758,-38.215761 400.3125,-101.375 z"
         id="path1872-0-2"
         inkscape:connector-curvature="0"
         sodipodi:nodetypes="cccccccccc" />
    </g>
    <text
       xml:space="preserve"
       style="font-size:16px;font-style:normal;font-variant:normal;font-weight:normal;font-stretch:normal;text-align:center;line-height:125%;letter-spacing:0px;word-spacing:0px;text-anchor:middle;fill:#ffffff;fill-opacity:1;stroke:none;font-family:DejaVu Sans;-inkscape-font-specification:DejaVu Sans"
       x="-271.92581"
       y="268.23169"
       id="text4436"
       sodipodi:linespacing="125%"><tspan
         sodipodi:role="line"
         id="tspan4438"
         x="-271.92581"
         y="268.23169">t</tspan></text>
  </g>
  <g
     inkscape:groupmode="layer"
     id="layer1"
     inkscape:label="body1 &lt;1&gt;"
     style="display:inline"
     transform="translate(135.39468,-332.39778)"
     sodipodi:insensitive="true">
    <g
       transform="translate(149.61607,242.81494)"
       style="display:inline"
       id="g4446">
      <path
         transform="translate(-151.75893,-243.52924)"
         d="m -75.733429,506.30829 a 6.5940013,6.5940013 0 1 1 -13.188003,0 6.5940013,6.5940013 0 1 1 13.188003,0 z"
         sodipodi:ry="6.5940013"
         sodipodi:rx="6.5940013"
         sodipodi:cy="506.30829"
         sodipodi:cx="-82.327431"
         id="path4442"
         style="fill:#ffffff;fill-opacity:1;stroke:none"
         sodipodi:type="arc" />
      <path
         sodipodi:nodetypes="cc"
         inkscape:connector-curvature="0"
         id="path4444"
         d="m -234.07153,256.27133 0,13.03571"
         style="fill:none;stroke:#a20d59;stroke-width:2;stroke-linecap:butt;stroke-linejoin:miter;stroke-miterlimit:4;stroke-opacity:1;stroke-dasharray:none" />
    </g>
    <path
       style="fill:none;stroke:#000000;stroke-width:1px;stroke-linecap:butt;stroke-linejoin:miter;stroke-opacity:1;marker-end:url(#Arrow1Mend)"
       d="M 68.571429,51.074009 127.30254,62.595302"
       id="path3173"
       inkscape:connector-curvature="0"
       transform="translate(-135.39468,332.39778)"
       sodipodi:nodetypes="cc" />
    <g
       style="display:inline"
       inkscape:label="Layer 1"
       id="layer1-4"
       transform="matrix(-0.40684931,0,0,0.40684931,33.54785,243.1894)">
      <path
         inkscape:connector-curvature="0"
         style="fill:url(#radialGradient3194-0);fill-opacity:1;fill-rule:evenodd;stroke:#383838;stroke-width:3.37548995;stroke-linecap:butt;stroke-linejoin:miter;stroke-miterlimit:4;stroke-opacity:1;stroke-dasharray:none"
         d="m 249.16416,290.84494 c 29.16762,0.82788 52.04657,48.59132 41.25726,64.78842 -10.78929,16.1971 -74.10016,16.1971 -84.41448,0 -10.31431,-16.1971 13.04054,-65.64324 43.15722,-64.78842 z"
         id="path7363-6"
         sodipodi:nodetypes="cssz" />
      <path
         inkscape:connector-curvature="0"
         style="fill:url(#linearGradient3196-2);fill-opacity:1;fill-rule:evenodd;stroke:#383838;stroke-width:3.07961988;stroke-linecap:butt;stroke-linejoin:miter;stroke-miterlimit:4;stroke-opacity:1;stroke-dasharray:none"
         d="m 246.97821,320.14762 -6.89459,7.16271 3.89488,23.0917 -16.9692,9.76515 -6.34956,-15.47521 12.06165,-18.56007 -2.55204,-9.69706 16.80886,3.71278 z"
         id="path7365-1"
         sodipodi:nodetypes="cccccccc" />
      <path
         sodipodi:type="arc"
         style="fill:url(#radialGradient3198-7);fill-opacity:1;fill-rule:evenodd;stroke:#383838;stroke-width:5.00003576;stroke-linecap:butt;stroke-linejoin:miter;stroke-miterlimit:4;stroke-opacity:1;stroke-dasharray:none"
         id="path7367-7"
         sodipodi:cx="450.37299"
         sodipodi:cy="320.73038"
         sodipodi:rx="46.590309"
         sodipodi:ry="46.590309"
         d="m 496.96329,320.73038 a 46.590309,46.590309 0 1 1 -93.18061,0 46.590309,46.590309 0 1 1 93.18061,0 z"
         transform="matrix(0.778675,0,0,0.869413,-104.19713,1.609961)" />
      <path
         inkscape:connector-curvature="0"
         style="fill:url(#radialGradient3200-2);fill-opacity:1;fill-rule:evenodd;stroke:#383838;stroke-width:3.87308121;stroke-linecap:butt;stroke-linejoin:miter;stroke-miterlimit:4;stroke-opacity:1;stroke-dasharray:none"
         d="m 261.32487,261.04504 c 0,0 -13.3262,14.15253 -28.19148,14.15253 -13.98097,0 -27.62058,-10.22613 -27.62058,-10.22613 0,0 7.11866,-28.44437 29.78608,-30.97224 22.63369,-2.52412 48.84831,3.92887 56.15342,29.63581 7.39063,26.00787 -12.21234,43.51357 -12.21234,43.51357 l -6.13393,-27.11738 -8.16006,0.20892 -3.62111,-19.19508 z"
         id="path7441-1"
         sodipodi:nodetypes="czczzcccc" />
      <path
         inkscape:connector-curvature="0"
         style="fill:#fa9e62;fill-opacity:1;fill-rule:evenodd;stroke:#383838;stroke-width:3.87308121;stroke-linecap:butt;stroke-linejoin:miter;stroke-miterlimit:4;stroke-opacity:1"
         d="m 266.81768,282.19115 c 2.84209,-8.04979 12.39065,-5.30532 12.92512,3.6066 0.60899,10.1546 -12.08342,11.87471 -12.08342,11.87471"
         id="path7443-6"
         sodipodi:nodetypes="csc" />
      <path
         sodipodi:open="true"
         sodipodi:end="6.2750861"
         sodipodi:start="0"
         transform="matrix(-1.2272275,0,0,1.1528501,291.6728,225.04329)"
         d="m 41.965458,54.748039 a 7.4766045,7.9589663 0 1 1 -2.45e-4,-0.06446"
         sodipodi:ry="7.9589663"
         sodipodi:rx="7.4766045"
         sodipodi:cy="54.748039"
         sodipodi:cx="34.488853"
         id="path3271-0"
         style="fill:#ffffff;fill-opacity:1;fill-rule:evenodd;stroke:none;display:inline"
         sodipodi:type="arc" />
      <path
         sodipodi:open="true"
         sodipodi:end="6.2750861"
         sodipodi:start="0"
         transform="matrix(-0.81815179,0,0,0.74323901,274.50573,247.67027)"
         d="m 41.965458,54.748039 a 7.4766045,7.9589663 0 1 1 -2.45e-4,-0.06446"
         sodipodi:ry="7.9589663"
         sodipodi:rx="7.4766045"
         sodipodi:cy="54.748039"
         sodipodi:cx="34.488853"
         id="path3273-3"
         style="fill:url(#radialGradient3202-8);fill-opacity:1;fill-rule:evenodd;stroke:none;display:inline"
         sodipodi:type="arc" />
      <path
         sodipodi:open="true"
         sodipodi:end="6.2750861"
         sodipodi:start="0"
         transform="matrix(-0.29750968,0,0,0.27947876,254.88112,272.30255)"
         d="m 41.965458,54.748039 a 7.4766045,7.9589663 0 1 1 -2.45e-4,-0.06446"
         sodipodi:ry="7.9589663"
         sodipodi:rx="7.4766045"
         sodipodi:cy="54.748039"
         sodipodi:cx="34.488853"
         id="path3283-8"
         style="fill:#ffffff;fill-opacity:1;fill-rule:evenodd;stroke:none;display:inline"
         sodipodi:type="arc" />
      <path
         sodipodi:open="true"
         sodipodi:end="6.2750861"
         sodipodi:start="0"
         transform="matrix(-1.2272275,0,0,1.1528501,263.5562,223.1783)"
         d="m 41.965458,54.748039 a 7.4766045,7.9589663 0 1 1 -2.45e-4,-0.06446"
         sodipodi:ry="7.9589663"
         sodipodi:rx="7.4766045"
         sodipodi:cy="54.748039"
         sodipodi:cx="34.488853"
         id="path3285-7"
         style="fill:#ffffff;fill-opacity:1;fill-rule:evenodd;stroke:none;display:inline"
         sodipodi:type="arc" />
      <path
         sodipodi:open="true"
         sodipodi:end="6.2750861"
         sodipodi:start="0"
         transform="matrix(-0.81815179,0,0,0.74323901,246.38913,245.80528)"
         d="m 41.965458,54.748039 a 7.4766045,7.9589663 0 1 1 -2.45e-4,-0.06446"
         sodipodi:ry="7.9589663"
         sodipodi:rx="7.4766045"
         sodipodi:cy="54.748039"
         sodipodi:cx="34.488853"
         id="path3287-6"
         style="fill:url(#radialGradient3204-7);fill-opacity:1;fill-rule:evenodd;stroke:none;display:inline"
         sodipodi:type="arc" />
      <path
         sodipodi:open="true"
         sodipodi:end="6.2750861"
         sodipodi:start="0"
         transform="matrix(-0.29750968,0,0,0.27947876,226.76454,270.43756)"
         d="m 41.965458,54.748039 a 7.4766045,7.9589663 0 1 1 -2.45e-4,-0.06446"
         sodipodi:ry="7.9589663"
         sodipodi:rx="7.4766045"
         sodipodi:cy="54.748039"
         sodipodi:cx="34.488853"
         id="path3289-5"
         style="fill:#ffffff;fill-opacity:1;fill-rule:evenodd;stroke:none;display:inline"
         sodipodi:type="arc" />
      <path
         sodipodi:open="true"
         sodipodi:end="6.2750861"
         sodipodi:start="0"
         transform="matrix(-0.18594354,0,0,0.19214161,254.64794,280.55968)"
         d="m 41.965458,54.748039 a 7.4766045,7.9589663 0 1 1 -2.45e-4,-0.06446"
         sodipodi:ry="7.9589663"
         sodipodi:rx="7.4766045"
         sodipodi:cy="54.748039"
         sodipodi:cx="34.488853"
         id="path3293-9"
         style="opacity:0.84513275;fill:#ffffff;fill-opacity:1;fill-rule:evenodd;stroke:none;display:inline"
         sodipodi:type="arc" />
      <path
         sodipodi:open="true"
         sodipodi:end="6.2750861"
         sodipodi:start="0"
         transform="matrix(-0.18594354,0,0,0.19214161,225.97523,279.11175)"
         d="m 41.965458,54.748039 a 7.4766045,7.9589663 0 1 1 -2.45e-4,-0.06446"
         sodipodi:ry="7.9589663"
         sodipodi:rx="7.4766045"
         sodipodi:cy="54.748039"
         sodipodi:cx="34.488853"
         id="path3295-3"
         style="opacity:0.84513275;fill:#ffffff;fill-opacity:1;fill-rule:evenodd;stroke:none;display:inline"
         sodipodi:type="arc" />
    </g>
  </g>
  <g
     inkscape:groupmode="layer"
     id="layer2"
     inkscape:label="body2 &lt;2&gt;"
     style="display:inline"
     transform="translate(4.234407e-6,-14.854559)"
     sodipodi:insensitive="true">
    <path
       style="fill:none;stroke:#000000;stroke-width:1px;stroke-linecap:butt;stroke-linejoin:miter;stroke-opacity:1;marker-end:none;display:inline"
       d="m 67.5,66.285716 66.42857,12.5"
       id="path3175"
       inkscape:connector-curvature="0" />
    <path
       style="fill:none;stroke:#000000;stroke-width:1px;stroke-linecap:butt;stroke-linejoin:miter;stroke-opacity:1;marker-end:url(#Arrow1Mend);display:inline"
       d="m 134.03873,79.195959 20.67008,56.167881"
       id="path3173-1"
       inkscape:connector-curvature="0"
       sodipodi:nodetypes="cc"
       inkscape:transform-center-x="-10.215281"
       inkscape:transform-center-y="29.115171" />
    <g
       style="display:inline"
       inkscape:label="Layer 1"
       id="layer1-4-5"
       transform="matrix(-0.40684931,0,0,0.40684931,232.90597,-63.990302)">
      <path
         inkscape:connector-curvature="0"
         style="fill:url(#radialGradient3194-0-3);fill-opacity:1;fill-rule:evenodd;stroke:#383838;stroke-width:3.37548995;stroke-linecap:butt;stroke-linejoin:miter;stroke-miterlimit:4;stroke-opacity:1;stroke-dasharray:none"
         d="m 249.16416,290.84494 c 29.16762,0.82788 52.04657,48.59132 41.25726,64.78842 -10.78929,16.1971 -74.10016,16.1971 -84.41448,0 -10.31431,-16.1971 13.04054,-65.64324 43.15722,-64.78842 z"
         id="path7363-6-2"
         sodipodi:nodetypes="cssz" />
      <path
         inkscape:connector-curvature="0"
         style="fill:url(#linearGradient3196-2-5);fill-opacity:1;fill-rule:evenodd;stroke:#383838;stroke-width:3.07961988;stroke-linecap:butt;stroke-linejoin:miter;stroke-miterlimit:4;stroke-opacity:1;stroke-dasharray:none"
         d="m 246.97821,320.14762 -6.89459,7.16271 3.89488,23.0917 -16.9692,9.76515 -6.34956,-15.47521 12.06165,-18.56007 -2.55204,-9.69706 16.80886,3.71278 z"
         id="path7365-1-9"
         sodipodi:nodetypes="cccccccc" />
      <path
         sodipodi:type="arc"
         style="fill:url(#radialGradient3198-7-1);fill-opacity:1;fill-rule:evenodd;stroke:#383838;stroke-width:5.00003576;stroke-linecap:butt;stroke-linejoin:miter;stroke-miterlimit:4;stroke-opacity:1;stroke-dasharray:none"
         id="path7367-7-1"
         sodipodi:cx="450.37299"
         sodipodi:cy="320.73038"
         sodipodi:rx="46.590309"
         sodipodi:ry="46.590309"
         d="m 496.96329,320.73038 a 46.590309,46.590309 0 1 1 -93.18061,0 46.590309,46.590309 0 1 1 93.18061,0 z"
         transform="matrix(0.778675,0,0,0.869413,-104.19713,1.609961)" />
      <path
         inkscape:connector-curvature="0"
         style="fill:url(#radialGradient3200-2-9);fill-opacity:1;fill-rule:evenodd;stroke:#383838;stroke-width:3.87308121;stroke-linecap:butt;stroke-linejoin:miter;stroke-miterlimit:4;stroke-opacity:1;stroke-dasharray:none"
         d="m 261.32487,261.04504 c 0,0 -13.3262,14.15253 -28.19148,14.15253 -13.98097,0 -27.62058,-10.22613 -27.62058,-10.22613 0,0 7.11866,-28.44437 29.78608,-30.97224 22.63369,-2.52412 48.84831,3.92887 56.15342,29.63581 7.39063,26.00787 -12.21234,43.51357 -12.21234,43.51357 l -6.13393,-27.11738 -8.16006,0.20892 -3.62111,-19.19508 z"
         id="path7441-1-0"
         sodipodi:nodetypes="czczzcccc" />
      <path
         inkscape:connector-curvature="0"
         style="fill:#fa9e62;fill-opacity:1;fill-rule:evenodd;stroke:#383838;stroke-width:3.87308121;stroke-linecap:butt;stroke-linejoin:miter;stroke-miterlimit:4;stroke-opacity:1"
         d="m 266.81768,282.19115 c 2.84209,-8.04979 12.39065,-5.30532 12.92512,3.6066 0.60899,10.1546 -12.08342,11.87471 -12.08342,11.87471"
         id="path7443-6-0"
         sodipodi:nodetypes="csc" />
      <path
         sodipodi:open="true"
         sodipodi:end="6.2750861"
         sodipodi:start="0"
         transform="matrix(-1.2272275,0,0,1.1528501,291.6728,225.04329)"
         d="m 41.965458,54.748039 a 7.4766045,7.9589663 0 1 1 -2.45e-4,-0.06446"
         sodipodi:ry="7.9589663"
         sodipodi:rx="7.4766045"
         sodipodi:cy="54.748039"
         sodipodi:cx="34.488853"
         id="path3271-0-3"
         style="fill:#ffffff;fill-opacity:1;fill-rule:evenodd;stroke:none;display:inline"
         sodipodi:type="arc" />
      <path
         sodipodi:open="true"
         sodipodi:end="6.2750861"
         sodipodi:start="0"
         transform="matrix(-0.81815179,0,0,0.74323901,274.50573,247.67027)"
         d="m 41.965458,54.748039 a 7.4766045,7.9589663 0 1 1 -2.45e-4,-0.06446"
         sodipodi:ry="7.9589663"
         sodipodi:rx="7.4766045"
         sodipodi:cy="54.748039"
         sodipodi:cx="34.488853"
         id="path3273-3-9"
         style="fill:url(#radialGradient3202-8-2);fill-opacity:1;fill-rule:evenodd;stroke:none;display:inline"
         sodipodi:type="arc" />
      <path
         sodipodi:open="true"
         sodipodi:end="6.2750861"
         sodipodi:start="0"
         transform="matrix(-0.29750968,0,0,0.27947876,254.88112,272.30255)"
         d="m 41.965458,54.748039 a 7.4766045,7.9589663 0 1 1 -2.45e-4,-0.06446"
         sodipodi:ry="7.9589663"
         sodipodi:rx="7.4766045"
         sodipodi:cy="54.748039"
         sodipodi:cx="34.488853"
         id="path3283-8-1"
         style="fill:#ffffff;fill-opacity:1;fill-rule:evenodd;stroke:none;display:inline"
         sodipodi:type="arc" />
      <path
         sodipodi:open="true"
         sodipodi:end="6.2750861"
         sodipodi:start="0"
         transform="matrix(-1.2272275,0,0,1.1528501,263.5562,223.1783)"
         d="m 41.965458,54.748039 a 7.4766045,7.9589663 0 1 1 -2.45e-4,-0.06446"
         sodipodi:ry="7.9589663"
         sodipodi:rx="7.4766045"
         sodipodi:cy="54.748039"
         sodipodi:cx="34.488853"
         id="path3285-7-5"
         style="fill:#ffffff;fill-opacity:1;fill-rule:evenodd;stroke:none;display:inline"
         sodipodi:type="arc" />
      <path
         sodipodi:open="true"
         sodipodi:end="6.2750861"
         sodipodi:start="0"
         transform="matrix(-0.81815179,0,0,0.74323901,246.38913,245.80528)"
         d="m 41.965458,54.748039 a 7.4766045,7.9589663 0 1 1 -2.45e-4,-0.06446"
         sodipodi:ry="7.9589663"
         sodipodi:rx="7.4766045"
         sodipodi:cy="54.748039"
         sodipodi:cx="34.488853"
         id="path3287-6-2"
         style="fill:url(#radialGradient3204-7-2);fill-opacity:1;fill-rule:evenodd;stroke:none;display:inline"
         sodipodi:type="arc" />
      <path
         sodipodi:open="true"
         sodipodi:end="6.2750861"
         sodipodi:start="0"
         transform="matrix(-0.29750968,0,0,0.27947876,226.76454,270.43756)"
         d="m 41.965458,54.748039 a 7.4766045,7.9589663 0 1 1 -2.45e-4,-0.06446"
         sodipodi:ry="7.9589663"
         sodipodi:rx="7.4766045"
         sodipodi:cy="54.748039"
         sodipodi:cx="34.488853"
         id="path3289-5-2"
         style="fill:#ffffff;fill-opacity:1;fill-rule:evenodd;stroke:none;display:inline"
         sodipodi:type="arc" />
      <path
         sodipodi:open="true"
         sodipodi:end="6.2750861"
         sodipodi:start="0"
         transform="matrix(-0.18594354,0,0,0.19214161,254.64794,280.55968)"
         d="m 41.965458,54.748039 a 7.4766045,7.9589663 0 1 1 -2.45e-4,-0.06446"
         sodipodi:ry="7.9589663"
         sodipodi:rx="7.4766045"
         sodipodi:cy="54.748039"
         sodipodi:cx="34.488853"
         id="path3293-9-9"
         style="opacity:0.84513275;fill:#ffffff;fill-opacity:1;fill-rule:evenodd;stroke:none;display:inline"
         sodipodi:type="arc" />
      <path
         sodipodi:open="true"
         sodipodi:end="6.2750861"
         sodipodi:start="0"
         transform="matrix(-0.18594354,0,0,0.19214161,225.97523,279.11175)"
         d="m 41.965458,54.748039 a 7.4766045,7.9589663 0 1 1 -2.45e-4,-0.06446"
         sodipodi:ry="7.9589663"
         sodipodi:rx="7.4766045"
         sodipodi:cy="54.748039"
         sodipodi:cx="34.488853"
         id="path3295-3-9"
         style="opacity:0.84513275;fill:#ffffff;fill-opacity:1;fill-rule:evenodd;stroke:none;display:inline"
         sodipodi:type="arc" />
    </g>
    <g
       id="g3261"
       style="display:inline"
       transform="translate(307.58217,-74.728281)">
      <path
         sodipodi:type="arc"
         style="fill:#ffffff;fill-opacity:1;stroke:none"
         id="path3263"
         sodipodi:cx="-82.327431"
         sodipodi:cy="506.30829"
         sodipodi:rx="6.5940013"
         sodipodi:ry="6.5940013"
         d="m -75.733429,506.30829 a 6.5940013,6.5940013 0 1 1 -13.188003,0 6.5940013,6.5940013 0 1 1 13.188003,0 z"
         transform="translate(-151.75893,-243.52924)" />
      <path
         style="fill:none;stroke:#a20d59;stroke-width:2;stroke-linecap:butt;stroke-linejoin:miter;stroke-miterlimit:4;stroke-opacity:1;stroke-dasharray:none"
         d="m -234.07153,256.27133 0,13.03571"
         id="path3265"
         inkscape:connector-curvature="0"
         sodipodi:nodetypes="cc" />
    </g>
  </g>
  <g
     inkscape:groupmode="layer"
     id="layer3"
     inkscape:label="body3 &lt;3&gt;"
     style="display:inline"
     transform="translate(4.234407e-6,-14.854559)"
     sodipodi:insensitive="true">
    <path
       style="fill:none;stroke:#000000;stroke-width:1px;stroke-linecap:butt;stroke-linejoin:miter;stroke-opacity:1;marker-end:none;display:inline"
       d="m 67.5,66.285716 66.42857,12.5 21.12984,57.521544"
       id="path3175-5"
       inkscape:connector-curvature="0" />
    <path
       style="fill:none;stroke:#000000;stroke-width:1px;stroke-linecap:butt;stroke-linejoin:miter;stroke-opacity:1;marker-end:url(#Arrow1Mend);display:inline"
       d="m 155.90322,135.76817 51.45263,-30.57301"
       id="path3173-1-3"
       inkscape:connector-curvature="0"
       sodipodi:nodetypes="cc"
       inkscape:transform-center-x="-26.737178"
       inkscape:transform-center-y="-15.37766" />
    <g
       style="display:inline"
       inkscape:label="Layer 1"
       id="layer1-4-7"
       transform="matrix(-0.40684931,0,0,0.40684931,257.14962,-5.4014544)">
      <path
         inkscape:connector-curvature="0"
         style="fill:url(#radialGradient3194-0-9);fill-opacity:1;fill-rule:evenodd;stroke:#383838;stroke-width:3.37548995;stroke-linecap:butt;stroke-linejoin:miter;stroke-miterlimit:4;stroke-opacity:1;stroke-dasharray:none"
         d="m 249.16416,290.84494 c 29.16762,0.82788 52.04657,48.59132 41.25726,64.78842 -10.78929,16.1971 -74.10016,16.1971 -84.41448,0 -10.31431,-16.1971 13.04054,-65.64324 43.15722,-64.78842 z"
         id="path7363-6-7"
         sodipodi:nodetypes="cssz" />
      <path
         inkscape:connector-curvature="0"
         style="fill:url(#linearGradient3196-2-6);fill-opacity:1;fill-rule:evenodd;stroke:#383838;stroke-width:3.07961988;stroke-linecap:butt;stroke-linejoin:miter;stroke-miterlimit:4;stroke-opacity:1;stroke-dasharray:none"
         d="m 246.97821,320.14762 -6.89459,7.16271 3.89488,23.0917 -16.9692,9.76515 -6.34956,-15.47521 12.06165,-18.56007 -2.55204,-9.69706 16.80886,3.71278 z"
         id="path7365-1-4"
         sodipodi:nodetypes="cccccccc" />
      <path
         sodipodi:type="arc"
         style="fill:url(#radialGradient3198-7-3);fill-opacity:1;fill-rule:evenodd;stroke:#383838;stroke-width:5.00003576;stroke-linecap:butt;stroke-linejoin:miter;stroke-miterlimit:4;stroke-opacity:1;stroke-dasharray:none"
         id="path7367-7-2"
         sodipodi:cx="450.37299"
         sodipodi:cy="320.73038"
         sodipodi:rx="46.590309"
         sodipodi:ry="46.590309"
         d="m 496.96329,320.73038 a 46.590309,46.590309 0 1 1 -93.18061,0 46.590309,46.590309 0 1 1 93.18061,0 z"
         transform="matrix(0.778675,0,0,0.869413,-104.19713,1.609961)" />
      <path
         inkscape:connector-curvature="0"
         style="fill:url(#radialGradient3200-2-4);fill-opacity:1;fill-rule:evenodd;stroke:#383838;stroke-width:3.87308121;stroke-linecap:butt;stroke-linejoin:miter;stroke-miterlimit:4;stroke-opacity:1;stroke-dasharray:none"
         d="m 261.32487,261.04504 c 0,0 -13.3262,14.15253 -28.19148,14.15253 -13.98097,0 -27.62058,-10.22613 -27.62058,-10.22613 0,0 7.11866,-28.44437 29.78608,-30.97224 22.63369,-2.52412 48.84831,3.92887 56.15342,29.63581 7.39063,26.00787 -12.21234,43.51357 -12.21234,43.51357 l -6.13393,-27.11738 -8.16006,0.20892 -3.62111,-19.19508 z"
         id="path7441-1-1"
         sodipodi:nodetypes="czczzcccc" />
      <path
         inkscape:connector-curvature="0"
         style="fill:#fa9e62;fill-opacity:1;fill-rule:evenodd;stroke:#383838;stroke-width:3.87308121;stroke-linecap:butt;stroke-linejoin:miter;stroke-miterlimit:4;stroke-opacity:1"
         d="m 266.81768,282.19115 c 2.84209,-8.04979 12.39065,-5.30532 12.92512,3.6066 0.60899,10.1546 -12.08342,11.87471 -12.08342,11.87471"
         id="path7443-6-3"
         sodipodi:nodetypes="csc" />
      <path
         sodipodi:open="true"
         sodipodi:end="6.2750861"
         sodipodi:start="0"
         transform="matrix(-1.2272275,0,0,1.1528501,291.6728,225.04329)"
         d="m 41.965458,54.748039 a 7.4766045,7.9589663 0 1 1 -2.45e-4,-0.06446"
         sodipodi:ry="7.9589663"
         sodipodi:rx="7.4766045"
         sodipodi:cy="54.748039"
         sodipodi:cx="34.488853"
         id="path3271-0-32"
         style="fill:#ffffff;fill-opacity:1;fill-rule:evenodd;stroke:none;display:inline"
         sodipodi:type="arc" />
      <path
         sodipodi:open="true"
         sodipodi:end="6.2750861"
         sodipodi:start="0"
         transform="matrix(-0.81815179,0,0,0.74323901,274.50573,247.67027)"
         d="m 41.965458,54.748039 a 7.4766045,7.9589663 0 1 1 -2.45e-4,-0.06446"
         sodipodi:ry="7.9589663"
         sodipodi:rx="7.4766045"
         sodipodi:cy="54.748039"
         sodipodi:cx="34.488853"
         id="path3273-3-8"
         style="fill:url(#radialGradient3202-8-5);fill-opacity:1;fill-rule:evenodd;stroke:none;display:inline"
         sodipodi:type="arc" />
      <path
         sodipodi:open="true"
         sodipodi:end="6.2750861"
         sodipodi:start="0"
         transform="matrix(-0.29750968,0,0,0.27947876,254.88112,272.30255)"
         d="m 41.965458,54.748039 a 7.4766045,7.9589663 0 1 1 -2.45e-4,-0.06446"
         sodipodi:ry="7.9589663"
         sodipodi:rx="7.4766045"
         sodipodi:cy="54.748039"
         sodipodi:cx="34.488853"
         id="path3283-8-9"
         style="fill:#ffffff;fill-opacity:1;fill-rule:evenodd;stroke:none;display:inline"
         sodipodi:type="arc" />
      <path
         sodipodi:open="true"
         sodipodi:end="6.2750861"
         sodipodi:start="0"
         transform="matrix(-1.2272275,0,0,1.1528501,263.5562,223.1783)"
         d="m 41.965458,54.748039 a 7.4766045,7.9589663 0 1 1 -2.45e-4,-0.06446"
         sodipodi:ry="7.9589663"
         sodipodi:rx="7.4766045"
         sodipodi:cy="54.748039"
         sodipodi:cx="34.488853"
         id="path3285-7-9"
         style="fill:#ffffff;fill-opacity:1;fill-rule:evenodd;stroke:none;display:inline"
         sodipodi:type="arc" />
      <path
         sodipodi:open="true"
         sodipodi:end="6.2750861"
         sodipodi:start="0"
         transform="matrix(-0.81815179,0,0,0.74323901,246.38913,245.80528)"
         d="m 41.965458,54.748039 a 7.4766045,7.9589663 0 1 1 -2.45e-4,-0.06446"
         sodipodi:ry="7.9589663"
         sodipodi:rx="7.4766045"
         sodipodi:cy="54.748039"
         sodipodi:cx="34.488853"
         id="path3287-6-4"
         style="fill:url(#radialGradient3204-7-7);fill-opacity:1;fill-rule:evenodd;stroke:none;display:inline"
         sodipodi:type="arc" />
      <path
         sodipodi:open="true"
         sodipodi:end="6.2750861"
         sodipodi:start="0"
         transform="matrix(-0.29750968,0,0,0.27947876,226.76454,270.43756)"
         d="m 41.965458,54.748039 a 7.4766045,7.9589663 0 1 1 -2.45e-4,-0.06446"
         sodipodi:ry="7.9589663"
         sodipodi:rx="7.4766045"
         sodipodi:cy="54.748039"
         sodipodi:cx="34.488853"
         id="path3289-5-5"
         style="fill:#ffffff;fill-opacity:1;fill-rule:evenodd;stroke:none;display:inline"
         sodipodi:type="arc" />
      <path
         sodipodi:open="true"
         sodipodi:end="6.2750861"
         sodipodi:start="0"
         transform="matrix(-0.18594354,0,0,0.19214161,254.64794,280.55968)"
         d="m 41.965458,54.748039 a 7.4766045,7.9589663 0 1 1 -2.45e-4,-0.06446"
         sodipodi:ry="7.9589663"
         sodipodi:rx="7.4766045"
         sodipodi:cy="54.748039"
         sodipodi:cx="34.488853"
         id="path3293-9-7"
         style="opacity:0.84513275;fill:#ffffff;fill-opacity:1;fill-rule:evenodd;stroke:none;display:inline"
         sodipodi:type="arc" />
      <path
         sodipodi:open="true"
         sodipodi:end="6.2750861"
         sodipodi:start="0"
         transform="matrix(-0.18594354,0,0,0.19214161,225.97523,279.11175)"
         d="m 41.965458,54.748039 a 7.4766045,7.9589663 0 1 1 -2.45e-4,-0.06446"
         sodipodi:ry="7.9589663"
         sodipodi:rx="7.4766045"
         sodipodi:cy="54.748039"
         sodipodi:cx="34.488853"
         id="path3295-3-3"
         style="opacity:0.84513275;fill:#ffffff;fill-opacity:1;fill-rule:evenodd;stroke:none;display:inline"
         sodipodi:type="arc" />
    </g>
    <g
       id="g3231"
       style="display:inline"
       transform="translate(331.01075,-74.728281)">
      <path
         sodipodi:type="arc"
         style="fill:#ffffff;fill-opacity:1;stroke:none"
         id="path3233"
         sodipodi:cx="-82.327431"
         sodipodi:cy="506.30829"
         sodipodi:rx="6.5940013"
         sodipodi:ry="6.5940013"
         d="m -75.733429,506.30829 a 6.5940013,6.5940013 0 1 1 -13.188003,0 6.5940013,6.5940013 0 1 1 13.188003,0 z"
         transform="translate(-151.75893,-243.52924)" />
      <path
         style="fill:none;stroke:#a20d59;stroke-width:2;stroke-linecap:butt;stroke-linejoin:miter;stroke-miterlimit:4;stroke-opacity:1;stroke-dasharray:none"
         d="m -234.07153,256.27133 0,13.03571"
         id="path3235"
         inkscape:connector-curvature="0"
         sodipodi:nodetypes="cc" />
    </g>
  </g>
  <g
     inkscape:groupmode="layer"
     id="layer4"
     inkscape:label="body4 &lt;4&gt;"
     style="display:inline"
     transform="translate(4.234407e-6,-14.854559)"
     sodipodi:insensitive="true">
    <path
       style="fill:none;stroke:#000000;stroke-width:1px;stroke-linecap:butt;stroke-linejoin:miter;stroke-opacity:1;marker-end:none;display:inline"
       d="m 67.5,66.285716 66.42857,12.5 21.12984,57.521544 73.99368,-44.699249"
       id="path3175-5-3"
       inkscape:connector-curvature="0" />
    <path
       style="fill:none;stroke:#000000;stroke-width:1px;stroke-linecap:butt;stroke-linejoin:miter;stroke-opacity:1;marker-end:url(#Arrow1Mend);display:inline"
       d="M 229.22566,91.740357 288.15535,81.282145"
       id="path3173-1-3-9"
       inkscape:connector-curvature="0"
       sodipodi:nodetypes="cc"
       inkscape:transform-center-x="-30.478942"
       inkscape:transform-center-y="-5.2787276" />
    <g
       style="display:inline"
       inkscape:label="Layer 1"
       id="layer1-4-2"
       transform="matrix(-0.40684931,0,0,0.40684931,331.39584,-51.363395)">
      <path
         inkscape:connector-curvature="0"
         style="fill:url(#radialGradient3194-0-32);fill-opacity:1;fill-rule:evenodd;stroke:#383838;stroke-width:3.37548995;stroke-linecap:butt;stroke-linejoin:miter;stroke-miterlimit:4;stroke-opacity:1;stroke-dasharray:none"
         d="m 249.16416,290.84494 c 29.16762,0.82788 52.04657,48.59132 41.25726,64.78842 -10.78929,16.1971 -74.10016,16.1971 -84.41448,0 -10.31431,-16.1971 13.04054,-65.64324 43.15722,-64.78842 z"
         id="path7363-6-75"
         sodipodi:nodetypes="cssz" />
      <path
         inkscape:connector-curvature="0"
         style="fill:url(#linearGradient3196-2-0);fill-opacity:1;fill-rule:evenodd;stroke:#383838;stroke-width:3.07961988;stroke-linecap:butt;stroke-linejoin:miter;stroke-miterlimit:4;stroke-opacity:1;stroke-dasharray:none"
         d="m 246.97821,320.14762 -6.89459,7.16271 3.89488,23.0917 -16.9692,9.76515 -6.34956,-15.47521 12.06165,-18.56007 -2.55204,-9.69706 16.80886,3.71278 z"
         id="path7365-1-7"
         sodipodi:nodetypes="cccccccc" />
      <path
         sodipodi:type="arc"
         style="fill:url(#radialGradient3198-7-5);fill-opacity:1;fill-rule:evenodd;stroke:#383838;stroke-width:5.00003576;stroke-linecap:butt;stroke-linejoin:miter;stroke-miterlimit:4;stroke-opacity:1;stroke-dasharray:none"
         id="path7367-7-5"
         sodipodi:cx="450.37299"
         sodipodi:cy="320.73038"
         sodipodi:rx="46.590309"
         sodipodi:ry="46.590309"
         d="m 496.96329,320.73038 a 46.590309,46.590309 0 1 1 -93.18061,0 46.590309,46.590309 0 1 1 93.18061,0 z"
         transform="matrix(0.778675,0,0,0.869413,-104.19713,1.609961)" />
      <path
         inkscape:connector-curvature="0"
         style="fill:url(#radialGradient3200-2-3);fill-opacity:1;fill-rule:evenodd;stroke:#383838;stroke-width:3.87308121;stroke-linecap:butt;stroke-linejoin:miter;stroke-miterlimit:4;stroke-opacity:1;stroke-dasharray:none"
         d="m 261.32487,261.04504 c 0,0 -13.3262,14.15253 -28.19148,14.15253 -13.98097,0 -27.62058,-10.22613 -27.62058,-10.22613 0,0 7.11866,-28.44437 29.78608,-30.97224 22.63369,-2.52412 48.84831,3.92887 56.15342,29.63581 7.39063,26.00787 -12.21234,43.51357 -12.21234,43.51357 l -6.13393,-27.11738 -8.16006,0.20892 -3.62111,-19.19508 z"
         id="path7441-1-02"
         sodipodi:nodetypes="czczzcccc" />
      <path
         inkscape:connector-curvature="0"
         style="fill:#fa9e62;fill-opacity:1;fill-rule:evenodd;stroke:#383838;stroke-width:3.87308121;stroke-linecap:butt;stroke-linejoin:miter;stroke-miterlimit:4;stroke-opacity:1"
         d="m 266.81768,282.19115 c 2.84209,-8.04979 12.39065,-5.30532 12.92512,3.6066 0.60899,10.1546 -12.08342,11.87471 -12.08342,11.87471"
         id="path7443-6-9"
         sodipodi:nodetypes="csc" />
      <path
         sodipodi:open="true"
         sodipodi:end="6.2750861"
         sodipodi:start="0"
         transform="matrix(-1.2272275,0,0,1.1528501,291.6728,225.04329)"
         d="m 41.965458,54.748039 a 7.4766045,7.9589663 0 1 1 -2.45e-4,-0.06446"
         sodipodi:ry="7.9589663"
         sodipodi:rx="7.4766045"
         sodipodi:cy="54.748039"
         sodipodi:cx="34.488853"
         id="path3271-0-1"
         style="fill:#ffffff;fill-opacity:1;fill-rule:evenodd;stroke:none;display:inline"
         sodipodi:type="arc" />
      <path
         sodipodi:open="true"
         sodipodi:end="6.2750861"
         sodipodi:start="0"
         transform="matrix(-0.81815179,0,0,0.74323901,274.50573,247.67027)"
         d="m 41.965458,54.748039 a 7.4766045,7.9589663 0 1 1 -2.45e-4,-0.06446"
         sodipodi:ry="7.9589663"
         sodipodi:rx="7.4766045"
         sodipodi:cy="54.748039"
         sodipodi:cx="34.488853"
         id="path3273-3-81"
         style="fill:url(#radialGradient3202-8-7);fill-opacity:1;fill-rule:evenodd;stroke:none;display:inline"
         sodipodi:type="arc" />
      <path
         sodipodi:open="true"
         sodipodi:end="6.2750861"
         sodipodi:start="0"
         transform="matrix(-0.29750968,0,0,0.27947876,254.88112,272.30255)"
         d="m 41.965458,54.748039 a 7.4766045,7.9589663 0 1 1 -2.45e-4,-0.06446"
         sodipodi:ry="7.9589663"
         sodipodi:rx="7.4766045"
         sodipodi:cy="54.748039"
         sodipodi:cx="34.488853"
         id="path3283-8-6"
         style="fill:#ffffff;fill-opacity:1;fill-rule:evenodd;stroke:none;display:inline"
         sodipodi:type="arc" />
      <path
         sodipodi:open="true"
         sodipodi:end="6.2750861"
         sodipodi:start="0"
         transform="matrix(-1.2272275,0,0,1.1528501,263.5562,223.1783)"
         d="m 41.965458,54.748039 a 7.4766045,7.9589663 0 1 1 -2.45e-4,-0.06446"
         sodipodi:ry="7.9589663"
         sodipodi:rx="7.4766045"
         sodipodi:cy="54.748039"
         sodipodi:cx="34.488853"
         id="path3285-7-90"
         style="fill:#ffffff;fill-opacity:1;fill-rule:evenodd;stroke:none;display:inline"
         sodipodi:type="arc" />
      <path
         sodipodi:open="true"
         sodipodi:end="6.2750861"
         sodipodi:start="0"
         transform="matrix(-0.81815179,0,0,0.74323901,246.38913,245.80528)"
         d="m 41.965458,54.748039 a 7.4766045,7.9589663 0 1 1 -2.45e-4,-0.06446"
         sodipodi:ry="7.9589663"
         sodipodi:rx="7.4766045"
         sodipodi:cy="54.748039"
         sodipodi:cx="34.488853"
         id="path3287-6-8"
         style="fill:url(#radialGradient3204-7-1);fill-opacity:1;fill-rule:evenodd;stroke:none;display:inline"
         sodipodi:type="arc" />
      <path
         sodipodi:open="true"
         sodipodi:end="6.2750861"
         sodipodi:start="0"
         transform="matrix(-0.29750968,0,0,0.27947876,226.76454,270.43756)"
         d="m 41.965458,54.748039 a 7.4766045,7.9589663 0 1 1 -2.45e-4,-0.06446"
         sodipodi:ry="7.9589663"
         sodipodi:rx="7.4766045"
         sodipodi:cy="54.748039"
         sodipodi:cx="34.488853"
         id="path3289-5-9"
         style="fill:#ffffff;fill-opacity:1;fill-rule:evenodd;stroke:none;display:inline"
         sodipodi:type="arc" />
      <path
         sodipodi:open="true"
         sodipodi:end="6.2750861"
         sodipodi:start="0"
         transform="matrix(-0.18594354,0,0,0.19214161,254.64794,280.55968)"
         d="m 41.965458,54.748039 a 7.4766045,7.9589663 0 1 1 -2.45e-4,-0.06446"
         sodipodi:ry="7.9589663"
         sodipodi:rx="7.4766045"
         sodipodi:cy="54.748039"
         sodipodi:cx="34.488853"
         id="path3293-9-5"
         style="opacity:0.84513275;fill:#ffffff;fill-opacity:1;fill-rule:evenodd;stroke:none;display:inline"
         sodipodi:type="arc" />
      <path
         sodipodi:open="true"
         sodipodi:end="6.2750861"
         sodipodi:start="0"
         transform="matrix(-0.18594354,0,0,0.19214161,225.97523,279.11175)"
         d="m 41.965458,54.748039 a 7.4766045,7.9589663 0 1 1 -2.45e-4,-0.06446"
         sodipodi:ry="7.9589663"
         sodipodi:rx="7.4766045"
         sodipodi:cy="54.748039"
         sodipodi:cx="34.488853"
         id="path3295-3-35"
         style="opacity:0.84513275;fill:#ffffff;fill-opacity:1;fill-rule:evenodd;stroke:none;display:inline"
         sodipodi:type="arc" />
    </g>
    <g
       id="g3291"
       style="display:inline"
       transform="translate(356.29646,-74.728281)">
      <path
         sodipodi:type="arc"
         style="fill:#ffffff;fill-opacity:1;stroke:none"
         id="path3293"
         sodipodi:cx="-82.327431"
         sodipodi:cy="506.30829"
         sodipodi:rx="6.5940013"
         sodipodi:ry="6.5940013"
         d="m -75.733429,506.30829 a 6.5940013,6.5940013 0 1 1 -13.188003,0 6.5940013,6.5940013 0 1 1 13.188003,0 z"
         transform="translate(-151.75893,-243.52924)" />
      <path
         style="fill:none;stroke:#a20d59;stroke-width:2;stroke-linecap:butt;stroke-linejoin:miter;stroke-miterlimit:4;stroke-opacity:1;stroke-dasharray:none"
         d="m -234.07153,256.27133 0,13.03571"
         id="path3295"
         inkscape:connector-curvature="0"
         sodipodi:nodetypes="cc" />
    </g>
  </g>
  <g
     inkscape:groupmode="layer"
     id="layer6"
     inkscape:label="body5 &lt;5&gt;"
     style="display:inline"
     transform="translate(4.234407e-6,-14.854559)"
     sodipodi:insensitive="true">
    <path
       style="fill:none;stroke:#000000;stroke-width:1px;stroke-linecap:butt;stroke-linejoin:miter;stroke-opacity:1;marker-end:none;display:inline"
       d="m 67.5,66.285716 66.42857,12.5 21.12984,57.521544 73.99368,-44.699249 87.37819,-14.89975"
       id="path3175-5-3-2"
       inkscape:connector-curvature="0" />
    <path
       style="fill:none;stroke:#000000;stroke-width:1px;stroke-linecap:butt;stroke-linejoin:miter;stroke-opacity:1;marker-end:url(#Arrow1Mend);display:inline"
       d="m 317.40597,76.581783 51.09364,31.169267"
       id="path3173-1-3-9-7"
       inkscape:connector-curvature="0"
       sodipodi:nodetypes="cc"
       inkscape:transform-center-x="-26.144293"
       inkscape:transform-center-y="16.362371" />
    <g
       style="display:inline"
       inkscape:label="Layer 1"
       id="layer1-4-4"
       transform="matrix(-0.40684931,0,0,0.40684931,418.26895,-66.515683)">
      <path
         inkscape:connector-curvature="0"
         style="fill:url(#radialGradient3194-0-2);fill-opacity:1;fill-rule:evenodd;stroke:#383838;stroke-width:3.37548995;stroke-linecap:butt;stroke-linejoin:miter;stroke-miterlimit:4;stroke-opacity:1;stroke-dasharray:none"
         d="m 249.16416,290.84494 c 29.16762,0.82788 52.04657,48.59132 41.25726,64.78842 -10.78929,16.1971 -74.10016,16.1971 -84.41448,0 -10.31431,-16.1971 13.04054,-65.64324 43.15722,-64.78842 z"
         id="path7363-6-1"
         sodipodi:nodetypes="cssz" />
      <path
         inkscape:connector-curvature="0"
         style="fill:url(#linearGradient3196-2-66);fill-opacity:1;fill-rule:evenodd;stroke:#383838;stroke-width:3.07961988;stroke-linecap:butt;stroke-linejoin:miter;stroke-miterlimit:4;stroke-opacity:1;stroke-dasharray:none"
         d="m 246.97821,320.14762 -6.89459,7.16271 3.89488,23.0917 -16.9692,9.76515 -6.34956,-15.47521 12.06165,-18.56007 -2.55204,-9.69706 16.80886,3.71278 z"
         id="path7365-1-1"
         sodipodi:nodetypes="cccccccc" />
      <path
         sodipodi:type="arc"
         style="fill:url(#radialGradient3198-7-0);fill-opacity:1;fill-rule:evenodd;stroke:#383838;stroke-width:5.00003576;stroke-linecap:butt;stroke-linejoin:miter;stroke-miterlimit:4;stroke-opacity:1;stroke-dasharray:none"
         id="path7367-7-7"
         sodipodi:cx="450.37299"
         sodipodi:cy="320.73038"
         sodipodi:rx="46.590309"
         sodipodi:ry="46.590309"
         d="m 496.96329,320.73038 a 46.590309,46.590309 0 1 1 -93.18061,0 46.590309,46.590309 0 1 1 93.18061,0 z"
         transform="matrix(0.778675,0,0,0.869413,-104.19713,1.609961)" />
      <path
         inkscape:connector-curvature="0"
         style="fill:url(#radialGradient3200-2-90);fill-opacity:1;fill-rule:evenodd;stroke:#383838;stroke-width:3.87308121;stroke-linecap:butt;stroke-linejoin:miter;stroke-miterlimit:4;stroke-opacity:1;stroke-dasharray:none"
         d="m 261.32487,261.04504 c 0,0 -13.3262,14.15253 -28.19148,14.15253 -13.98097,0 -27.62058,-10.22613 -27.62058,-10.22613 0,0 7.11866,-28.44437 29.78608,-30.97224 22.63369,-2.52412 48.84831,3.92887 56.15342,29.63581 7.39063,26.00787 -12.21234,43.51357 -12.21234,43.51357 l -6.13393,-27.11738 -8.16006,0.20892 -3.62111,-19.19508 z"
         id="path7441-1-9"
         sodipodi:nodetypes="czczzcccc" />
      <path
         inkscape:connector-curvature="0"
         style="fill:#fa9e62;fill-opacity:1;fill-rule:evenodd;stroke:#383838;stroke-width:3.87308121;stroke-linecap:butt;stroke-linejoin:miter;stroke-miterlimit:4;stroke-opacity:1"
         d="m 266.81768,282.19115 c 2.84209,-8.04979 12.39065,-5.30532 12.92512,3.6066 0.60899,10.1546 -12.08342,11.87471 -12.08342,11.87471"
         id="path7443-6-2"
         sodipodi:nodetypes="csc" />
      <path
         sodipodi:open="true"
         sodipodi:end="6.2750861"
         sodipodi:start="0"
         transform="matrix(-1.2272275,0,0,1.1528501,291.6728,225.04329)"
         d="m 41.965458,54.748039 a 7.4766045,7.9589663 0 1 1 -2.45e-4,-0.06446"
         sodipodi:ry="7.9589663"
         sodipodi:rx="7.4766045"
         sodipodi:cy="54.748039"
         sodipodi:cx="34.488853"
         id="path3271-0-6"
         style="fill:#ffffff;fill-opacity:1;fill-rule:evenodd;stroke:none;display:inline"
         sodipodi:type="arc" />
      <path
         sodipodi:open="true"
         sodipodi:end="6.2750861"
         sodipodi:start="0"
         transform="matrix(-0.81815179,0,0,0.74323901,274.50573,247.67027)"
         d="m 41.965458,54.748039 a 7.4766045,7.9589663 0 1 1 -2.45e-4,-0.06446"
         sodipodi:ry="7.9589663"
         sodipodi:rx="7.4766045"
         sodipodi:cy="54.748039"
         sodipodi:cx="34.488853"
         id="path3273-3-0"
         style="fill:url(#radialGradient3202-8-0);fill-opacity:1;fill-rule:evenodd;stroke:none;display:inline"
         sodipodi:type="arc" />
      <path
         sodipodi:open="true"
         sodipodi:end="6.2750861"
         sodipodi:start="0"
         transform="matrix(-0.29750968,0,0,0.27947876,254.88112,272.30255)"
         d="m 41.965458,54.748039 a 7.4766045,7.9589663 0 1 1 -2.45e-4,-0.06446"
         sodipodi:ry="7.9589663"
         sodipodi:rx="7.4766045"
         sodipodi:cy="54.748039"
         sodipodi:cx="34.488853"
         id="path3283-8-8"
         style="fill:#ffffff;fill-opacity:1;fill-rule:evenodd;stroke:none;display:inline"
         sodipodi:type="arc" />
      <path
         sodipodi:open="true"
         sodipodi:end="6.2750861"
         sodipodi:start="0"
         transform="matrix(-1.2272275,0,0,1.1528501,263.5562,223.1783)"
         d="m 41.965458,54.748039 a 7.4766045,7.9589663 0 1 1 -2.45e-4,-0.06446"
         sodipodi:ry="7.9589663"
         sodipodi:rx="7.4766045"
         sodipodi:cy="54.748039"
         sodipodi:cx="34.488853"
         id="path3285-7-3"
         style="fill:#ffffff;fill-opacity:1;fill-rule:evenodd;stroke:none;display:inline"
         sodipodi:type="arc" />
      <path
         sodipodi:open="true"
         sodipodi:end="6.2750861"
         sodipodi:start="0"
         transform="matrix(-0.81815179,0,0,0.74323901,246.38913,245.80528)"
         d="m 41.965458,54.748039 a 7.4766045,7.9589663 0 1 1 -2.45e-4,-0.06446"
         sodipodi:ry="7.9589663"
         sodipodi:rx="7.4766045"
         sodipodi:cy="54.748039"
         sodipodi:cx="34.488853"
         id="path3287-6-3"
         style="fill:url(#radialGradient3204-7-4);fill-opacity:1;fill-rule:evenodd;stroke:none;display:inline"
         sodipodi:type="arc" />
      <path
         sodipodi:open="true"
         sodipodi:end="6.2750861"
         sodipodi:start="0"
         transform="matrix(-0.29750968,0,0,0.27947876,226.76454,270.43756)"
         d="m 41.965458,54.748039 a 7.4766045,7.9589663 0 1 1 -2.45e-4,-0.06446"
         sodipodi:ry="7.9589663"
         sodipodi:rx="7.4766045"
         sodipodi:cy="54.748039"
         sodipodi:cx="34.488853"
         id="path3289-5-1"
         style="fill:#ffffff;fill-opacity:1;fill-rule:evenodd;stroke:none;display:inline"
         sodipodi:type="arc" />
      <path
         sodipodi:open="true"
         sodipodi:end="6.2750861"
         sodipodi:start="0"
         transform="matrix(-0.18594354,0,0,0.19214161,254.64794,280.55968)"
         d="m 41.965458,54.748039 a 7.4766045,7.9589663 0 1 1 -2.45e-4,-0.06446"
         sodipodi:ry="7.9589663"
         sodipodi:rx="7.4766045"
         sodipodi:cy="54.748039"
         sodipodi:cx="34.488853"
         id="path3293-9-4"
         style="opacity:0.84513275;fill:#ffffff;fill-opacity:1;fill-rule:evenodd;stroke:none;display:inline"
         sodipodi:type="arc" />
      <path
         sodipodi:open="true"
         sodipodi:end="6.2750861"
         sodipodi:start="0"
         transform="matrix(-0.18594354,0,0,0.19214161,225.97523,279.11175)"
         d="m 41.965458,54.748039 a 7.4766045,7.9589663 0 1 1 -2.45e-4,-0.06446"
         sodipodi:ry="7.9589663"
         sodipodi:rx="7.4766045"
         sodipodi:cy="54.748039"
         sodipodi:cx="34.488853"
         id="path3295-3-33"
         style="opacity:0.84513275;fill:#ffffff;fill-opacity:1;fill-rule:evenodd;stroke:none;display:inline"
         sodipodi:type="arc" />
    </g>
    <g
       id="g3201"
       style="display:inline"
       transform="translate(383.01075,-74.728281)">
      <path
         sodipodi:type="arc"
         style="fill:#ffffff;fill-opacity:1;stroke:none"
         id="path3203"
         sodipodi:cx="-82.327431"
         sodipodi:cy="506.30829"
         sodipodi:rx="6.5940013"
         sodipodi:ry="6.5940013"
         d="m -75.733429,506.30829 a 6.5940013,6.5940013 0 1 1 -13.188003,0 6.5940013,6.5940013 0 1 1 13.188003,0 z"
         transform="translate(-151.75893,-243.52924)" />
      <path
         style="fill:none;stroke:#a20d59;stroke-width:2;stroke-linecap:butt;stroke-linejoin:miter;stroke-miterlimit:4;stroke-opacity:1;stroke-dasharray:none"
         d="m -234.07153,256.27133 0,13.03571"
         id="path3205"
         inkscape:connector-curvature="0"
         sodipodi:nodetypes="cc" />
    </g>
  </g>
</svg>
