<?xml version="1.0" encoding="UTF-8" standalone="no"?>
<!-- Created with Inkscape (http://www.inkscape.org/) -->

<svg
   xmlns:dc="http://purl.org/dc/elements/1.1/"
   xmlns:cc="http://creativecommons.org/ns#"
   xmlns:rdf="http://www.w3.org/1999/02/22-rdf-syntax-ns#"
   xmlns:svg="http://www.w3.org/2000/svg"
   xmlns="http://www.w3.org/2000/svg"
   xmlns:xlink="http://www.w3.org/1999/xlink"
   xmlns:sodipodi="http://sodipodi.sourceforge.net/DTD/sodipodi-0.dtd"
   xmlns:inkscape="http://www.inkscape.org/namespaces/inkscape"
   width="403.62418"
   height="154.48347"
   id="svg2"
   version="1.1"
   inkscape:version="0.48.4 r9939"
   sodipodi:docname="kinematic_face_principle+layers.svg">
  <defs
     id="defs4">
    <marker
       inkscape:stockid="Arrow1Mend"
       orient="auto"
       refY="0"
       refX="0"
       id="Arrow1Mend"
       style="overflow:visible">
      <path
         id="path4045"
         d="M 0,0 5,-5 -12.5,0 5,5 0,0 z"
         style="fill-rule:evenodd;stroke:#000000;stroke-width:1pt"
         transform="matrix(-0.4,0,0,-0.4,-4,0)"
         inkscape:connector-curvature="0" />
    </marker>
    <linearGradient
       id="linearGradient5465-03-0-8-6-9">
      <stop
         style="stop-color:#ffffff;stop-opacity:1;"
         offset="0"
         id="stop5467-3-4-5-6-3" />
      <stop
         style="stop-color:#cc7aaa;stop-opacity:1;"
         offset="1"
         id="stop5469-3-4-9-5-2" />
    </linearGradient>
    <linearGradient
       id="linearGradient5459-6-9-4-4-6">
      <stop
         style="stop-color:#127bca;stop-opacity:1;"
         offset="0"
         id="stop5461-3-8-7-4-4" />
      <stop
         style="stop-color:#dfeff7;stop-opacity:1;"
         offset="1"
         id="stop5463-51-9-3-7-1" />
    </linearGradient>
    <linearGradient
       id="linearGradient3215-06-6-1-9-3"
       inkscape:collect="always">
      <stop
         id="stop3217-0-3-4-8-7"
         offset="0"
         style="stop-color:#ffccaa;stop-opacity:1;" />
      <stop
         id="stop3219-5-2-7-6-8"
         offset="1"
         style="stop-color:#fa9351;stop-opacity:1" />
    </linearGradient>
    <linearGradient
       id="linearGradient5451-8-6-7-7-7"
       inkscape:collect="always">
      <stop
         id="stop5453-8-5-8-3-2"
         offset="0"
         style="stop-color:#e4b762;stop-opacity:1" />
      <stop
         id="stop5455-1-0-4-3-1"
         offset="1"
         style="stop-color:#85724f;stop-opacity:1" />
    </linearGradient>
    <linearGradient
       id="linearGradient3275-9-0-1-4"
       inkscape:collect="always">
      <stop
         id="stop3277-1-8-4-4"
         offset="0"
         style="stop-color:#6e6e6e;stop-opacity:1" />
      <stop
         id="stop3279-4-4-2-8"
         offset="1"
         style="stop-color:#292929;stop-opacity:1" />
    </linearGradient>
    <radialGradient
       inkscape:collect="always"
       xlink:href="#linearGradient5465-03-0-8-6-9"
       id="radialGradient4736"
       gradientUnits="userSpaceOnUse"
       gradientTransform="matrix(-1.2141703,-0.3374805,-0.2313312,0.8322719,604.01264,128.99733)"
       cx="212.99527"
       cy="342.63647"
       fx="212.99527"
       fy="342.63647"
       r="46.492542" />
    <linearGradient
       inkscape:collect="always"
       xlink:href="#linearGradient5459-6-9-4-4-6"
       id="linearGradient4738"
       gradientUnits="userSpaceOnUse"
       gradientTransform="matrix(-1,0,0,1,479.13287,1.691221)"
       x1="250.83124"
       y1="349.88623"
       x2="241.00351"
       y2="317.9021" />
    <radialGradient
       inkscape:collect="always"
       xlink:href="#linearGradient3215-06-6-1-9-3"
       id="radialGradient4740"
       gradientUnits="userSpaceOnUse"
       cx="438.74796"
       cy="332.53036"
       fx="438.74796"
       fy="332.53036"
       r="49.090309" />
    <radialGradient
       inkscape:collect="always"
       xlink:href="#linearGradient5451-8-6-7-7-7"
       id="radialGradient4742"
       gradientUnits="userSpaceOnUse"
       gradientTransform="matrix(-1,0,0,0.8475176,484.20653,41.219128)"
       cx="211.49677"
       cy="261.49875"
       fx="211.49677"
       fy="261.49875"
       r="45.738976" />
    <radialGradient
       inkscape:collect="always"
       xlink:href="#linearGradient3275-9-0-1-4"
       id="radialGradient4744"
       gradientUnits="userSpaceOnUse"
       gradientTransform="matrix(1,0,0,1.0645162,0,-3.5321331)"
       cx="34.488853"
       cy="54.748039"
       fx="34.488853"
       fy="54.748039"
       r="7.4766045" />
    <radialGradient
       inkscape:collect="always"
       xlink:href="#linearGradient3275-9-0-1-4"
       id="radialGradient4746"
       gradientUnits="userSpaceOnUse"
       gradientTransform="matrix(1,0,0,1.0645162,0,-3.5321331)"
       cx="34.488853"
       cy="54.748039"
       fx="34.488853"
       fy="54.748039"
       r="7.4766045" />
    <radialGradient
       inkscape:collect="always"
       xlink:href="#linearGradient5465-03-0-8-6-9"
       id="radialGradient4748"
       gradientUnits="userSpaceOnUse"
       gradientTransform="matrix(-1.2141703,-0.3374805,-0.2313312,0.8322719,604.01264,128.99733)"
       cx="212.99527"
       cy="342.63647"
       fx="212.99527"
       fy="342.63647"
       r="46.492542" />
    <linearGradient
       inkscape:collect="always"
       xlink:href="#linearGradient5459-6-9-4-4-6"
       id="linearGradient4750"
       gradientUnits="userSpaceOnUse"
       gradientTransform="matrix(-1,0,0,1,479.13287,1.691221)"
       x1="250.83124"
       y1="349.88623"
       x2="241.00351"
       y2="317.9021" />
    <radialGradient
       inkscape:collect="always"
       xlink:href="#linearGradient3215-06-6-1-9-3"
       id="radialGradient4752"
       gradientUnits="userSpaceOnUse"
       cx="438.74796"
       cy="332.53036"
       fx="438.74796"
       fy="332.53036"
       r="49.090309" />
    <radialGradient
       inkscape:collect="always"
       xlink:href="#linearGradient5451-8-6-7-7-7"
       id="radialGradient4754"
       gradientUnits="userSpaceOnUse"
       gradientTransform="matrix(-1,0,0,0.8475176,484.20653,41.219128)"
       cx="211.49677"
       cy="261.49875"
       fx="211.49677"
       fy="261.49875"
       r="45.738976" />
    <radialGradient
       inkscape:collect="always"
       xlink:href="#linearGradient3275-9-0-1-4"
       id="radialGradient4756"
       gradientUnits="userSpaceOnUse"
       gradientTransform="matrix(1,0,0,1.0645162,0,-3.5321331)"
       cx="34.488853"
       cy="54.748039"
       fx="34.488853"
       fy="54.748039"
       r="7.4766045" />
    <radialGradient
       inkscape:collect="always"
       xlink:href="#linearGradient3275-9-0-1-4"
       id="radialGradient4758"
       gradientUnits="userSpaceOnUse"
       gradientTransform="matrix(1,0,0,1.0645162,0,-3.5321331)"
       cx="34.488853"
       cy="54.748039"
       fx="34.488853"
       fy="54.748039"
       r="7.4766045" />
    <radialGradient
       inkscape:collect="always"
       xlink:href="#linearGradient5465-03-0-8-6-9"
       id="radialGradient4760"
       gradientUnits="userSpaceOnUse"
       gradientTransform="matrix(-1.2141703,-0.3374805,-0.2313312,0.8322719,604.01264,128.99733)"
       cx="212.99527"
       cy="342.63647"
       fx="212.99527"
       fy="342.63647"
       r="46.492542" />
    <linearGradient
       inkscape:collect="always"
       xlink:href="#linearGradient5459-6-9-4-4-6"
       id="linearGradient4762"
       gradientUnits="userSpaceOnUse"
       gradientTransform="matrix(-1,0,0,1,479.13287,1.691221)"
       x1="250.83124"
       y1="349.88623"
       x2="241.00351"
       y2="317.9021" />
    <radialGradient
       inkscape:collect="always"
       xlink:href="#linearGradient3215-06-6-1-9-3"
       id="radialGradient4764"
       gradientUnits="userSpaceOnUse"
       cx="438.74796"
       cy="332.53036"
       fx="438.74796"
       fy="332.53036"
       r="49.090309" />
    <radialGradient
       inkscape:collect="always"
       xlink:href="#linearGradient5451-8-6-7-7-7"
       id="radialGradient4766"
       gradientUnits="userSpaceOnUse"
       gradientTransform="matrix(-1,0,0,0.8475176,484.20653,41.219128)"
       cx="211.49677"
       cy="261.49875"
       fx="211.49677"
       fy="261.49875"
       r="45.738976" />
    <radialGradient
       inkscape:collect="always"
       xlink:href="#linearGradient3275-9-0-1-4"
       id="radialGradient4768"
       gradientUnits="userSpaceOnUse"
       gradientTransform="matrix(1,0,0,1.0645162,0,-3.5321331)"
       cx="34.488853"
       cy="54.748039"
       fx="34.488853"
       fy="54.748039"
       r="7.4766045" />
    <radialGradient
       inkscape:collect="always"
       xlink:href="#linearGradient3275-9-0-1-4"
       id="radialGradient4770"
       gradientUnits="userSpaceOnUse"
       gradientTransform="matrix(1,0,0,1.0645162,0,-3.5321331)"
       cx="34.488853"
       cy="54.748039"
       fx="34.488853"
       fy="54.748039"
       r="7.4766045" />
    <radialGradient
       inkscape:collect="always"
       xlink:href="#linearGradient5465-03-0-8-6-9"
       id="radialGradient4772"
       gradientUnits="userSpaceOnUse"
       gradientTransform="matrix(-1.2141703,-0.3374805,-0.2313312,0.8322719,604.01264,128.99733)"
       cx="212.99527"
       cy="342.63647"
       fx="212.99527"
       fy="342.63647"
       r="46.492542" />
    <linearGradient
       inkscape:collect="always"
       xlink:href="#linearGradient5459-6-9-4-4-6"
       id="linearGradient4774"
       gradientUnits="userSpaceOnUse"
       gradientTransform="matrix(-1,0,0,1,479.13287,1.691221)"
       x1="250.83124"
       y1="349.88623"
       x2="241.00351"
       y2="317.9021" />
    <radialGradient
       inkscape:collect="always"
       xlink:href="#linearGradient3215-06-6-1-9-3"
       id="radialGradient4776"
       gradientUnits="userSpaceOnUse"
       cx="438.74796"
       cy="332.53036"
       fx="438.74796"
       fy="332.53036"
       r="49.090309" />
    <radialGradient
       inkscape:collect="always"
       xlink:href="#linearGradient5451-8-6-7-7-7"
       id="radialGradient4778"
       gradientUnits="userSpaceOnUse"
       gradientTransform="matrix(-1,0,0,0.8475176,484.20653,41.219128)"
       cx="211.49677"
       cy="261.49875"
       fx="211.49677"
       fy="261.49875"
       r="45.738976" />
    <radialGradient
       inkscape:collect="always"
       xlink:href="#linearGradient3275-9-0-1-4"
       id="radialGradient4780"
       gradientUnits="userSpaceOnUse"
       gradientTransform="matrix(1,0,0,1.0645162,0,-3.5321331)"
       cx="34.488853"
       cy="54.748039"
       fx="34.488853"
       fy="54.748039"
       r="7.4766045" />
    <radialGradient
       inkscape:collect="always"
       xlink:href="#linearGradient3275-9-0-1-4"
       id="radialGradient4782"
       gradientUnits="userSpaceOnUse"
       gradientTransform="matrix(1,0,0,1.0645162,0,-3.5321331)"
       cx="34.488853"
       cy="54.748039"
       fx="34.488853"
       fy="54.748039"
       r="7.4766045" />
    <radialGradient
       inkscape:collect="always"
       xlink:href="#linearGradient5465-03-0-8-6-9-2"
       id="radialGradient3194-0-5"
       gradientUnits="userSpaceOnUse"
       gradientTransform="matrix(-1.2141703,-0.3374805,-0.2313312,0.8322719,604.01264,128.99733)"
       cx="212.99527"
       cy="342.63647"
       fx="212.99527"
       fy="342.63647"
       r="46.492542" />
    <linearGradient
       id="linearGradient5465-03-0-8-6-9-2">
      <stop
         style="stop-color:#ffffff;stop-opacity:1;"
         offset="0"
         id="stop5467-3-4-5-6-3-1" />
      <stop
         style="stop-color:#cc7aaa;stop-opacity:1;"
         offset="1"
         id="stop5469-3-4-9-5-2-2" />
    </linearGradient>
    <linearGradient
       inkscape:collect="always"
       xlink:href="#linearGradient5459-6-9-4-4-6-6"
       id="linearGradient3196-2-2"
       gradientUnits="userSpaceOnUse"
       gradientTransform="matrix(-1,0,0,1,479.13287,1.691221)"
       x1="250.83124"
       y1="349.88623"
       x2="241.00351"
       y2="317.9021" />
    <linearGradient
       id="linearGradient5459-6-9-4-4-6-6">
      <stop
         style="stop-color:#127bca;stop-opacity:1;"
         offset="0"
         id="stop5461-3-8-7-4-4-8" />
      <stop
         style="stop-color:#dfeff7;stop-opacity:1;"
         offset="1"
         id="stop5463-51-9-3-7-1-7" />
    </linearGradient>
    <radialGradient
       inkscape:collect="always"
       xlink:href="#linearGradient3215-06-6-1-9-3-8"
       id="radialGradient3198-7-8"
       gradientUnits="userSpaceOnUse"
       cx="438.74796"
       cy="332.53036"
       fx="438.74796"
       fy="332.53036"
       r="49.090309" />
    <linearGradient
       id="linearGradient3215-06-6-1-9-3-8"
       inkscape:collect="always">
      <stop
         id="stop3217-0-3-4-8-7-7"
         offset="0"
         style="stop-color:#ffccaa;stop-opacity:1;" />
      <stop
         id="stop3219-5-2-7-6-8-8"
         offset="1"
         style="stop-color:#fa9351;stop-opacity:1" />
    </linearGradient>
    <radialGradient
       inkscape:collect="always"
       xlink:href="#linearGradient5451-8-6-7-7-7-4"
       id="radialGradient3200-2-1"
       gradientUnits="userSpaceOnUse"
       gradientTransform="matrix(-1,0,0,0.8475176,484.20653,41.219128)"
       cx="211.49677"
       cy="261.49875"
       fx="211.49677"
       fy="261.49875"
       r="45.738976" />
    <linearGradient
       id="linearGradient5451-8-6-7-7-7-4"
       inkscape:collect="always">
      <stop
         id="stop5453-8-5-8-3-2-1"
         offset="0"
         style="stop-color:#e4b762;stop-opacity:1" />
      <stop
         id="stop5455-1-0-4-3-1-6"
         offset="1"
         style="stop-color:#85724f;stop-opacity:1" />
    </linearGradient>
    <radialGradient
       inkscape:collect="always"
       xlink:href="#linearGradient3275-9-0-1-4-3"
       id="radialGradient3202-8-6"
       gradientUnits="userSpaceOnUse"
       gradientTransform="matrix(1,0,0,1.0645162,0,-3.5321331)"
       cx="34.488853"
       cy="54.748039"
       fx="34.488853"
       fy="54.748039"
       r="7.4766045" />
    <linearGradient
       id="linearGradient3275-9-0-1-4-3"
       inkscape:collect="always">
      <stop
         id="stop3277-1-8-4-4-7"
         offset="0"
         style="stop-color:#6e6e6e;stop-opacity:1" />
      <stop
         id="stop3279-4-4-2-8-3"
         offset="1"
         style="stop-color:#292929;stop-opacity:1" />
    </linearGradient>
    <radialGradient
       inkscape:collect="always"
       xlink:href="#linearGradient3275-9-0-1-4-3"
       id="radialGradient3204-7-6"
       gradientUnits="userSpaceOnUse"
       gradientTransform="matrix(1,0,0,1.0645162,0,-3.5321331)"
       cx="34.488853"
       cy="54.748039"
       fx="34.488853"
       fy="54.748039"
       r="7.4766045" />
    <radialGradient
       inkscape:collect="always"
       xlink:href="#linearGradient5465-03-0-8-6-9-2"
       id="radialGradient4863"
       gradientUnits="userSpaceOnUse"
       gradientTransform="matrix(-1.2141703,-0.3374805,-0.2313312,0.8322719,604.01264,128.99733)"
       cx="212.99527"
       cy="342.63647"
       fx="212.99527"
       fy="342.63647"
       r="46.492542" />
    <linearGradient
       inkscape:collect="always"
       xlink:href="#linearGradient5459-6-9-4-4-6-6"
       id="linearGradient4865"
       gradientUnits="userSpaceOnUse"
       gradientTransform="matrix(-1,0,0,1,479.13287,1.691221)"
       x1="250.83124"
       y1="349.88623"
       x2="241.00351"
       y2="317.9021" />
    <radialGradient
       inkscape:collect="always"
       xlink:href="#linearGradient3215-06-6-1-9-3-8"
       id="radialGradient4867"
       gradientUnits="userSpaceOnUse"
       cx="438.74796"
       cy="332.53036"
       fx="438.74796"
       fy="332.53036"
       r="49.090309" />
    <radialGradient
       inkscape:collect="always"
       xlink:href="#linearGradient5451-8-6-7-7-7-4"
       id="radialGradient4869"
       gradientUnits="userSpaceOnUse"
       gradientTransform="matrix(-1,0,0,0.8475176,484.20653,41.219128)"
       cx="211.49677"
       cy="261.49875"
       fx="211.49677"
       fy="261.49875"
       r="45.738976" />
    <radialGradient
       inkscape:collect="always"
       xlink:href="#linearGradient3275-9-0-1-4-3"
       id="radialGradient4871"
       gradientUnits="userSpaceOnUse"
       gradientTransform="matrix(1,0,0,1.0645162,0,-3.5321331)"
       cx="34.488853"
       cy="54.748039"
       fx="34.488853"
       fy="54.748039"
       r="7.4766045" />
    <radialGradient
       inkscape:collect="always"
       xlink:href="#linearGradient3275-9-0-1-4-3"
       id="radialGradient4873"
       gradientUnits="userSpaceOnUse"
       gradientTransform="matrix(1,0,0,1.0645162,0,-3.5321331)"
       cx="34.488853"
       cy="54.748039"
       fx="34.488853"
       fy="54.748039"
       r="7.4766045" />
  </defs>
  <sodipodi:namedview
     id="base"
     pagecolor="#ffffff"
     bordercolor="#666666"
     borderopacity="1.0"
     inkscape:pageopacity="0.0"
     inkscape:pageshadow="2"
     inkscape:zoom="1.4"
     inkscape:cx="-39.843155"
     inkscape:cy="-6.3387139"
     inkscape:document-units="px"
     inkscape:current-layer="layer5"
     showgrid="false"
     fit-margin-top="5"
     fit-margin-left="5"
     fit-margin-right="5"
     fit-margin-bottom="5"
     inkscape:window-width="1920"
     inkscape:window-height="1056"
     inkscape:window-x="0"
     inkscape:window-y="24"
     inkscape:window-maximized="1" />
  <metadata
     id="metadata7">
    <rdf:RDF>
      <cc:Work
         rdf:about="">
        <dc:format>image/svg+xml</dc:format>
        <dc:type
           rdf:resource="http://purl.org/dc/dcmitype/StillImage" />
        <dc:title />
      </cc:Work>
    </rdf:RDF>
  </metadata>
  <g
     inkscape:groupmode="layer"
     id="layer5"
     inkscape:label="base &lt;1-&gt;"
     transform="translate(285.01075,-129.03051)"
     style="display:inline"
     sodipodi:insensitive="true">
    <g
       id="layer1-1-7-8"
       transform="matrix(0.07212992,-0.01831471,-0.07082025,-0.0186534,42.817204,283.95461)"
       style="fill:#a20d59;fill-opacity:1;stroke:none">
      <path
         style="font-size:medium;font-style:normal;font-variant:normal;font-weight:normal;font-stretch:normal;text-indent:0;text-align:start;text-decoration:none;line-height:normal;letter-spacing:normal;word-spacing:normal;text-transform:none;direction:ltr;block-progression:tb;writing-mode:lr-tb;text-anchor:start;baseline-shift:baseline;color:#000000;fill:#a20d59;fill-opacity:1;stroke:none;stroke-width:40;marker:none;visibility:visible;display:inline;overflow:visible;enable-background:accumulate;font-family:Sans;-inkscape-font-specification:Sans"
         d="m 400.3125,-101.375 c 81.89296,82.169604 163.75403,164.370989 245.625,246.5625 -168.88153,168.17044 -2362.6166,2324.6248 -2531.5146,2492.7788 119.3188,119.7566 242.4874,243.3894 350.8438,352.2187 C -1365.9139,2821.9628 827.90233,665.60022 996.75,497.40625 c 81.3462,81.66424 162.6956,163.32523 244.0312,245 C 1183.2637,524.37414 1125.7401,306.34361 1068.2188,88.3125 l -0.125,0.03125 0.031,-0.125 C 845.51748,25.032185 622.92758,-38.215761 400.3125,-101.375 z"
         id="path1872-0-2"
         inkscape:connector-curvature="0"
         sodipodi:nodetypes="cccccccccc" />
    </g>
    <text
       xml:space="preserve"
       style="font-size:16px;font-style:normal;font-variant:normal;font-weight:normal;font-stretch:normal;text-align:center;line-height:125%;letter-spacing:0px;word-spacing:0px;text-anchor:middle;fill:#ffffff;fill-opacity:1;stroke:none;font-family:DejaVu Sans;-inkscape-font-specification:DejaVu Sans"
       x="-271.92581"
       y="268.23169"
       id="text4436"
       sodipodi:linespacing="125%"><tspan
         sodipodi:role="line"
         id="tspan4438"
         x="-271.92581"
         y="268.23169">t</tspan></text>
    <text
       xml:space="preserve"
       style="font-size:12px;font-style:normal;font-variant:normal;font-weight:normal;font-stretch:normal;text-align:start;line-height:125%;letter-spacing:0px;word-spacing:0px;text-anchor:start;fill:#a20d59;fill-opacity:1;stroke:none;display:inline;font-family:DejaVu Sans;-inkscape-font-specification:DejaVu Sans"
       x="-249.06268"
       y="239.29094"
       id="text4514-7"
       sodipodi:linespacing="125%"><tspan
         sodipodi:role="line"
         id="tspan4516-6"
         x="-249.06268"
         y="239.29094">target position</tspan></text>
    <g
       id="g3887"
       transform="translate(59.821428,24.285714)">
      <path
         transform="translate(-285.01075,129.03051)"
         inkscape:connector-curvature="0"
         id="path3109"
         d="M 41.607143,59.483475 53.303571,71.179904"
         style="fill:none;stroke:#a20d59;stroke-width:4;stroke-linecap:butt;stroke-linejoin:miter;stroke-miterlimit:4;stroke-opacity:1;stroke-dasharray:none" />
      <path
         style="fill:none;stroke:#a20d59;stroke-width:4;stroke-linecap:butt;stroke-linejoin:miter;stroke-miterlimit:4;stroke-opacity:1;stroke-dasharray:none"
         d="m -243.40361,200.21041 11.69643,-11.69642"
         id="path3885"
         inkscape:connector-curvature="0" />
    </g>
  </g>
  <g
     inkscape:groupmode="layer"
     id="layer1"
     inkscape:label="direction1 &lt;1&gt;"
     style="display:inline"
     transform="translate(135.39468,-371.84545)"
     sodipodi:insensitive="true">
    <g
       transform="translate(149.61607,242.81494)"
       style="display:inline"
       id="g4446">
      <path
         transform="translate(-151.75893,-243.52924)"
         d="m -75.733429,506.30829 c 0,3.64176 -2.952235,6.594 -6.594002,6.594 -3.641766,0 -6.594001,-2.95224 -6.594001,-6.594 0,-3.64177 2.952235,-6.594 6.594001,-6.594 3.641767,0 6.594002,2.95223 6.594002,6.594 z"
         sodipodi:ry="6.5940013"
         sodipodi:rx="6.5940013"
         sodipodi:cy="506.30829"
         sodipodi:cx="-82.327431"
         id="path4442"
         style="fill:#ffffff;fill-opacity:1;stroke:none"
         sodipodi:type="arc" />
      <path
         sodipodi:nodetypes="cc"
         inkscape:connector-curvature="0"
         id="path4444"
         d="m -234.07153,256.27133 0,13.03571"
         style="fill:none;stroke:#a20d59;stroke-width:2;stroke-linecap:butt;stroke-linejoin:miter;stroke-miterlimit:4;stroke-opacity:1;stroke-dasharray:none" />
    </g>
    <path
       style="fill:none;stroke:#000000;stroke-width:1px;stroke-linecap:butt;stroke-linejoin:miter;stroke-opacity:1;marker-end:url(#Arrow1Mend)"
       d="m 192.14286,78.233536 52.14285,43.571424"
       id="path3262"
       inkscape:connector-curvature="0"
       transform="translate(-135.39468,343.09539)" />
    <text
       xml:space="preserve"
       style="font-size:12px;font-style:normal;font-variant:normal;font-weight:normal;font-stretch:normal;text-align:start;line-height:125%;letter-spacing:0px;word-spacing:0px;text-anchor:start;fill:#000000;fill-opacity:1;stroke:none;font-family:DejaVu Sans;-inkscape-font-specification:DejaVu Sans"
       x="111.75153"
       y="457.75751"
       id="text4514"
       sodipodi:linespacing="125%"><tspan
         sodipodi:role="line"
         id="tspan4516"
         x="111.75153"
         y="457.75751">current orientation</tspan></text>
  </g>
  <g
     inkscape:label="direction2 &lt;2&gt;"
     id="g4592"
     inkscape:groupmode="layer"
     style="display:inline"
     transform="translate(135.39468,-371.84545)"
     sodipodi:insensitive="true">
    <g
       id="g4622"
       style="display:inline"
       transform="translate(174.60591,242.81494)">
      <path
         sodipodi:type="arc"
         style="fill:#ffffff;fill-opacity:1;stroke:none"
         id="path4624"
         sodipodi:cx="-82.327431"
         sodipodi:cy="506.30829"
         sodipodi:rx="6.5940013"
         sodipodi:ry="6.5940013"
         d="m -75.733429,506.30829 c 0,3.64176 -2.952235,6.594 -6.594002,6.594 -3.641766,0 -6.594001,-2.95224 -6.594001,-6.594 0,-3.64177 2.952235,-6.594 6.594001,-6.594 3.641767,0 6.594002,2.95223 6.594002,6.594 z"
         transform="translate(-151.75893,-243.52924)" />
      <path
         style="fill:none;stroke:#a20d59;stroke-width:2;stroke-linecap:butt;stroke-linejoin:miter;stroke-miterlimit:4;stroke-opacity:1;stroke-dasharray:none"
         d="m -234.07153,256.27133 0,13.03571"
         id="path4626"
         inkscape:connector-curvature="0"
         sodipodi:nodetypes="cc" />
    </g>
    <path
       inkscape:connector-curvature="0"
       id="path4733-5"
       d="m 56.724107,420.44294 30.082622,60.92932"
       style="fill:none;stroke:#000000;stroke-width:1px;stroke-linecap:butt;stroke-linejoin:miter;stroke-opacity:1;marker-end:url(#Arrow1Mend);display:inline"
       inkscape:transform-center-x="-13.027149"
       inkscape:transform-center-y="30.402007" />
    <path
       style="fill:none;stroke:#000000;stroke-width:1px;stroke-linecap:butt;stroke-linejoin:miter;stroke-opacity:1;display:inline"
       d="m 72.22788,451.67996 c 5.1783,-1.50125 8.53598,-4.14459 12.19887,-7.49389"
       id="path4805-8-3-6"
       inkscape:connector-curvature="0"
       sodipodi:nodetypes="cc" />
  </g>
  <g
     inkscape:groupmode="layer"
     id="g4628"
     inkscape:label="direction3 &lt;3&gt;"
     style="display:inline"
     transform="translate(135.39468,-371.84545)"
     sodipodi:insensitive="true">
    <g
       transform="translate(199.61607,242.81494)"
       style="display:inline"
       id="g4658">
      <path
         transform="translate(-151.75893,-243.52924)"
         d="m -75.733429,506.30829 c 0,3.64176 -2.952235,6.594 -6.594002,6.594 -3.641766,0 -6.594001,-2.95224 -6.594001,-6.594 0,-3.64177 2.952235,-6.594 6.594001,-6.594 3.641767,0 6.594002,2.95223 6.594002,6.594 z"
         sodipodi:ry="6.5940013"
         sodipodi:rx="6.5940013"
         sodipodi:cy="506.30829"
         sodipodi:cx="-82.327431"
         id="path4660"
         style="fill:#ffffff;fill-opacity:1;stroke:none"
         sodipodi:type="arc" />
      <path
         sodipodi:nodetypes="cc"
         inkscape:connector-curvature="0"
         id="path4662"
         d="m -234.07153,256.27133 0,13.03571"
         style="fill:none;stroke:#a20d59;stroke-width:2;stroke-linecap:butt;stroke-linejoin:miter;stroke-miterlimit:4;stroke-opacity:1;stroke-dasharray:none" />
    </g>
    <path
       inkscape:connector-curvature="0"
       id="path4733"
       d="m 57.121841,419.53678 -0.463,67.94948"
       style="fill:none;stroke:#000000;stroke-width:1px;stroke-linecap:butt;stroke-linejoin:miter;stroke-opacity:1;marker-end:url(#Arrow1Mend);display:inline"
       inkscape:transform-center-x="2.1349008"
       inkscape:transform-center-y="33.057583" />
    <path
       style="fill:none;stroke:#000000;stroke-width:1px;stroke-linecap:butt;stroke-linejoin:miter;stroke-opacity:1;display:inline"
       d="m 56.78393,453.21412 c 5.23104,0.0584 10.26566,-0.0329 15.44395,-1.53416 5.1783,-1.50125 8.53598,-4.14459 12.19887,-7.49389"
       id="path4805-8-3"
       inkscape:connector-curvature="0"
       sodipodi:nodetypes="csc" />
  </g>
  <g
     inkscape:label="direction4 &lt;4&gt;"
     id="g4664"
     inkscape:groupmode="layer"
     style="display:inline"
     transform="translate(135.39468,-371.84545)"
     sodipodi:insensitive="true">
    <g
       id="g4694"
       style="display:inline"
       transform="translate(224.62623,242.81494)">
      <path
         sodipodi:type="arc"
         style="fill:#ffffff;fill-opacity:1;stroke:none"
         id="path4696"
         sodipodi:cx="-82.327431"
         sodipodi:cy="506.30829"
         sodipodi:rx="6.5940013"
         sodipodi:ry="6.5940013"
         d="m -75.733429,506.30829 c 0,3.64176 -2.952235,6.594 -6.594002,6.594 -3.641766,0 -6.594001,-2.95224 -6.594001,-6.594 0,-3.64177 2.952235,-6.594 6.594001,-6.594 3.641767,0 6.594002,2.95223 6.594002,6.594 z"
         transform="translate(-151.75893,-243.52924)" />
      <path
         style="fill:none;stroke:#a20d59;stroke-width:2;stroke-linecap:butt;stroke-linejoin:miter;stroke-miterlimit:4;stroke-opacity:1;stroke-dasharray:none"
         d="m -234.07153,256.27133 0,13.03571"
         id="path4698"
         inkscape:connector-curvature="0"
         sodipodi:nodetypes="cc" />
    </g>
    <path
       inkscape:connector-curvature="0"
       id="path4733-8"
       d="M 58.080699,418.82023 21.284623,475.94636"
       style="fill:none;stroke:#000000;stroke-width:1px;stroke-linecap:butt;stroke-linejoin:miter;stroke-opacity:1;marker-end:url(#Arrow1Mend);display:inline"
       inkscape:transform-center-x="19.297717"
       inkscape:transform-center-y="26.849717" />
    <path
       style="fill:none;stroke:#000000;stroke-width:1px;stroke-linecap:butt;stroke-linejoin:miter;stroke-opacity:1;display:inline"
       d="m 38.91138,448.67176 c 4.89259,2.66882 12.26195,4.47976 17.87255,4.54236 5.23104,0.0584 10.26566,-0.0329 15.44395,-1.53416 5.1783,-1.50125 8.53598,-4.14459 12.19887,-7.49389"
       id="path4805-8"
       inkscape:connector-curvature="0"
       sodipodi:nodetypes="cssc" />
  </g>
  <g
     inkscape:groupmode="layer"
     id="g4700"
     inkscape:label="direction5 &lt;5&gt;"
     style="display:inline"
     transform="translate(135.39468,-371.84545)"
     sodipodi:insensitive="true">
    <g
       transform="translate(249.61607,242.81494)"
       style="display:inline"
       id="g4730">
      <path
         transform="translate(-151.75893,-243.52924)"
         d="m -75.733429,506.30829 c 0,3.64176 -2.952235,6.594 -6.594002,6.594 -3.641766,0 -6.594001,-2.95224 -6.594001,-6.594 0,-3.64177 2.952235,-6.594 6.594001,-6.594 3.641767,0 6.594002,2.95223 6.594002,6.594 z"
         sodipodi:ry="6.5940013"
         sodipodi:rx="6.5940013"
         sodipodi:cy="506.30829"
         sodipodi:cx="-82.327431"
         id="path4732"
         style="fill:#ffffff;fill-opacity:1;stroke:none"
         sodipodi:type="arc" />
      <path
         sodipodi:nodetypes="cc"
         inkscape:connector-curvature="0"
         id="path4734"
         d="m -234.07153,256.27133 0,13.03571"
         style="fill:none;stroke:#a20d59;stroke-width:2;stroke-linecap:butt;stroke-linejoin:miter;stroke-miterlimit:4;stroke-opacity:1;stroke-dasharray:none" />
    </g>
    <path
       inkscape:connector-curvature="0"
       id="path4733-9"
       d="M 59.135743,419.77607 -0.53945105,450.847"
       style="fill:none;stroke:#000000;stroke-width:1px;stroke-linecap:butt;stroke-linejoin:miter;stroke-opacity:1;marker-end:url(#Arrow1Mend);display:inline"
       inkscape:transform-center-x="29.850582"
       inkscape:transform-center-y="14.239604"
       sodipodi:nodetypes="cc" />
    <path
       style="fill:none;stroke:#000000;stroke-width:1px;stroke-linecap:butt;stroke-linejoin:miter;stroke-opacity:1"
       d="m 161.60714,93.769247 c 3.09149,4.990828 7.80633,9.138303 12.69892,11.807123 4.89259,2.66882 12.26195,4.47976 17.87255,4.54236 5.23104,0.0584 10.26566,-0.0329 15.44395,-1.53416 5.1783,-1.50125 8.53598,-4.14459 12.19887,-7.49389"
       id="path4805"
       inkscape:connector-curvature="0"
       transform="translate(-135.39468,343.09539)"
       sodipodi:nodetypes="csssc" />
  </g>
  <g
     style="display:inline"
     transform="translate(285.01075,-129.03051)"
     inkscape:label="body &lt;1-&gt;"
     id="g4476"
     inkscape:groupmode="layer"
     sodipodi:insensitive="true">
    <g
       transform="matrix(-0.40684931,0,0,0.40684931,6.7845923,39.822135)"
       id="g4486"
       inkscape:label="Layer 1"
       style="display:inline">
      <path
         sodipodi:nodetypes="cssz"
         id="path4488"
         d="m 249.16416,290.84494 c 29.16762,0.82788 52.04657,48.59132 41.25726,64.78842 -10.78929,16.1971 -74.10016,16.1971 -84.41448,0 -10.31431,-16.1971 13.04054,-65.64324 43.15722,-64.78842 z"
         style="fill:url(#radialGradient4863);fill-opacity:1;fill-rule:evenodd;stroke:#383838;stroke-width:3.37548995;stroke-linecap:butt;stroke-linejoin:miter;stroke-miterlimit:4;stroke-opacity:1;stroke-dasharray:none"
         inkscape:connector-curvature="0" />
      <path
         sodipodi:nodetypes="cccccccc"
         id="path4490"
         d="m 246.97821,320.14762 -6.89459,7.16271 3.89488,23.0917 -16.9692,9.76515 -6.34956,-15.47521 12.06165,-18.56007 -2.55204,-9.69706 16.80886,3.71278 z"
         style="fill:url(#linearGradient4865);fill-opacity:1;fill-rule:evenodd;stroke:#383838;stroke-width:3.07961988;stroke-linecap:butt;stroke-linejoin:miter;stroke-miterlimit:4;stroke-opacity:1;stroke-dasharray:none"
         inkscape:connector-curvature="0" />
      <path
         transform="matrix(0.778675,0,0,0.869413,-104.19713,1.609961)"
         d="m 496.96329,320.73038 c 0,25.73111 -20.85919,46.59031 -46.5903,46.59031 -25.73112,0 -46.59031,-20.8592 -46.59031,-46.59031 0,-25.73112 20.85919,-46.59031 46.59031,-46.59031 25.73111,0 46.5903,20.85919 46.5903,46.59031 z"
         sodipodi:ry="46.590309"
         sodipodi:rx="46.590309"
         sodipodi:cy="320.73038"
         sodipodi:cx="450.37299"
         id="path4492"
         style="fill:url(#radialGradient4867);fill-opacity:1;fill-rule:evenodd;stroke:#383838;stroke-width:5.00003576;stroke-linecap:butt;stroke-linejoin:miter;stroke-miterlimit:4;stroke-opacity:1;stroke-dasharray:none"
         sodipodi:type="arc" />
      <path
         sodipodi:nodetypes="czczzcccc"
         id="path4494"
         d="m 261.32487,261.04504 c 0,0 -13.3262,14.15253 -28.19148,14.15253 -13.98097,0 -27.62058,-10.22613 -27.62058,-10.22613 0,0 7.11866,-28.44437 29.78608,-30.97224 22.63369,-2.52412 48.84831,3.92887 56.15342,29.63581 7.39063,26.00787 -12.21234,43.51357 -12.21234,43.51357 l -6.13393,-27.11738 -8.16006,0.20892 -3.62111,-19.19508 z"
         style="fill:url(#radialGradient4869);fill-opacity:1;fill-rule:evenodd;stroke:#383838;stroke-width:3.87308121;stroke-linecap:butt;stroke-linejoin:miter;stroke-miterlimit:4;stroke-opacity:1;stroke-dasharray:none"
         inkscape:connector-curvature="0" />
      <path
         sodipodi:nodetypes="csc"
         id="path4496"
         d="m 266.81768,282.19115 c 2.84209,-8.04979 12.39065,-5.30532 12.92512,3.6066 0.60899,10.1546 -12.08342,11.87471 -12.08342,11.87471"
         style="fill:#fa9e62;fill-opacity:1;fill-rule:evenodd;stroke:#383838;stroke-width:3.87308121;stroke-linecap:butt;stroke-linejoin:miter;stroke-miterlimit:4;stroke-opacity:1"
         inkscape:connector-curvature="0" />
      <path
         sodipodi:type="arc"
         style="fill:#ffffff;fill-opacity:1;fill-rule:evenodd;stroke:none;display:inline"
         id="path4498"
         sodipodi:cx="34.488853"
         sodipodi:cy="54.748039"
         sodipodi:rx="7.4766045"
         sodipodi:ry="7.9589663"
         d="m 41.965458,54.748039 c 0,4.395616 -3.34739,7.958967 -7.476605,7.958967 -4.129214,0 -7.476604,-3.563351 -7.476604,-7.958967 0,-4.395615 3.34739,-7.958966 7.476604,-7.958966 4.105587,0 7.443108,3.524186 7.47636,7.894506"
         transform="matrix(-1.2272275,0,0,1.1528501,291.6728,225.04329)"
         sodipodi:start="0"
         sodipodi:end="6.2750861"
         sodipodi:open="true" />
      <path
         sodipodi:type="arc"
         style="fill:url(#radialGradient4871);fill-opacity:1;fill-rule:evenodd;stroke:none;display:inline"
         id="path4500"
         sodipodi:cx="34.488853"
         sodipodi:cy="54.748039"
         sodipodi:rx="7.4766045"
         sodipodi:ry="7.9589663"
         d="m 41.965458,54.748039 c 0,4.395616 -3.34739,7.958967 -7.476605,7.958967 -4.129214,0 -7.476604,-3.563351 -7.476604,-7.958967 0,-4.395615 3.34739,-7.958966 7.476604,-7.958966 4.105587,0 7.443108,3.524186 7.47636,7.894506"
         transform="matrix(-0.81815179,0,0,0.74323901,274.50573,247.67027)"
         sodipodi:start="0"
         sodipodi:end="6.2750861"
         sodipodi:open="true" />
      <path
         sodipodi:type="arc"
         style="fill:#ffffff;fill-opacity:1;fill-rule:evenodd;stroke:none;display:inline"
         id="path4502"
         sodipodi:cx="34.488853"
         sodipodi:cy="54.748039"
         sodipodi:rx="7.4766045"
         sodipodi:ry="7.9589663"
         d="m 41.965458,54.748039 c 0,4.395616 -3.34739,7.958967 -7.476605,7.958967 -4.129214,0 -7.476604,-3.563351 -7.476604,-7.958967 0,-4.395615 3.34739,-7.958966 7.476604,-7.958966 4.105587,0 7.443108,3.524186 7.47636,7.894506"
         transform="matrix(-0.29750968,0,0,0.27947876,254.88112,272.30255)"
         sodipodi:start="0"
         sodipodi:end="6.2750861"
         sodipodi:open="true" />
      <path
         sodipodi:type="arc"
         style="fill:#ffffff;fill-opacity:1;fill-rule:evenodd;stroke:none;display:inline"
         id="path4504"
         sodipodi:cx="34.488853"
         sodipodi:cy="54.748039"
         sodipodi:rx="7.4766045"
         sodipodi:ry="7.9589663"
         d="m 41.965458,54.748039 c 0,4.395616 -3.34739,7.958967 -7.476605,7.958967 -4.129214,0 -7.476604,-3.563351 -7.476604,-7.958967 0,-4.395615 3.34739,-7.958966 7.476604,-7.958966 4.105587,0 7.443108,3.524186 7.47636,7.894506"
         transform="matrix(-1.2272275,0,0,1.1528501,263.5562,223.1783)"
         sodipodi:start="0"
         sodipodi:end="6.2750861"
         sodipodi:open="true" />
      <path
         sodipodi:type="arc"
         style="fill:url(#radialGradient4873);fill-opacity:1;fill-rule:evenodd;stroke:none;display:inline"
         id="path4506"
         sodipodi:cx="34.488853"
         sodipodi:cy="54.748039"
         sodipodi:rx="7.4766045"
         sodipodi:ry="7.9589663"
         d="m 41.965458,54.748039 c 0,4.395616 -3.34739,7.958967 -7.476605,7.958967 -4.129214,0 -7.476604,-3.563351 -7.476604,-7.958967 0,-4.395615 3.34739,-7.958966 7.476604,-7.958966 4.105587,0 7.443108,3.524186 7.47636,7.894506"
         transform="matrix(-0.81815179,0,0,0.74323901,246.38913,245.80528)"
         sodipodi:start="0"
         sodipodi:end="6.2750861"
         sodipodi:open="true" />
      <path
         sodipodi:type="arc"
         style="fill:#ffffff;fill-opacity:1;fill-rule:evenodd;stroke:none;display:inline"
         id="path4508"
         sodipodi:cx="34.488853"
         sodipodi:cy="54.748039"
         sodipodi:rx="7.4766045"
         sodipodi:ry="7.9589663"
         d="m 41.965458,54.748039 c 0,4.395616 -3.34739,7.958967 -7.476605,7.958967 -4.129214,0 -7.476604,-3.563351 -7.476604,-7.958967 0,-4.395615 3.34739,-7.958966 7.476604,-7.958966 4.105587,0 7.443108,3.524186 7.47636,7.894506"
         transform="matrix(-0.29750968,0,0,0.27947876,226.76454,270.43756)"
         sodipodi:start="0"
         sodipodi:end="6.2750861"
         sodipodi:open="true" />
      <path
         sodipodi:type="arc"
         style="opacity:0.84513275;fill:#ffffff;fill-opacity:1;fill-rule:evenodd;stroke:none;display:inline"
         id="path4510"
         sodipodi:cx="34.488853"
         sodipodi:cy="54.748039"
         sodipodi:rx="7.4766045"
         sodipodi:ry="7.9589663"
         d="m 41.965458,54.748039 c 0,4.395616 -3.34739,7.958967 -7.476605,7.958967 -4.129214,0 -7.476604,-3.563351 -7.476604,-7.958967 0,-4.395615 3.34739,-7.958966 7.476604,-7.958966 4.105587,0 7.443108,3.524186 7.47636,7.894506"
         transform="matrix(-0.18594354,0,0,0.19214161,254.64794,280.55968)"
         sodipodi:start="0"
         sodipodi:end="6.2750861"
         sodipodi:open="true" />
      <path
         sodipodi:type="arc"
         style="opacity:0.84513275;fill:#ffffff;fill-opacity:1;fill-rule:evenodd;stroke:none;display:inline"
         id="path4512"
         sodipodi:cx="34.488853"
         sodipodi:cy="54.748039"
         sodipodi:rx="7.4766045"
         sodipodi:ry="7.9589663"
         d="m 41.965458,54.748039 c 0,4.395616 -3.34739,7.958967 -7.476605,7.958967 -4.129214,0 -7.476604,-3.563351 -7.476604,-7.958967 0,-4.395615 3.34739,-7.958966 7.476604,-7.958966 4.105587,0 7.443108,3.524186 7.47636,7.894506"
         transform="matrix(-0.18594354,0,0,0.19214161,225.97523,279.11175)"
         sodipodi:start="0"
         sodipodi:end="6.2750861"
         sodipodi:open="true" />
    </g>
  </g>
</svg>
