<?xml version="1.0" encoding="UTF-8" standalone="no"?>
<!-- Created with Inkscape (http://www.inkscape.org/) -->

<svg
   xmlns:dc="http://purl.org/dc/elements/1.1/"
   xmlns:cc="http://creativecommons.org/ns#"
   xmlns:rdf="http://www.w3.org/1999/02/22-rdf-syntax-ns#"
   xmlns:svg="http://www.w3.org/2000/svg"
   xmlns="http://www.w3.org/2000/svg"
   xmlns:xlink="http://www.w3.org/1999/xlink"
   xmlns:sodipodi="http://sodipodi.sourceforge.net/DTD/sodipodi-0.dtd"
   xmlns:inkscape="http://www.inkscape.org/namespaces/inkscape"
   width="132.35622"
   height="95.285461"
   id="svg2"
   version="1.1"
   inkscape:version="0.48.4 r9939"
   sodipodi:docname="kinematic_arrive_slowdown.svg">
  <defs
     id="defs4">
    <marker
       inkscape:stockid="Arrow2Send"
       orient="auto"
       refY="0.0"
       refX="0.0"
       id="Arrow2Send"
       style="overflow:visible;">
      <path
         id="path3830"
         style="fill-rule:evenodd;stroke-width:0.62500000;stroke-linejoin:round;"
         d="M 8.7185878,4.0337352 L -2.2072895,0.016013256 L 8.7185884,-4.0017078 C 6.9730900,-1.6296469 6.9831476,1.6157441 8.7185878,4.0337352 z "
         transform="scale(0.3) rotate(180) translate(-2.3,0)" />
    </marker>
    <marker
       inkscape:stockid="Arrow1Sstart"
       orient="auto"
       refY="0.0"
       refX="0.0"
       id="Arrow1Sstart"
       style="overflow:visible">
      <path
         id="path3809"
         d="M 0.0,0.0 L 5.0,-5.0 L -12.5,0.0 L 5.0,5.0 L 0.0,0.0 z "
         style="fill-rule:evenodd;stroke:#000000;stroke-width:1.0pt"
         transform="scale(0.2) translate(6,0)" />
    </marker>
    <marker
       inkscape:stockid="Arrow1Mstart"
       orient="auto"
       refY="0.0"
       refX="0.0"
       id="Arrow1Mstart"
       style="overflow:visible">
      <path
         id="path3803"
         d="M 0.0,0.0 L 5.0,-5.0 L -12.5,0.0 L 5.0,5.0 L 0.0,0.0 z "
         style="fill-rule:evenodd;stroke:#000000;stroke-width:1.0pt"
         transform="scale(0.4) translate(10,0)" />
    </marker>
    <marker
       inkscape:stockid="Arrow1Lstart"
       orient="auto"
       refY="0.0"
       refX="0.0"
       id="Arrow1Lstart"
       style="overflow:visible">
      <path
         id="path3797"
         d="M 0.0,0.0 L 5.0,-5.0 L -12.5,0.0 L 5.0,5.0 L 0.0,0.0 z "
         style="fill-rule:evenodd;stroke:#000000;stroke-width:1.0pt"
         transform="scale(0.8) translate(12.5,0)" />
    </marker>
    <radialGradient
       inkscape:collect="always"
       xlink:href="#linearGradient5465-03-0-8-6-9-8"
       id="radialGradient3194-0-0"
       gradientUnits="userSpaceOnUse"
       gradientTransform="matrix(-1.2141703,-0.3374805,-0.2313312,0.8322719,604.01264,128.99733)"
       cx="212.99527"
       cy="342.63647"
       fx="212.99527"
       fy="342.63647"
       r="46.492542" />
    <linearGradient
       id="linearGradient5465-03-0-8-6-9-8">
      <stop
         style="stop-color:#ffffff;stop-opacity:1;"
         offset="0"
         id="stop5467-3-4-5-6-3-3" />
      <stop
         style="stop-color:#cc7aaa;stop-opacity:1;"
         offset="1"
         id="stop5469-3-4-9-5-2-0" />
    </linearGradient>
    <linearGradient
       inkscape:collect="always"
       xlink:href="#linearGradient5459-6-9-4-4-6-6"
       id="linearGradient3196-2-7"
       gradientUnits="userSpaceOnUse"
       gradientTransform="matrix(-1,0,0,1,479.13287,1.691221)"
       x1="250.83124"
       y1="349.88623"
       x2="241.00351"
       y2="317.9021" />
    <linearGradient
       id="linearGradient5459-6-9-4-4-6-6">
      <stop
         style="stop-color:#127bca;stop-opacity:1;"
         offset="0"
         id="stop5461-3-8-7-4-4-0" />
      <stop
         style="stop-color:#dfeff7;stop-opacity:1;"
         offset="1"
         id="stop5463-51-9-3-7-1-6" />
    </linearGradient>
    <radialGradient
       inkscape:collect="always"
       xlink:href="#linearGradient3215-06-6-1-9-3-5"
       id="radialGradient3198-7-2"
       gradientUnits="userSpaceOnUse"
       cx="438.74796"
       cy="332.53036"
       fx="438.74796"
       fy="332.53036"
       r="49.090309" />
    <linearGradient
       id="linearGradient3215-06-6-1-9-3-5"
       inkscape:collect="always">
      <stop
         id="stop3217-0-3-4-8-7-5"
         offset="0"
         style="stop-color:#ffccaa;stop-opacity:1;" />
      <stop
         id="stop3219-5-2-7-6-8-5"
         offset="1"
         style="stop-color:#fa9351;stop-opacity:1" />
    </linearGradient>
    <radialGradient
       inkscape:collect="always"
       xlink:href="#linearGradient5451-8-6-7-7-7-1"
       id="radialGradient3200-2-2"
       gradientUnits="userSpaceOnUse"
       gradientTransform="matrix(-1,0,0,0.8475176,484.20653,41.219128)"
       cx="211.49677"
       cy="261.49875"
       fx="211.49677"
       fy="261.49875"
       r="45.738976" />
    <linearGradient
       id="linearGradient5451-8-6-7-7-7-1"
       inkscape:collect="always">
      <stop
         id="stop5453-8-5-8-3-2-4"
         offset="0"
         style="stop-color:#e4b762;stop-opacity:1" />
      <stop
         id="stop5455-1-0-4-3-1-9"
         offset="1"
         style="stop-color:#85724f;stop-opacity:1" />
    </linearGradient>
    <radialGradient
       inkscape:collect="always"
       xlink:href="#linearGradient3275-9-0-1-4-9"
       id="radialGradient3202-8-8"
       gradientUnits="userSpaceOnUse"
       gradientTransform="matrix(1,0,0,1.0645162,0,-3.5321331)"
       cx="34.488853"
       cy="54.748039"
       fx="34.488853"
       fy="54.748039"
       r="7.4766045" />
    <linearGradient
       id="linearGradient3275-9-0-1-4-9"
       inkscape:collect="always">
      <stop
         id="stop3277-1-8-4-4-4"
         offset="0"
         style="stop-color:#6e6e6e;stop-opacity:1" />
      <stop
         id="stop3279-4-4-2-8-9"
         offset="1"
         style="stop-color:#292929;stop-opacity:1" />
    </linearGradient>
    <radialGradient
       inkscape:collect="always"
       xlink:href="#linearGradient3275-9-0-1-4-9"
       id="radialGradient3204-7-5"
       gradientUnits="userSpaceOnUse"
       gradientTransform="matrix(1,0,0,1.0645162,0,-3.5321331)"
       cx="34.488853"
       cy="54.748039"
       fx="34.488853"
       fy="54.748039"
       r="7.4766045" />
    <marker
       inkscape:stockid="Arrow1Sstart"
       orient="auto"
       refY="0"
       refX="0"
       id="Arrow1Sstart-2"
       style="overflow:visible">
      <path
         inkscape:connector-curvature="0"
         id="path3809-7"
         d="M 0,0 5,-5 -12.5,0 5,5 0,0 z"
         style="fill-rule:evenodd;stroke:#000000;stroke-width:1pt"
         transform="matrix(0.2,0,0,0.2,1.2,0)" />
    </marker>
    <marker
       inkscape:stockid="Arrow2Send"
       orient="auto"
       refY="0"
       refX="0"
       id="Arrow2Send-4"
       style="overflow:visible">
      <path
         inkscape:connector-curvature="0"
         id="path3830-4"
         style="fill-rule:evenodd;stroke-width:0.625;stroke-linejoin:round"
         d="M 8.7185878,4.0337352 -2.2072895,0.01601326 8.7185884,-4.0017078 c -1.7454984,2.3720609 -1.7354408,5.6174519 -6e-7,8.035443 z"
         transform="matrix(-0.3,0,0,-0.3,0.69,0)" />
    </marker>
  </defs>
  <sodipodi:namedview
     id="base"
     pagecolor="#ffffff"
     bordercolor="#666666"
     borderopacity="1.0"
     inkscape:pageopacity="0.0"
     inkscape:pageshadow="2"
     inkscape:zoom="2.8"
     inkscape:cx="100.08154"
     inkscape:cy="42.017996"
     inkscape:document-units="px"
     inkscape:current-layer="layer5"
     showgrid="false"
     fit-margin-top="5"
     fit-margin-left="5"
     fit-margin-right="5"
     fit-margin-bottom="5"
     inkscape:window-width="1920"
     inkscape:window-height="1056"
     inkscape:window-x="0"
     inkscape:window-y="24"
     inkscape:window-maximized="1" />
  <metadata
     id="metadata7">
    <rdf:RDF>
      <cc:Work
         rdf:about="">
        <dc:format>image/svg+xml</dc:format>
        <dc:type
           rdf:resource="http://purl.org/dc/dcmitype/StillImage" />
        <dc:title />
      </cc:Work>
    </rdf:RDF>
  </metadata>
  <g
     inkscape:groupmode="layer"
     id="layer5"
     inkscape:label="all"
     transform="translate(182.18658,-111.88766)"
     style="display:inline">
    <g
       id="g3212"
       transform="translate(1.4285684,137.85715)">
      <path
         transform="translate(-149.61607,-242.81494)"
         inkscape:connector-curvature="0"
         id="path3208"
         d="m 60,273.77376 17.142857,17.14286"
         style="fill:none;stroke:#000000;stroke-width:4;stroke-linecap:butt;stroke-linejoin:miter;stroke-miterlimit:4;stroke-opacity:1;stroke-dasharray:none" />
      <path
         style="fill:none;stroke:#000000;stroke-width:4;stroke-linecap:butt;stroke-linejoin:miter;stroke-miterlimit:4;stroke-opacity:1;stroke-dasharray:none"
         d="M -89.61607,48.10168 -72.473213,30.95882"
         id="path3210"
         inkscape:connector-curvature="0" />
    </g>
    <path
       style="fill:none;stroke:#000000;stroke-width:1px;stroke-linecap:butt;stroke-linejoin:miter;stroke-opacity:1"
       d="M 126.42857,64.662107 205,77.340679"
       id="path4032"
       inkscape:connector-curvature="0"
       transform="translate(-285.01075,100.28045)"
       sodipodi:nodetypes="cc" />
    <g
       style="display:inline"
       inkscape:label="Layer 1"
       id="layer1-4"
       transform="matrix(-0.40684931,0,0,0.40684931,-57.143979,22.679278)">
      <path
         inkscape:connector-curvature="0"
         style="fill:url(#radialGradient3194-0-0);fill-opacity:1;fill-rule:evenodd;stroke:#383838;stroke-width:3.37548995;stroke-linecap:butt;stroke-linejoin:miter;stroke-miterlimit:4;stroke-opacity:1;stroke-dasharray:none"
         d="m 249.16416,290.84494 c 29.16762,0.82788 52.04657,48.59132 41.25726,64.78842 -10.78929,16.1971 -74.10016,16.1971 -84.41448,0 -10.31431,-16.1971 13.04054,-65.64324 43.15722,-64.78842 z"
         id="path7363-6"
         sodipodi:nodetypes="cssz" />
      <path
         inkscape:connector-curvature="0"
         style="fill:url(#linearGradient3196-2-7);fill-opacity:1;fill-rule:evenodd;stroke:#383838;stroke-width:3.07961988;stroke-linecap:butt;stroke-linejoin:miter;stroke-miterlimit:4;stroke-opacity:1;stroke-dasharray:none"
         d="m 246.97821,320.14762 -6.89459,7.16271 3.89488,23.0917 -16.9692,9.76515 -6.34956,-15.47521 12.06165,-18.56007 -2.55204,-9.69706 16.80886,3.71278 z"
         id="path7365-1"
         sodipodi:nodetypes="cccccccc" />
      <path
         sodipodi:type="arc"
         style="fill:url(#radialGradient3198-7-2);fill-opacity:1;fill-rule:evenodd;stroke:#383838;stroke-width:5.00003576;stroke-linecap:butt;stroke-linejoin:miter;stroke-miterlimit:4;stroke-opacity:1;stroke-dasharray:none"
         id="path7367-7"
         sodipodi:cx="450.37299"
         sodipodi:cy="320.73038"
         sodipodi:rx="46.590309"
         sodipodi:ry="46.590309"
         d="m 496.96329,320.73038 c 0,25.73111 -20.85919,46.59031 -46.5903,46.59031 -25.73112,0 -46.59031,-20.8592 -46.59031,-46.59031 0,-25.73112 20.85919,-46.59031 46.59031,-46.59031 25.73111,0 46.5903,20.85919 46.5903,46.59031 z"
         transform="matrix(0.778675,0,0,0.869413,-104.19713,1.609961)" />
      <path
         inkscape:connector-curvature="0"
         style="fill:url(#radialGradient3200-2-2);fill-opacity:1;fill-rule:evenodd;stroke:#383838;stroke-width:3.87308121;stroke-linecap:butt;stroke-linejoin:miter;stroke-miterlimit:4;stroke-opacity:1;stroke-dasharray:none"
         d="m 261.32487,261.04504 c 0,0 -13.3262,14.15253 -28.19148,14.15253 -13.98097,0 -27.62058,-10.22613 -27.62058,-10.22613 0,0 7.11866,-28.44437 29.78608,-30.97224 22.63369,-2.52412 48.84831,3.92887 56.15342,29.63581 7.39063,26.00787 -12.21234,43.51357 -12.21234,43.51357 l -6.13393,-27.11738 -8.16006,0.20892 -3.62111,-19.19508 z"
         id="path7441-1"
         sodipodi:nodetypes="czczzcccc" />
      <path
         inkscape:connector-curvature="0"
         style="fill:#fa9e62;fill-opacity:1;fill-rule:evenodd;stroke:#383838;stroke-width:3.87308121;stroke-linecap:butt;stroke-linejoin:miter;stroke-miterlimit:4;stroke-opacity:1"
         d="m 266.81768,282.19115 c 2.84209,-8.04979 12.39065,-5.30532 12.92512,3.6066 0.60899,10.1546 -12.08342,11.87471 -12.08342,11.87471"
         id="path7443-6"
         sodipodi:nodetypes="csc" />
      <path
         sodipodi:open="true"
         sodipodi:end="6.2750861"
         sodipodi:start="0"
         transform="matrix(-1.2272275,0,0,1.1528501,291.6728,225.04329)"
         d="m 41.965458,54.748039 c 0,4.395616 -3.34739,7.958967 -7.476605,7.958967 -4.129214,0 -7.476604,-3.563351 -7.476604,-7.958967 0,-4.395615 3.34739,-7.958966 7.476604,-7.958966 4.105587,0 7.443108,3.524186 7.47636,7.894506"
         sodipodi:ry="7.9589663"
         sodipodi:rx="7.4766045"
         sodipodi:cy="54.748039"
         sodipodi:cx="34.488853"
         id="path3271-0"
         style="fill:#ffffff;fill-opacity:1;fill-rule:evenodd;stroke:none;display:inline"
         sodipodi:type="arc" />
      <path
         sodipodi:open="true"
         sodipodi:end="6.2750861"
         sodipodi:start="0"
         transform="matrix(-0.81815179,0,0,0.74323901,274.50573,247.67027)"
         d="m 41.965458,54.748039 c 0,4.395616 -3.34739,7.958967 -7.476605,7.958967 -4.129214,0 -7.476604,-3.563351 -7.476604,-7.958967 0,-4.395615 3.34739,-7.958966 7.476604,-7.958966 4.105587,0 7.443108,3.524186 7.47636,7.894506"
         sodipodi:ry="7.9589663"
         sodipodi:rx="7.4766045"
         sodipodi:cy="54.748039"
         sodipodi:cx="34.488853"
         id="path3273-3"
         style="fill:url(#radialGradient3202-8-8);fill-opacity:1;fill-rule:evenodd;stroke:none;display:inline"
         sodipodi:type="arc" />
      <path
         sodipodi:open="true"
         sodipodi:end="6.2750861"
         sodipodi:start="0"
         transform="matrix(-0.29750968,0,0,0.27947876,254.88112,272.30255)"
         d="m 41.965458,54.748039 c 0,4.395616 -3.34739,7.958967 -7.476605,7.958967 -4.129214,0 -7.476604,-3.563351 -7.476604,-7.958967 0,-4.395615 3.34739,-7.958966 7.476604,-7.958966 4.105587,0 7.443108,3.524186 7.47636,7.894506"
         sodipodi:ry="7.9589663"
         sodipodi:rx="7.4766045"
         sodipodi:cy="54.748039"
         sodipodi:cx="34.488853"
         id="path3283-8"
         style="fill:#ffffff;fill-opacity:1;fill-rule:evenodd;stroke:none;display:inline"
         sodipodi:type="arc" />
      <path
         sodipodi:open="true"
         sodipodi:end="6.2750861"
         sodipodi:start="0"
         transform="matrix(-1.2272275,0,0,1.1528501,263.5562,223.1783)"
         d="m 41.965458,54.748039 c 0,4.395616 -3.34739,7.958967 -7.476605,7.958967 -4.129214,0 -7.476604,-3.563351 -7.476604,-7.958967 0,-4.395615 3.34739,-7.958966 7.476604,-7.958966 4.105587,0 7.443108,3.524186 7.47636,7.894506"
         sodipodi:ry="7.9589663"
         sodipodi:rx="7.4766045"
         sodipodi:cy="54.748039"
         sodipodi:cx="34.488853"
         id="path3285-7"
         style="fill:#ffffff;fill-opacity:1;fill-rule:evenodd;stroke:none;display:inline"
         sodipodi:type="arc" />
      <path
         sodipodi:open="true"
         sodipodi:end="6.2750861"
         sodipodi:start="0"
         transform="matrix(-0.81815179,0,0,0.74323901,246.38913,245.80528)"
         d="m 41.965458,54.748039 c 0,4.395616 -3.34739,7.958967 -7.476605,7.958967 -4.129214,0 -7.476604,-3.563351 -7.476604,-7.958967 0,-4.395615 3.34739,-7.958966 7.476604,-7.958966 4.105587,0 7.443108,3.524186 7.47636,7.894506"
         sodipodi:ry="7.9589663"
         sodipodi:rx="7.4766045"
         sodipodi:cy="54.748039"
         sodipodi:cx="34.488853"
         id="path3287-6"
         style="fill:url(#radialGradient3204-7-5);fill-opacity:1;fill-rule:evenodd;stroke:none;display:inline"
         sodipodi:type="arc" />
      <path
         sodipodi:open="true"
         sodipodi:end="6.2750861"
         sodipodi:start="0"
         transform="matrix(-0.29750968,0,0,0.27947876,226.76454,270.43756)"
         d="m 41.965458,54.748039 c 0,4.395616 -3.34739,7.958967 -7.476605,7.958967 -4.129214,0 -7.476604,-3.563351 -7.476604,-7.958967 0,-4.395615 3.34739,-7.958966 7.476604,-7.958966 4.105587,0 7.443108,3.524186 7.47636,7.894506"
         sodipodi:ry="7.9589663"
         sodipodi:rx="7.4766045"
         sodipodi:cy="54.748039"
         sodipodi:cx="34.488853"
         id="path3289-5"
         style="fill:#ffffff;fill-opacity:1;fill-rule:evenodd;stroke:none;display:inline"
         sodipodi:type="arc" />
      <path
         sodipodi:open="true"
         sodipodi:end="6.2750861"
         sodipodi:start="0"
         transform="matrix(-0.18594354,0,0,0.19214161,254.64794,280.55968)"
         d="m 41.965458,54.748039 c 0,4.395616 -3.34739,7.958967 -7.476605,7.958967 -4.129214,0 -7.476604,-3.563351 -7.476604,-7.958967 0,-4.395615 3.34739,-7.958966 7.476604,-7.958966 4.105587,0 7.443108,3.524186 7.47636,7.894506"
         sodipodi:ry="7.9589663"
         sodipodi:rx="7.4766045"
         sodipodi:cy="54.748039"
         sodipodi:cx="34.488853"
         id="path3293-9"
         style="opacity:0.84513275;fill:#ffffff;fill-opacity:1;fill-rule:evenodd;stroke:none;display:inline"
         sodipodi:type="arc" />
      <path
         sodipodi:open="true"
         sodipodi:end="6.2750861"
         sodipodi:start="0"
         transform="matrix(-0.18594354,0,0,0.19214161,225.97523,279.11175)"
         d="m 41.965458,54.748039 c 0,4.395616 -3.34739,7.958967 -7.476605,7.958967 -4.129214,0 -7.476604,-3.563351 -7.476604,-7.958967 0,-4.395615 3.34739,-7.958966 7.476604,-7.958966 4.105587,0 7.443108,3.524186 7.47636,7.894506"
         sodipodi:ry="7.9589663"
         sodipodi:rx="7.4766045"
         sodipodi:cy="54.748039"
         sodipodi:cx="34.488853"
         id="path3295-3"
         style="opacity:0.84513275;fill:#ffffff;fill-opacity:1;fill-rule:evenodd;stroke:none;display:inline"
         sodipodi:type="arc" />
    </g>
    <g
       style="display:inline"
       id="g4811"
       transform="matrix(0.83272175,0,0,0.83272175,-17.384055,20.281222)">
      <path
         transform="translate(-182.18658,111.88766)"
         inkscape:connector-curvature="0"
         id="path3023"
         d="m 72.983521,5.3818849 0,35.6078771 45.456869,0"
         style="fill:none;stroke:#000000;stroke-width:1px;stroke-linecap:butt;stroke-linejoin:miter;stroke-opacity:1;marker-start:url(#Arrow1Sstart);marker-end:url(#Arrow2Send)" />
      <text
         sodipodi:linespacing="125%"
         id="text4801"
         y="155.4028"
         x="-61.664665"
         style="font-size:10px;font-style:normal;font-variant:normal;font-weight:normal;font-stretch:normal;text-align:start;line-height:125%;letter-spacing:0px;word-spacing:0px;text-anchor:start;fill:#000000;fill-opacity:1;stroke:none;font-family:DejaVu Sans;-inkscape-font-specification:DejaVu Sans"
         xml:space="preserve"><tspan
           y="155.4028"
           x="-61.664665"
           id="tspan4803"
           sodipodi:role="line">t</tspan></text>
      <text
         xml:space="preserve"
         style="font-size:10px;font-style:normal;font-variant:normal;font-weight:normal;font-stretch:normal;text-align:start;line-height:125%;letter-spacing:0px;word-spacing:0px;text-anchor:start;fill:#000000;fill-opacity:1;stroke:none;font-family:DejaVu Sans;-inkscape-font-specification:DejaVu Sans"
         x="-106.66533"
         y="120.3"
         id="text4805"
         sodipodi:linespacing="125%"><tspan
           sodipodi:role="line"
           id="tspan4807"
           x="-106.66533"
           y="120.3">speed</tspan></text>
      <path
         sodipodi:nodetypes="ccc"
         transform="translate(-182.18658,111.88766)"
         inkscape:connector-curvature="0"
         id="path4809"
         d="m 72.983521,13.463105 8.081221,0 33.721728,27.561012"
         style="fill:none;stroke:#000000;stroke-width:1px;stroke-linecap:butt;stroke-linejoin:miter;stroke-opacity:1" />
    </g>
  </g>
</svg>
