<?xml version="1.0" encoding="UTF-8" standalone="no"?>
<!-- Created with Inkscape (http://www.inkscape.org/) -->

<svg
   xmlns:dc="http://purl.org/dc/elements/1.1/"
   xmlns:cc="http://creativecommons.org/ns#"
   xmlns:rdf="http://www.w3.org/1999/02/22-rdf-syntax-ns#"
   xmlns:svg="http://www.w3.org/2000/svg"
   xmlns="http://www.w3.org/2000/svg"
   xmlns:xlink="http://www.w3.org/1999/xlink"
   xmlns:sodipodi="http://sodipodi.sourceforge.net/DTD/sodipodi-0.dtd"
   xmlns:inkscape="http://www.inkscape.org/namespaces/inkscape"
   width="415.33331"
   height="193.93115"
   id="svg2"
   version="1.1"
   inkscape:version="0.48.4 r9939"
   sodipodi:docname="kinematic_seek.svg">
  <defs
     id="defs4">
    <linearGradient
       id="linearGradient5465-03-0-8-1-1">
      <stop
         style="stop-color:#ffffff;stop-opacity:1;"
         offset="0"
         id="stop5467-3-4-5-0-7" />
      <stop
         style="stop-color:#cc7aaa;stop-opacity:1;"
         offset="1"
         id="stop5469-3-4-9-8-6" />
    </linearGradient>
    <linearGradient
       id="linearGradient5459-6-9-4-1-4">
      <stop
         style="stop-color:#127bca;stop-opacity:1;"
         offset="0"
         id="stop5461-3-8-7-5-3" />
      <stop
         style="stop-color:#dfeff7;stop-opacity:1;"
         offset="1"
         id="stop5463-51-9-3-3-7" />
    </linearGradient>
    <linearGradient
       id="linearGradient3215-06-6-1-1-0"
       inkscape:collect="always">
      <stop
         id="stop3217-0-3-4-2-6"
         offset="0"
         style="stop-color:#ffccaa;stop-opacity:1;" />
      <stop
         id="stop3219-5-2-7-2-0"
         offset="1"
         style="stop-color:#fa9351;stop-opacity:1" />
    </linearGradient>
    <linearGradient
       id="linearGradient5451-8-6-7-2-6"
       inkscape:collect="always">
      <stop
         id="stop5453-8-5-8-9-5"
         offset="0"
         style="stop-color:#e4b762;stop-opacity:1" />
      <stop
         id="stop5455-1-0-4-5-7"
         offset="1"
         style="stop-color:#85724f;stop-opacity:1" />
    </linearGradient>
    <linearGradient
       id="linearGradient3275-9-0-5-5"
       inkscape:collect="always">
      <stop
         id="stop3277-1-8-7-9"
         offset="0"
         style="stop-color:#6e6e6e;stop-opacity:1" />
      <stop
         id="stop3279-4-4-0-1"
         offset="1"
         style="stop-color:#292929;stop-opacity:1" />
    </linearGradient>
    <radialGradient
       inkscape:collect="always"
       xlink:href="#linearGradient5465-03-0-8-1-1"
       id="radialGradient4959"
       gradientUnits="userSpaceOnUse"
       gradientTransform="matrix(-1.2141703,-0.3374805,-0.2313312,0.8322719,604.01264,128.99733)"
       cx="212.99527"
       cy="342.63647"
       fx="212.99527"
       fy="342.63647"
       r="46.492542" />
    <linearGradient
       inkscape:collect="always"
       xlink:href="#linearGradient5459-6-9-4-1-4"
       id="linearGradient4961"
       gradientUnits="userSpaceOnUse"
       gradientTransform="matrix(-1,0,0,1,479.13287,1.691221)"
       x1="250.83124"
       y1="349.88623"
       x2="241.00351"
       y2="317.9021" />
    <radialGradient
       inkscape:collect="always"
       xlink:href="#linearGradient3215-06-6-1-1-0"
       id="radialGradient4963"
       gradientUnits="userSpaceOnUse"
       cx="438.74796"
       cy="332.53036"
       fx="438.74796"
       fy="332.53036"
       r="49.090309" />
    <radialGradient
       inkscape:collect="always"
       xlink:href="#linearGradient5451-8-6-7-2-6"
       id="radialGradient4965"
       gradientUnits="userSpaceOnUse"
       gradientTransform="matrix(-1,0,0,0.8475176,484.20653,41.219128)"
       cx="211.49677"
       cy="261.49875"
       fx="211.49677"
       fy="261.49875"
       r="45.738976" />
    <radialGradient
       inkscape:collect="always"
       xlink:href="#linearGradient3275-9-0-5-5"
       id="radialGradient4967"
       gradientUnits="userSpaceOnUse"
       gradientTransform="matrix(1,0,0,1.0645162,0,-3.5321331)"
       cx="34.488853"
       cy="54.748039"
       fx="34.488853"
       fy="54.748039"
       r="7.4766045" />
    <radialGradient
       inkscape:collect="always"
       xlink:href="#linearGradient3275-9-0-5-5"
       id="radialGradient4969"
       gradientUnits="userSpaceOnUse"
       gradientTransform="matrix(1,0,0,1.0645162,0,-3.5321331)"
       cx="34.488853"
       cy="54.748039"
       fx="34.488853"
       fy="54.748039"
       r="7.4766045" />
    <radialGradient
       inkscape:collect="always"
       xlink:href="#linearGradient5465-03-0-8-6-9"
       id="radialGradient3194-0"
       gradientUnits="userSpaceOnUse"
       gradientTransform="matrix(-1.2141703,-0.3374805,-0.2313312,0.8322719,604.01264,128.99733)"
       cx="212.99527"
       cy="342.63647"
       fx="212.99527"
       fy="342.63647"
       r="46.492542" />
    <linearGradient
       id="linearGradient5465-03-0-8-6-9">
      <stop
         style="stop-color:#ffffff;stop-opacity:1;"
         offset="0"
         id="stop5467-3-4-5-6-3" />
      <stop
         style="stop-color:#cc7aaa;stop-opacity:1;"
         offset="1"
         id="stop5469-3-4-9-5-2" />
    </linearGradient>
    <linearGradient
       inkscape:collect="always"
       xlink:href="#linearGradient5459-6-9-4-4-6"
       id="linearGradient3196-2"
       gradientUnits="userSpaceOnUse"
       gradientTransform="matrix(-1,0,0,1,479.13287,1.691221)"
       x1="250.83124"
       y1="349.88623"
       x2="241.00351"
       y2="317.9021" />
    <linearGradient
       id="linearGradient5459-6-9-4-4-6">
      <stop
         style="stop-color:#127bca;stop-opacity:1;"
         offset="0"
         id="stop5461-3-8-7-4-4" />
      <stop
         style="stop-color:#dfeff7;stop-opacity:1;"
         offset="1"
         id="stop5463-51-9-3-7-1" />
    </linearGradient>
    <radialGradient
       inkscape:collect="always"
       xlink:href="#linearGradient3215-06-6-1-9-3"
       id="radialGradient3198-7"
       gradientUnits="userSpaceOnUse"
       cx="438.74796"
       cy="332.53036"
       fx="438.74796"
       fy="332.53036"
       r="49.090309" />
    <linearGradient
       id="linearGradient3215-06-6-1-9-3"
       inkscape:collect="always">
      <stop
         id="stop3217-0-3-4-8-7"
         offset="0"
         style="stop-color:#ffccaa;stop-opacity:1;" />
      <stop
         id="stop3219-5-2-7-6-8"
         offset="1"
         style="stop-color:#fa9351;stop-opacity:1" />
    </linearGradient>
    <radialGradient
       inkscape:collect="always"
       xlink:href="#linearGradient5451-8-6-7-7-7"
       id="radialGradient3200-2"
       gradientUnits="userSpaceOnUse"
       gradientTransform="matrix(-1,0,0,0.8475176,484.20653,41.219128)"
       cx="211.49677"
       cy="261.49875"
       fx="211.49677"
       fy="261.49875"
       r="45.738976" />
    <linearGradient
       id="linearGradient5451-8-6-7-7-7"
       inkscape:collect="always">
      <stop
         id="stop5453-8-5-8-3-2"
         offset="0"
         style="stop-color:#e4b762;stop-opacity:1" />
      <stop
         id="stop5455-1-0-4-3-1"
         offset="1"
         style="stop-color:#85724f;stop-opacity:1" />
    </linearGradient>
    <radialGradient
       inkscape:collect="always"
       xlink:href="#linearGradient3275-9-0-1-4"
       id="radialGradient3202-8"
       gradientUnits="userSpaceOnUse"
       gradientTransform="matrix(1,0,0,1.0645162,0,-3.5321331)"
       cx="34.488853"
       cy="54.748039"
       fx="34.488853"
       fy="54.748039"
       r="7.4766045" />
    <linearGradient
       id="linearGradient3275-9-0-1-4"
       inkscape:collect="always">
      <stop
         id="stop3277-1-8-4-4"
         offset="0"
         style="stop-color:#6e6e6e;stop-opacity:1" />
      <stop
         id="stop3279-4-4-2-8"
         offset="1"
         style="stop-color:#292929;stop-opacity:1" />
    </linearGradient>
    <radialGradient
       inkscape:collect="always"
       xlink:href="#linearGradient3275-9-0-1-4"
       id="radialGradient3204-7"
       gradientUnits="userSpaceOnUse"
       gradientTransform="matrix(1,0,0,1.0645162,0,-3.5321331)"
       cx="34.488853"
       cy="54.748039"
       fx="34.488853"
       fy="54.748039"
       r="7.4766045" />
    <radialGradient
       inkscape:collect="always"
       xlink:href="#linearGradient5465-03-0-8-6-9"
       id="radialGradient4736"
       gradientUnits="userSpaceOnUse"
       gradientTransform="matrix(-1.2141703,-0.3374805,-0.2313312,0.8322719,604.01264,128.99733)"
       cx="212.99527"
       cy="342.63647"
       fx="212.99527"
       fy="342.63647"
       r="46.492542" />
    <linearGradient
       inkscape:collect="always"
       xlink:href="#linearGradient5459-6-9-4-4-6"
       id="linearGradient4738"
       gradientUnits="userSpaceOnUse"
       gradientTransform="matrix(-1,0,0,1,479.13287,1.691221)"
       x1="250.83124"
       y1="349.88623"
       x2="241.00351"
       y2="317.9021" />
    <radialGradient
       inkscape:collect="always"
       xlink:href="#linearGradient3215-06-6-1-9-3"
       id="radialGradient4740"
       gradientUnits="userSpaceOnUse"
       cx="438.74796"
       cy="332.53036"
       fx="438.74796"
       fy="332.53036"
       r="49.090309" />
    <radialGradient
       inkscape:collect="always"
       xlink:href="#linearGradient5451-8-6-7-7-7"
       id="radialGradient4742"
       gradientUnits="userSpaceOnUse"
       gradientTransform="matrix(-1,0,0,0.8475176,484.20653,41.219128)"
       cx="211.49677"
       cy="261.49875"
       fx="211.49677"
       fy="261.49875"
       r="45.738976" />
    <radialGradient
       inkscape:collect="always"
       xlink:href="#linearGradient3275-9-0-1-4"
       id="radialGradient4744"
       gradientUnits="userSpaceOnUse"
       gradientTransform="matrix(1,0,0,1.0645162,0,-3.5321331)"
       cx="34.488853"
       cy="54.748039"
       fx="34.488853"
       fy="54.748039"
       r="7.4766045" />
    <radialGradient
       inkscape:collect="always"
       xlink:href="#linearGradient3275-9-0-1-4"
       id="radialGradient4746"
       gradientUnits="userSpaceOnUse"
       gradientTransform="matrix(1,0,0,1.0645162,0,-3.5321331)"
       cx="34.488853"
       cy="54.748039"
       fx="34.488853"
       fy="54.748039"
       r="7.4766045" />
    <radialGradient
       inkscape:collect="always"
       xlink:href="#linearGradient5465-03-0-8-6-9"
       id="radialGradient4748"
       gradientUnits="userSpaceOnUse"
       gradientTransform="matrix(-1.2141703,-0.3374805,-0.2313312,0.8322719,604.01264,128.99733)"
       cx="212.99527"
       cy="342.63647"
       fx="212.99527"
       fy="342.63647"
       r="46.492542" />
    <linearGradient
       inkscape:collect="always"
       xlink:href="#linearGradient5459-6-9-4-4-6"
       id="linearGradient4750"
       gradientUnits="userSpaceOnUse"
       gradientTransform="matrix(-1,0,0,1,479.13287,1.691221)"
       x1="250.83124"
       y1="349.88623"
       x2="241.00351"
       y2="317.9021" />
    <radialGradient
       inkscape:collect="always"
       xlink:href="#linearGradient3215-06-6-1-9-3"
       id="radialGradient4752"
       gradientUnits="userSpaceOnUse"
       cx="438.74796"
       cy="332.53036"
       fx="438.74796"
       fy="332.53036"
       r="49.090309" />
    <radialGradient
       inkscape:collect="always"
       xlink:href="#linearGradient5451-8-6-7-7-7"
       id="radialGradient4754"
       gradientUnits="userSpaceOnUse"
       gradientTransform="matrix(-1,0,0,0.8475176,484.20653,41.219128)"
       cx="211.49677"
       cy="261.49875"
       fx="211.49677"
       fy="261.49875"
       r="45.738976" />
    <radialGradient
       inkscape:collect="always"
       xlink:href="#linearGradient3275-9-0-1-4"
       id="radialGradient4756"
       gradientUnits="userSpaceOnUse"
       gradientTransform="matrix(1,0,0,1.0645162,0,-3.5321331)"
       cx="34.488853"
       cy="54.748039"
       fx="34.488853"
       fy="54.748039"
       r="7.4766045" />
    <radialGradient
       inkscape:collect="always"
       xlink:href="#linearGradient3275-9-0-1-4"
       id="radialGradient4758"
       gradientUnits="userSpaceOnUse"
       gradientTransform="matrix(1,0,0,1.0645162,0,-3.5321331)"
       cx="34.488853"
       cy="54.748039"
       fx="34.488853"
       fy="54.748039"
       r="7.4766045" />
    <radialGradient
       inkscape:collect="always"
       xlink:href="#linearGradient5465-03-0-8-6-9"
       id="radialGradient4760"
       gradientUnits="userSpaceOnUse"
       gradientTransform="matrix(-1.2141703,-0.3374805,-0.2313312,0.8322719,604.01264,128.99733)"
       cx="212.99527"
       cy="342.63647"
       fx="212.99527"
       fy="342.63647"
       r="46.492542" />
    <linearGradient
       inkscape:collect="always"
       xlink:href="#linearGradient5459-6-9-4-4-6"
       id="linearGradient4762"
       gradientUnits="userSpaceOnUse"
       gradientTransform="matrix(-1,0,0,1,479.13287,1.691221)"
       x1="250.83124"
       y1="349.88623"
       x2="241.00351"
       y2="317.9021" />
    <radialGradient
       inkscape:collect="always"
       xlink:href="#linearGradient3215-06-6-1-9-3"
       id="radialGradient4764"
       gradientUnits="userSpaceOnUse"
       cx="438.74796"
       cy="332.53036"
       fx="438.74796"
       fy="332.53036"
       r="49.090309" />
    <radialGradient
       inkscape:collect="always"
       xlink:href="#linearGradient5451-8-6-7-7-7"
       id="radialGradient4766"
       gradientUnits="userSpaceOnUse"
       gradientTransform="matrix(-1,0,0,0.8475176,484.20653,41.219128)"
       cx="211.49677"
       cy="261.49875"
       fx="211.49677"
       fy="261.49875"
       r="45.738976" />
    <radialGradient
       inkscape:collect="always"
       xlink:href="#linearGradient3275-9-0-1-4"
       id="radialGradient4768"
       gradientUnits="userSpaceOnUse"
       gradientTransform="matrix(1,0,0,1.0645162,0,-3.5321331)"
       cx="34.488853"
       cy="54.748039"
       fx="34.488853"
       fy="54.748039"
       r="7.4766045" />
    <radialGradient
       inkscape:collect="always"
       xlink:href="#linearGradient3275-9-0-1-4"
       id="radialGradient4770"
       gradientUnits="userSpaceOnUse"
       gradientTransform="matrix(1,0,0,1.0645162,0,-3.5321331)"
       cx="34.488853"
       cy="54.748039"
       fx="34.488853"
       fy="54.748039"
       r="7.4766045" />
    <radialGradient
       inkscape:collect="always"
       xlink:href="#linearGradient5465-03-0-8-6-9"
       id="radialGradient4772"
       gradientUnits="userSpaceOnUse"
       gradientTransform="matrix(-1.2141703,-0.3374805,-0.2313312,0.8322719,604.01264,128.99733)"
       cx="212.99527"
       cy="342.63647"
       fx="212.99527"
       fy="342.63647"
       r="46.492542" />
    <linearGradient
       inkscape:collect="always"
       xlink:href="#linearGradient5459-6-9-4-4-6"
       id="linearGradient4774"
       gradientUnits="userSpaceOnUse"
       gradientTransform="matrix(-1,0,0,1,479.13287,1.691221)"
       x1="250.83124"
       y1="349.88623"
       x2="241.00351"
       y2="317.9021" />
    <radialGradient
       inkscape:collect="always"
       xlink:href="#linearGradient3215-06-6-1-9-3"
       id="radialGradient4776"
       gradientUnits="userSpaceOnUse"
       cx="438.74796"
       cy="332.53036"
       fx="438.74796"
       fy="332.53036"
       r="49.090309" />
    <radialGradient
       inkscape:collect="always"
       xlink:href="#linearGradient5451-8-6-7-7-7"
       id="radialGradient4778"
       gradientUnits="userSpaceOnUse"
       gradientTransform="matrix(-1,0,0,0.8475176,484.20653,41.219128)"
       cx="211.49677"
       cy="261.49875"
       fx="211.49677"
       fy="261.49875"
       r="45.738976" />
    <radialGradient
       inkscape:collect="always"
       xlink:href="#linearGradient3275-9-0-1-4"
       id="radialGradient4780"
       gradientUnits="userSpaceOnUse"
       gradientTransform="matrix(1,0,0,1.0645162,0,-3.5321331)"
       cx="34.488853"
       cy="54.748039"
       fx="34.488853"
       fy="54.748039"
       r="7.4766045" />
    <radialGradient
       inkscape:collect="always"
       xlink:href="#linearGradient3275-9-0-1-4"
       id="radialGradient4782"
       gradientUnits="userSpaceOnUse"
       gradientTransform="matrix(1,0,0,1.0645162,0,-3.5321331)"
       cx="34.488853"
       cy="54.748039"
       fx="34.488853"
       fy="54.748039"
       r="7.4766045" />
  </defs>
  <sodipodi:namedview
     id="base"
     pagecolor="#ffffff"
     bordercolor="#666666"
     borderopacity="1.0"
     inkscape:pageopacity="0.0"
     inkscape:pageshadow="2"
     inkscape:zoom="0.7"
     inkscape:cx="195.67415"
     inkscape:cy="70.251199"
     inkscape:document-units="px"
     inkscape:current-layer="layer5"
     showgrid="false"
     fit-margin-top="5"
     fit-margin-left="5"
     fit-margin-right="5"
     fit-margin-bottom="5"
     inkscape:window-width="1920"
     inkscape:window-height="1056"
     inkscape:window-x="0"
     inkscape:window-y="24"
     inkscape:window-maximized="1" />
  <metadata
     id="metadata7">
    <rdf:RDF>
      <cc:Work
         rdf:about="">
        <dc:format>image/svg+xml</dc:format>
        <dc:type
           rdf:resource="http://purl.org/dc/dcmitype/StillImage" />
        <dc:title />
      </cc:Work>
    </rdf:RDF>
  </metadata>
  <g
     inkscape:groupmode="layer"
     id="layer5"
     inkscape:label="base &lt;1-&gt;"
     transform="translate(285.01075,-89.582839)"
     style="display:inline"
     sodipodi:insensitive="true">
    <g
       id="layer1-1-7-8"
       transform="matrix(0.07212992,-0.01831471,-0.07082025,-0.0186534,42.817204,283.95461)"
       style="fill:#a20d59;fill-opacity:1;stroke:none">
      <path
         style="font-size:medium;font-style:normal;font-variant:normal;font-weight:normal;font-stretch:normal;text-indent:0;text-align:start;text-decoration:none;line-height:normal;letter-spacing:normal;word-spacing:normal;text-transform:none;direction:ltr;block-progression:tb;writing-mode:lr-tb;text-anchor:start;baseline-shift:baseline;color:#000000;fill:#a20d59;fill-opacity:1;stroke:none;stroke-width:40;marker:none;visibility:visible;display:inline;overflow:visible;enable-background:accumulate;font-family:Sans;-inkscape-font-specification:Sans"
         d="m 400.3125,-101.375 c 81.89296,82.169604 163.75403,164.370989 245.625,246.5625 -168.88153,168.17044 -2362.6166,2324.6248 -2531.5146,2492.7788 119.3188,119.7566 242.4874,243.3894 350.8438,352.2187 C -1365.9139,2821.9628 827.90233,665.60022 996.75,497.40625 c 81.3462,81.66424 162.6956,163.32523 244.0312,245 C 1183.2637,524.37414 1125.7401,306.34361 1068.2188,88.3125 l -0.125,0.03125 0.031,-0.125 C 845.51748,25.032185 622.92758,-38.215761 400.3125,-101.375 z"
         id="path1872-0-2"
         inkscape:connector-curvature="0"
         sodipodi:nodetypes="cccccccccc" />
    </g>
    <g
       id="g3212"
       transform="translate(137.85714,152.14286)">
      <path
         transform="translate(-149.61607,-242.81494)"
         inkscape:connector-curvature="0"
         id="path3208"
         d="m 60,273.77376 17.142857,17.14286"
         style="fill:none;stroke:#000000;stroke-width:4;stroke-linecap:butt;stroke-linejoin:miter;stroke-miterlimit:4;stroke-opacity:1;stroke-dasharray:none" />
      <path
         style="fill:none;stroke:#000000;stroke-width:4;stroke-linecap:butt;stroke-linejoin:miter;stroke-miterlimit:4;stroke-opacity:1;stroke-dasharray:none"
         d="M -89.61607,48.10168 -72.473213,30.95882"
         id="path3210"
         inkscape:connector-curvature="0" />
    </g>
    <text
       xml:space="preserve"
       style="font-size:20px;font-style:normal;font-variant:normal;font-weight:normal;font-stretch:normal;text-align:center;line-height:125%;letter-spacing:0px;word-spacing:0px;text-anchor:middle;fill:#000000;fill-opacity:1;stroke:none;font-family:DejaVu Sans;-inkscape-font-specification:DejaVu Sans"
       x="53.955372"
       y="228.10167"
       id="text3216"
       sodipodi:linespacing="125%"><tspan
         sodipodi:role="line"
         id="tspan3218"
         x="53.955372"
         y="228.10167">Target Position</tspan></text>
    <text
       xml:space="preserve"
       style="font-size:16px;font-style:normal;font-variant:normal;font-weight:normal;font-stretch:normal;text-align:center;line-height:125%;letter-spacing:0px;word-spacing:0px;text-anchor:middle;fill:#ffffff;fill-opacity:1;stroke:none;font-family:DejaVu Sans;-inkscape-font-specification:DejaVu Sans"
       x="-271.92581"
       y="268.23169"
       id="text4436"
       sodipodi:linespacing="125%"><tspan
         sodipodi:role="line"
         id="tspan4438"
         x="-271.92581"
         y="268.23169">t</tspan></text>
  </g>
  <g
     inkscape:groupmode="layer"
     id="layer1"
     inkscape:label="body1 &lt;1&gt;"
     sodipodi:insensitive="true"
     style="display:inline"
     transform="translate(135.39468,-332.39778)">
    <g
       style="display:inline"
       inkscape:label="Layer 1"
       id="layer1-4"
       transform="matrix(-0.40684931,0,0,0.40684931,33.54785,243.1894)">
      <path
         inkscape:connector-curvature="0"
         style="fill:url(#radialGradient3194-0);fill-opacity:1;fill-rule:evenodd;stroke:#383838;stroke-width:3.37548995;stroke-linecap:butt;stroke-linejoin:miter;stroke-miterlimit:4;stroke-opacity:1;stroke-dasharray:none"
         d="m 249.16416,290.84494 c 29.16762,0.82788 52.04657,48.59132 41.25726,64.78842 -10.78929,16.1971 -74.10016,16.1971 -84.41448,0 -10.31431,-16.1971 13.04054,-65.64324 43.15722,-64.78842 z"
         id="path7363-6"
         sodipodi:nodetypes="cssz" />
      <path
         inkscape:connector-curvature="0"
         style="fill:url(#linearGradient3196-2);fill-opacity:1;fill-rule:evenodd;stroke:#383838;stroke-width:3.07961988;stroke-linecap:butt;stroke-linejoin:miter;stroke-miterlimit:4;stroke-opacity:1;stroke-dasharray:none"
         d="m 246.97821,320.14762 -6.89459,7.16271 3.89488,23.0917 -16.9692,9.76515 -6.34956,-15.47521 12.06165,-18.56007 -2.55204,-9.69706 16.80886,3.71278 z"
         id="path7365-1"
         sodipodi:nodetypes="cccccccc" />
      <path
         sodipodi:type="arc"
         style="fill:url(#radialGradient3198-7);fill-opacity:1;fill-rule:evenodd;stroke:#383838;stroke-width:5.00003576;stroke-linecap:butt;stroke-linejoin:miter;stroke-miterlimit:4;stroke-opacity:1;stroke-dasharray:none"
         id="path7367-7"
         sodipodi:cx="450.37299"
         sodipodi:cy="320.73038"
         sodipodi:rx="46.590309"
         sodipodi:ry="46.590309"
         d="m 496.96329,320.73038 c 0,25.73111 -20.85919,46.59031 -46.5903,46.59031 -25.73112,0 -46.59031,-20.8592 -46.59031,-46.59031 0,-25.73112 20.85919,-46.59031 46.59031,-46.59031 25.73111,0 46.5903,20.85919 46.5903,46.59031 z"
         transform="matrix(0.778675,0,0,0.869413,-104.19713,1.609961)" />
      <path
         inkscape:connector-curvature="0"
         style="fill:url(#radialGradient3200-2);fill-opacity:1;fill-rule:evenodd;stroke:#383838;stroke-width:3.87308121;stroke-linecap:butt;stroke-linejoin:miter;stroke-miterlimit:4;stroke-opacity:1;stroke-dasharray:none"
         d="m 261.32487,261.04504 c 0,0 -13.3262,14.15253 -28.19148,14.15253 -13.98097,0 -27.62058,-10.22613 -27.62058,-10.22613 0,0 7.11866,-28.44437 29.78608,-30.97224 22.63369,-2.52412 48.84831,3.92887 56.15342,29.63581 7.39063,26.00787 -12.21234,43.51357 -12.21234,43.51357 l -6.13393,-27.11738 -8.16006,0.20892 -3.62111,-19.19508 z"
         id="path7441-1"
         sodipodi:nodetypes="czczzcccc" />
      <path
         inkscape:connector-curvature="0"
         style="fill:#fa9e62;fill-opacity:1;fill-rule:evenodd;stroke:#383838;stroke-width:3.87308121;stroke-linecap:butt;stroke-linejoin:miter;stroke-miterlimit:4;stroke-opacity:1"
         d="m 266.81768,282.19115 c 2.84209,-8.04979 12.39065,-5.30532 12.92512,3.6066 0.60899,10.1546 -12.08342,11.87471 -12.08342,11.87471"
         id="path7443-6"
         sodipodi:nodetypes="csc" />
      <path
         sodipodi:open="true"
         sodipodi:end="6.2750861"
         sodipodi:start="0"
         transform="matrix(-1.2272275,0,0,1.1528501,291.6728,225.04329)"
         d="m 41.965458,54.748039 c 0,4.395616 -3.34739,7.958967 -7.476605,7.958967 -4.129214,0 -7.476604,-3.563351 -7.476604,-7.958967 0,-4.395615 3.34739,-7.958966 7.476604,-7.958966 4.105587,0 7.443108,3.524186 7.47636,7.894506"
         sodipodi:ry="7.9589663"
         sodipodi:rx="7.4766045"
         sodipodi:cy="54.748039"
         sodipodi:cx="34.488853"
         id="path3271-0"
         style="fill:#ffffff;fill-opacity:1;fill-rule:evenodd;stroke:none;display:inline"
         sodipodi:type="arc" />
      <path
         sodipodi:open="true"
         sodipodi:end="6.2750861"
         sodipodi:start="0"
         transform="matrix(-0.81815179,0,0,0.74323901,274.50573,247.67027)"
         d="m 41.965458,54.748039 c 0,4.395616 -3.34739,7.958967 -7.476605,7.958967 -4.129214,0 -7.476604,-3.563351 -7.476604,-7.958967 0,-4.395615 3.34739,-7.958966 7.476604,-7.958966 4.105587,0 7.443108,3.524186 7.47636,7.894506"
         sodipodi:ry="7.9589663"
         sodipodi:rx="7.4766045"
         sodipodi:cy="54.748039"
         sodipodi:cx="34.488853"
         id="path3273-3"
         style="fill:url(#radialGradient3202-8);fill-opacity:1;fill-rule:evenodd;stroke:none;display:inline"
         sodipodi:type="arc" />
      <path
         sodipodi:open="true"
         sodipodi:end="6.2750861"
         sodipodi:start="0"
         transform="matrix(-0.29750968,0,0,0.27947876,254.88112,272.30255)"
         d="m 41.965458,54.748039 c 0,4.395616 -3.34739,7.958967 -7.476605,7.958967 -4.129214,0 -7.476604,-3.563351 -7.476604,-7.958967 0,-4.395615 3.34739,-7.958966 7.476604,-7.958966 4.105587,0 7.443108,3.524186 7.47636,7.894506"
         sodipodi:ry="7.9589663"
         sodipodi:rx="7.4766045"
         sodipodi:cy="54.748039"
         sodipodi:cx="34.488853"
         id="path3283-8"
         style="fill:#ffffff;fill-opacity:1;fill-rule:evenodd;stroke:none;display:inline"
         sodipodi:type="arc" />
      <path
         sodipodi:open="true"
         sodipodi:end="6.2750861"
         sodipodi:start="0"
         transform="matrix(-1.2272275,0,0,1.1528501,263.5562,223.1783)"
         d="m 41.965458,54.748039 c 0,4.395616 -3.34739,7.958967 -7.476605,7.958967 -4.129214,0 -7.476604,-3.563351 -7.476604,-7.958967 0,-4.395615 3.34739,-7.958966 7.476604,-7.958966 4.105587,0 7.443108,3.524186 7.47636,7.894506"
         sodipodi:ry="7.9589663"
         sodipodi:rx="7.4766045"
         sodipodi:cy="54.748039"
         sodipodi:cx="34.488853"
         id="path3285-7"
         style="fill:#ffffff;fill-opacity:1;fill-rule:evenodd;stroke:none;display:inline"
         sodipodi:type="arc" />
      <path
         sodipodi:open="true"
         sodipodi:end="6.2750861"
         sodipodi:start="0"
         transform="matrix(-0.81815179,0,0,0.74323901,246.38913,245.80528)"
         d="m 41.965458,54.748039 c 0,4.395616 -3.34739,7.958967 -7.476605,7.958967 -4.129214,0 -7.476604,-3.563351 -7.476604,-7.958967 0,-4.395615 3.34739,-7.958966 7.476604,-7.958966 4.105587,0 7.443108,3.524186 7.47636,7.894506"
         sodipodi:ry="7.9589663"
         sodipodi:rx="7.4766045"
         sodipodi:cy="54.748039"
         sodipodi:cx="34.488853"
         id="path3287-6"
         style="fill:url(#radialGradient3204-7);fill-opacity:1;fill-rule:evenodd;stroke:none;display:inline"
         sodipodi:type="arc" />
      <path
         sodipodi:open="true"
         sodipodi:end="6.2750861"
         sodipodi:start="0"
         transform="matrix(-0.29750968,0,0,0.27947876,226.76454,270.43756)"
         d="m 41.965458,54.748039 c 0,4.395616 -3.34739,7.958967 -7.476605,7.958967 -4.129214,0 -7.476604,-3.563351 -7.476604,-7.958967 0,-4.395615 3.34739,-7.958966 7.476604,-7.958966 4.105587,0 7.443108,3.524186 7.47636,7.894506"
         sodipodi:ry="7.9589663"
         sodipodi:rx="7.4766045"
         sodipodi:cy="54.748039"
         sodipodi:cx="34.488853"
         id="path3289-5"
         style="fill:#ffffff;fill-opacity:1;fill-rule:evenodd;stroke:none;display:inline"
         sodipodi:type="arc" />
      <path
         sodipodi:open="true"
         sodipodi:end="6.2750861"
         sodipodi:start="0"
         transform="matrix(-0.18594354,0,0,0.19214161,254.64794,280.55968)"
         d="m 41.965458,54.748039 c 0,4.395616 -3.34739,7.958967 -7.476605,7.958967 -4.129214,0 -7.476604,-3.563351 -7.476604,-7.958967 0,-4.395615 3.34739,-7.958966 7.476604,-7.958966 4.105587,0 7.443108,3.524186 7.47636,7.894506"
         sodipodi:ry="7.9589663"
         sodipodi:rx="7.4766045"
         sodipodi:cy="54.748039"
         sodipodi:cx="34.488853"
         id="path3293-9"
         style="opacity:0.84513275;fill:#ffffff;fill-opacity:1;fill-rule:evenodd;stroke:none;display:inline"
         sodipodi:type="arc" />
      <path
         sodipodi:open="true"
         sodipodi:end="6.2750861"
         sodipodi:start="0"
         transform="matrix(-0.18594354,0,0,0.19214161,225.97523,279.11175)"
         d="m 41.965458,54.748039 c 0,4.395616 -3.34739,7.958967 -7.476605,7.958967 -4.129214,0 -7.476604,-3.563351 -7.476604,-7.958967 0,-4.395615 3.34739,-7.958966 7.476604,-7.958966 4.105587,0 7.443108,3.524186 7.47636,7.894506"
         sodipodi:ry="7.9589663"
         sodipodi:rx="7.4766045"
         sodipodi:cy="54.748039"
         sodipodi:cx="34.488853"
         id="path3295-3"
         style="opacity:0.84513275;fill:#ffffff;fill-opacity:1;fill-rule:evenodd;stroke:none;display:inline"
         sodipodi:type="arc" />
    </g>
    <g
       transform="translate(149.61607,242.81494)"
       style="display:inline"
       id="g4446">
      <path
         transform="translate(-151.75893,-243.52924)"
         d="m -75.733429,506.30829 c 0,3.64176 -2.952235,6.594 -6.594002,6.594 -3.641766,0 -6.594001,-2.95224 -6.594001,-6.594 0,-3.64177 2.952235,-6.594 6.594001,-6.594 3.641767,0 6.594002,2.95223 6.594002,6.594 z"
         sodipodi:ry="6.5940013"
         sodipodi:rx="6.5940013"
         sodipodi:cy="506.30829"
         sodipodi:cx="-82.327431"
         id="path4442"
         style="fill:#ffffff;fill-opacity:1;stroke:none"
         sodipodi:type="arc" />
      <path
         sodipodi:nodetypes="cc"
         inkscape:connector-curvature="0"
         id="path4444"
         d="m -234.07153,256.27133 0,13.03571"
         style="fill:none;stroke:#a20d59;stroke-width:2;stroke-linecap:butt;stroke-linejoin:miter;stroke-miterlimit:4;stroke-opacity:1;stroke-dasharray:none" />
    </g>
  </g>
  <g
     inkscape:label="body2 &lt;2&gt;"
     id="g4592"
     inkscape:groupmode="layer"
     style="display:inline"
     sodipodi:insensitive="true"
     transform="translate(135.39468,-332.39778)">
    <g
       id="g4622"
       style="display:inline"
       transform="translate(174.60591,242.81494)">
      <path
         sodipodi:type="arc"
         style="fill:#ffffff;fill-opacity:1;stroke:none"
         id="path4624"
         sodipodi:cx="-82.327431"
         sodipodi:cy="506.30829"
         sodipodi:rx="6.5940013"
         sodipodi:ry="6.5940013"
         d="m -75.733429,506.30829 c 0,3.64176 -2.952235,6.594 -6.594002,6.594 -3.641766,0 -6.594001,-2.95224 -6.594001,-6.594 0,-3.64177 2.952235,-6.594 6.594001,-6.594 3.641767,0 6.594002,2.95223 6.594002,6.594 z"
         transform="translate(-151.75893,-243.52924)" />
      <path
         style="fill:none;stroke:#a20d59;stroke-width:2;stroke-linecap:butt;stroke-linejoin:miter;stroke-miterlimit:4;stroke-opacity:1;stroke-dasharray:none"
         d="m -234.07153,256.27133 0,13.03571"
         id="path4626"
         inkscape:connector-curvature="0"
         sodipodi:nodetypes="cc" />
    </g>
    <path
       style="fill:none;stroke:#000000;stroke-width:1px;stroke-linecap:butt;stroke-linejoin:miter;stroke-opacity:1;display:inline"
       d="m -68.114555,385.61899 36.868628,6.41468"
       id="path3220"
       inkscape:connector-curvature="0"
       sodipodi:nodetypes="cc" />
    <g
       transform="matrix(-0.40684931,0,0,0.40684931,69.408265,249.7757)"
       id="g4594"
       inkscape:label="Layer 1"
       style="display:inline">
      <path
         sodipodi:nodetypes="cssz"
         id="path4596"
         d="m 249.16416,290.84494 c 29.16762,0.82788 52.04657,48.59132 41.25726,64.78842 -10.78929,16.1971 -74.10016,16.1971 -84.41448,0 -10.31431,-16.1971 13.04054,-65.64324 43.15722,-64.78842 z"
         style="fill:url(#radialGradient4760);fill-opacity:1;fill-rule:evenodd;stroke:#383838;stroke-width:3.37548995;stroke-linecap:butt;stroke-linejoin:miter;stroke-miterlimit:4;stroke-opacity:1;stroke-dasharray:none"
         inkscape:connector-curvature="0" />
      <path
         sodipodi:nodetypes="cccccccc"
         id="path4598"
         d="m 246.97821,320.14762 -6.89459,7.16271 3.89488,23.0917 -16.9692,9.76515 -6.34956,-15.47521 12.06165,-18.56007 -2.55204,-9.69706 16.80886,3.71278 z"
         style="fill:url(#linearGradient4762);fill-opacity:1;fill-rule:evenodd;stroke:#383838;stroke-width:3.07961988;stroke-linecap:butt;stroke-linejoin:miter;stroke-miterlimit:4;stroke-opacity:1;stroke-dasharray:none"
         inkscape:connector-curvature="0" />
      <path
         transform="matrix(0.778675,0,0,0.869413,-104.19713,1.609961)"
         d="m 496.96329,320.73038 c 0,25.73111 -20.85919,46.59031 -46.5903,46.59031 -25.73112,0 -46.59031,-20.8592 -46.59031,-46.59031 0,-25.73112 20.85919,-46.59031 46.59031,-46.59031 25.73111,0 46.5903,20.85919 46.5903,46.59031 z"
         sodipodi:ry="46.590309"
         sodipodi:rx="46.590309"
         sodipodi:cy="320.73038"
         sodipodi:cx="450.37299"
         id="path4600"
         style="fill:url(#radialGradient4764);fill-opacity:1;fill-rule:evenodd;stroke:#383838;stroke-width:5.00003576;stroke-linecap:butt;stroke-linejoin:miter;stroke-miterlimit:4;stroke-opacity:1;stroke-dasharray:none"
         sodipodi:type="arc" />
      <path
         sodipodi:nodetypes="czczzcccc"
         id="path4602"
         d="m 261.32487,261.04504 c 0,0 -13.3262,14.15253 -28.19148,14.15253 -13.98097,0 -27.62058,-10.22613 -27.62058,-10.22613 0,0 7.11866,-28.44437 29.78608,-30.97224 22.63369,-2.52412 48.84831,3.92887 56.15342,29.63581 7.39063,26.00787 -12.21234,43.51357 -12.21234,43.51357 l -6.13393,-27.11738 -8.16006,0.20892 -3.62111,-19.19508 z"
         style="fill:url(#radialGradient4766);fill-opacity:1;fill-rule:evenodd;stroke:#383838;stroke-width:3.87308121;stroke-linecap:butt;stroke-linejoin:miter;stroke-miterlimit:4;stroke-opacity:1;stroke-dasharray:none"
         inkscape:connector-curvature="0" />
      <path
         sodipodi:nodetypes="csc"
         id="path4604"
         d="m 266.81768,282.19115 c 2.84209,-8.04979 12.39065,-5.30532 12.92512,3.6066 0.60899,10.1546 -12.08342,11.87471 -12.08342,11.87471"
         style="fill:#fa9e62;fill-opacity:1;fill-rule:evenodd;stroke:#383838;stroke-width:3.87308121;stroke-linecap:butt;stroke-linejoin:miter;stroke-miterlimit:4;stroke-opacity:1"
         inkscape:connector-curvature="0" />
      <path
         sodipodi:type="arc"
         style="fill:#ffffff;fill-opacity:1;fill-rule:evenodd;stroke:none;display:inline"
         id="path4606"
         sodipodi:cx="34.488853"
         sodipodi:cy="54.748039"
         sodipodi:rx="7.4766045"
         sodipodi:ry="7.9589663"
         d="m 41.965458,54.748039 c 0,4.395616 -3.34739,7.958967 -7.476605,7.958967 -4.129214,0 -7.476604,-3.563351 -7.476604,-7.958967 0,-4.395615 3.34739,-7.958966 7.476604,-7.958966 4.105587,0 7.443108,3.524186 7.47636,7.894506"
         transform="matrix(-1.2272275,0,0,1.1528501,291.6728,225.04329)"
         sodipodi:start="0"
         sodipodi:end="6.2750861"
         sodipodi:open="true" />
      <path
         sodipodi:type="arc"
         style="fill:url(#radialGradient4768);fill-opacity:1;fill-rule:evenodd;stroke:none;display:inline"
         id="path4608"
         sodipodi:cx="34.488853"
         sodipodi:cy="54.748039"
         sodipodi:rx="7.4766045"
         sodipodi:ry="7.9589663"
         d="m 41.965458,54.748039 c 0,4.395616 -3.34739,7.958967 -7.476605,7.958967 -4.129214,0 -7.476604,-3.563351 -7.476604,-7.958967 0,-4.395615 3.34739,-7.958966 7.476604,-7.958966 4.105587,0 7.443108,3.524186 7.47636,7.894506"
         transform="matrix(-0.81815179,0,0,0.74323901,274.50573,247.67027)"
         sodipodi:start="0"
         sodipodi:end="6.2750861"
         sodipodi:open="true" />
      <path
         sodipodi:type="arc"
         style="fill:#ffffff;fill-opacity:1;fill-rule:evenodd;stroke:none;display:inline"
         id="path4610"
         sodipodi:cx="34.488853"
         sodipodi:cy="54.748039"
         sodipodi:rx="7.4766045"
         sodipodi:ry="7.9589663"
         d="m 41.965458,54.748039 c 0,4.395616 -3.34739,7.958967 -7.476605,7.958967 -4.129214,0 -7.476604,-3.563351 -7.476604,-7.958967 0,-4.395615 3.34739,-7.958966 7.476604,-7.958966 4.105587,0 7.443108,3.524186 7.47636,7.894506"
         transform="matrix(-0.29750968,0,0,0.27947876,254.88112,272.30255)"
         sodipodi:start="0"
         sodipodi:end="6.2750861"
         sodipodi:open="true" />
      <path
         sodipodi:type="arc"
         style="fill:#ffffff;fill-opacity:1;fill-rule:evenodd;stroke:none;display:inline"
         id="path4612"
         sodipodi:cx="34.488853"
         sodipodi:cy="54.748039"
         sodipodi:rx="7.4766045"
         sodipodi:ry="7.9589663"
         d="m 41.965458,54.748039 c 0,4.395616 -3.34739,7.958967 -7.476605,7.958967 -4.129214,0 -7.476604,-3.563351 -7.476604,-7.958967 0,-4.395615 3.34739,-7.958966 7.476604,-7.958966 4.105587,0 7.443108,3.524186 7.47636,7.894506"
         transform="matrix(-1.2272275,0,0,1.1528501,263.5562,223.1783)"
         sodipodi:start="0"
         sodipodi:end="6.2750861"
         sodipodi:open="true" />
      <path
         sodipodi:type="arc"
         style="fill:url(#radialGradient4770);fill-opacity:1;fill-rule:evenodd;stroke:none;display:inline"
         id="path4614"
         sodipodi:cx="34.488853"
         sodipodi:cy="54.748039"
         sodipodi:rx="7.4766045"
         sodipodi:ry="7.9589663"
         d="m 41.965458,54.748039 c 0,4.395616 -3.34739,7.958967 -7.476605,7.958967 -4.129214,0 -7.476604,-3.563351 -7.476604,-7.958967 0,-4.395615 3.34739,-7.958966 7.476604,-7.958966 4.105587,0 7.443108,3.524186 7.47636,7.894506"
         transform="matrix(-0.81815179,0,0,0.74323901,246.38913,245.80528)"
         sodipodi:start="0"
         sodipodi:end="6.2750861"
         sodipodi:open="true" />
      <path
         sodipodi:type="arc"
         style="fill:#ffffff;fill-opacity:1;fill-rule:evenodd;stroke:none;display:inline"
         id="path4616"
         sodipodi:cx="34.488853"
         sodipodi:cy="54.748039"
         sodipodi:rx="7.4766045"
         sodipodi:ry="7.9589663"
         d="m 41.965458,54.748039 c 0,4.395616 -3.34739,7.958967 -7.476605,7.958967 -4.129214,0 -7.476604,-3.563351 -7.476604,-7.958967 0,-4.395615 3.34739,-7.958966 7.476604,-7.958966 4.105587,0 7.443108,3.524186 7.47636,7.894506"
         transform="matrix(-0.29750968,0,0,0.27947876,226.76454,270.43756)"
         sodipodi:start="0"
         sodipodi:end="6.2750861"
         sodipodi:open="true" />
      <path
         sodipodi:type="arc"
         style="opacity:0.84513275;fill:#ffffff;fill-opacity:1;fill-rule:evenodd;stroke:none;display:inline"
         id="path4618"
         sodipodi:cx="34.488853"
         sodipodi:cy="54.748039"
         sodipodi:rx="7.4766045"
         sodipodi:ry="7.9589663"
         d="m 41.965458,54.748039 c 0,4.395616 -3.34739,7.958967 -7.476605,7.958967 -4.129214,0 -7.476604,-3.563351 -7.476604,-7.958967 0,-4.395615 3.34739,-7.958966 7.476604,-7.958966 4.105587,0 7.443108,3.524186 7.47636,7.894506"
         transform="matrix(-0.18594354,0,0,0.19214161,254.64794,280.55968)"
         sodipodi:start="0"
         sodipodi:end="6.2750861"
         sodipodi:open="true" />
      <path
         sodipodi:type="arc"
         style="opacity:0.84513275;fill:#ffffff;fill-opacity:1;fill-rule:evenodd;stroke:none;display:inline"
         id="path4620"
         sodipodi:cx="34.488853"
         sodipodi:cy="54.748039"
         sodipodi:rx="7.4766045"
         sodipodi:ry="7.9589663"
         d="m 41.965458,54.748039 c 0,4.395616 -3.34739,7.958967 -7.476605,7.958967 -4.129214,0 -7.476604,-3.563351 -7.476604,-7.958967 0,-4.395615 3.34739,-7.958966 7.476604,-7.958966 4.105587,0 7.443108,3.524186 7.47636,7.894506"
         transform="matrix(-0.18594354,0,0,0.19214161,225.97523,279.11175)"
         sodipodi:start="0"
         sodipodi:end="6.2750861"
         sodipodi:open="true" />
    </g>
  </g>
  <g
     inkscape:groupmode="layer"
     id="g4628"
     inkscape:label="body3 &lt;3&gt;"
     style="display:inline"
     sodipodi:insensitive="true"
     transform="translate(135.39468,-332.39778)">
    <g
       transform="translate(199.61607,242.81494)"
       style="display:inline"
       id="g4658">
      <path
         transform="translate(-151.75893,-243.52924)"
         d="m -75.733429,506.30829 c 0,3.64176 -2.952235,6.594 -6.594002,6.594 -3.641766,0 -6.594001,-2.95224 -6.594001,-6.594 0,-3.64177 2.952235,-6.594 6.594001,-6.594 3.641767,0 6.594002,2.95223 6.594002,6.594 z"
         sodipodi:ry="6.5940013"
         sodipodi:rx="6.5940013"
         sodipodi:cy="506.30829"
         sodipodi:cx="-82.327431"
         id="path4660"
         style="fill:#ffffff;fill-opacity:1;stroke:none"
         sodipodi:type="arc" />
      <path
         sodipodi:nodetypes="cc"
         inkscape:connector-curvature="0"
         id="path4662"
         d="m -234.07153,256.27133 0,13.03571"
         style="fill:none;stroke:#a20d59;stroke-width:2;stroke-linecap:butt;stroke-linejoin:miter;stroke-miterlimit:4;stroke-opacity:1;stroke-dasharray:none" />
    </g>
    <path
       style="fill:none;stroke:#000000;stroke-width:1px;stroke-linecap:butt;stroke-linejoin:miter;stroke-opacity:1;display:inline"
       d="M -68.114555,385.61899 4.4882193,398.6628"
       id="path3220-1"
       inkscape:connector-curvature="0"
       sodipodi:nodetypes="cc" />
    <g
       style="display:inline"
       inkscape:label="Layer 1"
       id="g4630"
       transform="matrix(-0.40684931,0,0,0.40684931,105.77378,256.80615)">
      <path
         inkscape:connector-curvature="0"
         style="fill:url(#radialGradient4748);fill-opacity:1;fill-rule:evenodd;stroke:#383838;stroke-width:3.37548995;stroke-linecap:butt;stroke-linejoin:miter;stroke-miterlimit:4;stroke-opacity:1;stroke-dasharray:none"
         d="m 249.16416,290.84494 c 29.16762,0.82788 52.04657,48.59132 41.25726,64.78842 -10.78929,16.1971 -74.10016,16.1971 -84.41448,0 -10.31431,-16.1971 13.04054,-65.64324 43.15722,-64.78842 z"
         id="path4632"
         sodipodi:nodetypes="cssz" />
      <path
         inkscape:connector-curvature="0"
         style="fill:url(#linearGradient4750);fill-opacity:1;fill-rule:evenodd;stroke:#383838;stroke-width:3.07961988;stroke-linecap:butt;stroke-linejoin:miter;stroke-miterlimit:4;stroke-opacity:1;stroke-dasharray:none"
         d="m 246.97821,320.14762 -6.89459,7.16271 3.89488,23.0917 -16.9692,9.76515 -6.34956,-15.47521 12.06165,-18.56007 -2.55204,-9.69706 16.80886,3.71278 z"
         id="path4634"
         sodipodi:nodetypes="cccccccc" />
      <path
         sodipodi:type="arc"
         style="fill:url(#radialGradient4752);fill-opacity:1;fill-rule:evenodd;stroke:#383838;stroke-width:5.00003576;stroke-linecap:butt;stroke-linejoin:miter;stroke-miterlimit:4;stroke-opacity:1;stroke-dasharray:none"
         id="path4636"
         sodipodi:cx="450.37299"
         sodipodi:cy="320.73038"
         sodipodi:rx="46.590309"
         sodipodi:ry="46.590309"
         d="m 496.96329,320.73038 c 0,25.73111 -20.85919,46.59031 -46.5903,46.59031 -25.73112,0 -46.59031,-20.8592 -46.59031,-46.59031 0,-25.73112 20.85919,-46.59031 46.59031,-46.59031 25.73111,0 46.5903,20.85919 46.5903,46.59031 z"
         transform="matrix(0.778675,0,0,0.869413,-104.19713,1.609961)" />
      <path
         inkscape:connector-curvature="0"
         style="fill:url(#radialGradient4754);fill-opacity:1;fill-rule:evenodd;stroke:#383838;stroke-width:3.87308121;stroke-linecap:butt;stroke-linejoin:miter;stroke-miterlimit:4;stroke-opacity:1;stroke-dasharray:none"
         d="m 261.32487,261.04504 c 0,0 -13.3262,14.15253 -28.19148,14.15253 -13.98097,0 -27.62058,-10.22613 -27.62058,-10.22613 0,0 7.11866,-28.44437 29.78608,-30.97224 22.63369,-2.52412 48.84831,3.92887 56.15342,29.63581 7.39063,26.00787 -12.21234,43.51357 -12.21234,43.51357 l -6.13393,-27.11738 -8.16006,0.20892 -3.62111,-19.19508 z"
         id="path4638"
         sodipodi:nodetypes="czczzcccc" />
      <path
         inkscape:connector-curvature="0"
         style="fill:#fa9e62;fill-opacity:1;fill-rule:evenodd;stroke:#383838;stroke-width:3.87308121;stroke-linecap:butt;stroke-linejoin:miter;stroke-miterlimit:4;stroke-opacity:1"
         d="m 266.81768,282.19115 c 2.84209,-8.04979 12.39065,-5.30532 12.92512,3.6066 0.60899,10.1546 -12.08342,11.87471 -12.08342,11.87471"
         id="path4640"
         sodipodi:nodetypes="csc" />
      <path
         sodipodi:open="true"
         sodipodi:end="6.2750861"
         sodipodi:start="0"
         transform="matrix(-1.2272275,0,0,1.1528501,291.6728,225.04329)"
         d="m 41.965458,54.748039 c 0,4.395616 -3.34739,7.958967 -7.476605,7.958967 -4.129214,0 -7.476604,-3.563351 -7.476604,-7.958967 0,-4.395615 3.34739,-7.958966 7.476604,-7.958966 4.105587,0 7.443108,3.524186 7.47636,7.894506"
         sodipodi:ry="7.9589663"
         sodipodi:rx="7.4766045"
         sodipodi:cy="54.748039"
         sodipodi:cx="34.488853"
         id="path4642"
         style="fill:#ffffff;fill-opacity:1;fill-rule:evenodd;stroke:none;display:inline"
         sodipodi:type="arc" />
      <path
         sodipodi:open="true"
         sodipodi:end="6.2750861"
         sodipodi:start="0"
         transform="matrix(-0.81815179,0,0,0.74323901,274.50573,247.67027)"
         d="m 41.965458,54.748039 c 0,4.395616 -3.34739,7.958967 -7.476605,7.958967 -4.129214,0 -7.476604,-3.563351 -7.476604,-7.958967 0,-4.395615 3.34739,-7.958966 7.476604,-7.958966 4.105587,0 7.443108,3.524186 7.47636,7.894506"
         sodipodi:ry="7.9589663"
         sodipodi:rx="7.4766045"
         sodipodi:cy="54.748039"
         sodipodi:cx="34.488853"
         id="path4644"
         style="fill:url(#radialGradient4756);fill-opacity:1;fill-rule:evenodd;stroke:none;display:inline"
         sodipodi:type="arc" />
      <path
         sodipodi:open="true"
         sodipodi:end="6.2750861"
         sodipodi:start="0"
         transform="matrix(-0.29750968,0,0,0.27947876,254.88112,272.30255)"
         d="m 41.965458,54.748039 c 0,4.395616 -3.34739,7.958967 -7.476605,7.958967 -4.129214,0 -7.476604,-3.563351 -7.476604,-7.958967 0,-4.395615 3.34739,-7.958966 7.476604,-7.958966 4.105587,0 7.443108,3.524186 7.47636,7.894506"
         sodipodi:ry="7.9589663"
         sodipodi:rx="7.4766045"
         sodipodi:cy="54.748039"
         sodipodi:cx="34.488853"
         id="path4646"
         style="fill:#ffffff;fill-opacity:1;fill-rule:evenodd;stroke:none;display:inline"
         sodipodi:type="arc" />
      <path
         sodipodi:open="true"
         sodipodi:end="6.2750861"
         sodipodi:start="0"
         transform="matrix(-1.2272275,0,0,1.1528501,263.5562,223.1783)"
         d="m 41.965458,54.748039 c 0,4.395616 -3.34739,7.958967 -7.476605,7.958967 -4.129214,0 -7.476604,-3.563351 -7.476604,-7.958967 0,-4.395615 3.34739,-7.958966 7.476604,-7.958966 4.105587,0 7.443108,3.524186 7.47636,7.894506"
         sodipodi:ry="7.9589663"
         sodipodi:rx="7.4766045"
         sodipodi:cy="54.748039"
         sodipodi:cx="34.488853"
         id="path4648"
         style="fill:#ffffff;fill-opacity:1;fill-rule:evenodd;stroke:none;display:inline"
         sodipodi:type="arc" />
      <path
         sodipodi:open="true"
         sodipodi:end="6.2750861"
         sodipodi:start="0"
         transform="matrix(-0.81815179,0,0,0.74323901,246.38913,245.80528)"
         d="m 41.965458,54.748039 c 0,4.395616 -3.34739,7.958967 -7.476605,7.958967 -4.129214,0 -7.476604,-3.563351 -7.476604,-7.958967 0,-4.395615 3.34739,-7.958966 7.476604,-7.958966 4.105587,0 7.443108,3.524186 7.47636,7.894506"
         sodipodi:ry="7.9589663"
         sodipodi:rx="7.4766045"
         sodipodi:cy="54.748039"
         sodipodi:cx="34.488853"
         id="path4650"
         style="fill:url(#radialGradient4758);fill-opacity:1;fill-rule:evenodd;stroke:none;display:inline"
         sodipodi:type="arc" />
      <path
         sodipodi:open="true"
         sodipodi:end="6.2750861"
         sodipodi:start="0"
         transform="matrix(-0.29750968,0,0,0.27947876,226.76454,270.43756)"
         d="m 41.965458,54.748039 c 0,4.395616 -3.34739,7.958967 -7.476605,7.958967 -4.129214,0 -7.476604,-3.563351 -7.476604,-7.958967 0,-4.395615 3.34739,-7.958966 7.476604,-7.958966 4.105587,0 7.443108,3.524186 7.47636,7.894506"
         sodipodi:ry="7.9589663"
         sodipodi:rx="7.4766045"
         sodipodi:cy="54.748039"
         sodipodi:cx="34.488853"
         id="path4652"
         style="fill:#ffffff;fill-opacity:1;fill-rule:evenodd;stroke:none;display:inline"
         sodipodi:type="arc" />
      <path
         sodipodi:open="true"
         sodipodi:end="6.2750861"
         sodipodi:start="0"
         transform="matrix(-0.18594354,0,0,0.19214161,254.64794,280.55968)"
         d="m 41.965458,54.748039 c 0,4.395616 -3.34739,7.958967 -7.476605,7.958967 -4.129214,0 -7.476604,-3.563351 -7.476604,-7.958967 0,-4.395615 3.34739,-7.958966 7.476604,-7.958966 4.105587,0 7.443108,3.524186 7.47636,7.894506"
         sodipodi:ry="7.9589663"
         sodipodi:rx="7.4766045"
         sodipodi:cy="54.748039"
         sodipodi:cx="34.488853"
         id="path4654"
         style="opacity:0.84513275;fill:#ffffff;fill-opacity:1;fill-rule:evenodd;stroke:none;display:inline"
         sodipodi:type="arc" />
      <path
         sodipodi:open="true"
         sodipodi:end="6.2750861"
         sodipodi:start="0"
         transform="matrix(-0.18594354,0,0,0.19214161,225.97523,279.11175)"
         d="m 41.965458,54.748039 c 0,4.395616 -3.34739,7.958967 -7.476605,7.958967 -4.129214,0 -7.476604,-3.563351 -7.476604,-7.958967 0,-4.395615 3.34739,-7.958966 7.476604,-7.958966 4.105587,0 7.443108,3.524186 7.47636,7.894506"
         sodipodi:ry="7.9589663"
         sodipodi:rx="7.4766045"
         sodipodi:cy="54.748039"
         sodipodi:cx="34.488853"
         id="path4656"
         style="opacity:0.84513275;fill:#ffffff;fill-opacity:1;fill-rule:evenodd;stroke:none;display:inline"
         sodipodi:type="arc" />
    </g>
  </g>
  <g
     inkscape:label="body4 &lt;4&gt;"
     id="g4664"
     inkscape:groupmode="layer"
     style="display:inline"
     sodipodi:insensitive="true"
     transform="translate(135.39468,-332.39778)">
    <g
       id="g4694"
       style="display:inline"
       transform="translate(224.62623,242.81494)">
      <path
         sodipodi:type="arc"
         style="fill:#ffffff;fill-opacity:1;stroke:none"
         id="path4696"
         sodipodi:cx="-82.327431"
         sodipodi:cy="506.30829"
         sodipodi:rx="6.5940013"
         sodipodi:ry="6.5940013"
         d="m -75.733429,506.30829 c 0,3.64176 -2.952235,6.594 -6.594002,6.594 -3.641766,0 -6.594001,-2.95224 -6.594001,-6.594 0,-3.64177 2.952235,-6.594 6.594001,-6.594 3.641767,0 6.594002,2.95223 6.594002,6.594 z"
         transform="translate(-151.75893,-243.52924)" />
      <path
         style="fill:none;stroke:#a20d59;stroke-width:2;stroke-linecap:butt;stroke-linejoin:miter;stroke-miterlimit:4;stroke-opacity:1;stroke-dasharray:none"
         d="m -234.07153,256.27133 0,13.03571"
         id="path4698"
         inkscape:connector-curvature="0"
         sodipodi:nodetypes="cc" />
    </g>
    <path
       style="fill:none;stroke:#000000;stroke-width:1px;stroke-linecap:butt;stroke-linejoin:miter;stroke-opacity:1;display:inline"
       d="M -68.114555,385.61899 39.717289,405.07954"
       id="path3220-1-0"
       inkscape:connector-curvature="0"
       sodipodi:nodetypes="cc" />
    <g
       transform="matrix(-0.40684931,0,0,0.40684931,142.64433,263.89754)"
       id="g4666"
       inkscape:label="Layer 1"
       style="display:inline">
      <path
         sodipodi:nodetypes="cssz"
         id="path4668"
         d="m 249.16416,290.84494 c 29.16762,0.82788 52.04657,48.59132 41.25726,64.78842 -10.78929,16.1971 -74.10016,16.1971 -84.41448,0 -10.31431,-16.1971 13.04054,-65.64324 43.15722,-64.78842 z"
         style="fill:url(#radialGradient4772);fill-opacity:1;fill-rule:evenodd;stroke:#383838;stroke-width:3.37548995;stroke-linecap:butt;stroke-linejoin:miter;stroke-miterlimit:4;stroke-opacity:1;stroke-dasharray:none"
         inkscape:connector-curvature="0" />
      <path
         sodipodi:nodetypes="cccccccc"
         id="path4670"
         d="m 246.97821,320.14762 -6.89459,7.16271 3.89488,23.0917 -16.9692,9.76515 -6.34956,-15.47521 12.06165,-18.56007 -2.55204,-9.69706 16.80886,3.71278 z"
         style="fill:url(#linearGradient4774);fill-opacity:1;fill-rule:evenodd;stroke:#383838;stroke-width:3.07961988;stroke-linecap:butt;stroke-linejoin:miter;stroke-miterlimit:4;stroke-opacity:1;stroke-dasharray:none"
         inkscape:connector-curvature="0" />
      <path
         transform="matrix(0.778675,0,0,0.869413,-104.19713,1.609961)"
         d="m 496.96329,320.73038 c 0,25.73111 -20.85919,46.59031 -46.5903,46.59031 -25.73112,0 -46.59031,-20.8592 -46.59031,-46.59031 0,-25.73112 20.85919,-46.59031 46.59031,-46.59031 25.73111,0 46.5903,20.85919 46.5903,46.59031 z"
         sodipodi:ry="46.590309"
         sodipodi:rx="46.590309"
         sodipodi:cy="320.73038"
         sodipodi:cx="450.37299"
         id="path4672"
         style="fill:url(#radialGradient4776);fill-opacity:1;fill-rule:evenodd;stroke:#383838;stroke-width:5.00003576;stroke-linecap:butt;stroke-linejoin:miter;stroke-miterlimit:4;stroke-opacity:1;stroke-dasharray:none"
         sodipodi:type="arc" />
      <path
         sodipodi:nodetypes="czczzcccc"
         id="path4674"
         d="m 261.32487,261.04504 c 0,0 -13.3262,14.15253 -28.19148,14.15253 -13.98097,0 -27.62058,-10.22613 -27.62058,-10.22613 0,0 7.11866,-28.44437 29.78608,-30.97224 22.63369,-2.52412 48.84831,3.92887 56.15342,29.63581 7.39063,26.00787 -12.21234,43.51357 -12.21234,43.51357 l -6.13393,-27.11738 -8.16006,0.20892 -3.62111,-19.19508 z"
         style="fill:url(#radialGradient4778);fill-opacity:1;fill-rule:evenodd;stroke:#383838;stroke-width:3.87308121;stroke-linecap:butt;stroke-linejoin:miter;stroke-miterlimit:4;stroke-opacity:1;stroke-dasharray:none"
         inkscape:connector-curvature="0" />
      <path
         sodipodi:nodetypes="csc"
         id="path4676"
         d="m 266.81768,282.19115 c 2.84209,-8.04979 12.39065,-5.30532 12.92512,3.6066 0.60899,10.1546 -12.08342,11.87471 -12.08342,11.87471"
         style="fill:#fa9e62;fill-opacity:1;fill-rule:evenodd;stroke:#383838;stroke-width:3.87308121;stroke-linecap:butt;stroke-linejoin:miter;stroke-miterlimit:4;stroke-opacity:1"
         inkscape:connector-curvature="0" />
      <path
         sodipodi:type="arc"
         style="fill:#ffffff;fill-opacity:1;fill-rule:evenodd;stroke:none;display:inline"
         id="path4678"
         sodipodi:cx="34.488853"
         sodipodi:cy="54.748039"
         sodipodi:rx="7.4766045"
         sodipodi:ry="7.9589663"
         d="m 41.965458,54.748039 c 0,4.395616 -3.34739,7.958967 -7.476605,7.958967 -4.129214,0 -7.476604,-3.563351 -7.476604,-7.958967 0,-4.395615 3.34739,-7.958966 7.476604,-7.958966 4.105587,0 7.443108,3.524186 7.47636,7.894506"
         transform="matrix(-1.2272275,0,0,1.1528501,291.6728,225.04329)"
         sodipodi:start="0"
         sodipodi:end="6.2750861"
         sodipodi:open="true" />
      <path
         sodipodi:type="arc"
         style="fill:url(#radialGradient4780);fill-opacity:1;fill-rule:evenodd;stroke:none;display:inline"
         id="path4680"
         sodipodi:cx="34.488853"
         sodipodi:cy="54.748039"
         sodipodi:rx="7.4766045"
         sodipodi:ry="7.9589663"
         d="m 41.965458,54.748039 c 0,4.395616 -3.34739,7.958967 -7.476605,7.958967 -4.129214,0 -7.476604,-3.563351 -7.476604,-7.958967 0,-4.395615 3.34739,-7.958966 7.476604,-7.958966 4.105587,0 7.443108,3.524186 7.47636,7.894506"
         transform="matrix(-0.81815179,0,0,0.74323901,274.50573,247.67027)"
         sodipodi:start="0"
         sodipodi:end="6.2750861"
         sodipodi:open="true" />
      <path
         sodipodi:type="arc"
         style="fill:#ffffff;fill-opacity:1;fill-rule:evenodd;stroke:none;display:inline"
         id="path4682"
         sodipodi:cx="34.488853"
         sodipodi:cy="54.748039"
         sodipodi:rx="7.4766045"
         sodipodi:ry="7.9589663"
         d="m 41.965458,54.748039 c 0,4.395616 -3.34739,7.958967 -7.476605,7.958967 -4.129214,0 -7.476604,-3.563351 -7.476604,-7.958967 0,-4.395615 3.34739,-7.958966 7.476604,-7.958966 4.105587,0 7.443108,3.524186 7.47636,7.894506"
         transform="matrix(-0.29750968,0,0,0.27947876,254.88112,272.30255)"
         sodipodi:start="0"
         sodipodi:end="6.2750861"
         sodipodi:open="true" />
      <path
         sodipodi:type="arc"
         style="fill:#ffffff;fill-opacity:1;fill-rule:evenodd;stroke:none;display:inline"
         id="path4684"
         sodipodi:cx="34.488853"
         sodipodi:cy="54.748039"
         sodipodi:rx="7.4766045"
         sodipodi:ry="7.9589663"
         d="m 41.965458,54.748039 c 0,4.395616 -3.34739,7.958967 -7.476605,7.958967 -4.129214,0 -7.476604,-3.563351 -7.476604,-7.958967 0,-4.395615 3.34739,-7.958966 7.476604,-7.958966 4.105587,0 7.443108,3.524186 7.47636,7.894506"
         transform="matrix(-1.2272275,0,0,1.1528501,263.5562,223.1783)"
         sodipodi:start="0"
         sodipodi:end="6.2750861"
         sodipodi:open="true" />
      <path
         sodipodi:type="arc"
         style="fill:url(#radialGradient4782);fill-opacity:1;fill-rule:evenodd;stroke:none;display:inline"
         id="path4686"
         sodipodi:cx="34.488853"
         sodipodi:cy="54.748039"
         sodipodi:rx="7.4766045"
         sodipodi:ry="7.9589663"
         d="m 41.965458,54.748039 c 0,4.395616 -3.34739,7.958967 -7.476605,7.958967 -4.129214,0 -7.476604,-3.563351 -7.476604,-7.958967 0,-4.395615 3.34739,-7.958966 7.476604,-7.958966 4.105587,0 7.443108,3.524186 7.47636,7.894506"
         transform="matrix(-0.81815179,0,0,0.74323901,246.38913,245.80528)"
         sodipodi:start="0"
         sodipodi:end="6.2750861"
         sodipodi:open="true" />
      <path
         sodipodi:type="arc"
         style="fill:#ffffff;fill-opacity:1;fill-rule:evenodd;stroke:none;display:inline"
         id="path4688"
         sodipodi:cx="34.488853"
         sodipodi:cy="54.748039"
         sodipodi:rx="7.4766045"
         sodipodi:ry="7.9589663"
         d="m 41.965458,54.748039 c 0,4.395616 -3.34739,7.958967 -7.476605,7.958967 -4.129214,0 -7.476604,-3.563351 -7.476604,-7.958967 0,-4.395615 3.34739,-7.958966 7.476604,-7.958966 4.105587,0 7.443108,3.524186 7.47636,7.894506"
         transform="matrix(-0.29750968,0,0,0.27947876,226.76454,270.43756)"
         sodipodi:start="0"
         sodipodi:end="6.2750861"
         sodipodi:open="true" />
      <path
         sodipodi:type="arc"
         style="opacity:0.84513275;fill:#ffffff;fill-opacity:1;fill-rule:evenodd;stroke:none;display:inline"
         id="path4690"
         sodipodi:cx="34.488853"
         sodipodi:cy="54.748039"
         sodipodi:rx="7.4766045"
         sodipodi:ry="7.9589663"
         d="m 41.965458,54.748039 c 0,4.395616 -3.34739,7.958967 -7.476605,7.958967 -4.129214,0 -7.476604,-3.563351 -7.476604,-7.958967 0,-4.395615 3.34739,-7.958966 7.476604,-7.958966 4.105587,0 7.443108,3.524186 7.47636,7.894506"
         transform="matrix(-0.18594354,0,0,0.19214161,254.64794,280.55968)"
         sodipodi:start="0"
         sodipodi:end="6.2750861"
         sodipodi:open="true" />
      <path
         sodipodi:type="arc"
         style="opacity:0.84513275;fill:#ffffff;fill-opacity:1;fill-rule:evenodd;stroke:none;display:inline"
         id="path4692"
         sodipodi:cx="34.488853"
         sodipodi:cy="54.748039"
         sodipodi:rx="7.4766045"
         sodipodi:ry="7.9589663"
         d="m 41.965458,54.748039 c 0,4.395616 -3.34739,7.958967 -7.476605,7.958967 -4.129214,0 -7.476604,-3.563351 -7.476604,-7.958967 0,-4.395615 3.34739,-7.958966 7.476604,-7.958966 4.105587,0 7.443108,3.524186 7.47636,7.894506"
         transform="matrix(-0.18594354,0,0,0.19214161,225.97523,279.11175)"
         sodipodi:start="0"
         sodipodi:end="6.2750861"
         sodipodi:open="true" />
    </g>
  </g>
  <g
     inkscape:groupmode="layer"
     id="g4700"
     inkscape:label="body5 &lt;5&gt;"
     style="display:inline"
     sodipodi:insensitive="true"
     transform="translate(135.39468,-332.39778)">
    <g
       transform="translate(249.61607,242.81494)"
       style="display:inline"
       id="g4730">
      <path
         transform="translate(-151.75893,-243.52924)"
         d="m -75.733429,506.30829 c 0,3.64176 -2.952235,6.594 -6.594002,6.594 -3.641766,0 -6.594001,-2.95224 -6.594001,-6.594 0,-3.64177 2.952235,-6.594 6.594001,-6.594 3.641767,0 6.594002,2.95223 6.594002,6.594 z"
         sodipodi:ry="6.5940013"
         sodipodi:rx="6.5940013"
         sodipodi:cy="506.30829"
         sodipodi:cx="-82.327431"
         id="path4732"
         style="fill:#ffffff;fill-opacity:1;stroke:none"
         sodipodi:type="arc" />
      <path
         sodipodi:nodetypes="cc"
         inkscape:connector-curvature="0"
         id="path4734"
         d="m -234.07153,256.27133 0,13.03571"
         style="fill:none;stroke:#a20d59;stroke-width:2;stroke-linecap:butt;stroke-linejoin:miter;stroke-miterlimit:4;stroke-opacity:1;stroke-dasharray:none" />
    </g>
    <path
       style="fill:none;stroke:#000000;stroke-width:1px;stroke-linecap:butt;stroke-linejoin:miter;stroke-opacity:1;display:inline"
       d="M -68.114555,385.61899 65.610142,409.76704"
       id="path3220-1-0-0"
       inkscape:connector-curvature="0"
       sodipodi:nodetypes="cc" />
    <g
       style="display:inline"
       inkscape:label="Layer 1"
       id="g4702"
       transform="matrix(-0.40684931,0,0,0.40684931,180.01997,269.95844)">
      <path
         inkscape:connector-curvature="0"
         style="fill:url(#radialGradient4736);fill-opacity:1;fill-rule:evenodd;stroke:#383838;stroke-width:3.37548995;stroke-linecap:butt;stroke-linejoin:miter;stroke-miterlimit:4;stroke-opacity:1;stroke-dasharray:none"
         d="m 249.16416,290.84494 c 29.16762,0.82788 52.04657,48.59132 41.25726,64.78842 -10.78929,16.1971 -74.10016,16.1971 -84.41448,0 -10.31431,-16.1971 13.04054,-65.64324 43.15722,-64.78842 z"
         id="path4704"
         sodipodi:nodetypes="cssz" />
      <path
         inkscape:connector-curvature="0"
         style="fill:url(#linearGradient4738);fill-opacity:1;fill-rule:evenodd;stroke:#383838;stroke-width:3.07961988;stroke-linecap:butt;stroke-linejoin:miter;stroke-miterlimit:4;stroke-opacity:1;stroke-dasharray:none"
         d="m 246.97821,320.14762 -6.89459,7.16271 3.89488,23.0917 -16.9692,9.76515 -6.34956,-15.47521 12.06165,-18.56007 -2.55204,-9.69706 16.80886,3.71278 z"
         id="path4706"
         sodipodi:nodetypes="cccccccc" />
      <path
         sodipodi:type="arc"
         style="fill:url(#radialGradient4740);fill-opacity:1;fill-rule:evenodd;stroke:#383838;stroke-width:5.00003576;stroke-linecap:butt;stroke-linejoin:miter;stroke-miterlimit:4;stroke-opacity:1;stroke-dasharray:none"
         id="path4708"
         sodipodi:cx="450.37299"
         sodipodi:cy="320.73038"
         sodipodi:rx="46.590309"
         sodipodi:ry="46.590309"
         d="m 496.96329,320.73038 c 0,25.73111 -20.85919,46.59031 -46.5903,46.59031 -25.73112,0 -46.59031,-20.8592 -46.59031,-46.59031 0,-25.73112 20.85919,-46.59031 46.59031,-46.59031 25.73111,0 46.5903,20.85919 46.5903,46.59031 z"
         transform="matrix(0.778675,0,0,0.869413,-104.19713,1.609961)" />
      <path
         inkscape:connector-curvature="0"
         style="fill:url(#radialGradient4742);fill-opacity:1;fill-rule:evenodd;stroke:#383838;stroke-width:3.87308121;stroke-linecap:butt;stroke-linejoin:miter;stroke-miterlimit:4;stroke-opacity:1;stroke-dasharray:none"
         d="m 261.32487,261.04504 c 0,0 -13.3262,14.15253 -28.19148,14.15253 -13.98097,0 -27.62058,-10.22613 -27.62058,-10.22613 0,0 7.11866,-28.44437 29.78608,-30.97224 22.63369,-2.52412 48.84831,3.92887 56.15342,29.63581 7.39063,26.00787 -12.21234,43.51357 -12.21234,43.51357 l -6.13393,-27.11738 -8.16006,0.20892 -3.62111,-19.19508 z"
         id="path4710"
         sodipodi:nodetypes="czczzcccc" />
      <path
         inkscape:connector-curvature="0"
         style="fill:#fa9e62;fill-opacity:1;fill-rule:evenodd;stroke:#383838;stroke-width:3.87308121;stroke-linecap:butt;stroke-linejoin:miter;stroke-miterlimit:4;stroke-opacity:1"
         d="m 266.81768,282.19115 c 2.84209,-8.04979 12.39065,-5.30532 12.92512,3.6066 0.60899,10.1546 -12.08342,11.87471 -12.08342,11.87471"
         id="path4712"
         sodipodi:nodetypes="csc" />
      <path
         sodipodi:open="true"
         sodipodi:end="6.2750861"
         sodipodi:start="0"
         transform="matrix(-1.2272275,0,0,1.1528501,291.6728,225.04329)"
         d="m 41.965458,54.748039 c 0,4.395616 -3.34739,7.958967 -7.476605,7.958967 -4.129214,0 -7.476604,-3.563351 -7.476604,-7.958967 0,-4.395615 3.34739,-7.958966 7.476604,-7.958966 4.105587,0 7.443108,3.524186 7.47636,7.894506"
         sodipodi:ry="7.9589663"
         sodipodi:rx="7.4766045"
         sodipodi:cy="54.748039"
         sodipodi:cx="34.488853"
         id="path4714"
         style="fill:#ffffff;fill-opacity:1;fill-rule:evenodd;stroke:none;display:inline"
         sodipodi:type="arc" />
      <path
         sodipodi:open="true"
         sodipodi:end="6.2750861"
         sodipodi:start="0"
         transform="matrix(-0.81815179,0,0,0.74323901,274.50573,247.67027)"
         d="m 41.965458,54.748039 c 0,4.395616 -3.34739,7.958967 -7.476605,7.958967 -4.129214,0 -7.476604,-3.563351 -7.476604,-7.958967 0,-4.395615 3.34739,-7.958966 7.476604,-7.958966 4.105587,0 7.443108,3.524186 7.47636,7.894506"
         sodipodi:ry="7.9589663"
         sodipodi:rx="7.4766045"
         sodipodi:cy="54.748039"
         sodipodi:cx="34.488853"
         id="path4716"
         style="fill:url(#radialGradient4744);fill-opacity:1;fill-rule:evenodd;stroke:none;display:inline"
         sodipodi:type="arc" />
      <path
         sodipodi:open="true"
         sodipodi:end="6.2750861"
         sodipodi:start="0"
         transform="matrix(-0.29750968,0,0,0.27947876,254.88112,272.30255)"
         d="m 41.965458,54.748039 c 0,4.395616 -3.34739,7.958967 -7.476605,7.958967 -4.129214,0 -7.476604,-3.563351 -7.476604,-7.958967 0,-4.395615 3.34739,-7.958966 7.476604,-7.958966 4.105587,0 7.443108,3.524186 7.47636,7.894506"
         sodipodi:ry="7.9589663"
         sodipodi:rx="7.4766045"
         sodipodi:cy="54.748039"
         sodipodi:cx="34.488853"
         id="path4718"
         style="fill:#ffffff;fill-opacity:1;fill-rule:evenodd;stroke:none;display:inline"
         sodipodi:type="arc" />
      <path
         sodipodi:open="true"
         sodipodi:end="6.2750861"
         sodipodi:start="0"
         transform="matrix(-1.2272275,0,0,1.1528501,263.5562,223.1783)"
         d="m 41.965458,54.748039 c 0,4.395616 -3.34739,7.958967 -7.476605,7.958967 -4.129214,0 -7.476604,-3.563351 -7.476604,-7.958967 0,-4.395615 3.34739,-7.958966 7.476604,-7.958966 4.105587,0 7.443108,3.524186 7.47636,7.894506"
         sodipodi:ry="7.9589663"
         sodipodi:rx="7.4766045"
         sodipodi:cy="54.748039"
         sodipodi:cx="34.488853"
         id="path4720"
         style="fill:#ffffff;fill-opacity:1;fill-rule:evenodd;stroke:none;display:inline"
         sodipodi:type="arc" />
      <path
         sodipodi:open="true"
         sodipodi:end="6.2750861"
         sodipodi:start="0"
         transform="matrix(-0.81815179,0,0,0.74323901,246.38913,245.80528)"
         d="m 41.965458,54.748039 c 0,4.395616 -3.34739,7.958967 -7.476605,7.958967 -4.129214,0 -7.476604,-3.563351 -7.476604,-7.958967 0,-4.395615 3.34739,-7.958966 7.476604,-7.958966 4.105587,0 7.443108,3.524186 7.47636,7.894506"
         sodipodi:ry="7.9589663"
         sodipodi:rx="7.4766045"
         sodipodi:cy="54.748039"
         sodipodi:cx="34.488853"
         id="path4722"
         style="fill:url(#radialGradient4746);fill-opacity:1;fill-rule:evenodd;stroke:none;display:inline"
         sodipodi:type="arc" />
      <path
         sodipodi:open="true"
         sodipodi:end="6.2750861"
         sodipodi:start="0"
         transform="matrix(-0.29750968,0,0,0.27947876,226.76454,270.43756)"
         d="m 41.965458,54.748039 c 0,4.395616 -3.34739,7.958967 -7.476605,7.958967 -4.129214,0 -7.476604,-3.563351 -7.476604,-7.958967 0,-4.395615 3.34739,-7.958966 7.476604,-7.958966 4.105587,0 7.443108,3.524186 7.47636,7.894506"
         sodipodi:ry="7.9589663"
         sodipodi:rx="7.4766045"
         sodipodi:cy="54.748039"
         sodipodi:cx="34.488853"
         id="path4724"
         style="fill:#ffffff;fill-opacity:1;fill-rule:evenodd;stroke:none;display:inline"
         sodipodi:type="arc" />
      <path
         sodipodi:open="true"
         sodipodi:end="6.2750861"
         sodipodi:start="0"
         transform="matrix(-0.18594354,0,0,0.19214161,254.64794,280.55968)"
         d="m 41.965458,54.748039 c 0,4.395616 -3.34739,7.958967 -7.476605,7.958967 -4.129214,0 -7.476604,-3.563351 -7.476604,-7.958967 0,-4.395615 3.34739,-7.958966 7.476604,-7.958966 4.105587,0 7.443108,3.524186 7.47636,7.894506"
         sodipodi:ry="7.9589663"
         sodipodi:rx="7.4766045"
         sodipodi:cy="54.748039"
         sodipodi:cx="34.488853"
         id="path4726"
         style="opacity:0.84513275;fill:#ffffff;fill-opacity:1;fill-rule:evenodd;stroke:none;display:inline"
         sodipodi:type="arc" />
      <path
         sodipodi:open="true"
         sodipodi:end="6.2750861"
         sodipodi:start="0"
         transform="matrix(-0.18594354,0,0,0.19214161,225.97523,279.11175)"
         d="m 41.965458,54.748039 c 0,4.395616 -3.34739,7.958967 -7.476605,7.958967 -4.129214,0 -7.476604,-3.563351 -7.476604,-7.958967 0,-4.395615 3.34739,-7.958966 7.476604,-7.958966 4.105587,0 7.443108,3.524186 7.47636,7.894506"
         sodipodi:ry="7.9589663"
         sodipodi:rx="7.4766045"
         sodipodi:cy="54.748039"
         sodipodi:cx="34.488853"
         id="path4728"
         style="opacity:0.84513275;fill:#ffffff;fill-opacity:1;fill-rule:evenodd;stroke:none;display:inline"
         sodipodi:type="arc" />
    </g>
  </g>
</svg>
