<?xml version="1.0" encoding="UTF-8" standalone="no"?>
<!-- Created with Inkscape (http://www.inkscape.org/) -->

<svg
   xmlns:dc="http://purl.org/dc/elements/1.1/"
   xmlns:cc="http://creativecommons.org/ns#"
   xmlns:rdf="http://www.w3.org/1999/02/22-rdf-syntax-ns#"
   xmlns:svg="http://www.w3.org/2000/svg"
   xmlns="http://www.w3.org/2000/svg"
   xmlns:xlink="http://www.w3.org/1999/xlink"
   xmlns:sodipodi="http://sodipodi.sourceforge.net/DTD/sodipodi-0.dtd"
   xmlns:inkscape="http://www.inkscape.org/namespaces/inkscape"
   width="634.08057"
   height="367.5976"
   id="svg2"
   version="1.1"
   inkscape:version="0.48.4 r9939"
   sodipodi:docname="mabs_motion_focus.svg">
  <defs
     id="defs4">
    <marker
       inkscape:stockid="Arrow1Mend"
       orient="auto"
       refY="0"
       refX="0"
       id="Arrow1Mend"
       style="overflow:visible">
      <path
         id="path4499"
         d="M 0,0 5,-5 -12.5,0 5,5 0,0 z"
         style="fill-rule:evenodd;stroke:#000000;stroke-width:1pt"
         transform="matrix(-0.4,0,0,-0.4,-4,0)"
         inkscape:connector-curvature="0" />
    </marker>
    <marker
       inkscape:stockid="Arrow2Mstart"
       orient="auto"
       refY="0"
       refX="0"
       id="Arrow2Mstart"
       style="overflow:visible">
      <path
         id="path4514"
         style="fill-rule:evenodd;stroke-width:0.625;stroke-linejoin:round"
         d="M 8.7185878,4.0337352 -2.2072895,0.01601326 8.7185884,-4.0017078 c -1.7454984,2.3720609 -1.7354408,5.6174519 -6e-7,8.035443 z"
         transform="scale(0.6,0.6)"
         inkscape:connector-curvature="0" />
    </marker>
    <marker
       inkscape:stockid="Arrow1Lend"
       orient="auto"
       refY="0"
       refX="0"
       id="Arrow1Lend"
       style="overflow:visible">
      <path
         id="path3811"
         d="M 0,0 5,-5 -12.5,0 5,5 0,0 z"
         style="fill-rule:evenodd;stroke:#000000;stroke-width:1pt"
         transform="matrix(-0.8,0,0,-0.8,-10,0)"
         inkscape:connector-curvature="0" />
    </marker>
    <marker
       inkscape:stockid="Arrow1Lstart"
       orient="auto"
       refY="0"
       refX="0"
       id="Arrow1Lstart"
       style="overflow:visible">
      <path
         id="path3808"
         d="M 0,0 5,-5 -12.5,0 5,5 0,0 z"
         style="fill-rule:evenodd;stroke:#000000;stroke-width:1pt"
         transform="matrix(0.8,0,0,0.8,10,0)"
         inkscape:connector-curvature="0" />
    </marker>
    <radialGradient
       r="46.492542"
       fy="338.52814"
       fx="247.31061"
       cy="338.52814"
       cx="247.31061"
       gradientTransform="matrix(-1.2141703,-0.3374805,-0.2313312,0.8322719,635.44121,97.568759)"
       gradientUnits="userSpaceOnUse"
       id="radialGradient3054"
       xlink:href="#linearGradient5465"
       inkscape:collect="always" />
    <radialGradient
       r="45.738976"
       fy="248.69035"
       fx="208.28426"
       cy="248.69035"
       cx="208.28426"
       gradientTransform="matrix(-0.34410435,5.9643104e-8,7.1108696e-8,0.41025383,357.23841,120.81774)"
       gradientUnits="userSpaceOnUse"
       id="radialGradient3037"
       xlink:href="#linearGradient5451"
       inkscape:collect="always" />
    <radialGradient
       r="7.4766045"
       fy="54.748039"
       fx="34.488853"
       cy="54.748039"
       cx="34.488853"
       gradientTransform="matrix(1,0,0,1.0645162,0,-3.5321331)"
       gradientUnits="userSpaceOnUse"
       id="radialGradient3291"
       xlink:href="#linearGradient3275"
       inkscape:collect="always" />
    <radialGradient
       gradientUnits="userSpaceOnUse"
       gradientTransform="matrix(1,0,0,1.0645162,0,-3.5321331)"
       r="7.4766045"
       fy="54.748039"
       fx="34.488853"
       cy="54.748039"
       cx="34.488853"
       id="radialGradient3281"
       xlink:href="#linearGradient3275"
       inkscape:collect="always" />
    <radialGradient
       gradientUnits="userSpaceOnUse"
       r="49.090309"
       fy="332.53036"
       fx="438.74796"
       cy="332.53036"
       cx="438.74796"
       id="radialGradient3221"
       xlink:href="#linearGradient3215"
       inkscape:collect="always" />
    <linearGradient
       id="linearGradient3215"
       inkscape:collect="always">
      <stop
         id="stop3217"
         offset="0"
         style="stop-color:#ffccaa;stop-opacity:1;" />
      <stop
         id="stop3219"
         offset="1"
         style="stop-color:#fa9351;stop-opacity:1" />
    </linearGradient>
    <linearGradient
       id="linearGradient3275"
       inkscape:collect="always">
      <stop
         id="stop3277"
         offset="0"
         style="stop-color:#6e6e6e;stop-opacity:1" />
      <stop
         id="stop3279"
         offset="1"
         style="stop-color:#292929;stop-opacity:1" />
    </linearGradient>
    <linearGradient
       id="linearGradient5451">
      <stop
         id="stop5453"
         offset="0"
         style="stop-color:#b7b7b7;stop-opacity:1;" />
      <stop
         id="stop5455"
         offset="1"
         style="stop-color:#bb3f00;stop-opacity:1;" />
    </linearGradient>
    <linearGradient
       id="linearGradient5465">
      <stop
         style="stop-color:#ffffff;stop-opacity:1;"
         offset="0"
         id="stop5467" />
      <stop
         style="stop-color:#b1a848;stop-opacity:1;"
         offset="1"
         id="stop5469" />
    </linearGradient>
    <radialGradient
       r="46.492542"
       fy="342.63647"
       fx="212.99527"
       cy="342.63647"
       cx="212.99527"
       gradientTransform="matrix(-1.2141703,-0.3374805,-0.2313312,0.8322719,604.01264,128.99733)"
       gradientUnits="userSpaceOnUse"
       id="radialGradient3054-7-8"
       xlink:href="#linearGradient5465-0-1"
       inkscape:collect="always" />
    <linearGradient
       id="linearGradient5465-0-1">
      <stop
         style="stop-color:#ffffff;stop-opacity:1;"
         offset="0"
         id="stop5467-6-2" />
      <stop
         style="stop-color:#008000;stop-opacity:1;"
         offset="1"
         id="stop5469-1-6" />
    </linearGradient>
    <linearGradient
       y2="317.9021"
       x2="241.00351"
       y1="349.88623"
       x1="250.83124"
       gradientTransform="matrix(-1,0,0,1,479.13287,1.691221)"
       gradientUnits="userSpaceOnUse"
       id="linearGradient3051-4"
       xlink:href="#linearGradient5459-2-6"
       inkscape:collect="always" />
    <linearGradient
       id="linearGradient5459-2-6">
      <stop
         style="stop-color:#127bca;stop-opacity:1;"
         offset="0"
         id="stop5461-2-8" />
      <stop
         style="stop-color:#dfeff7;stop-opacity:1;"
         offset="1"
         id="stop5463-5-6" />
    </linearGradient>
    <radialGradient
       gradientUnits="userSpaceOnUse"
       r="49.090309"
       fy="332.53036"
       fx="438.74796"
       cy="332.53036"
       cx="438.74796"
       id="radialGradient3221-3-5"
       xlink:href="#linearGradient3215-0-3"
       inkscape:collect="always" />
    <linearGradient
       id="linearGradient3215-0-3"
       inkscape:collect="always">
      <stop
         id="stop3217-2-6"
         offset="0"
         style="stop-color:#ffccaa;stop-opacity:1;" />
      <stop
         id="stop3219-4-9"
         offset="1"
         style="stop-color:#fa9351;stop-opacity:1" />
    </linearGradient>
    <radialGradient
       r="45.738976"
       fy="261.49875"
       fx="211.49677"
       cy="261.49875"
       cx="211.49677"
       gradientTransform="matrix(-1,0,0,0.8475176,484.20653,41.219128)"
       gradientUnits="userSpaceOnUse"
       id="radialGradient3037-7-9"
       xlink:href="#linearGradient5451-5-9"
       inkscape:collect="always" />
    <linearGradient
       id="linearGradient5451-5-9"
       inkscape:collect="always">
      <stop
         id="stop5453-6-3"
         offset="0"
         style="stop-color:#e4b762;stop-opacity:1" />
      <stop
         id="stop5455-7-5"
         offset="1"
         style="stop-color:#85724f;stop-opacity:1" />
    </linearGradient>
    <radialGradient
       inkscape:collect="always"
       xlink:href="#linearGradient5465-03-0"
       id="radialGradient4280-5"
       gradientUnits="userSpaceOnUse"
       gradientTransform="matrix(-1.2141703,-0.3374805,-0.2313312,0.8322719,604.01264,128.99733)"
       cx="212.99527"
       cy="342.63647"
       fx="212.99527"
       fy="342.63647"
       r="46.492542" />
    <linearGradient
       id="linearGradient5465-03-0">
      <stop
         style="stop-color:#ffffff;stop-opacity:1;"
         offset="0"
         id="stop5467-3-4" />
      <stop
         style="stop-color:#cc7aaa;stop-opacity:1;"
         offset="1"
         id="stop5469-3-4" />
    </linearGradient>
    <linearGradient
       inkscape:collect="always"
       xlink:href="#linearGradient5459-6-9"
       id="linearGradient4282-3"
       gradientUnits="userSpaceOnUse"
       gradientTransform="matrix(-1,0,0,1,479.13287,1.691221)"
       x1="250.83124"
       y1="349.88623"
       x2="241.00351"
       y2="317.9021" />
    <linearGradient
       id="linearGradient5459-6-9">
      <stop
         style="stop-color:#127bca;stop-opacity:1;"
         offset="0"
         id="stop5461-3-8" />
      <stop
         style="stop-color:#dfeff7;stop-opacity:1;"
         offset="1"
         id="stop5463-51-9" />
    </linearGradient>
    <radialGradient
       inkscape:collect="always"
       xlink:href="#linearGradient3215-06-6"
       id="radialGradient4284-0"
       gradientUnits="userSpaceOnUse"
       cx="438.74796"
       cy="332.53036"
       fx="438.74796"
       fy="332.53036"
       r="49.090309" />
    <linearGradient
       id="linearGradient3215-06-6"
       inkscape:collect="always">
      <stop
         id="stop3217-0-3"
         offset="0"
         style="stop-color:#ffccaa;stop-opacity:1;" />
      <stop
         id="stop3219-5-2"
         offset="1"
         style="stop-color:#fa9351;stop-opacity:1" />
    </linearGradient>
    <radialGradient
       inkscape:collect="always"
       xlink:href="#linearGradient5451-8-6"
       id="radialGradient4286-5"
       gradientUnits="userSpaceOnUse"
       gradientTransform="matrix(-1,0,0,0.8475176,484.20653,41.219128)"
       cx="211.49677"
       cy="261.49875"
       fx="211.49677"
       fy="261.49875"
       r="45.738976" />
    <linearGradient
       id="linearGradient5451-8-6"
       inkscape:collect="always">
      <stop
         id="stop5453-8-5"
         offset="0"
         style="stop-color:#e4b762;stop-opacity:1" />
      <stop
         id="stop5455-1-0"
         offset="1"
         style="stop-color:#85724f;stop-opacity:1" />
    </linearGradient>
    <radialGradient
       r="7.4766045"
       fy="54.748039"
       fx="34.488853"
       cy="54.748039"
       cx="34.488853"
       gradientTransform="matrix(1,0,0,1.0645162,0,-3.5321331)"
       gradientUnits="userSpaceOnUse"
       id="radialGradient3291-1"
       xlink:href="#linearGradient3275-9"
       inkscape:collect="always" />
    <linearGradient
       id="linearGradient3275-9"
       inkscape:collect="always">
      <stop
         id="stop3277-1"
         offset="0"
         style="stop-color:#6e6e6e;stop-opacity:1" />
      <stop
         id="stop3279-4"
         offset="1"
         style="stop-color:#292929;stop-opacity:1" />
    </linearGradient>
    <radialGradient
       gradientUnits="userSpaceOnUse"
       gradientTransform="matrix(1,0,0,1.0645162,0,-3.5321331)"
       r="7.4766045"
       fy="54.748039"
       fx="34.488853"
       cy="54.748039"
       cx="34.488853"
       id="radialGradient3281-2"
       xlink:href="#linearGradient3275-9"
       inkscape:collect="always" />
  </defs>
  <sodipodi:namedview
     id="base"
     pagecolor="#ffffff"
     bordercolor="#666666"
     borderopacity="1.0"
     inkscape:pageopacity="0.0"
     inkscape:pageshadow="2"
     inkscape:zoom="1.979899"
     inkscape:cx="233.94218"
     inkscape:cy="226.42599"
     inkscape:document-units="px"
     inkscape:current-layer="layer1"
     showgrid="false"
     fit-margin-top="1"
     fit-margin-left="1"
     fit-margin-right="1"
     fit-margin-bottom="1"
     inkscape:window-width="1920"
     inkscape:window-height="1056"
     inkscape:window-x="0"
     inkscape:window-y="24"
     inkscape:window-maximized="1" />
  <metadata
     id="metadata7">
    <rdf:RDF>
      <cc:Work
         rdf:about="">
        <dc:format>image/svg+xml</dc:format>
        <dc:type
           rdf:resource="http://purl.org/dc/dcmitype/StillImage" />
        <dc:title />
      </cc:Work>
    </rdf:RDF>
  </metadata>
  <g
     inkscape:groupmode="layer"
     id="layer3"
     inkscape:label="VR &lt;4-&gt;"
     style="display:inline"
     sodipodi:insensitive="true"
     transform="translate(15.259052,37.365493)">
    <g
       style="display:inline"
       transform="matrix(-0.42174541,0,0,0.42174541,125.89514,45.498038)"
       id="layer1-2"
       inkscape:label="Layer 1">
      <path
         sodipodi:nodetypes="cssz"
         id="path7363-2"
         d="m 249.16416,290.84494 c 29.16762,0.82788 52.04657,48.59132 41.25726,64.78842 -10.78929,16.1971 -74.10016,16.1971 -84.41448,0 -10.31431,-16.1971 13.04054,-65.64324 43.15722,-64.78842 z"
         style="fill:url(#radialGradient3054-7-8);fill-opacity:1;fill-rule:evenodd;stroke:#383838;stroke-width:3.37548995;stroke-linecap:butt;stroke-linejoin:miter;stroke-miterlimit:4;stroke-opacity:1;stroke-dasharray:none"
         inkscape:connector-curvature="0" />
      <path
         sodipodi:nodetypes="cccccccc"
         id="path7365"
         d="m 246.97821,320.14762 -6.89459,7.16271 3.89488,23.0917 -16.9692,9.76515 -6.34956,-15.47521 12.06165,-18.56007 -2.55204,-9.69706 16.80886,3.71278 z"
         style="fill:url(#linearGradient3051-4);fill-opacity:1;fill-rule:evenodd;stroke:#383838;stroke-width:3.07961988;stroke-linecap:butt;stroke-linejoin:miter;stroke-miterlimit:4;stroke-opacity:1;stroke-dasharray:none"
         inkscape:connector-curvature="0" />
      <path
         transform="matrix(0.778675,0,0,0.869413,-104.19713,1.609961)"
         d="m 496.96329,320.73038 c 0,25.73111 -20.85919,46.59031 -46.5903,46.59031 -25.73112,0 -46.59031,-20.8592 -46.59031,-46.59031 0,-25.73112 20.85919,-46.59031 46.59031,-46.59031 25.73111,0 46.5903,20.85919 46.5903,46.59031 z"
         sodipodi:ry="46.590309"
         sodipodi:rx="46.590309"
         sodipodi:cy="320.73038"
         sodipodi:cx="450.37299"
         id="path7367-1"
         style="fill:url(#radialGradient3221-3-5);fill-opacity:1;fill-rule:evenodd;stroke:#383838;stroke-width:5.00003576;stroke-linecap:butt;stroke-linejoin:miter;stroke-miterlimit:4;stroke-opacity:1;stroke-dasharray:none"
         sodipodi:type="arc" />
      <path
         sodipodi:nodetypes="czczzcccc"
         id="path7441-3"
         d="m 261.32487,261.04504 c 0,0 -13.3262,14.15253 -28.19148,14.15253 -13.98097,0 -27.62058,-10.22613 -27.62058,-10.22613 0,0 7.11866,-28.44437 29.78608,-30.97224 22.63369,-2.52412 48.84831,3.92887 56.15342,29.63581 7.39063,26.00787 -12.21234,43.51357 -12.21234,43.51357 l -6.13393,-27.11738 -8.16006,0.20892 -3.62111,-19.19508 z"
         style="fill:url(#radialGradient3037-7-9);fill-opacity:1;fill-rule:evenodd;stroke:#383838;stroke-width:3.87308121;stroke-linecap:butt;stroke-linejoin:miter;stroke-miterlimit:4;stroke-opacity:1;stroke-dasharray:none"
         inkscape:connector-curvature="0" />
      <path
         sodipodi:nodetypes="csc"
         id="path7443-5"
         d="m 266.81768,282.19115 c 2.84209,-8.04979 12.39065,-5.30532 12.92512,3.6066 0.60899,10.1546 -12.08342,11.87471 -12.08342,11.87471"
         style="fill:#fa9e62;fill-opacity:1;fill-rule:evenodd;stroke:#383838;stroke-width:3.87308121;stroke-linecap:butt;stroke-linejoin:miter;stroke-miterlimit:4;stroke-opacity:1"
         inkscape:connector-curvature="0" />
      <path
         style="fill:#d8d8d8;fill-opacity:1;stroke:#383838;stroke-width:3.94776034;stroke-miterlimit:4;stroke-opacity:1;stroke-dasharray:none;stroke-dashoffset:0"
         d="m 435.46875,116.65625 c -3.19256,0.47784 -6.40565,0.88824 -9.125,5.625 -2.36523,11.10171 -3.40398,22.58481 -2.375,34.65625 -2.43306,2.29526 -3.96875,5.52398 -3.96875,8.96875 0,6.15693 4.93444,10.69678 11.0625,10.25 8.19008,14.34823 19.6617,19.61071 31.6875,16.21875 10.2443,-1.2352 12.58503,-9.3268 2.40625,-7.625 -13.40483,1.9194 -24.39012,-4.41069 -24.8125,-14.03125 0.3225,-0.46815 0.61685,-0.96185 0.875,-1.46875 1.19208,0.99333 2.64529,1.74657 4.34375,2.125 13.4486,0.99731 38.18527,5.0975 44.9375,-1.71875 14.89975,-8.30154 -0.25,-18.77955 -0.25,-14.90625 -5.34526,10.73263 -30.34225,6.33683 -44.9375,2.75 -2.01592,-0.47729 -3.60866,-0.40471 -4.8125,0.0312 -1.21227,-1.61433 -2.90561,-2.82463 -4.875,-3.46875 -4.49732,-10.4191 -1.66588,-24.21474 -0.15625,-37.40625 z"
         transform="matrix(-1,0,0,1,700.20744,119.80173)"
         id="path3990-1"
         inkscape:connector-curvature="0" />
    </g>
    <path
       style="fill:none;stroke:#000000;stroke-width:1px;stroke-linecap:butt;stroke-linejoin:miter;stroke-opacity:1;marker-start:url(#Arrow1Lstart);marker-end:none;display:inline"
       d="m 123.9975,187.39007 30.8071,0"
       id="path3802-0-3-6"
       inkscape:connector-curvature="0"
       sodipodi:nodetypes="cc" />
    <path
       style="fill:none;stroke:#000000;stroke-width:1px;stroke-linecap:butt;stroke-linejoin:miter;stroke-opacity:1;marker-start:url(#Arrow1Lstart);marker-end:none;display:inline"
       d="m 150.76399,165.16672 -31.31218,0"
       id="path3802-0-3"
       inkscape:connector-curvature="0"
       sodipodi:nodetypes="cc" />
    <rect
       style="fill:#7bbeff;fill-opacity:1;stroke:#000000;stroke-width:0.38660476;stroke-opacity:1;display:inline"
       id="rect2996-5-2-7"
       width="59.256931"
       height="46.671558"
       x="63.154556"
       y="150.66977" />
    <text
       xml:space="preserve"
       style="font-size:16px;font-style:normal;font-variant:normal;font-weight:normal;font-stretch:normal;text-align:center;line-height:125%;letter-spacing:0px;word-spacing:0px;text-anchor:middle;fill:#000000;fill-opacity:1;stroke:none;display:inline;font-family:Arial;-inkscape-font-specification:Arial"
       x="92.553925"
       y="179.06757"
       id="text3766-1-4-4"
       sodipodi:linespacing="125%"><tspan
         sodipodi:role="line"
         id="tspan3768-3-8-2"
         x="92.553925"
         y="179.06757">Avatar</tspan></text>
    <path
       style="fill:none;stroke:#000000;stroke-width:1px;stroke-linecap:butt;stroke-linejoin:miter;stroke-opacity:1;marker-start:url(#Arrow2Mstart);marker-end:url(#Arrow1Mend);display:inline"
       d="m 62.612576,176.288 -23.233516,0"
       id="path4294-4"
       inkscape:connector-curvature="0"
       sodipodi:nodetypes="cc" />
    <text
       xml:space="preserve"
       style="font-size:32px;font-style:normal;font-variant:normal;font-weight:normal;font-stretch:normal;text-align:center;line-height:125%;letter-spacing:0px;word-spacing:0px;text-anchor:middle;fill:#000000;fill-opacity:1;stroke:none;display:inline;font-family:Utopia;-inkscape-font-specification:Utopia"
       x="19.858135"
       y="214.42355"
       id="text4288-7"
       sodipodi:linespacing="125%"><tspan
         sodipodi:role="line"
         x="19.858135"
         y="214.42355"
         id="tspan4292-6"
         style="font-size:16px;font-family:Arial;-inkscape-font-specification:Arial">Immersed</tspan><tspan
         sodipodi:role="line"
         x="19.858135"
         y="234.42355"
         style="font-size:16px;font-family:Arial;-inkscape-font-specification:Arial"
         id="tspan5565">User</tspan></text>
  </g>
  <g
     inkscape:groupmode="layer"
     id="layer4"
     inkscape:label="Viewer &lt;3-&gt;"
     style="display:inline"
     transform="translate(15.259052,37.365493)"
     sodipodi:insensitive="true">
    <g
       style="display:inline"
       id="g4256"
       transform="matrix(0.40684931,0,0,0.40684931,228.26888,181.54034)">
      <g
         inkscape:label="Layer 1"
         id="layer1-4"
         transform="matrix(-1,0,0,1,119.43636,-43.366248)">
        <path
           inkscape:connector-curvature="0"
           style="fill:url(#radialGradient4280-5);fill-opacity:1;fill-rule:evenodd;stroke:#383838;stroke-width:3.37548995;stroke-linecap:butt;stroke-linejoin:miter;stroke-miterlimit:4;stroke-opacity:1;stroke-dasharray:none"
           d="m 249.16416,290.84494 c 29.16762,0.82788 52.04657,48.59132 41.25726,64.78842 -10.78929,16.1971 -74.10016,16.1971 -84.41448,0 -10.31431,-16.1971 13.04054,-65.64324 43.15722,-64.78842 z"
           id="path7363-6"
           sodipodi:nodetypes="cssz" />
        <path
           inkscape:connector-curvature="0"
           style="fill:url(#linearGradient4282-3);fill-opacity:1;fill-rule:evenodd;stroke:#383838;stroke-width:3.07961988;stroke-linecap:butt;stroke-linejoin:miter;stroke-miterlimit:4;stroke-opacity:1;stroke-dasharray:none"
           d="m 246.97821,320.14762 -6.89459,7.16271 3.89488,23.0917 -16.9692,9.76515 -6.34956,-15.47521 12.06165,-18.56007 -2.55204,-9.69706 16.80886,3.71278 z"
           id="path7365-1"
           sodipodi:nodetypes="cccccccc" />
        <path
           sodipodi:type="arc"
           style="fill:url(#radialGradient4284-0);fill-opacity:1;fill-rule:evenodd;stroke:#383838;stroke-width:5.00003576;stroke-linecap:butt;stroke-linejoin:miter;stroke-miterlimit:4;stroke-opacity:1;stroke-dasharray:none"
           id="path7367-7"
           sodipodi:cx="450.37299"
           sodipodi:cy="320.73038"
           sodipodi:rx="46.590309"
           sodipodi:ry="46.590309"
           d="m 496.96329,320.73038 c 0,25.73111 -20.85919,46.59031 -46.5903,46.59031 -25.73112,0 -46.59031,-20.8592 -46.59031,-46.59031 0,-25.73112 20.85919,-46.59031 46.59031,-46.59031 25.73111,0 46.5903,20.85919 46.5903,46.59031 z"
           transform="matrix(0.778675,0,0,0.869413,-104.19713,1.609961)" />
        <path
           inkscape:connector-curvature="0"
           style="fill:url(#radialGradient4286-5);fill-opacity:1;fill-rule:evenodd;stroke:#383838;stroke-width:3.87308121;stroke-linecap:butt;stroke-linejoin:miter;stroke-miterlimit:4;stroke-opacity:1;stroke-dasharray:none"
           d="m 261.32487,261.04504 c 0,0 -13.3262,14.15253 -28.19148,14.15253 -13.98097,0 -27.62058,-10.22613 -27.62058,-10.22613 0,0 7.11866,-28.44437 29.78608,-30.97224 22.63369,-2.52412 48.84831,3.92887 56.15342,29.63581 7.39063,26.00787 -12.21234,43.51357 -12.21234,43.51357 l -6.13393,-27.11738 -8.16006,0.20892 -3.62111,-19.19508 z"
           id="path7441-1"
           sodipodi:nodetypes="czczzcccc" />
        <path
           inkscape:connector-curvature="0"
           style="fill:#fa9e62;fill-opacity:1;fill-rule:evenodd;stroke:#383838;stroke-width:3.87308121;stroke-linecap:butt;stroke-linejoin:miter;stroke-miterlimit:4;stroke-opacity:1"
           d="m 266.81768,282.19115 c 2.84209,-8.04979 12.39065,-5.30532 12.92512,3.6066 0.60899,10.1546 -12.08342,11.87471 -12.08342,11.87471"
           id="path7443-6"
           sodipodi:nodetypes="csc" />
        <path
           sodipodi:open="true"
           sodipodi:end="6.2750861"
           sodipodi:start="0"
           transform="matrix(-1.2272275,0,0,1.1528501,291.6728,225.04329)"
           d="m 41.965458,54.748039 c 0,4.395616 -3.34739,7.958967 -7.476605,7.958967 -4.129214,0 -7.476604,-3.563351 -7.476604,-7.958967 0,-4.395615 3.34739,-7.958966 7.476604,-7.958966 4.105587,0 7.443108,3.524186 7.47636,7.894506"
           sodipodi:ry="7.9589663"
           sodipodi:rx="7.4766045"
           sodipodi:cy="54.748039"
           sodipodi:cx="34.488853"
           id="path3271-0"
           style="fill:#ffffff;fill-opacity:1;fill-rule:evenodd;stroke:none;display:inline"
           sodipodi:type="arc" />
        <path
           sodipodi:open="true"
           sodipodi:end="6.2750861"
           sodipodi:start="0"
           transform="matrix(-0.81815179,0,0,0.74323901,274.50573,247.67027)"
           d="m 41.965458,54.748039 c 0,4.395616 -3.34739,7.958967 -7.476605,7.958967 -4.129214,0 -7.476604,-3.563351 -7.476604,-7.958967 0,-4.395615 3.34739,-7.958966 7.476604,-7.958966 4.105587,0 7.443108,3.524186 7.47636,7.894506"
           sodipodi:ry="7.9589663"
           sodipodi:rx="7.4766045"
           sodipodi:cy="54.748039"
           sodipodi:cx="34.488853"
           id="path3273-3"
           style="fill:url(#radialGradient3281-2);fill-opacity:1;fill-rule:evenodd;stroke:none;display:inline"
           sodipodi:type="arc" />
        <path
           sodipodi:open="true"
           sodipodi:end="6.2750861"
           sodipodi:start="0"
           transform="matrix(-0.29750968,0,0,0.27947876,254.88112,272.30255)"
           d="m 41.965458,54.748039 c 0,4.395616 -3.34739,7.958967 -7.476605,7.958967 -4.129214,0 -7.476604,-3.563351 -7.476604,-7.958967 0,-4.395615 3.34739,-7.958966 7.476604,-7.958966 4.105587,0 7.443108,3.524186 7.47636,7.894506"
           sodipodi:ry="7.9589663"
           sodipodi:rx="7.4766045"
           sodipodi:cy="54.748039"
           sodipodi:cx="34.488853"
           id="path3283-8"
           style="fill:#ffffff;fill-opacity:1;fill-rule:evenodd;stroke:none;display:inline"
           sodipodi:type="arc" />
        <path
           sodipodi:open="true"
           sodipodi:end="6.2750861"
           sodipodi:start="0"
           transform="matrix(-1.2272275,0,0,1.1528501,263.5562,223.1783)"
           d="m 41.965458,54.748039 c 0,4.395616 -3.34739,7.958967 -7.476605,7.958967 -4.129214,0 -7.476604,-3.563351 -7.476604,-7.958967 0,-4.395615 3.34739,-7.958966 7.476604,-7.958966 4.105587,0 7.443108,3.524186 7.47636,7.894506"
           sodipodi:ry="7.9589663"
           sodipodi:rx="7.4766045"
           sodipodi:cy="54.748039"
           sodipodi:cx="34.488853"
           id="path3285-7"
           style="fill:#ffffff;fill-opacity:1;fill-rule:evenodd;stroke:none;display:inline"
           sodipodi:type="arc" />
        <path
           sodipodi:open="true"
           sodipodi:end="6.2750861"
           sodipodi:start="0"
           transform="matrix(-0.81815179,0,0,0.74323901,246.38913,245.80528)"
           d="m 41.965458,54.748039 c 0,4.395616 -3.34739,7.958967 -7.476605,7.958967 -4.129214,0 -7.476604,-3.563351 -7.476604,-7.958967 0,-4.395615 3.34739,-7.958966 7.476604,-7.958966 4.105587,0 7.443108,3.524186 7.47636,7.894506"
           sodipodi:ry="7.9589663"
           sodipodi:rx="7.4766045"
           sodipodi:cy="54.748039"
           sodipodi:cx="34.488853"
           id="path3287-6"
           style="fill:url(#radialGradient3291-1);fill-opacity:1;fill-rule:evenodd;stroke:none;display:inline"
           sodipodi:type="arc" />
        <path
           sodipodi:open="true"
           sodipodi:end="6.2750861"
           sodipodi:start="0"
           transform="matrix(-0.29750968,0,0,0.27947876,226.76454,270.43756)"
           d="m 41.965458,54.748039 c 0,4.395616 -3.34739,7.958967 -7.476605,7.958967 -4.129214,0 -7.476604,-3.563351 -7.476604,-7.958967 0,-4.395615 3.34739,-7.958966 7.476604,-7.958966 4.105587,0 7.443108,3.524186 7.47636,7.894506"
           sodipodi:ry="7.9589663"
           sodipodi:rx="7.4766045"
           sodipodi:cy="54.748039"
           sodipodi:cx="34.488853"
           id="path3289-5"
           style="fill:#ffffff;fill-opacity:1;fill-rule:evenodd;stroke:none;display:inline"
           sodipodi:type="arc" />
        <path
           sodipodi:open="true"
           sodipodi:end="6.2750861"
           sodipodi:start="0"
           transform="matrix(-0.18594354,0,0,0.19214161,254.64794,280.55968)"
           d="m 41.965458,54.748039 c 0,4.395616 -3.34739,7.958967 -7.476605,7.958967 -4.129214,0 -7.476604,-3.563351 -7.476604,-7.958967 0,-4.395615 3.34739,-7.958966 7.476604,-7.958966 4.105587,0 7.443108,3.524186 7.47636,7.894506"
           sodipodi:ry="7.9589663"
           sodipodi:rx="7.4766045"
           sodipodi:cy="54.748039"
           sodipodi:cx="34.488853"
           id="path3293-9"
           style="opacity:0.84513275;fill:#ffffff;fill-opacity:1;fill-rule:evenodd;stroke:none;display:inline"
           sodipodi:type="arc" />
        <path
           sodipodi:open="true"
           sodipodi:end="6.2750861"
           sodipodi:start="0"
           transform="matrix(-0.18594354,0,0,0.19214161,225.97523,279.11175)"
           d="m 41.965458,54.748039 c 0,4.395616 -3.34739,7.958967 -7.476605,7.958967 -4.129214,0 -7.476604,-3.563351 -7.476604,-7.958967 0,-4.395615 3.34739,-7.958966 7.476604,-7.958966 4.105587,0 7.443108,3.524186 7.47636,7.894506"
           sodipodi:ry="7.9589663"
           sodipodi:rx="7.4766045"
           sodipodi:cy="54.748039"
           sodipodi:cx="34.488853"
           id="path3295-3"
           style="opacity:0.84513275;fill:#ffffff;fill-opacity:1;fill-rule:evenodd;stroke:none;display:inline"
           sodipodi:type="arc" />
      </g>
      <rect
         transform="matrix(0.82307035,0.56793943,0,1,0,0)"
         y="234.78091"
         x="-98.498787"
         height="78.928574"
         width="121.06239"
         id="rect4190"
         style="fill:#d8d8d8;fill-opacity:1;stroke:#383838;stroke-width:4.26902819;stroke-miterlimit:4;stroke-opacity:1;stroke-dasharray:none;stroke-dashoffset:0" />
      <g
         transform="matrix(1,0.64665154,0,1,-117.32143,-110.46315)"
         id="g4205">
        <path
           sodipodi:type="arc"
           style="fill:#6b6b6b;fill-opacity:1;stroke:none"
           id="path4192"
           sodipodi:cx="71.60714"
           sodipodi:cy="300.18192"
           sodipodi:rx="3.3928571"
           sodipodi:ry="3.75"
           d="m 74.999997,300.18192 c 0,2.07106 -1.519034,3.75 -3.392857,3.75 -1.873824,0 -3.392857,-1.67894 -3.392857,-3.75 0,-2.07107 1.519033,-3.75 3.392857,-3.75 1.8631,0 3.377656,1.66047 3.392745,3.71962"
           sodipodi:start="0"
           sodipodi:end="6.2750861"
           sodipodi:open="true" />
        <path
           style="fill:none;stroke:#6b6b6b;stroke-width:1px;stroke-linecap:butt;stroke-linejoin:miter;stroke-opacity:1"
           d="m 71.428571,299.64619 0,11.07143"
           id="path4194"
           inkscape:connector-curvature="0" />
        <path
           style="fill:none;stroke:#6b6b6b;stroke-width:1px;stroke-linecap:butt;stroke-linejoin:miter;stroke-opacity:1"
           d="m 67.767857,313.66405 3.571429,-3.57143 3.035714,3.57143"
           id="path4200"
           inkscape:connector-curvature="0" />
        <path
           style="fill:none;stroke:#6b6b6b;stroke-width:1px;stroke-linecap:butt;stroke-linejoin:miter;stroke-opacity:1"
           d="m 73.839286,306.61047 -4.732143,-0.0893"
           id="path4202"
           inkscape:connector-curvature="0" />
      </g>
      <g
         transform="matrix(1,0.64665154,0,1,-90.419641,-83.089613)"
         id="g4205-9">
        <path
           sodipodi:type="arc"
           style="fill:#6b6b6b;fill-opacity:1;stroke:none"
           id="path4192-1"
           sodipodi:cx="71.60714"
           sodipodi:cy="300.18192"
           sodipodi:rx="3.3928571"
           sodipodi:ry="3.75"
           d="m 74.999997,300.18192 c 0,2.07106 -1.519034,3.75 -3.392857,3.75 -1.873824,0 -3.392857,-1.67894 -3.392857,-3.75 0,-2.07107 1.519033,-3.75 3.392857,-3.75 1.8631,0 3.377656,1.66047 3.392745,3.71962"
           sodipodi:start="0"
           sodipodi:end="6.2750861"
           sodipodi:open="true" />
        <path
           style="fill:none;stroke:#6b6b6b;stroke-width:1px;stroke-linecap:butt;stroke-linejoin:miter;stroke-opacity:1"
           d="m 71.428571,299.64619 0,11.07143"
           id="path4194-9"
           inkscape:connector-curvature="0" />
        <path
           style="fill:none;stroke:#6b6b6b;stroke-width:1px;stroke-linecap:butt;stroke-linejoin:miter;stroke-opacity:1"
           d="m 67.767857,313.66405 3.571429,-3.57143 3.035714,3.57143"
           id="path4200-7"
           inkscape:connector-curvature="0" />
        <path
           style="fill:none;stroke:#6b6b6b;stroke-width:1px;stroke-linecap:butt;stroke-linejoin:miter;stroke-opacity:1"
           d="m 73.839286,306.61047 -4.732143,-0.0893"
           id="path4202-1"
           inkscape:connector-curvature="0" />
      </g>
      <g
         transform="matrix(1,0.64665154,0,1,-138.99107,-109.69676)"
         id="g4205-4">
        <path
           sodipodi:type="arc"
           style="fill:#6b6b6b;fill-opacity:1;stroke:none"
           id="path4192-5"
           sodipodi:cx="71.60714"
           sodipodi:cy="300.18192"
           sodipodi:rx="3.3928571"
           sodipodi:ry="3.75"
           d="m 74.999997,300.18192 c 0,2.07106 -1.519034,3.75 -3.392857,3.75 -1.873824,0 -3.392857,-1.67894 -3.392857,-3.75 0,-2.07107 1.519033,-3.75 3.392857,-3.75 1.8631,0 3.377656,1.66047 3.392745,3.71962"
           sodipodi:start="0"
           sodipodi:end="6.2750861"
           sodipodi:open="true" />
        <path
           style="fill:none;stroke:#6b6b6b;stroke-width:1px;stroke-linecap:butt;stroke-linejoin:miter;stroke-opacity:1"
           d="m 71.428571,299.64619 0,11.07143"
           id="path4194-6"
           inkscape:connector-curvature="0" />
        <path
           style="fill:none;stroke:#6b6b6b;stroke-width:1px;stroke-linecap:butt;stroke-linejoin:miter;stroke-opacity:1"
           d="m 67.767857,313.66405 3.571429,-3.57143 3.035714,3.57143"
           id="path4200-4"
           inkscape:connector-curvature="0" />
        <path
           style="fill:none;stroke:#6b6b6b;stroke-width:1px;stroke-linecap:butt;stroke-linejoin:miter;stroke-opacity:1"
           d="m 73.839286,306.61047 -4.732143,-0.0893"
           id="path4202-9"
           inkscape:connector-curvature="0" />
      </g>
    </g>
    <text
       xml:space="preserve"
       style="font-size:32px;font-style:normal;font-variant:normal;font-weight:normal;font-stretch:normal;text-align:center;line-height:125%;letter-spacing:0px;word-spacing:0px;text-anchor:middle;fill:#000000;fill-opacity:1;stroke:none;display:inline;font-family:Utopia;-inkscape-font-specification:Utopia"
       x="196.63483"
       y="329.07587"
       id="text4288-1"
       sodipodi:linespacing="125%"><tspan
         sodipodi:role="line"
         x="196.63483"
         y="329.07587"
         id="tspan4292-1"
         style="font-size:16px;font-family:Arial;-inkscape-font-specification:Arial">Observer</tspan></text>
    <path
       style="fill:none;stroke:#000000;stroke-width:1px;stroke-linecap:butt;stroke-linejoin:miter;stroke-opacity:1;marker-start:none;marker-end:url(#Arrow1Mend);display:inline"
       d="m 370.71637,224.4836 0,36.87057"
       id="path4294-1"
       inkscape:connector-curvature="0"
       sodipodi:nodetypes="cc" />
    <text
       xml:space="preserve"
       style="font-size:32px;font-style:normal;font-variant:normal;font-weight:normal;font-stretch:normal;text-align:center;line-height:125%;letter-spacing:0px;word-spacing:0px;text-anchor:middle;fill:#000000;fill-opacity:1;stroke:none;display:inline;font-family:Utopia;-inkscape-font-specification:Utopia"
       x="409.11179"
       y="254.06015"
       id="text5865"
       sodipodi:linespacing="125%"><tspan
         sodipodi:role="line"
         id="tspan5867"
         x="409.11179"
         y="254.06015"
         style="font-size:10px;font-family:Arial;-inkscape-font-specification:Arial">Change events</tspan></text>
    <rect
       style="fill:#fabcde;fill-opacity:1;stroke:#000000;stroke-width:0.38660476;stroke-opacity:1;display:inline"
       id="rect2996-6-7"
       width="221.9505"
       height="58.178116"
       x="257.73041"
       y="260.83151" />
    <text
       xml:space="preserve"
       style="font-size:16px;font-style:normal;font-variant:normal;font-weight:normal;font-stretch:normal;text-align:center;line-height:125%;letter-spacing:0px;word-spacing:0px;text-anchor:middle;fill:#000000;fill-opacity:1;stroke:none;display:inline;font-family:Arial;-inkscape-font-specification:Arial"
       x="366.5889"
       y="284.52762"
       id="text3766-9-23"
       sodipodi:linespacing="125%"><tspan
         sodipodi:role="line"
         id="tspan3768-4-8"
         x="366.5889"
         y="284.52762">Rendering Software Modules</tspan><tspan
         sodipodi:role="line"
         x="366.5889"
         y="304.52762"
         id="tspan5619">(1D, 2D or 3D)</tspan></text>
  </g>
  <g
     inkscape:groupmode="layer"
     id="layer2"
     inkscape:label="Simulator &lt;2-&gt;"
     style="display:inline"
     transform="translate(164.39154,46.076447)"
     sodipodi:insensitive="true">
    <rect
       style="opacity:0.54121866;fill:none;stroke:#000000;stroke-width:1;stroke-miterlimit:4;stroke-opacity:1;stroke-dasharray:none;stroke-dashoffset:0"
       id="rect3020"
       width="468.12833"
       height="272.12173"
       x="-93.12838"
       y="-44.576447"
       rx="0"
       ry="0" />
    <g
       transform="matrix(0.46903628,0,0,0.46903628,301.76612,-70.463704)"
       id="layer1-8"
       inkscape:label="Layer 1">
      <path
         sodipodi:nodetypes="zsssssz"
         id="path7363"
         d="m 271.30702,304.41637 c 7.2919,0.20697 19.02402,-40.29537 27.04105,-26.22639 8.01703,14.06898 22.46801,41.48769 17.07335,49.58624 -5.39465,8.09855 -17.49112,8.57639 -35.95679,8.57639 -18.46567,0 -31.87196,-0.47784 -37.02912,-8.57639 -5.15716,-8.09855 6.98619,-37.25628 17.24181,-51.48049 10.25562,-14.22421 4.3378,27.91367 11.6297,28.12064 z"
         style="fill:url(#radialGradient3054);fill-opacity:1;fill-rule:evenodd;stroke:#383838;stroke-width:3.37548995;stroke-linecap:butt;stroke-linejoin:miter;stroke-miterlimit:4;stroke-opacity:1;stroke-dasharray:none"
         inkscape:connector-curvature="0" />
      <path
         transform="matrix(0.778675,0,0,0.869413,-72.768559,-29.81861)"
         d="m 496.96329,320.73038 c 0,25.73111 -20.85919,46.59031 -46.5903,46.59031 -25.73112,0 -46.59031,-20.8592 -46.59031,-46.59031 0,-25.73112 20.85919,-46.59031 46.59031,-46.59031 25.73111,0 46.5903,20.85919 46.5903,46.59031 z"
         sodipodi:ry="46.590309"
         sodipodi:rx="46.590309"
         sodipodi:cy="320.73038"
         sodipodi:cx="450.37299"
         id="path7367"
         style="fill:url(#radialGradient3221);fill-opacity:1;fill-rule:evenodd;stroke:#383838;stroke-width:5.00003576;stroke-linecap:butt;stroke-linejoin:miter;stroke-miterlimit:4;stroke-opacity:1;stroke-dasharray:none"
         sodipodi:type="arc" />
      <path
         sodipodi:open="true"
         sodipodi:end="6.2750861"
         sodipodi:start="0"
         transform="matrix(-1.0645161,0,0,1,317.41673,200.25537)"
         d="m 41.965458,54.748039 c 0,4.395616 -3.34739,7.958967 -7.476605,7.958967 -4.129214,0 -7.476604,-3.563351 -7.476604,-7.958967 0,-4.395615 3.34739,-7.958966 7.476604,-7.958966 4.105587,0 7.443108,3.524186 7.47636,7.894506"
         sodipodi:ry="7.9589663"
         sodipodi:rx="7.4766045"
         sodipodi:cy="54.748039"
         sodipodi:cx="34.488853"
         id="path3271"
         style="fill:#ffffff;fill-opacity:1;fill-rule:evenodd;stroke:none"
         sodipodi:type="arc" />
      <path
         sodipodi:open="true"
         sodipodi:end="6.2750861"
         sodipodi:start="0"
         transform="matrix(-0.7096775,0,0,0.644697,302.52575,219.88236)"
         d="m 41.965458,54.748039 c 0,4.395616 -3.34739,7.958967 -7.476605,7.958967 -4.129214,0 -7.476604,-3.563351 -7.476604,-7.958967 0,-4.395615 3.34739,-7.958966 7.476604,-7.958966 4.105587,0 7.443108,3.524186 7.47636,7.894506"
         sodipodi:ry="7.9589663"
         sodipodi:rx="7.4766045"
         sodipodi:cy="54.748039"
         sodipodi:cx="34.488853"
         id="path3273"
         style="fill:url(#radialGradient3281);fill-opacity:1;fill-rule:evenodd;stroke:none"
         sodipodi:type="arc" />
      <path
         sodipodi:open="true"
         sodipodi:end="6.2750861"
         sodipodi:start="0"
         transform="matrix(-0.2580645,0,0,0.2424242,285.50306,241.24878)"
         d="m 41.965458,54.748039 c 0,4.395616 -3.34739,7.958967 -7.476605,7.958967 -4.129214,0 -7.476604,-3.563351 -7.476604,-7.958967 0,-4.395615 3.34739,-7.958966 7.476604,-7.958966 4.105587,0 7.443108,3.524186 7.47636,7.894506"
         sodipodi:ry="7.9589663"
         sodipodi:rx="7.4766045"
         sodipodi:cy="54.748039"
         sodipodi:cx="34.488853"
         id="path3283"
         style="fill:#ffffff;fill-opacity:1;fill-rule:evenodd;stroke:none"
         sodipodi:type="arc" />
      <path
         sodipodi:open="true"
         sodipodi:end="6.2750861"
         sodipodi:start="0"
         transform="matrix(-1.0645161,0,0,1,293.02796,198.63765)"
         d="m 41.965458,54.748039 c 0,4.395616 -3.34739,7.958967 -7.476605,7.958967 -4.129214,0 -7.476604,-3.563351 -7.476604,-7.958967 0,-4.395615 3.34739,-7.958966 7.476604,-7.958966 4.105587,0 7.443108,3.524186 7.47636,7.894506"
         sodipodi:ry="7.9589663"
         sodipodi:rx="7.4766045"
         sodipodi:cy="54.748039"
         sodipodi:cx="34.488853"
         id="path3285"
         style="fill:#ffffff;fill-opacity:1;fill-rule:evenodd;stroke:none"
         sodipodi:type="arc" />
      <path
         sodipodi:open="true"
         sodipodi:end="6.2750861"
         sodipodi:start="0"
         transform="matrix(-0.7096775,0,0,0.644697,278.13698,218.26464)"
         d="m 41.965458,54.748039 c 0,4.395616 -3.34739,7.958967 -7.476605,7.958967 -4.129214,0 -7.476604,-3.563351 -7.476604,-7.958967 0,-4.395615 3.34739,-7.958966 7.476604,-7.958966 4.105587,0 7.443108,3.524186 7.47636,7.894506"
         sodipodi:ry="7.9589663"
         sodipodi:rx="7.4766045"
         sodipodi:cy="54.748039"
         sodipodi:cx="34.488853"
         id="path3287"
         style="fill:url(#radialGradient3291);fill-opacity:1;fill-rule:evenodd;stroke:none"
         sodipodi:type="arc" />
      <path
         sodipodi:open="true"
         sodipodi:end="6.2750861"
         sodipodi:start="0"
         transform="matrix(-0.2580645,0,0,0.2424242,261.11429,239.63106)"
         d="m 41.965458,54.748039 c 0,4.395616 -3.34739,7.958967 -7.476605,7.958967 -4.129214,0 -7.476604,-3.563351 -7.476604,-7.958967 0,-4.395615 3.34739,-7.958966 7.476604,-7.958966 4.105587,0 7.443108,3.524186 7.47636,7.894506"
         sodipodi:ry="7.9589663"
         sodipodi:rx="7.4766045"
         sodipodi:cy="54.748039"
         sodipodi:cx="34.488853"
         id="path3289"
         style="fill:#ffffff;fill-opacity:1;fill-rule:evenodd;stroke:none"
         sodipodi:type="arc" />
      <path
         sodipodi:open="true"
         sodipodi:end="6.2750861"
         sodipodi:start="0"
         transform="matrix(-0.1612903,0,0,0.1666666,285.30079,248.41114)"
         d="m 41.965458,54.748039 c 0,4.395616 -3.34739,7.958967 -7.476605,7.958967 -4.129214,0 -7.476604,-3.563351 -7.476604,-7.958967 0,-4.395615 3.34739,-7.958966 7.476604,-7.958966 4.105587,0 7.443108,3.524186 7.47636,7.894506"
         sodipodi:ry="7.9589663"
         sodipodi:rx="7.4766045"
         sodipodi:cy="54.748039"
         sodipodi:cx="34.488853"
         id="path3293"
         style="opacity:0.84513275;fill:#ffffff;fill-opacity:1;fill-rule:evenodd;stroke:none"
         sodipodi:type="arc" />
      <path
         sodipodi:open="true"
         sodipodi:end="6.2750861"
         sodipodi:start="0"
         transform="matrix(-0.1612903,0,0,0.1666666,260.42964,247.15519)"
         d="m 41.965458,54.748039 c 0,4.395616 -3.34739,7.958967 -7.476605,7.958967 -4.129214,0 -7.476604,-3.563351 -7.476604,-7.958967 0,-4.395615 3.34739,-7.958966 7.476604,-7.958966 4.105587,0 7.443108,3.524186 7.47636,7.894506"
         sodipodi:ry="7.9589663"
         sodipodi:rx="7.4766045"
         sodipodi:cy="54.748039"
         sodipodi:cx="34.488853"
         id="path3295"
         style="opacity:0.84513275;fill:#ffffff;fill-opacity:1;fill-rule:evenodd;stroke:none"
         sodipodi:type="arc" />
      <path
         sodipodi:nodetypes="czczzcccc"
         id="path7441"
         d="m 294.18201,237.47361 c 0,0 -14.75477,6.29539 -29.62005,6.29539 -13.98097,0 -27.62058,-10.22613 -27.62058,-10.22613 0,0 7.11866,-28.44437 29.78608,-30.97224 22.63369,-2.52412 48.84831,3.92887 56.15342,29.63581 7.39063,26.00787 -12.21234,43.51357 -12.21234,43.51357 l -6.13393,-27.11738 -8.16006,0.20892 z"
         style="fill:url(#radialGradient3037);fill-opacity:1;fill-rule:evenodd;stroke:#383838;stroke-width:3.87299991;stroke-linecap:butt;stroke-linejoin:miter;stroke-miterlimit:4;stroke-opacity:1;stroke-dasharray:none"
         inkscape:connector-curvature="0" />
      <path
         sodipodi:nodetypes="csc"
         id="path7443"
         d="m 298.24625,250.76258 c 2.84209,-8.04979 12.39065,-5.30532 12.92512,3.6066 0.60899,10.1546 -12.08342,11.87471 -12.08342,11.87471"
         style="fill:#fa9e62;fill-opacity:1;fill-rule:evenodd;stroke:#383838;stroke-width:3.87308121;stroke-linecap:butt;stroke-linejoin:miter;stroke-miterlimit:4;stroke-opacity:1"
         inkscape:connector-curvature="0" />
      <path
         style="fill:#d8d8d8;fill-opacity:1;stroke:#383838;stroke-width:3.87299991;stroke-miterlimit:4;stroke-opacity:1;stroke-dasharray:none;stroke-dashoffset:0"
         d="m -51.602679,-200.16071 c 1.481037,12.94168 4.233503,26.47017 -0.178571,36.69196 -3.988839,1.30462 -6.78125,4.99688 -6.78125,9.59375 0,2.45305 0.805989,4.78989 2.15625,6.75 -0.414383,9.43837 -11.192761,15.6643 -24.34375,13.78125 -9.986003,-1.66956 -7.675323,6.25695 2.375,7.46875 11.798058,3.32774 23.058769,-1.82976 31.09375,-15.90625 6.012,0.4383 10.84375,-4.02217 10.84375,-10.0625 0,-3.37953 -1.519274,-6.52946 -3.90625,-8.78125 1.009485,-11.84285 -0.0011,-23.10853 -2.321429,-34 -2.667854,-4.64705 -5.805396,-5.06691 -8.9375,-5.53571 z"
         transform="translate(352.81755,407.29482)"
         id="path3990"
         inkscape:connector-curvature="0"
         sodipodi:nodetypes="ccsccccsccc" />
    </g>
    <text
       xml:space="preserve"
       style="font-size:32px;font-style:normal;font-variant:normal;font-weight:normal;font-stretch:normal;text-align:center;line-height:125%;letter-spacing:0px;word-spacing:0px;text-anchor:middle;fill:#000000;fill-opacity:1;stroke:none;font-family:Utopia;-inkscape-font-specification:Utopia"
       x="432.34531"
       y="104.44419"
       id="text4288"
       sodipodi:linespacing="125%"><tspan
         sodipodi:role="line"
         id="tspan4290"
         x="432.34531"
         y="104.44419"
         style="font-size:16px;font-family:Arial;-inkscape-font-specification:Arial">Simulation</tspan><tspan
         sodipodi:role="line"
         x="432.34531"
         y="124.44419"
         id="tspan4292"
         style="font-size:16px;font-family:Arial;-inkscape-font-specification:Arial">Controller</tspan></text>
    <path
       style="fill:none;stroke:#000000;stroke-width:1px;stroke-linecap:butt;stroke-linejoin:miter;stroke-opacity:1;marker-start:url(#Arrow2Mstart);marker-end:url(#Arrow1Mend)"
       d="m 555.5839,82.839283 -31.31473,0"
       id="path4294"
       inkscape:connector-curvature="0"
       transform="translate(-149.13249,-8.7109547)" />
  </g>
  <g
     inkscape:label="MABS &lt;1-&gt;"
     inkscape:groupmode="layer"
     id="layer1"
     transform="translate(93.462976,-148.37987)"
     style="display:inline">
    <path
       style="fill:none;stroke:#000000;stroke-width:1px;stroke-linecap:butt;stroke-linejoin:miter;stroke-opacity:1;marker-start:url(#Arrow1Lstart);marker-end:url(#Arrow1Lend)"
       d="m 179.28571,244.33947 125,0"
       id="path3802"
       inkscape:connector-curvature="0"
       sodipodi:nodetypes="cc" />
    <path
       style="fill:none;stroke:#000000;stroke-width:1px;stroke-linecap:butt;stroke-linejoin:miter;stroke-opacity:1;marker-start:url(#Arrow1Lstart);marker-end:none"
       d="m 373.85715,307.36218 0,-50"
       id="path3802-0-5"
       inkscape:connector-curvature="0"
       sodipodi:nodetypes="cc" />
    <path
       style="fill:none;stroke:#000000;stroke-width:1px;stroke-linecap:butt;stroke-linejoin:miter;stroke-opacity:1;marker-start:url(#Arrow1Lstart);marker-end:none"
       d="m 338.85714,263.43361 0,50"
       id="path3802-0"
       inkscape:connector-curvature="0"
       sodipodi:nodetypes="cc" />
    <rect
       style="fill:#7bbeff;fill-opacity:1;stroke:#000000;stroke-width:0.38660476;stroke-opacity:1"
       id="rect2996-5"
       width="108.24933"
       height="104.80968"
       x="304.73248"
       y="157.21962" />
    <text
       xml:space="preserve"
       style="font-size:16px;font-style:normal;font-variant:normal;font-weight:normal;font-stretch:normal;text-align:center;line-height:125%;letter-spacing:0px;word-spacing:0px;text-anchor:middle;fill:#000000;fill-opacity:1;stroke:none;font-family:Arial;-inkscape-font-specification:Arial"
       x="358.89621"
       y="176.38245"
       id="text3766-1"
       sodipodi:linespacing="125%"><tspan
         sodipodi:role="line"
         id="tspan3768-3"
         x="358.89621"
         y="176.38245">Agent</tspan></text>
    <rect
       style="fill:#fabcde;fill-opacity:1;stroke:#000000;stroke-width:0.38660476;stroke-opacity:1"
       id="rect2996-6"
       width="365.39218"
       height="106.66541"
       x="71.58963"
       y="307.95807" />
    <text
       xml:space="preserve"
       style="font-size:16px;font-style:normal;font-variant:normal;font-weight:normal;font-stretch:normal;text-align:center;line-height:125%;letter-spacing:0px;word-spacing:0px;text-anchor:middle;fill:#000000;fill-opacity:1;stroke:none;font-family:Arial;-inkscape-font-specification:Arial"
       x="251.51384"
       y="325.97659"
       id="text3766-9"
       sodipodi:linespacing="125%"><tspan
         sodipodi:role="line"
         id="tspan3768-4"
         x="251.51384"
         y="325.97659">Environment</tspan></text>
    <text
       xml:space="preserve"
       style="font-size:12px;font-style:normal;font-variant:normal;font-weight:normal;font-stretch:normal;text-align:start;line-height:125%;letter-spacing:0px;word-spacing:0px;text-anchor:start;fill:#000000;fill-opacity:1;stroke:none;font-family:Arial;-inkscape-font-specification:Arial"
       x="87.29911"
       y="343.995"
       id="text3766-9-2"
       sodipodi:linespacing="125%"><tspan
         sodipodi:role="line"
         id="tspan3768-4-5"
         x="87.29911"
         y="343.995">- Resources, services, objects</tspan><tspan
         sodipodi:role="line"
         x="87.29911"
         y="358.995"
         id="tspan4495">- Rules, laws</tspan><tspan
         sodipodi:role="line"
         x="87.29911"
         y="373.995"
         id="tspan4497">- Physical structures (spatial and topological)</tspan><tspan
         sodipodi:role="line"
         x="87.29911"
         y="388.995"
         id="tspan4499">- Communication structures (stigmergy, implicit communication)</tspan><tspan
         sodipodi:role="line"
         x="87.29911"
         y="403.995"
         id="tspan4501">- Social structure</tspan></text>
    <text
       xml:space="preserve"
       style="font-size:16px;font-style:normal;font-variant:normal;font-weight:normal;font-stretch:normal;text-align:center;line-height:125%;letter-spacing:0px;word-spacing:0px;text-anchor:middle;fill:#000000;fill-opacity:1;stroke:none;font-family:Arial;-inkscape-font-specification:Arial"
       x="241.85156"
       y="239.50504"
       id="text4745"
       sodipodi:linespacing="125%"><tspan
         sodipodi:role="line"
         id="tspan4747"
         x="241.85156"
         y="239.50504">Direct</tspan><tspan
         sodipodi:role="line"
         x="241.85156"
         y="259.50504"
         id="tspan4749">interaction</tspan></text>
    <text
       xml:space="preserve"
       style="font-size:16px;font-style:normal;font-variant:normal;font-weight:normal;font-stretch:normal;text-align:end;line-height:125%;letter-spacing:0px;word-spacing:0px;text-anchor:end;fill:#000000;fill-opacity:1;stroke:none;font-family:Arial;-inkscape-font-specification:Arial"
       x="330.23605"
       y="291.56644"
       id="text4745-4"
       sodipodi:linespacing="125%"><tspan
         sodipodi:role="line"
         x="330.23605"
         y="291.56644"
         id="tspan4749-1">Perceptions</tspan></text>
    <text
       xml:space="preserve"
       style="font-size:16px;font-style:normal;font-variant:normal;font-weight:normal;font-stretch:normal;text-align:center;line-height:125%;letter-spacing:0px;word-spacing:0px;text-anchor:middle;fill:#000000;fill-opacity:1;stroke:none;font-family:Arial;-inkscape-font-specification:Arial"
       x="407.452"
       y="288.70929"
       id="text4745-8"
       sodipodi:linespacing="125%"><tspan
         sodipodi:role="line"
         x="407.452"
         y="288.70929"
         id="tspan4749-7">Actions</tspan></text>
    <rect
       style="fill:#7bbeff;fill-opacity:1;stroke:#000000;stroke-width:0.38660476;stroke-opacity:1;display:inline"
       id="rect2996-5-2"
       width="108.24933"
       height="39.095398"
       x="68.712074"
       y="225.76283" />
    <text
       xml:space="preserve"
       style="font-size:16px;font-style:normal;font-variant:normal;font-weight:normal;font-stretch:normal;text-align:center;line-height:125%;letter-spacing:0px;word-spacing:0px;text-anchor:middle;fill:#000000;fill-opacity:1;stroke:none;display:inline;font-family:Arial;-inkscape-font-specification:Arial"
       x="122.86018"
       y="249.21138"
       id="text3766-1-4"
       sodipodi:linespacing="125%"><tspan
         sodipodi:role="line"
         id="tspan3768-3-8"
         x="122.86018"
         y="249.21138">Agent</tspan></text>
    <g
       id="g4144"
       transform="translate(-0.53701401,0)">
      <text
         sodipodi:linespacing="125%"
         id="text3766-1-41"
         y="251.24979"
         x="359.50256"
         style="font-size:12px;font-style:normal;font-variant:normal;font-weight:normal;font-stretch:normal;text-align:center;line-height:125%;letter-spacing:0px;word-spacing:0px;text-anchor:middle;fill:#000000;fill-opacity:1;stroke:none;display:inline;font-family:Arial;-inkscape-font-specification:Arial"
         xml:space="preserve"><tspan
           style="font-size:12px;fill:#800000"
           y="251.24979"
           x="359.50256"
           id="tspan3768-3-83"
           sodipodi:role="line">Operation</tspan></text>
      <text
         sodipodi:linespacing="125%"
         id="text3766-1-40"
         y="228.86487"
         x="359.4176"
         style="font-size:12px;font-style:normal;font-variant:normal;font-weight:normal;font-stretch:normal;text-align:center;line-height:125%;letter-spacing:0px;word-spacing:0px;text-anchor:middle;fill:#000000;fill-opacity:1;stroke:none;display:inline;font-family:Arial;-inkscape-font-specification:Arial"
         xml:space="preserve"><tspan
           y="228.86487"
           x="359.4176"
           id="tspan3768-3-2"
           sodipodi:role="line">Tactic</tspan></text>
      <text
         sodipodi:linespacing="125%"
         id="text3766-1-2"
         y="204.10693"
         x="359.13342"
         style="font-size:12px;font-style:normal;font-variant:normal;font-weight:normal;font-stretch:normal;text-align:center;line-height:125%;letter-spacing:0px;word-spacing:0px;text-anchor:middle;fill:#000000;fill-opacity:1;stroke:none;display:inline;font-family:Arial;-inkscape-font-specification:Arial"
         xml:space="preserve"><tspan
           y="204.10693"
           x="359.13342"
           id="tspan3768-3-82"
           sodipodi:role="line">Strategy</tspan></text>
      <rect
         y="188.47749"
         x="317.78702"
         height="68.571426"
         width="83.214287"
         id="rect3262"
         style="fill:none;stroke:#000000;stroke-width:1;stroke-miterlimit:4;stroke-opacity:1;stroke-dasharray:none;stroke-dashoffset:0" />
      <path
         inkscape:connector-curvature="0"
         id="path4140"
         d="m 317.96559,211.69177 82.85714,0"
         style="fill:none;stroke:#000000;stroke-width:1px;stroke-linecap:butt;stroke-linejoin:miter;stroke-opacity:1" />
      <path
         transform="translate(-93.462976,213.02964)"
         inkscape:connector-curvature="0"
         id="path4142"
         d="m 411.42857,23.662133 82.85714,0"
         style="fill:none;stroke:#000000;stroke-width:1px;stroke-linecap:butt;stroke-linejoin:miter;stroke-opacity:1" />
    </g>
  </g>
  <g
     inkscape:groupmode="layer"
     id="layer5"
     inkscape:label="Focus"
     transform="translate(2.7661132e-7,64.649764)">
    <g
       id="layer1-1-7"
       transform="matrix(-0.11597716,0,0,0.11597716,605.5183,28.750332)"
       style="fill:#a20d59;fill-opacity:1;stroke:none">
      <path
         style="font-size:medium;font-style:normal;font-variant:normal;font-weight:normal;font-stretch:normal;text-indent:0;text-align:start;text-decoration:none;line-height:normal;letter-spacing:normal;word-spacing:normal;text-transform:none;direction:ltr;block-progression:tb;writing-mode:lr-tb;text-anchor:start;baseline-shift:baseline;color:#000000;fill:#a20d59;fill-opacity:1;stroke:none;stroke-width:40;marker:none;visibility:visible;display:inline;overflow:visible;enable-background:accumulate;font-family:Sans;-inkscape-font-specification:Sans"
         d="M 400.3125,-101.375 C 482.20546,-19.205396 564.06653,62.995989 645.9375,145.1875 477.05597,313.35794 308.27297,481.62733 139.375,649.78125 258.69379,769.53789 381.86235,893.17065 490.21875,1002 659.03822,833.77774 827.90233,665.60022 996.75,497.40625 c 81.3462,81.66424 162.6956,163.32523 244.0312,245 C 1183.2637,524.37414 1125.7401,306.34361 1068.2188,88.3125 l -0.125,0.03125 0.031,-0.125 C 845.51748,25.032185 622.92758,-38.215761 400.3125,-101.375 z"
         id="path1872-0"
         inkscape:connector-curvature="0"
         sodipodi:nodetypes="cccccccccc" />
    </g>
    <text
       xml:space="preserve"
       style="font-size:32px;font-style:normal;font-variant:normal;font-weight:normal;font-stretch:normal;text-align:center;line-height:125%;letter-spacing:0px;word-spacing:0px;text-anchor:middle;fill:#ffffff;fill-opacity:1;stroke:none;font-family:DejaVu Sans;-inkscape-font-specification:DejaVu Sans"
       x="431.55008"
       y="-306.28067"
       id="text3219"
       sodipodi:linespacing="125%"
       transform="matrix(0.70608204,0.70813004,-0.70813004,0.70608204,0,0)"><tspan
         sodipodi:role="line"
         id="tspan3221"
         x="431.55008"
         y="-306.28067"
         style="font-size:20px;fill:#ffffff">FOCUS ON</tspan></text>
  </g>
</svg>
