<?xml version="1.0" encoding="UTF-8" standalone="no"?>
<!-- Created with Inkscape (http://www.inkscape.org/) -->

<svg
   xmlns:dc="http://purl.org/dc/elements/1.1/"
   xmlns:cc="http://creativecommons.org/ns#"
   xmlns:rdf="http://www.w3.org/1999/02/22-rdf-syntax-ns#"
   xmlns:svg="http://www.w3.org/2000/svg"
   xmlns="http://www.w3.org/2000/svg"
   xmlns:xlink="http://www.w3.org/1999/xlink"
   xmlns:sodipodi="http://sodipodi.sourceforge.net/DTD/sodipodi-0.dtd"
   xmlns:inkscape="http://www.inkscape.org/namespaces/inkscape"
   width="717.85443"
   height="421.26901"
   id="svg2"
   version="1.1"
   inkscape:version="0.48.4 r9939"
   sodipodi:docname="steering_wander_reynolds_algorithm+layers.svg">
  <defs
     id="defs4">
    <marker
       inkscape:stockid="Arrow1Mend"
       orient="auto"
       refY="0"
       refX="0"
       id="Arrow1Mend"
       style="overflow:visible">
      <path
         id="path4118"
         d="M 0,0 5,-5 -12.5,0 5,5 0,0 z"
         style="fill-rule:evenodd;stroke:#000000;stroke-width:1pt"
         transform="matrix(-0.4,0,0,-0.4,-4,0)"
         inkscape:connector-curvature="0" />
    </marker>
    <marker
       inkscape:stockid="Arrow1Mstart"
       orient="auto"
       refY="0"
       refX="0"
       id="Arrow1Mstart"
       style="overflow:visible">
      <path
         id="path4115"
         d="M 0,0 5,-5 -12.5,0 5,5 0,0 z"
         style="fill-rule:evenodd;stroke:#000000;stroke-width:1pt"
         transform="matrix(0.4,0,0,0.4,4,0)"
         inkscape:connector-curvature="0" />
    </marker>
    <marker
       inkscape:stockid="Arrow1Send"
       orient="auto"
       refY="0"
       refX="0"
       id="Arrow1Send"
       style="overflow:visible">
      <path
         id="path3863"
         d="M 0,0 5,-5 -12.5,0 5,5 0,0 z"
         style="fill-rule:evenodd;stroke:#000000;stroke-width:1pt"
         transform="matrix(-0.2,0,0,-0.2,-1.2,0)"
         inkscape:connector-curvature="0" />
    </marker>
    <radialGradient
       inkscape:collect="always"
       xlink:href="#linearGradient5465-03-0-8-6-9-8-6"
       id="radialGradient3194-0-0-6"
       gradientUnits="userSpaceOnUse"
       gradientTransform="matrix(-1.2141703,-0.3374805,-0.2313312,0.8322719,604.01264,128.99733)"
       cx="212.99527"
       cy="342.63647"
       fx="212.99527"
       fy="342.63647"
       r="46.492542" />
    <linearGradient
       id="linearGradient5465-03-0-8-6-9-8-6">
      <stop
         style="stop-color:#ffffff;stop-opacity:1;"
         offset="0"
         id="stop5467-3-4-5-6-3-3-2" />
      <stop
         style="stop-color:#cc7aaa;stop-opacity:1;"
         offset="1"
         id="stop5469-3-4-9-5-2-0-6" />
    </linearGradient>
    <linearGradient
       inkscape:collect="always"
       xlink:href="#linearGradient5459-6-9-4-4-6-6-6"
       id="linearGradient3196-2-7-1"
       gradientUnits="userSpaceOnUse"
       gradientTransform="matrix(-1,0,0,1,479.13287,1.691221)"
       x1="250.83124"
       y1="349.88623"
       x2="241.00351"
       y2="317.9021" />
    <linearGradient
       id="linearGradient5459-6-9-4-4-6-6-6">
      <stop
         style="stop-color:#127bca;stop-opacity:1;"
         offset="0"
         id="stop5461-3-8-7-4-4-0-9" />
      <stop
         style="stop-color:#dfeff7;stop-opacity:1;"
         offset="1"
         id="stop5463-51-9-3-7-1-6-8" />
    </linearGradient>
    <radialGradient
       inkscape:collect="always"
       xlink:href="#linearGradient3215-06-6-1-9-3-5-3"
       id="radialGradient3198-7-2-6"
       gradientUnits="userSpaceOnUse"
       cx="438.74796"
       cy="332.53036"
       fx="438.74796"
       fy="332.53036"
       r="49.090309" />
    <linearGradient
       id="linearGradient3215-06-6-1-9-3-5-3"
       inkscape:collect="always">
      <stop
         id="stop3217-0-3-4-8-7-5-4"
         offset="0"
         style="stop-color:#ffccaa;stop-opacity:1;" />
      <stop
         id="stop3219-5-2-7-6-8-5-6"
         offset="1"
         style="stop-color:#fa9351;stop-opacity:1" />
    </linearGradient>
    <radialGradient
       inkscape:collect="always"
       xlink:href="#linearGradient5451-8-6-7-7-7-1-0"
       id="radialGradient3200-2-2-1"
       gradientUnits="userSpaceOnUse"
       gradientTransform="matrix(-1,0,0,0.8475176,484.20653,41.219128)"
       cx="211.49677"
       cy="261.49875"
       fx="211.49677"
       fy="261.49875"
       r="45.738976" />
    <linearGradient
       id="linearGradient5451-8-6-7-7-7-1-0"
       inkscape:collect="always">
      <stop
         id="stop5453-8-5-8-3-2-4-3"
         offset="0"
         style="stop-color:#e4b762;stop-opacity:1" />
      <stop
         id="stop5455-1-0-4-3-1-9-9"
         offset="1"
         style="stop-color:#85724f;stop-opacity:1" />
    </linearGradient>
    <radialGradient
       inkscape:collect="always"
       xlink:href="#linearGradient3275-9-0-1-4-9-0"
       id="radialGradient3202-8-8-4"
       gradientUnits="userSpaceOnUse"
       gradientTransform="matrix(1,0,0,1.0645162,0,-3.5321331)"
       cx="34.488853"
       cy="54.748039"
       fx="34.488853"
       fy="54.748039"
       r="7.4766045" />
    <linearGradient
       id="linearGradient3275-9-0-1-4-9-0"
       inkscape:collect="always">
      <stop
         id="stop3277-1-8-4-4-4-7"
         offset="0"
         style="stop-color:#6e6e6e;stop-opacity:1" />
      <stop
         id="stop3279-4-4-2-8-9-3"
         offset="1"
         style="stop-color:#292929;stop-opacity:1" />
    </linearGradient>
    <radialGradient
       inkscape:collect="always"
       xlink:href="#linearGradient3275-9-0-1-4-9-0"
       id="radialGradient3204-7-5-8"
       gradientUnits="userSpaceOnUse"
       gradientTransform="matrix(1,0,0,1.0645162,0,-3.5321331)"
       cx="34.488853"
       cy="54.748039"
       fx="34.488853"
       fy="54.748039"
       r="7.4766045" />
  </defs>
  <sodipodi:namedview
     id="base"
     pagecolor="#ffffff"
     bordercolor="#666666"
     borderopacity="1.0"
     inkscape:pageopacity="0.0"
     inkscape:pageshadow="2"
     inkscape:zoom="1.4"
     inkscape:cx="343.69214"
     inkscape:cy="194.47247"
     inkscape:document-units="px"
     inkscape:current-layer="g4771"
     showgrid="false"
     fit-margin-top="1"
     fit-margin-left="1"
     fit-margin-right="1"
     fit-margin-bottom="1"
     inkscape:window-width="1920"
     inkscape:window-height="1056"
     inkscape:window-x="0"
     inkscape:window-y="24"
     inkscape:window-maximized="1" />
  <metadata
     id="metadata7">
    <rdf:RDF>
      <cc:Work
         rdf:about="">
        <dc:format>image/svg+xml</dc:format>
        <dc:type
           rdf:resource="http://purl.org/dc/dcmitype/StillImage" />
        <dc:title />
      </cc:Work>
    </rdf:RDF>
  </metadata>
  <g
     inkscape:groupmode="layer"
     id="layer5"
     inkscape:label="algorithm &lt;1&gt;"
     transform="translate(950.11517,4.8266185)"
     style="display:inline"
     sodipodi:insensitive="true" />
  <g
     inkscape:groupmode="layer"
     id="layer1"
     inkscape:label="figure &lt;2-&gt;"
     style="display:inline"
     sodipodi:insensitive="true"
     transform="translate(767.92859,116.71428)">
    <path
       sodipodi:nodetypes="cc"
       inkscape:connector-curvature="0"
       id="path4488"
       d="M -269.05164,-35.775127 -51.905917,-1.0199203"
       style="fill:none;stroke:#000000;stroke-width:1.66349661;stroke-linecap:butt;stroke-linejoin:miter;stroke-miterlimit:4;stroke-opacity:1;stroke-dasharray:3.32699329, 1.66349664;stroke-dashoffset:0;marker-end:none;display:inline" />
    <path
       style="fill:none;stroke:#000000;stroke-width:1.66349661px;stroke-linecap:butt;stroke-linejoin:miter;stroke-opacity:1;marker-end:url(#Arrow1Send);display:inline"
       d="m -269.05164,-35.775127 94.75989,15.149702"
       id="path4032"
       inkscape:connector-curvature="0"
       sodipodi:nodetypes="cc" />
    <text
       xml:space="preserve"
       style="font-size:13.30797291px;font-style:normal;font-variant:normal;font-weight:normal;font-stretch:normal;text-align:center;line-height:125%;letter-spacing:0px;word-spacing:0px;text-anchor:middle;fill:#000000;fill-opacity:1;stroke:none;display:inline;font-family:DejaVu Sans;-inkscape-font-specification:DejaVu Sans"
       x="-219.20164"
       y="-10.082713"
       id="text4482"
       sodipodi:linespacing="125%"><tspan
         sodipodi:role="line"
         id="tspan4484"
         x="-219.20164"
         y="-10.082713">current</tspan><tspan
         sodipodi:role="line"
         x="-219.20164"
         y="6.5522528"
         id="tspan4486">velocity</tspan></text>
    <g
       style="display:inline"
       inkscape:label="Layer 1"
       id="layer1-4"
       transform="matrix(-0.67679246,0,0,0.67679246,-100.30953,-272.4296)">
      <path
         inkscape:connector-curvature="0"
         style="fill:url(#radialGradient3194-0-0-6);fill-opacity:1;fill-rule:evenodd;stroke:#383838;stroke-width:3.37548995;stroke-linecap:butt;stroke-linejoin:miter;stroke-miterlimit:4;stroke-opacity:1;stroke-dasharray:none"
         d="m 249.16416,290.84494 c 29.16762,0.82788 52.04657,48.59132 41.25726,64.78842 -10.78929,16.1971 -74.10016,16.1971 -84.41448,0 -10.31431,-16.1971 13.04054,-65.64324 43.15722,-64.78842 z"
         id="path7363-6"
         sodipodi:nodetypes="cssz" />
      <path
         inkscape:connector-curvature="0"
         style="fill:url(#linearGradient3196-2-7-1);fill-opacity:1;fill-rule:evenodd;stroke:#383838;stroke-width:3.07961988;stroke-linecap:butt;stroke-linejoin:miter;stroke-miterlimit:4;stroke-opacity:1;stroke-dasharray:none"
         d="m 246.97821,320.14762 -6.89459,7.16271 3.89488,23.0917 -16.9692,9.76515 -6.34956,-15.47521 12.06165,-18.56007 -2.55204,-9.69706 16.80886,3.71278 z"
         id="path7365-1"
         sodipodi:nodetypes="cccccccc" />
      <path
         sodipodi:type="arc"
         style="fill:url(#radialGradient3198-7-2-6);fill-opacity:1;fill-rule:evenodd;stroke:#383838;stroke-width:5.00003576;stroke-linecap:butt;stroke-linejoin:miter;stroke-miterlimit:4;stroke-opacity:1;stroke-dasharray:none"
         id="path7367-7"
         sodipodi:cx="450.37299"
         sodipodi:cy="320.73038"
         sodipodi:rx="46.590309"
         sodipodi:ry="46.590309"
         d="m 496.96329,320.73038 c 0,25.73111 -20.85919,46.59031 -46.5903,46.59031 -25.73112,0 -46.59031,-20.8592 -46.59031,-46.59031 0,-25.73112 20.85919,-46.59031 46.59031,-46.59031 25.73111,0 46.5903,20.85919 46.5903,46.59031 z"
         transform="matrix(0.778675,0,0,0.869413,-104.19713,1.609961)" />
      <path
         inkscape:connector-curvature="0"
         style="fill:url(#radialGradient3200-2-2-1);fill-opacity:1;fill-rule:evenodd;stroke:#383838;stroke-width:3.87308121;stroke-linecap:butt;stroke-linejoin:miter;stroke-miterlimit:4;stroke-opacity:1;stroke-dasharray:none"
         d="m 261.32487,261.04504 c 0,0 -13.3262,14.15253 -28.19148,14.15253 -13.98097,0 -27.62058,-10.22613 -27.62058,-10.22613 0,0 7.11866,-28.44437 29.78608,-30.97224 22.63369,-2.52412 48.84831,3.92887 56.15342,29.63581 7.39063,26.00787 -12.21234,43.51357 -12.21234,43.51357 l -6.13393,-27.11738 -8.16006,0.20892 -3.62111,-19.19508 z"
         id="path7441-1"
         sodipodi:nodetypes="czczzcccc" />
      <path
         inkscape:connector-curvature="0"
         style="fill:#fa9e62;fill-opacity:1;fill-rule:evenodd;stroke:#383838;stroke-width:3.87308121;stroke-linecap:butt;stroke-linejoin:miter;stroke-miterlimit:4;stroke-opacity:1"
         d="m 266.81768,282.19115 c 2.84209,-8.04979 12.39065,-5.30532 12.92512,3.6066 0.60899,10.1546 -12.08342,11.87471 -12.08342,11.87471"
         id="path7443-6"
         sodipodi:nodetypes="csc" />
      <path
         sodipodi:open="true"
         sodipodi:end="6.2750861"
         sodipodi:start="0"
         transform="matrix(-1.2272275,0,0,1.1528501,291.6728,225.04329)"
         d="m 41.965458,54.748039 c 0,4.395616 -3.34739,7.958967 -7.476605,7.958967 -4.129214,0 -7.476604,-3.563351 -7.476604,-7.958967 0,-4.395615 3.34739,-7.958966 7.476604,-7.958966 4.105587,0 7.443108,3.524186 7.47636,7.894506"
         sodipodi:ry="7.9589663"
         sodipodi:rx="7.4766045"
         sodipodi:cy="54.748039"
         sodipodi:cx="34.488853"
         id="path3271-0"
         style="fill:#ffffff;fill-opacity:1;fill-rule:evenodd;stroke:none;display:inline"
         sodipodi:type="arc" />
      <path
         sodipodi:open="true"
         sodipodi:end="6.2750861"
         sodipodi:start="0"
         transform="matrix(-0.81815179,0,0,0.74323901,274.50573,247.67027)"
         d="m 41.965458,54.748039 c 0,4.395616 -3.34739,7.958967 -7.476605,7.958967 -4.129214,0 -7.476604,-3.563351 -7.476604,-7.958967 0,-4.395615 3.34739,-7.958966 7.476604,-7.958966 4.105587,0 7.443108,3.524186 7.47636,7.894506"
         sodipodi:ry="7.9589663"
         sodipodi:rx="7.4766045"
         sodipodi:cy="54.748039"
         sodipodi:cx="34.488853"
         id="path3273-3"
         style="fill:url(#radialGradient3202-8-8-4);fill-opacity:1;fill-rule:evenodd;stroke:none;display:inline"
         sodipodi:type="arc" />
      <path
         sodipodi:open="true"
         sodipodi:end="6.2750861"
         sodipodi:start="0"
         transform="matrix(-0.29750968,0,0,0.27947876,254.88112,272.30255)"
         d="m 41.965458,54.748039 c 0,4.395616 -3.34739,7.958967 -7.476605,7.958967 -4.129214,0 -7.476604,-3.563351 -7.476604,-7.958967 0,-4.395615 3.34739,-7.958966 7.476604,-7.958966 4.105587,0 7.443108,3.524186 7.47636,7.894506"
         sodipodi:ry="7.9589663"
         sodipodi:rx="7.4766045"
         sodipodi:cy="54.748039"
         sodipodi:cx="34.488853"
         id="path3283-8"
         style="fill:#ffffff;fill-opacity:1;fill-rule:evenodd;stroke:none;display:inline"
         sodipodi:type="arc" />
      <path
         sodipodi:open="true"
         sodipodi:end="6.2750861"
         sodipodi:start="0"
         transform="matrix(-1.2272275,0,0,1.1528501,263.5562,223.1783)"
         d="m 41.965458,54.748039 c 0,4.395616 -3.34739,7.958967 -7.476605,7.958967 -4.129214,0 -7.476604,-3.563351 -7.476604,-7.958967 0,-4.395615 3.34739,-7.958966 7.476604,-7.958966 4.105587,0 7.443108,3.524186 7.47636,7.894506"
         sodipodi:ry="7.9589663"
         sodipodi:rx="7.4766045"
         sodipodi:cy="54.748039"
         sodipodi:cx="34.488853"
         id="path3285-7"
         style="fill:#ffffff;fill-opacity:1;fill-rule:evenodd;stroke:none;display:inline"
         sodipodi:type="arc" />
      <path
         sodipodi:open="true"
         sodipodi:end="6.2750861"
         sodipodi:start="0"
         transform="matrix(-0.81815179,0,0,0.74323901,246.38913,245.80528)"
         d="m 41.965458,54.748039 c 0,4.395616 -3.34739,7.958967 -7.476605,7.958967 -4.129214,0 -7.476604,-3.563351 -7.476604,-7.958967 0,-4.395615 3.34739,-7.958966 7.476604,-7.958966 4.105587,0 7.443108,3.524186 7.47636,7.894506"
         sodipodi:ry="7.9589663"
         sodipodi:rx="7.4766045"
         sodipodi:cy="54.748039"
         sodipodi:cx="34.488853"
         id="path3287-6"
         style="fill:url(#radialGradient3204-7-5-8);fill-opacity:1;fill-rule:evenodd;stroke:none;display:inline"
         sodipodi:type="arc" />
      <path
         sodipodi:open="true"
         sodipodi:end="6.2750861"
         sodipodi:start="0"
         transform="matrix(-0.29750968,0,0,0.27947876,226.76454,270.43756)"
         d="m 41.965458,54.748039 c 0,4.395616 -3.34739,7.958967 -7.476605,7.958967 -4.129214,0 -7.476604,-3.563351 -7.476604,-7.958967 0,-4.395615 3.34739,-7.958966 7.476604,-7.958966 4.105587,0 7.443108,3.524186 7.47636,7.894506"
         sodipodi:ry="7.9589663"
         sodipodi:rx="7.4766045"
         sodipodi:cy="54.748039"
         sodipodi:cx="34.488853"
         id="path3289-5"
         style="fill:#ffffff;fill-opacity:1;fill-rule:evenodd;stroke:none;display:inline"
         sodipodi:type="arc" />
      <path
         sodipodi:open="true"
         sodipodi:end="6.2750861"
         sodipodi:start="0"
         transform="matrix(-0.18594354,0,0,0.19214161,254.64794,280.55968)"
         d="m 41.965458,54.748039 c 0,4.395616 -3.34739,7.958967 -7.476605,7.958967 -4.129214,0 -7.476604,-3.563351 -7.476604,-7.958967 0,-4.395615 3.34739,-7.958966 7.476604,-7.958966 4.105587,0 7.443108,3.524186 7.47636,7.894506"
         sodipodi:ry="7.9589663"
         sodipodi:rx="7.4766045"
         sodipodi:cy="54.748039"
         sodipodi:cx="34.488853"
         id="path3293-9"
         style="opacity:0.84513275;fill:#ffffff;fill-opacity:1;fill-rule:evenodd;stroke:none;display:inline"
         sodipodi:type="arc" />
      <path
         sodipodi:open="true"
         sodipodi:end="6.2750861"
         sodipodi:start="0"
         transform="matrix(-0.18594354,0,0,0.19214161,225.97523,279.11175)"
         d="m 41.965458,54.748039 c 0,4.395616 -3.34739,7.958967 -7.476605,7.958967 -4.129214,0 -7.476604,-3.563351 -7.476604,-7.958967 0,-4.395615 3.34739,-7.958966 7.476604,-7.958966 4.105587,0 7.443108,3.524186 7.47636,7.894506"
         sodipodi:ry="7.9589663"
         sodipodi:rx="7.4766045"
         sodipodi:cy="54.748039"
         sodipodi:cx="34.488853"
         id="path3295-3"
         style="opacity:0.84513275;fill:#ffffff;fill-opacity:1;fill-rule:evenodd;stroke:none;display:inline"
         sodipodi:type="arc" />
    </g>
  </g>
  <g
     inkscape:label="center &lt;3-&gt;"
     id="g3995"
     inkscape:groupmode="layer"
     style="display:inline"
     sodipodi:insensitive="true"
     transform="translate(767.92859,116.71428)">
    <path
       sodipodi:open="true"
       sodipodi:end="6.2750861"
       sodipodi:start="0"
       transform="matrix(1.6634966,0,0,1.6634966,-308.31748,-124.03176)"
       d="m 104.64286,65.821175 c 0,1.183467 -0.95939,2.142857 -2.14286,2.142857 -1.18347,0 -2.14286,-0.95939 -2.14286,-2.142857 0,-1.183468 0.95939,-2.142857 2.14286,-2.142857 1.1767,0 2.13326,0.948845 2.14279,2.125501"
       sodipodi:ry="2.1428571"
       sodipodi:rx="2.1428571"
       sodipodi:cy="65.821175"
       sodipodi:cx="102.5"
       id="path4011"
       style="fill:#000000;fill-opacity:1;stroke:none;display:inline"
       sodipodi:type="arc" />
  </g>
  <g
     style="display:inline"
     inkscape:groupmode="layer"
     id="g4069"
     inkscape:label="center explanations &lt;3&gt;"
     sodipodi:insensitive="true"
     transform="translate(767.92859,116.71428)">
    <text
       xml:space="preserve"
       style="font-size:13.30797291px;font-style:normal;font-variant:normal;font-weight:normal;font-stretch:normal;text-align:center;line-height:125%;letter-spacing:0px;word-spacing:0px;text-anchor:middle;fill:#000000;fill-opacity:1;stroke:none;display:inline;font-family:DejaVu Sans;-inkscape-font-specification:DejaVu Sans"
       x="-184.64285"
       y="-70.351143"
       id="text4482-8"
       sodipodi:linespacing="125%"><tspan
         sodipodi:role="line"
         x="-184.64285"
         y="-70.351143"
         id="tspan4486-1">circle</tspan><tspan
         sodipodi:role="line"
         x="-184.64285"
         y="-53.716175"
         id="tspan4099">distance</tspan></text>
    <path
       style="fill:none;stroke:#000000;stroke-width:1px;stroke-linecap:butt;stroke-linejoin:miter;stroke-opacity:1"
       d="m -137.5,-14.714528 4.28571,-29.821428"
       id="path4101"
       inkscape:connector-curvature="0" />
    <path
       style="fill:none;stroke:#000000;stroke-width:1px;stroke-linecap:butt;stroke-linejoin:miter;stroke-opacity:1;marker-start:url(#Arrow1Mstart);marker-end:url(#Arrow1Mend)"
       d="M -135.56964,-35.166883 -238.6052,-51.415981"
       id="path4103"
       inkscape:connector-curvature="0"
       sodipodi:nodetypes="cc" />
    <text
       xml:space="preserve"
       style="font-size:13.30797291px;font-style:normal;font-variant:normal;font-weight:normal;font-stretch:normal;text-align:center;line-height:125%;letter-spacing:0px;word-spacing:0px;text-anchor:middle;fill:#000000;fill-opacity:1;stroke:none;display:inline;font-family:DejaVu Sans;-inkscape-font-specification:DejaVu Sans"
       x="-137.87015"
       y="4.6078095"
       id="text4482-8-8"
       sodipodi:linespacing="125%"><tspan
         sodipodi:role="line"
         x="-137.87015"
         y="4.6078095"
         id="tspan4099-0">center</tspan></text>
    <rect
       style="fill:none;stroke:#a20d59;stroke-width:1;stroke-miterlimit:4;stroke-opacity:1;stroke-dasharray:none;stroke-dashoffset:0"
       id="rect4769"
       width="463.57144"
       height="39.285713"
       x="-766.42859"
       y="67.964043" />
  </g>
  <g
     style="display:inline"
     inkscape:groupmode="layer"
     id="g4051"
     inkscape:label="circle &lt;4-&gt;"
     sodipodi:insensitive="true"
     transform="translate(767.92859,116.71428)">
    <path
       sodipodi:open="true"
       sodipodi:end="12.558271"
       sodipodi:start="6.2762953"
       transform="matrix(1.6634966,0,0,1.6634966,-476.92629,-157.09651)"
       d="m 231.60649,85.185692 c 0.10532,15.286088 -12.20112,27.763298 -27.48721,27.868618 -15.28609,0.10532 -27.7633,-12.20112 -27.86862,-27.48721 -0.10532,-15.28609 12.20112,-27.763296 27.48721,-27.868619 15.27302,-0.105232 27.74466,12.180853 27.86837,27.453732"
       sodipodi:ry="27.678572"
       sodipodi:rx="27.678572"
       sodipodi:cy="85.376396"
       sodipodi:cx="203.92857"
       id="path4061"
       style="opacity:0.4982079;fill:none;stroke:#a20d59;stroke-width:1;stroke-miterlimit:4;stroke-opacity:1;stroke-dasharray:none;stroke-dashoffset:0;display:inline"
       sodipodi:type="arc" />
  </g>
  <g
     inkscape:label="no_rotation_displacement &lt;4&gt;"
     id="g4771"
     inkscape:groupmode="layer"
     style="display:inline"
     transform="translate(767.92859,116.71428)"
     sodipodi:insensitive="true">
    <g
       inkscape:transform-center-y="4.5268715"
       inkscape:transform-center-x="-22.003546"
       transform="matrix(-1.6445196,-0.25055225,-0.25055225,1.6445196,-134.35035,-283.73223)"
       id="g4773"
       style="display:inline">
      <path
         style="fill:#800000;stroke:#800000;stroke-width:1px;stroke-linecap:butt;stroke-linejoin:miter;stroke-opacity:1;marker-end:none;display:inline"
         d="m -48.920485,160.38125 26.663434,-0.0155"
         id="path4775"
         inkscape:connector-curvature="0"
         sodipodi:nodetypes="cc" />
      <path
         inkscape:transform-center-y="-9.2952"
         inkscape:transform-center-x="-9.283659"
         style="fill:#800000;stroke:#800000;stroke-width:1px;stroke-linecap:butt;stroke-linejoin:miter;stroke-opacity:1;marker-end:none;display:inline"
         d="m -49.061668,160.71974 2.097618,-2.11017"
         id="path4777"
         inkscape:connector-curvature="0"
         sodipodi:nodetypes="cc" />
      <path
         sodipodi:nodetypes="cc"
         inkscape:connector-curvature="0"
         id="path4779"
         d="m -49.061668,160.04131 2.097618,2.11017"
         style="fill:#800000;stroke:#800000;stroke-width:1px;stroke-linecap:butt;stroke-linejoin:miter;stroke-opacity:1;marker-end:none;display:inline"
         inkscape:transform-center-x="-9.283659"
         inkscape:transform-center-y="9.2952" />
    </g>
    <text
       sodipodi:linespacing="125%"
       id="text4783"
       y="13.978402"
       x="-126.24435"
       style="font-size:13.30797291px;font-style:normal;font-variant:normal;font-weight:normal;font-stretch:normal;text-align:center;line-height:125%;letter-spacing:0px;word-spacing:0px;text-anchor:middle;fill:#800000;fill-opacity:1;stroke:none;display:inline;font-family:DejaVu Sans;-inkscape-font-specification:DejaVu Sans"
       xml:space="preserve"><tspan
         id="tspan4785"
         y="13.978402"
         x="-126.24435"
         sodipodi:role="line">displacement</tspan></text>
    <rect
       style="fill:none;stroke:#a20d59;stroke-width:1;stroke-miterlimit:4;stroke-opacity:1;stroke-dasharray:none;stroke-dashoffset:0;display:inline"
       id="rect4769-0"
       width="495"
       height="39.285713"
       x="-766.42859"
       y="109.96404" />
  </g>
  <g
     style="display:inline"
     inkscape:groupmode="layer"
     id="g4787"
     inkscape:label="displacement &lt;5-&gt;"
     sodipodi:insensitive="true"
     transform="translate(767.92859,116.71428)">
    <g
       style="display:inline"
       id="g4789"
       transform="matrix(-1.2001937,1.151849,1.151849,1.2001937,-349.35689,-181.18849)"
       inkscape:transform-center-x="-16.212984"
       inkscape:transform-center-y="-15.593023">
      <path
         sodipodi:nodetypes="cc"
         inkscape:connector-curvature="0"
         id="path4791"
         d="m -48.920485,160.38125 26.663434,-0.0155"
         style="fill:#800000;stroke:#800000;stroke-width:1px;stroke-linecap:butt;stroke-linejoin:miter;stroke-opacity:1;marker-end:none;display:inline" />
      <path
         sodipodi:nodetypes="cc"
         inkscape:connector-curvature="0"
         id="path4793"
         d="m -49.061668,160.71974 2.097618,-2.11017"
         style="fill:#800000;stroke:#800000;stroke-width:1px;stroke-linecap:butt;stroke-linejoin:miter;stroke-opacity:1;marker-end:none;display:inline"
         inkscape:transform-center-x="-9.283659"
         inkscape:transform-center-y="-9.2952" />
      <path
         inkscape:transform-center-y="9.2952"
         inkscape:transform-center-x="-9.283659"
         style="fill:#800000;stroke:#800000;stroke-width:1px;stroke-linecap:butt;stroke-linejoin:miter;stroke-opacity:1;marker-end:none;display:inline"
         d="m -49.061668,160.04131 2.097618,2.11017"
         id="path4795"
         inkscape:connector-curvature="0"
         sodipodi:nodetypes="cc" />
    </g>
  </g>
  <g
     inkscape:label="displacement explanation &lt;5&gt;"
     id="g4826"
     inkscape:groupmode="layer"
     style="display:inline"
     sodipodi:insensitive="true"
     transform="translate(767.92859,116.71428)">
    <path
       style="fill:none;stroke:#800000;stroke-width:1px;stroke-linecap:butt;stroke-linejoin:miter;stroke-opacity:1"
       d="m -116.92516,-33.651654 c 7.37427,5.277968 10.88561,12.487406 8.83884,22.475894"
       id="path4854"
       inkscape:connector-curvature="0"
       sodipodi:nodetypes="cc" />
    <text
       xml:space="preserve"
       style="font-size:13.30797291px;font-style:normal;font-variant:normal;font-weight:normal;font-stretch:normal;text-align:center;line-height:125%;letter-spacing:0px;word-spacing:0px;text-anchor:middle;fill:#800000;fill-opacity:1;stroke:none;display:inline;font-family:DejaVu Sans;-inkscape-font-specification:DejaVu Sans"
       x="-135.49181"
       y="3.9102468"
       id="text4797-6"
       sodipodi:linespacing="125%"><tspan
         sodipodi:role="line"
         x="-135.49181"
         y="3.9102468"
         id="tspan4877">wandering</tspan><tspan
         sodipodi:role="line"
         x="-135.49181"
         y="20.545214"
         id="tspan4881">Angle</tspan></text>
    <rect
       style="fill:none;stroke:#a20d59;stroke-width:1;stroke-miterlimit:4;stroke-opacity:1;stroke-dasharray:none;stroke-dashoffset:0;display:inline"
       id="rect4769-0-4"
       width="289.14246"
       height="22.947809"
       x="-766.42859"
       y="143.96405" />
    <text
       xml:space="preserve"
       style="font-size:13.30797291px;font-style:normal;font-variant:normal;font-weight:normal;font-stretch:normal;text-align:center;line-height:125%;letter-spacing:0px;word-spacing:0px;text-anchor:middle;fill:#800000;fill-opacity:1;stroke:none;display:inline;font-family:DejaVu Sans;-inkscape-font-specification:DejaVu Sans"
       x="-127.88721"
       y="-69.235893"
       id="text4797"
       sodipodi:linespacing="125%"><tspan
         sodipodi:role="line"
         x="-127.88721"
         y="-69.235893"
         id="tspan4799">displacement</tspan></text>
  </g>
  <g
     style="display:inline"
     inkscape:groupmode="layer"
     id="g4901"
     inkscape:label="wanderingAngle &lt;6&gt;"
     sodipodi:insensitive="true"
     transform="translate(767.92859,116.71428)">
    <path
       sodipodi:nodetypes="cc"
       inkscape:connector-curvature="0"
       id="path4903"
       d="m -116.92516,-33.651654 c 7.37427,5.277968 10.88561,12.487406 8.83884,22.475894"
       style="fill:none;stroke:#800000;stroke-width:1px;stroke-linecap:butt;stroke-linejoin:miter;stroke-opacity:1" />
    <text
       sodipodi:linespacing="125%"
       id="text4905"
       y="52.481674"
       x="-139.77751"
       style="font-size:13.30797291px;font-style:normal;font-variant:normal;font-weight:normal;font-stretch:normal;text-align:center;line-height:125%;letter-spacing:0px;word-spacing:0px;text-anchor:middle;fill:#800000;fill-opacity:1;stroke:none;display:inline;font-family:DejaVu Sans;-inkscape-font-specification:DejaVu Sans"
       xml:space="preserve"><tspan
         id="tspan4907"
         y="52.481674"
         x="-139.77751"
         sodipodi:role="line">New</tspan><tspan
         y="69.116638"
         x="-139.77751"
         sodipodi:role="line"
         id="tspan4931">wandering</tspan><tspan
         id="tspan4909"
         y="85.75161"
         x="-139.77751"
         sodipodi:role="line">Angle</tspan></text>
    <rect
       y="171.96405"
       x="-766.42859"
       height="40.804958"
       width="394.85675"
       id="rect4911"
       style="fill:none;stroke:#a20d59;stroke-width:1;stroke-miterlimit:4;stroke-opacity:1;stroke-dasharray:none;stroke-dashoffset:0;display:inline" />
    <path
       sodipodi:nodetypes="cc"
       inkscape:connector-curvature="0"
       id="path4903-4"
       d="m -125.08975,-37.037356 c 4.83398,0.252135 8.95278,2.649782 12.35819,7.187631"
       style="fill:none;stroke:#800000;stroke-width:5;stroke-linecap:butt;stroke-linejoin:miter;stroke-miterlimit:4;stroke-opacity:1;stroke-dasharray:none;display:inline" />
  </g>
  <g
     inkscape:label="wanderingForce &lt;7&gt;"
     id="g4933"
     inkscape:groupmode="layer"
     style="display:inline"
     sodipodi:insensitive="true"
     transform="translate(767.92859,116.71428)">
    <g
       inkscape:transform-center-y="-15.593023"
       inkscape:transform-center-x="-16.212984"
       transform="matrix(-1.2001937,1.151849,1.151849,1.2001937,-349.35689,-181.18849)"
       id="g4935"
       style="display:inline">
      <g
         id="g4953">
        <path
           sodipodi:nodetypes="cc"
           inkscape:connector-curvature="0"
           id="path4937"
           d="M -48.920485,160.38125 11.10866,109.40673"
           style="fill:#800000;stroke:#000600;stroke-width:1.8034302;stroke-linecap:butt;stroke-linejoin:miter;stroke-miterlimit:4;stroke-opacity:1;stroke-dasharray:none;marker-end:none;display:inline" />
        <path
           sodipodi:nodetypes="cc"
           inkscape:connector-curvature="0"
           id="path4939"
           d="m -48.671302,161.11484 0.140064,-4.47069"
           style="fill:#800000;stroke:#000000;stroke-width:1.8034302;stroke-linecap:butt;stroke-linejoin:miter;stroke-miterlimit:4;stroke-opacity:1;stroke-dasharray:none;marker-end:none;display:inline"
           inkscape:transform-center-x="-9.283659"
           inkscape:transform-center-y="-9.2952" />
        <path
           inkscape:transform-center-y="9.2952"
           inkscape:transform-center-x="-9.283659"
           style="fill:#800000;stroke:#000000;stroke-width:1.8034302;stroke-linecap:butt;stroke-linejoin:miter;stroke-miterlimit:4;stroke-opacity:1;stroke-dasharray:none;marker-end:none;display:inline"
           d="m -49.474945,160.13226 4.238096,0.30063"
           id="path4941"
           inkscape:connector-curvature="0"
           sodipodi:nodetypes="cc" />
      </g>
    </g>
    <text
       xml:space="preserve"
       style="font-size:13.30797291px;font-style:normal;font-variant:normal;font-weight:normal;font-stretch:normal;text-align:center;line-height:125%;letter-spacing:0px;word-spacing:0px;text-anchor:middle;fill:#000000;fill-opacity:1;stroke:none;display:inline;font-family:DejaVu Sans;-inkscape-font-specification:DejaVu Sans"
       x="-168.2404"
       y="-68.543144"
       id="text4797-3"
       sodipodi:linespacing="125%"><tspan
         sodipodi:role="line"
         x="-168.2404"
         y="-68.543144"
         id="tspan4799-2">wandering force</tspan></text>
    <rect
       y="217.96405"
       x="-766.42859"
       height="85.090675"
       width="553.42816"
       id="rect4911-3"
       style="fill:none;stroke:#a20d59;stroke-width:1;stroke-miterlimit:4;stroke-opacity:1;stroke-dasharray:none;stroke-dashoffset:0;display:inline" />
  </g>
</svg>
