<?xml version="1.0" encoding="UTF-8" standalone="no"?>
<!-- Created with Inkscape (http://www.inkscape.org/) -->

<svg
   xmlns:dc="http://purl.org/dc/elements/1.1/"
   xmlns:cc="http://creativecommons.org/ns#"
   xmlns:rdf="http://www.w3.org/1999/02/22-rdf-syntax-ns#"
   xmlns:svg="http://www.w3.org/2000/svg"
   xmlns="http://www.w3.org/2000/svg"
   xmlns:xlink="http://www.w3.org/1999/xlink"
   xmlns:sodipodi="http://sodipodi.sourceforge.net/DTD/sodipodi-0.dtd"
   xmlns:inkscape="http://www.inkscape.org/namespaces/inkscape"
   width="105.6754"
   height="139.4025"
   id="svg2886"
   sodipodi:version="0.32"
   inkscape:version="0.48.4 r9939"
   version="1.0"
   sodipodi:docname="cons-icon.svg"
   inkscape:output_extension="org.inkscape.output.svg.inkscape"
   inkscape:export-filename="C:\Documents and Settings\kachiy\My Documents\My Pictures\people_biz_smile.svg.png"
   inkscape:export-xdpi="204.65918"
   inkscape:export-ydpi="204.65918">
  <defs
     id="defs2888">
    <linearGradient
       id="linearGradient5465">
      <stop
         id="stop5467"
         offset="0"
         style="stop-color:#ffffff;stop-opacity:1;" />
      <stop
         id="stop5469"
         offset="1"
         style="stop-color:#cc7aaa;stop-opacity:1;" />
    </linearGradient>
    <linearGradient
       id="linearGradient5459">
      <stop
         id="stop5461"
         offset="0"
         style="stop-color:#127bca;stop-opacity:1;" />
      <stop
         id="stop5463"
         offset="1"
         style="stop-color:#dfeff7;stop-opacity:1;" />
    </linearGradient>
    <linearGradient
       inkscape:collect="always"
       id="linearGradient5451">
      <stop
         style="stop-color:#e4b762;stop-opacity:1"
         offset="0"
         id="stop5453" />
      <stop
         style="stop-color:#85724f;stop-opacity:1"
         offset="1"
         id="stop5455" />
    </linearGradient>
    <linearGradient
       inkscape:collect="always"
       id="linearGradient3275">
      <stop
         style="stop-color:#6e6e6e;stop-opacity:1"
         offset="0"
         id="stop3277" />
      <stop
         style="stop-color:#292929;stop-opacity:1"
         offset="1"
         id="stop3279" />
    </linearGradient>
    <linearGradient
       inkscape:collect="always"
       id="linearGradient3215">
      <stop
         style="stop-color:#ffccaa;stop-opacity:1;"
         offset="0"
         id="stop3217" />
      <stop
         style="stop-color:#fa9351;stop-opacity:1"
         offset="1"
         id="stop3219" />
    </linearGradient>
    <radialGradient
       inkscape:collect="always"
       xlink:href="#linearGradient3215"
       id="radialGradient3221"
       cx="438.74796"
       cy="332.53036"
       fx="438.74796"
       fy="332.53036"
       r="49.090309"
       gradientUnits="userSpaceOnUse" />
    <radialGradient
       inkscape:collect="always"
       xlink:href="#linearGradient3275"
       id="radialGradient3281"
       cx="34.488853"
       cy="54.748039"
       fx="34.488853"
       fy="54.748039"
       r="7.4766045"
       gradientTransform="matrix(1,0,0,1.0645162,0,-3.5321331)"
       gradientUnits="userSpaceOnUse" />
    <radialGradient
       inkscape:collect="always"
       xlink:href="#linearGradient3275"
       id="radialGradient3291"
       gradientUnits="userSpaceOnUse"
       gradientTransform="matrix(1,0,0,1.0645162,0,-3.5321331)"
       cx="34.488853"
       cy="54.748039"
       fx="34.488853"
       fy="54.748039"
       r="7.4766045" />
    <linearGradient
       inkscape:collect="always"
       xlink:href="#linearGradient5459"
       id="linearGradient5438"
       gradientUnits="userSpaceOnUse"
       gradientTransform="translate(5.073663,1.691221)"
       x1="250.83124"
       y1="349.88623"
       x2="241.00351"
       y2="317.9021" />
    <radialGradient
       inkscape:collect="always"
       xlink:href="#linearGradient5465"
       id="radialGradient5441"
       gradientUnits="userSpaceOnUse"
       gradientTransform="matrix(1.2141703,-0.3374805,0.2313312,0.8322719,-119.80611,128.99733)"
       cx="212.99527"
       cy="342.63647"
       fx="212.99527"
       fy="342.63647"
       r="46.492542" />
    <radialGradient
       inkscape:collect="always"
       xlink:href="#linearGradient5451"
       id="radialGradient5457"
       cx="211.49677"
       cy="261.49875"
       fx="211.49677"
       fy="261.49875"
       r="45.738974"
       gradientTransform="matrix(1,0,0,0.8475176,0,41.219128)"
       gradientUnits="userSpaceOnUse" />
    <radialGradient
       inkscape:collect="always"
       xlink:href="#linearGradient5451"
       id="radialGradient3037"
       gradientUnits="userSpaceOnUse"
       gradientTransform="matrix(-1,0,0,0.8475176,484.20653,41.219128)"
       cx="211.49677"
       cy="261.49875"
       fx="211.49677"
       fy="261.49875"
       r="45.738974" />
    <linearGradient
       inkscape:collect="always"
       xlink:href="#linearGradient5459"
       id="linearGradient3051"
       gradientUnits="userSpaceOnUse"
       gradientTransform="matrix(-1,0,0,1,479.13287,1.691221)"
       x1="250.83124"
       y1="349.88623"
       x2="241.00351"
       y2="317.9021" />
    <radialGradient
       inkscape:collect="always"
       xlink:href="#linearGradient5465"
       id="radialGradient3054"
       gradientUnits="userSpaceOnUse"
       gradientTransform="matrix(-1.2141703,-0.3374805,-0.2313312,0.8322719,604.01264,128.99733)"
       cx="212.99527"
       cy="342.63647"
       fx="212.99527"
       fy="342.63647"
       r="46.492542" />
  </defs>
  <sodipodi:namedview
     id="base"
     pagecolor="#ffffff"
     bordercolor="#666666"
     borderopacity="1.0"
     gridtolerance="10000"
     guidetolerance="10"
     objecttolerance="10"
     inkscape:pageopacity="0.0"
     inkscape:pageshadow="2"
     inkscape:zoom="5.8637074"
     inkscape:cx="29.655023"
     inkscape:cy="71.011376"
     inkscape:document-units="px"
     inkscape:current-layer="layer1"
     showgrid="false"
     inkscape:window-width="1920"
     inkscape:window-height="1056"
     inkscape:window-x="0"
     inkscape:window-y="24"
     showguides="true"
     inkscape:guide-bbox="true"
     inkscape:window-maximized="1" />
  <metadata
     id="metadata2891">
    <rdf:RDF>
      <cc:Work
         rdf:about="">
        <dc:format>image/svg+xml</dc:format>
        <dc:type
           rdf:resource="http://purl.org/dc/dcmitype/StillImage" />
      </cc:Work>
    </rdf:RDF>
  </metadata>
  <g
     inkscape:label="Layer 1"
     inkscape:groupmode="layer"
     id="layer1"
     transform="translate(-189.37882,-230.06643)">
    <path
       inkscape:connector-curvature="0"
       style="fill:url(#radialGradient3054);fill-opacity:1;fill-rule:evenodd;stroke:#383838;stroke-width:3.37548995;stroke-linecap:butt;stroke-linejoin:miter;stroke-miterlimit:4;stroke-opacity:1;stroke-dasharray:none"
       d="m 249.16416,290.84494 c 29.16762,0.82788 52.04657,48.59132 41.25726,64.78842 -10.78929,16.1971 -74.10016,16.1971 -84.41448,0 -10.31431,-16.1971 13.04054,-65.64324 43.15722,-64.78842 z"
       id="path7363"
       sodipodi:nodetypes="cssz" />
    <path
       inkscape:connector-curvature="0"
       style="fill:#ffb07a;fill-opacity:1;fill-rule:evenodd;stroke:#383838;stroke-width:3;stroke-linecap:butt;stroke-linejoin:miter;stroke-miterlimit:4;stroke-opacity:1;stroke-dasharray:none"
       d="m 205.56772,335.73991 c -8.90966,1.94546 -14.91541,-1.41366 -14.91541,-8.4867 0,-7.07305 0.69051,-12.71744 13.86103,-12.48337 12.24545,0.21763 12.12423,7.84618 12.12423,14.91923 l 0,0.10547 c -0.04,4.18309 -0.47242,20.51972 -7.2089,20.35337 -7.20757,-0.17798 -6.21225,-5.66048 -3.86095,-14.408 z"
       id="path8552"
       sodipodi:nodetypes="cssccsc" />
    <path
       inkscape:connector-curvature="0"
       style="fill:url(#linearGradient3051);fill-opacity:1;fill-rule:evenodd;stroke:#383838;stroke-width:3.07961988;stroke-linecap:butt;stroke-linejoin:miter;stroke-miterlimit:4;stroke-opacity:1;stroke-dasharray:none"
       d="m 246.97821,320.14762 -6.89459,7.16271 3.89488,23.0917 -16.9692,9.76515 -6.34956,-15.47521 12.06165,-18.56007 -2.55204,-9.69706 16.80886,3.71278 z"
       id="path7365"
       sodipodi:nodetypes="cccccccc" />
    <path
       sodipodi:type="arc"
       style="fill:url(#radialGradient3221);fill-opacity:1;fill-rule:evenodd;stroke:#383838;stroke-width:5.00003576;stroke-linecap:butt;stroke-linejoin:miter;stroke-miterlimit:4;stroke-opacity:1;stroke-dasharray:none"
       id="path7367"
       sodipodi:cx="450.37299"
       sodipodi:cy="320.73038"
       sodipodi:rx="46.590309"
       sodipodi:ry="46.590309"
       d="m 496.96329,320.73038 a 46.590309,46.590309 0 1 1 -93.18061,0 46.590309,46.590309 0 1 1 93.18061,0 z"
       transform="matrix(0.778675,0,0,0.869413,-104.19713,1.609961)" />
    <path
       style="fill:#ffffff;fill-opacity:1;fill-rule:evenodd;stroke:none"
       d="m 247.31526,288.43198 c 0,4.39561 3.56335,7.95897 7.95896,7.95897 4.39562,0 7.95897,-3.56336 7.95897,-7.95897 -0.85837,-2.67887 -4.52291,-6.03985 -7.95897,-7.95897 -4.37046,0 -7.92331,3.52419 -7.9587,7.89451"
       id="path3271"
       inkscape:connector-curvature="0"
       sodipodi:nodetypes="csccc" />
    <path
       sodipodi:type="arc"
       style="fill:url(#radialGradient3281);fill-opacity:1;fill-rule:evenodd;stroke:none"
       id="path3273"
       sodipodi:cx="34.488853"
       sodipodi:cy="54.748039"
       sodipodi:rx="7.4766045"
       sodipodi:ry="7.9589663"
       d="m 41.965458,54.748039 a 7.4766045,7.9589663 0 1 1 -2.45e-4,-0.06446"
       transform="matrix(-0.7096775,0,0,0.644697,277.6088,254.79931)"
       sodipodi:start="0"
       sodipodi:end="6.2750861"
       sodipodi:open="true" />
    <path
       sodipodi:type="arc"
       style="fill:#ffffff;fill-opacity:1;fill-rule:evenodd;stroke:none"
       id="path3283"
       sodipodi:cx="34.488853"
       sodipodi:cy="54.748039"
       sodipodi:rx="7.4766045"
       sodipodi:ry="7.9589663"
       d="m 41.965458,54.748039 a 7.4766045,7.9589663 0 1 1 -2.45e-4,-0.06446"
       transform="matrix(-0.2580645,0,0,0.2424242,260.58611,276.16573)"
       sodipodi:start="0"
       sodipodi:end="6.2750861"
       sodipodi:open="true" />
    <path
       style="fill:#ffffff;fill-opacity:1;fill-rule:evenodd;stroke:none"
       d="m 216.92649,284.81426 c 0,4.39561 3.56335,7.95897 7.95896,7.95897 4.39562,0 7.95897,-3.56336 7.95897,-7.95897 0,-4.39562 -3.56335,-7.95897 -7.95897,-7.95897 -4.03443,2.0162 -7.83651,4.04493 -7.9587,7.89451"
       id="path3285"
       inkscape:connector-curvature="0"
       sodipodi:nodetypes="csscc" />
    <path
       sodipodi:type="arc"
       style="fill:url(#radialGradient3291);fill-opacity:1;fill-rule:evenodd;stroke:none"
       id="path3287"
       sodipodi:cx="34.488853"
       sodipodi:cy="54.748039"
       sodipodi:rx="7.4766045"
       sodipodi:ry="7.9589663"
       d="m 41.965458,54.748039 a 7.4766045,7.9589663 0 1 1 -2.45e-4,-0.06446"
       transform="matrix(-0.7096775,0,0,0.644697,247.73165,251.69321)"
       sodipodi:start="0"
       sodipodi:end="6.2750861"
       sodipodi:open="true" />
    <path
       sodipodi:type="arc"
       style="fill:#ffffff;fill-opacity:1;fill-rule:evenodd;stroke:none"
       id="path3289"
       sodipodi:cx="34.488853"
       sodipodi:cy="54.748039"
       sodipodi:rx="7.4766045"
       sodipodi:ry="7.9589663"
       d="m 41.965458,54.748039 a 7.4766045,7.9589663 0 1 1 -2.45e-4,-0.06446"
       transform="matrix(-0.2580645,0,0,0.2424242,230.70896,273.05963)"
       sodipodi:start="0"
       sodipodi:end="6.2750861"
       sodipodi:open="true" />
    <path
       sodipodi:type="arc"
       style="opacity:0.84513275;fill:#ffffff;fill-opacity:1;fill-rule:evenodd;stroke:none"
       id="path3293"
       sodipodi:cx="34.488853"
       sodipodi:cy="54.748039"
       sodipodi:rx="7.4766045"
       sodipodi:ry="7.9589663"
       d="m 41.965458,54.748039 a 7.4766045,7.9589663 0 1 1 -2.45e-4,-0.06446"
       transform="matrix(-0.1612903,0,0,0.1666666,260.38384,283.32809)"
       sodipodi:start="0"
       sodipodi:end="6.2750861"
       sodipodi:open="true" />
    <path
       sodipodi:type="arc"
       style="opacity:0.84513275;fill:#ffffff;fill-opacity:1;fill-rule:evenodd;stroke:none"
       id="path3295"
       sodipodi:cx="34.488853"
       sodipodi:cy="54.748039"
       sodipodi:rx="7.4766045"
       sodipodi:ry="7.9589663"
       d="m 41.965458,54.748039 a 7.4766045,7.9589663 0 1 1 -2.45e-4,-0.06446"
       transform="matrix(-0.1612903,0,0,0.1666666,230.02431,280.58376)"
       sodipodi:start="0"
       sodipodi:end="6.2750861"
       sodipodi:open="true" />
    <path
       inkscape:connector-curvature="0"
       style="fill:none;stroke:#383838;stroke-width:4;stroke-linecap:butt;stroke-linejoin:miter;stroke-miterlimit:4;stroke-opacity:1;stroke-dasharray:none"
       d="m 230.29149,311.00576 c 6.99424,-12.05904 20.74155,-1.2059 20.74155,-1.2059"
       id="path3299"
       sodipodi:nodetypes="cc" />
    <path
       inkscape:connector-curvature="0"
       style="fill:url(#radialGradient3037);fill-opacity:1;fill-rule:evenodd;stroke:#383838;stroke-width:3.87308121;stroke-linecap:butt;stroke-linejoin:miter;stroke-miterlimit:4;stroke-opacity:1;stroke-dasharray:none"
       d="m 261.32487,261.04504 c 0,0 -13.3262,14.15253 -28.19148,14.15253 -13.98097,0 -27.62058,-10.22613 -27.62058,-10.22613 0,0 7.11866,-28.44437 29.78608,-30.97224 22.63369,-2.52412 48.84831,3.92887 56.15342,29.63581 7.39063,26.00787 -12.21234,43.51357 -12.21234,43.51357 l -6.13393,-27.11738 -8.16006,0.20892 -3.62111,-19.19508 z"
       id="path7441"
       sodipodi:nodetypes="czczzcccc" />
    <path
       inkscape:connector-curvature="0"
       style="fill:#fa9e62;fill-opacity:1;fill-rule:evenodd;stroke:#383838;stroke-width:3.87308121;stroke-linecap:butt;stroke-linejoin:miter;stroke-miterlimit:4;stroke-opacity:1"
       d="m 266.81768,282.19115 c 2.84209,-8.04979 12.39065,-5.30532 12.92512,3.6066 0.60899,10.1546 -12.08342,11.87471 -12.08342,11.87471"
       id="path7443"
       sodipodi:nodetypes="csc" />
  </g>
</svg>
