<?xml version="1.0" encoding="UTF-8" standalone="no"?>
<!-- Created with Inkscape (http://www.inkscape.org/) -->

<svg
   xmlns:dc="http://purl.org/dc/elements/1.1/"
   xmlns:cc="http://creativecommons.org/ns#"
   xmlns:rdf="http://www.w3.org/1999/02/22-rdf-syntax-ns#"
   xmlns:svg="http://www.w3.org/2000/svg"
   xmlns="http://www.w3.org/2000/svg"
   xmlns:sodipodi="http://sodipodi.sourceforge.net/DTD/sodipodi-0.dtd"
   xmlns:inkscape="http://www.inkscape.org/namespaces/inkscape"
   id="svg2"
   version="1.1"
   inkscape:version="0.48.4 r9939"
   width="94.03157"
   height="92.244492"
   xml:space="preserve"
   sodipodi:docname="ia51logo.svg"><metadata
     id="metadata8"><rdf:RDF><cc:Work
         rdf:about=""><dc:format>image/svg+xml</dc:format><dc:type
           rdf:resource="http://purl.org/dc/dcmitype/StillImage" /><dc:title /></cc:Work></rdf:RDF></metadata><defs
     id="defs6" /><sodipodi:namedview
     pagecolor="#ffffff"
     bordercolor="#666666"
     borderopacity="1"
     objecttolerance="10"
     gridtolerance="10"
     guidetolerance="10"
     inkscape:pageopacity="0"
     inkscape:pageshadow="2"
     inkscape:window-width="1920"
     inkscape:window-height="1056"
     id="namedview4"
     showgrid="false"
     inkscape:zoom="3.1266092"
     inkscape:cx="-5.8738131"
     inkscape:cy="48.108585"
     inkscape:window-x="0"
     inkscape:window-y="24"
     inkscape:window-maximized="1"
     inkscape:current-layer="g10"
     fit-margin-top="0"
     fit-margin-left="0"
     fit-margin-right="0"
     fit-margin-bottom="0" /><g
     id="g10"
     inkscape:groupmode="layer"
     inkscape:label="utbmlogoinv"
     transform="matrix(1.25,0,0,-1.25,0.46075109,75.479774)"><g
       id="g12"
       transform="translate(-0.35261678,0)"><path
         d="m 37.027,46.502 c -7.066,-0.851 -13.57,-0.82 -18.429,-0.086 l 1.683,-12.34 c 3.207,0.278 7.781,0.7 11.024,1.106 13.968,1.734 24.972,6.863 24.492,10.976 -0.098,0.836 -0.664,1.582 -1.613,2.227 4.285,-0.824 7.007,-2.262 7.238,-4.168 C 61.918,40.104 50.629,35.358 36.211,33.623 30.344,32.916 24.867,32.819 20.398,33.229 l 1.668,-12.254 c 2.977,0.265 6.563,0.609 9.239,0.941 13.968,1.738 24.972,6.863 24.492,10.981 -0.098,0.836 -0.664,1.582 -1.613,2.222 4.285,-0.82 7.007,-2.258 7.238,-4.164 0.496,-4.117 -10.793,-8.859 -25.211,-10.597 -5.09,-0.61 -9.887,-0.762 -13.988,-0.528 l 1.453,-10.644 5.097,0 c 0.856,0.078 1.723,0.168 2.606,0.273 13.965,1.738 24.898,6.481 24.418,10.598 -0.098,0.836 -0.664,1.582 -1.613,2.222 4.285,-0.82 7.007,-2.257 7.238,-4.164 0.379,-3.152 -6.164,-6.675 -15.727,-8.929 l 15.746,0 0,45.691 C 58.645,51.401 48.902,47.932 37.027,46.502"
         style="fill:#ffffff;fill-opacity:1;fill-rule:nonzero;stroke:none"
         id="path14"
         inkscape:connector-curvature="0" /><path
         d="m 12.375,32.385 0,-23.199 6.742,0 -6.742,23.199 z"
         style="fill:#ffffff;fill-opacity:1;fill-rule:nonzero;stroke:none"
         id="path16"
         inkscape:connector-curvature="0" /><path
         d="M 29.891,59.916 C 16.859,58.74 7.922,55.756 8.016,52.674 8.02,52.576 8.031,52.483 8.055,52.389 L 8,52.393 23.688,-0.002 16.691,49.151 c 4.11,-0.43 9.371,-0.438 15.09,0.078 13.031,1.179 23.524,4.632 23.43,7.711 -0.094,3.082 -12.285,4.156 -25.32,2.976"
         style="fill:#ffffff;fill-opacity:1;fill-rule:nonzero;stroke:none"
         id="path18"
         inkscape:connector-curvature="0" /></g><text
       xml:space="preserve"
       style="font-size:25.60000038px;font-style:normal;font-variant:normal;font-weight:normal;font-stretch:normal;text-align:center;line-height:125%;letter-spacing:0px;word-spacing:0px;text-anchor:middle;fill:#ffffff;fill-opacity:1;stroke:none;font-family:DejaVu Sans;-inkscape-font-specification:DejaVu Sans"
       x="38.331528"
       y="13.049276"
       id="text2997"
       sodipodi:linespacing="125%"
       transform="scale(1,-1)"><tspan
         sodipodi:role="line"
         id="tspan2999"
         x="38.331528"
         y="13.049276">IA51</tspan></text>
</g></svg>