<?xml version="1.0" encoding="UTF-8" standalone="no"?>
<!-- Created with Inkscape (http://www.inkscape.org/) -->

<svg
   xmlns:dc="http://purl.org/dc/elements/1.1/"
   xmlns:cc="http://creativecommons.org/ns#"
   xmlns:rdf="http://www.w3.org/1999/02/22-rdf-syntax-ns#"
   xmlns:svg="http://www.w3.org/2000/svg"
   xmlns="http://www.w3.org/2000/svg"
   xmlns:sodipodi="http://sodipodi.sourceforge.net/DTD/sodipodi-0.dtd"
   xmlns:inkscape="http://www.inkscape.org/namespaces/inkscape"
   width="1794.5344"
   height="793.04797"
   id="svg2"
   version="1.1"
   inkscape:version="0.48.4 r9939"
   sodipodi:docname="capacities_frames+layers.svg">
  <defs
     id="defs4" />
  <sodipodi:namedview
     id="base"
     pagecolor="#ffffff"
     bordercolor="#666666"
     borderopacity="1.0"
     inkscape:pageopacity="0.0"
     inkscape:pageshadow="2"
     inkscape:zoom="0.7"
     inkscape:cx="713.57997"
     inkscape:cy="304.03687"
     inkscape:document-units="px"
     inkscape:current-layer="g4235"
     showgrid="false"
     fit-margin-top="2"
     fit-margin-left="2"
     fit-margin-right="2"
     fit-margin-bottom="2"
     inkscape:window-width="1920"
     inkscape:window-height="1056"
     inkscape:window-x="0"
     inkscape:window-y="24"
     inkscape:window-maximized="1" />
  <metadata
     id="metadata7">
    <rdf:RDF>
      <cc:Work
         rdf:about="">
        <dc:format>image/svg+xml</dc:format>
        <dc:type
           rdf:resource="http://purl.org/dc/dcmitype/StillImage" />
        <dc:title />
      </cc:Work>
    </rdf:RDF>
  </metadata>
  <g
     inkscape:label="capacity"
     inkscape:groupmode="layer"
     id="layer1"
     transform="translate(104.14599,-155.85321)"
     style="display:inline"
     sodipodi:insensitive="true">
    <path
       style="opacity:0.5;fill:none;stroke:#008000;stroke-width:5;stroke-linecap:butt;stroke-linejoin:miter;stroke-miterlimit:4;stroke-opacity:1;stroke-dasharray:none"
       d="M 811.42857,351.36407 620.00001,80.649779"
       id="path4074"
       inkscape:connector-curvature="0"
       transform="translate(-203.17687,327.5303)"
       sodipodi:nodetypes="cc" />
    <rect
       style="opacity:0.5;fill:none;stroke:#008000;stroke-width:5;stroke-miterlimit:4;stroke-opacity:1;stroke-dasharray:none;stroke-dashoffset:0"
       id="rect3169"
       width="516.96313"
       height="296.32346"
       x="-99.645988"
       y="178.0777"
       ry="0" />
    <text
       xml:space="preserve"
       style="font-size:12px;font-style:normal;font-weight:normal;line-height:125%;letter-spacing:0px;word-spacing:0px;fill:#000000;fill-opacity:1;stroke:none;font-family:Sans"
       x="581.8479"
       y="314.27408"
       id="text3943"
       sodipodi:linespacing="125%"
       transform="translate(-203.17687,327.5303)"><tspan
         sodipodi:role="line"
         id="tspan3945"
         x="581.8479"
         y="314.27408" /></text>
    <flowRoot
       xml:space="preserve"
       id="flowRoot3974"
       style="font-size:12px;font-style:normal;font-weight:normal;line-height:125%;letter-spacing:0px;word-spacing:0px;fill:#000000;fill-opacity:1;stroke:none;font-family:Sans"
       transform="translate(-203.17687,327.5303)"><flowRegion
         id="flowRegion3976"><rect
           id="rect3978"
           width="278.80209"
           height="93.944183"
           x="597.00018"
           y="279.92889" /></flowRegion><flowPara
         id="flowPara3980" /></flowRoot>    <g
       id="g3992"
       transform="translate(92.287936,213.60987)"
       style="stroke-width:0.1;stroke-miterlimit:4;stroke-dasharray:none">
      <rect
         ry="27.274118"
         y="452.8862"
         x="423.32324"
         height="180.02252"
         width="785.62604"
         id="rect3990"
         style="fill:#ffffff;fill-opacity:1;stroke:#008000;stroke-width:3;stroke-miterlimit:4;stroke-opacity:1;stroke-dasharray:none;stroke-dashoffset:0" />
      <text
         sodipodi:linespacing="125%"
         id="text3982"
         y="503.93262"
         x="454.98392"
         style="font-size:40px;font-style:normal;font-weight:normal;line-height:125%;letter-spacing:0px;word-spacing:0px;fill:#000000;fill-opacity:1;stroke:none;font-family:Sans"
         xml:space="preserve"><tspan
           id="tspan3988"
           y="503.93262"
           x="454.98392"
           sodipodi:role="line">Definition of a capacity that permits</tspan><tspan
           y="553.93262"
           x="454.98392"
           sodipodi:role="line"
           id="tspan3895">to an agent to print messages into</tspan><tspan
           y="603.93262"
           x="454.98392"
           sodipodi:role="line"
           id="tspan3897">the log system.</tspan></text>
    </g>
  </g>
  <g
     style="display:inline"
     transform="translate(104.14599,-155.85321)"
     id="g3899"
     inkscape:groupmode="layer"
     inkscape:label="capacity function"
     sodipodi:insensitive="true">
    <path
       sodipodi:nodetypes="cc"
       transform="translate(-203.17687,327.5303)"
       inkscape:connector-curvature="0"
       id="path3901"
       d="M 811.42857,351.36407 611.42858,-9.350221"
       style="opacity:0.5;fill:none;stroke:#008000;stroke-width:5;stroke-linecap:butt;stroke-linejoin:miter;stroke-miterlimit:4;stroke-opacity:1;stroke-dasharray:none" />
    <rect
       ry="0"
       y="252.36342"
       x="-55.360275"
       height="66.323418"
       width="475.53448"
       id="rect3903"
       style="opacity:0.5;fill:none;stroke:#008000;stroke-width:5;stroke-miterlimit:4;stroke-opacity:1;stroke-dasharray:none;stroke-dashoffset:0" />
    <text
       transform="translate(-203.17687,327.5303)"
       sodipodi:linespacing="125%"
       id="text3905"
       y="314.27408"
       x="581.8479"
       style="font-size:12px;font-style:normal;font-weight:normal;line-height:125%;letter-spacing:0px;word-spacing:0px;fill:#000000;fill-opacity:1;stroke:none;font-family:Sans"
       xml:space="preserve"><tspan
         y="314.27408"
         x="581.8479"
         id="tspan3907"
         sodipodi:role="line" /></text>
    <flowRoot
       transform="translate(-203.17687,327.5303)"
       style="font-size:12px;font-style:normal;font-weight:normal;line-height:125%;letter-spacing:0px;word-spacing:0px;fill:#000000;fill-opacity:1;stroke:none;font-family:Sans"
       id="flowRoot3909"
       xml:space="preserve"><flowRegion
         id="flowRegion3911"><rect
           y="279.92889"
           x="597.00018"
           height="93.944183"
           width="278.80209"
           id="rect3913" /></flowRegion><flowPara
         id="flowPara3915" /></flowRoot>    <g
       style="stroke-width:0.1;stroke-miterlimit:4;stroke-dasharray:none"
       transform="translate(92.287936,213.60987)"
       id="g3917">
      <rect
         style="fill:#ffffff;fill-opacity:1;stroke:#008000;stroke-width:3;stroke-miterlimit:4;stroke-opacity:1;stroke-dasharray:none;stroke-dashoffset:0"
         id="rect3919"
         width="689.91168"
         height="128.59392"
         x="423.32324"
         y="452.8862"
         ry="27.274118" />
      <text
         xml:space="preserve"
         style="font-size:40px;font-style:normal;font-weight:normal;line-height:125%;letter-spacing:0px;word-spacing:0px;fill:#000000;fill-opacity:1;stroke:none;font-family:Sans"
         x="454.98392"
         y="503.93262"
         id="text3921"
         sodipodi:linespacing="125%"><tspan
           id="tspan3927"
           sodipodi:role="line"
           x="454.98392"
           y="503.93262">Define a function that could be</tspan><tspan
           sodipodi:role="line"
           x="454.98392"
           y="553.93262"
           id="tspan3934">invoked by the agent.</tspan></text>
    </g>
  </g>
  <g
     inkscape:label="skill"
     inkscape:groupmode="layer"
     id="g3936"
     transform="translate(104.14599,-155.85321)"
     style="display:inline"
     sodipodi:insensitive="true">
    <path
       style="opacity:0.5;fill:none;stroke:#008000;stroke-width:5;stroke-linecap:butt;stroke-linejoin:miter;stroke-miterlimit:4;stroke-opacity:1;stroke-dasharray:none"
       d="M 925.71428,15.649784 660.00001,210.64978"
       id="path3938"
       inkscape:connector-curvature="0"
       transform="translate(-203.17687,327.5303)"
       sodipodi:nodetypes="cc" />
    <rect
       style="opacity:0.5;fill:none;stroke:#008000;stroke-width:5;stroke-miterlimit:4;stroke-opacity:1;stroke-dasharray:none;stroke-dashoffset:0"
       id="rect3940"
       width="554.1059"
       height="96.323425"
       x="-98.217415"
       y="529.50629"
       ry="0" />
    <text
       xml:space="preserve"
       style="font-size:12px;font-style:normal;font-weight:normal;line-height:125%;letter-spacing:0px;word-spacing:0px;fill:#000000;fill-opacity:1;stroke:none;font-family:Sans"
       x="581.8479"
       y="314.27408"
       id="text3942"
       sodipodi:linespacing="125%"
       transform="translate(-203.17687,327.5303)"><tspan
         sodipodi:role="line"
         id="tspan3944"
         x="581.8479"
         y="314.27408" /></text>
    <flowRoot
       xml:space="preserve"
       id="flowRoot3946"
       style="font-size:12px;font-style:normal;font-weight:normal;line-height:125%;letter-spacing:0px;word-spacing:0px;fill:#000000;fill-opacity:1;stroke:none;font-family:Sans"
       transform="translate(-203.17687,327.5303)"><flowRegion
         id="flowRegion3948"><rect
           id="rect3950"
           width="278.80209"
           height="93.944183"
           x="597.00018"
           y="279.92889" /></flowRegion><flowPara
         id="flowPara3952" /></flowRoot>    <g
       id="g3954"
       transform="translate(223.7165,-223.53299)"
       style="stroke-width:0.1;stroke-miterlimit:4;stroke-dasharray:none">
      <rect
         ry="27.274118"
         y="452.8862"
         x="423.32324"
         height="128.59392"
         width="689.91168"
         id="rect3956"
         style="fill:#ffffff;fill-opacity:1;stroke:#008000;stroke-width:3;stroke-miterlimit:4;stroke-opacity:1;stroke-dasharray:none;stroke-dashoffset:0" />
      <text
         sodipodi:linespacing="125%"
         id="text3958"
         y="503.93262"
         x="454.98392"
         style="font-size:40px;font-style:normal;font-weight:normal;line-height:125%;letter-spacing:0px;word-spacing:0px;fill:#000000;fill-opacity:1;stroke:none;font-family:Sans"
         xml:space="preserve"><tspan
           id="tspan3962"
           y="503.93262"
           x="454.98392"
           sodipodi:role="line">Define the skill that implements</tspan><tspan
           y="553.93262"
           x="454.98392"
           sodipodi:role="line"
           id="tspan3966">the Logging capacity.</tspan></text>
    </g>
  </g>
  <g
     style="display:inline"
     transform="translate(104.14599,-155.85321)"
     id="g3968"
     inkscape:groupmode="layer"
     inkscape:label="skill function"
     sodipodi:insensitive="true">
    <path
       sodipodi:nodetypes="cc"
       transform="translate(-203.17687,327.5303)"
       inkscape:connector-curvature="0"
       id="path3970"
       d="M 925.71428,15.649784 674.28572,319.22121"
       style="opacity:0.5;fill:none;stroke:#008000;stroke-width:5;stroke-linecap:butt;stroke-linejoin:miter;stroke-miterlimit:4;stroke-opacity:1;stroke-dasharray:none" />
    <rect
       ry="0"
       y="645.22058"
       x="-62.503128"
       height="299.18057"
       width="536.96307"
       id="rect3972"
       style="opacity:0.5;fill:none;stroke:#008000;stroke-width:5;stroke-miterlimit:4;stroke-opacity:1;stroke-dasharray:none;stroke-dashoffset:0" />
    <text
       transform="translate(-203.17687,327.5303)"
       sodipodi:linespacing="125%"
       id="text3974"
       y="314.27408"
       x="581.8479"
       style="font-size:12px;font-style:normal;font-weight:normal;line-height:125%;letter-spacing:0px;word-spacing:0px;fill:#000000;fill-opacity:1;stroke:none;font-family:Sans"
       xml:space="preserve"><tspan
         y="314.27408"
         x="581.8479"
         id="tspan3976"
         sodipodi:role="line" /></text>
    <flowRoot
       transform="translate(-203.17687,327.5303)"
       style="font-size:12px;font-style:normal;font-weight:normal;line-height:125%;letter-spacing:0px;word-spacing:0px;fill:#000000;fill-opacity:1;stroke:none;font-family:Sans"
       id="flowRoot3978"
       xml:space="preserve"><flowRegion
         id="flowRegion3980"><rect
           y="279.92889"
           x="597.00018"
           height="93.944183"
           width="278.80209"
           id="rect3982" /></flowRegion><flowPara
         id="flowPara3984" /></flowRoot>    <g
       style="stroke-width:0.1;stroke-miterlimit:4;stroke-dasharray:none"
       transform="translate(223.7165,-223.53299)"
       id="g3986">
      <rect
         style="fill:#ffffff;fill-opacity:1;stroke:#008000;stroke-width:3;stroke-miterlimit:4;stroke-opacity:1;stroke-dasharray:none;stroke-dashoffset:0"
         id="rect3988"
         width="689.91162"
         height="334.3082"
         x="423.32324"
         y="452.8862"
         ry="27.274118" />
      <text
         xml:space="preserve"
         style="font-size:40px;font-style:normal;font-weight:normal;line-height:125%;letter-spacing:0px;word-spacing:0px;fill:#000000;fill-opacity:1;stroke:none;font-family:Sans"
         x="454.98392"
         y="503.93262"
         id="text3990"
         sodipodi:linespacing="125%"><tspan
           id="tspan3994"
           sodipodi:role="line"
           x="454.98392"
           y="503.93262">Every function declared into</tspan><tspan
           sodipodi:role="line"
           x="454.98392"
           y="553.93262"
           id="tspan3998">the implemented capacity must</tspan><tspan
           sodipodi:role="line"
           x="454.98392"
           y="603.93262"
           id="tspan4000">be implemented in the skill.</tspan><tspan
           sodipodi:role="line"
           x="454.98392"
           y="653.93262"
           id="tspan4002">The current implementations</tspan><tspan
           sodipodi:role="line"
           x="454.98392"
           y="703.93262"
           id="tspan4004">output the message onto the</tspan><tspan
           sodipodi:role="line"
           x="454.98392"
           y="753.93262"
           id="tspan4006">standard output stream.</tspan></text>
    </g>
  </g>
  <g
     inkscape:label="agent uses"
     inkscape:groupmode="layer"
     id="g4008"
     transform="translate(104.14599,-155.85321)"
     style="display:inline"
     sodipodi:insensitive="true">
    <path
       style="opacity:0.5;fill:none;stroke:#008000;stroke-width:5;stroke-linecap:butt;stroke-linejoin:miter;stroke-miterlimit:4;stroke-opacity:1;stroke-dasharray:none"
       d="M 893.96598,400.32294 722.53742,248.18008"
       id="path4010"
       inkscape:connector-curvature="0"
       sodipodi:nodetypes="cc" />
    <rect
       style="opacity:0.5;fill:none;stroke:#008000;stroke-width:5;stroke-miterlimit:4;stroke-opacity:1;stroke-dasharray:none;stroke-dashoffset:0"
       id="rect4012"
       width="298.39166"
       height="69.180618"
       x="896.0683"
       y="369.50629"
       ry="0" />
    <text
       xml:space="preserve"
       style="font-size:12px;font-style:normal;font-weight:normal;line-height:125%;letter-spacing:0px;word-spacing:0px;fill:#000000;fill-opacity:1;stroke:none;font-family:Sans"
       x="581.8479"
       y="314.27408"
       id="text4014"
       sodipodi:linespacing="125%"
       transform="translate(-203.17687,327.5303)"><tspan
         sodipodi:role="line"
         id="tspan4016"
         x="581.8479"
         y="314.27408" /></text>
    <flowRoot
       xml:space="preserve"
       id="flowRoot4018"
       style="font-size:12px;font-style:normal;font-weight:normal;line-height:125%;letter-spacing:0px;word-spacing:0px;fill:#000000;fill-opacity:1;stroke:none;font-family:Sans"
       transform="translate(-203.17687,327.5303)"><flowRegion
         id="flowRegion4020"><rect
           id="rect4022"
           width="278.80209"
           height="93.944183"
           x="597.00018"
           y="279.92889" /></flowRegion><flowPara
         id="flowPara4024" /></flowRoot>    <g
       id="g4026"
       transform="translate(-389.14064,-293.53299)"
       style="stroke-width:0.1;stroke-miterlimit:4;stroke-dasharray:none">
      <rect
         ry="27.274118"
         y="452.8862"
         x="423.32324"
         height="180.02248"
         width="689.91162"
         id="rect4028"
         style="fill:#ffffff;fill-opacity:1;stroke:#008000;stroke-width:3;stroke-miterlimit:4;stroke-opacity:1;stroke-dasharray:none;stroke-dashoffset:0" />
      <text
         sodipodi:linespacing="125%"
         id="text4030"
         y="503.93262"
         x="454.98392"
         style="font-size:40px;font-style:normal;font-weight:normal;line-height:125%;letter-spacing:0px;word-spacing:0px;fill:#000000;fill-opacity:1;stroke:none;font-family:Sans"
         xml:space="preserve"><tspan
           id="tspan4042"
           y="503.93262"
           x="454.98392"
           sodipodi:role="line">The use of a capacity into the</tspan><tspan
           y="553.93262"
           x="454.98392"
           sodipodi:role="line"
           id="tspan4064">agent code is enabled by the</tspan><tspan
           y="603.93262"
           x="454.98392"
           sodipodi:role="line"
           id="tspan4074">&quot;uses&quot; keyword.</tspan></text>
    </g>
  </g>
  <g
     style="display:inline"
     transform="translate(104.14599,-155.85321)"
     id="g4132"
     inkscape:groupmode="layer"
     inkscape:label="agent function call"
     sodipodi:insensitive="true">
    <path
       sodipodi:nodetypes="cc"
       inkscape:connector-curvature="0"
       id="path4134-4"
       d="M 938.2517,748.89438 655.39457,609.60865"
       style="opacity:0.5;fill:none;stroke:#008000;stroke-width:5;stroke-linecap:butt;stroke-linejoin:miter;stroke-miterlimit:4;stroke-opacity:1;stroke-dasharray:none;display:inline" />
    <path
       sodipodi:nodetypes="cc"
       inkscape:connector-curvature="0"
       id="path4134"
       d="M 938.2517,591.75152 655.39457,609.60865"
       style="opacity:0.5;fill:none;stroke:#008000;stroke-width:5;stroke-linecap:butt;stroke-linejoin:miter;stroke-miterlimit:4;stroke-opacity:1;stroke-dasharray:none" />
    <rect
       ry="0"
       y="558.0777"
       x="940.354"
       height="69.180603"
       width="438.3916"
       id="rect4136"
       style="opacity:0.5;fill:none;stroke:#008000;stroke-width:5;stroke-miterlimit:4;stroke-opacity:1;stroke-dasharray:none;stroke-dashoffset:0" />
    <text
       transform="translate(-203.17687,327.5303)"
       sodipodi:linespacing="125%"
       id="text4138"
       y="314.27408"
       x="581.8479"
       style="font-size:12px;font-style:normal;font-weight:normal;line-height:125%;letter-spacing:0px;word-spacing:0px;fill:#000000;fill-opacity:1;stroke:none;font-family:Sans"
       xml:space="preserve"><tspan
         y="314.27408"
         x="581.8479"
         id="tspan4140"
         sodipodi:role="line" /></text>
    <flowRoot
       transform="translate(-203.17687,327.5303)"
       style="font-size:12px;font-style:normal;font-weight:normal;line-height:125%;letter-spacing:0px;word-spacing:0px;fill:#000000;fill-opacity:1;stroke:none;font-family:Sans"
       id="flowRoot4142"
       xml:space="preserve"><flowRegion
         id="flowRegion4144"><rect
           y="279.92889"
           x="597.00018"
           height="93.944183"
           width="278.80209"
           id="rect4146" /></flowRegion><flowPara
         id="flowPara4148" /></flowRoot>    <g
       style="stroke-width:0.1;stroke-miterlimit:4;stroke-dasharray:none;display:inline"
       transform="translate(-445.28218,60.042063)"
       id="g4162">
      <rect
         style="fill:#ffffff;fill-opacity:1;stroke:#008000;stroke-width:3;stroke-miterlimit:4;stroke-opacity:1;stroke-dasharray:none;stroke-dashoffset:0"
         id="rect4164"
         width="689.91162"
         height="184.3082"
         x="423.32324"
         y="452.8862"
         ry="27.274118" />
      <text
         xml:space="preserve"
         style="font-size:40px;font-style:normal;font-weight:normal;line-height:125%;letter-spacing:0px;word-spacing:0px;fill:#000000;fill-opacity:1;stroke:none;font-family:Sans"
         x="454.98392"
         y="503.93262"
         id="text4166"
         sodipodi:linespacing="125%"><tspan
           id="tspan4176"
           sodipodi:role="line"
           x="454.98392"
           y="503.93262">All functions defined into the</tspan><tspan
           id="tspan4178"
           sodipodi:role="line"
           x="454.98392"
           y="553.93262">used capacities are directly</tspan><tspan
           id="tspan4180"
           sodipodi:role="line"
           x="454.98392"
           y="603.93262">callable from the source code.</tspan></text>
    </g>
    <rect
       ry="0"
       y="714.0777"
       x="940.354"
       height="69.180603"
       width="495.53445"
       id="rect4136-3"
       style="opacity:0.5;fill:none;stroke:#008000;stroke-width:5;stroke-miterlimit:4;stroke-opacity:1;stroke-dasharray:none;stroke-dashoffset:0;display:inline" />
  </g>
  <g
     inkscape:label="set skill"
     inkscape:groupmode="layer"
     id="g4235"
     transform="translate(104.14599,-155.85321)"
     style="display:inline"
     sodipodi:insensitive="true">
    <path
       style="opacity:0.5;fill:none;stroke:#008000;stroke-width:5;stroke-linecap:butt;stroke-linejoin:miter;stroke-miterlimit:4;stroke-opacity:1;stroke-dasharray:none"
       d="M 941.10884,538.89438 655.39457,609.60865"
       id="path4239"
       inkscape:connector-curvature="0"
       sodipodi:nodetypes="cc" />
    <rect
       style="opacity:0.5;fill:none;stroke:#008000;stroke-width:5;stroke-miterlimit:4;stroke-opacity:1;stroke-dasharray:none;stroke-dashoffset:0"
       id="rect4241"
       width="744.10583"
       height="86.323471"
       x="941.78259"
       y="494.64914"
       ry="0" />
    <text
       xml:space="preserve"
       style="font-size:12px;font-style:normal;font-weight:normal;line-height:125%;letter-spacing:0px;word-spacing:0px;fill:#000000;fill-opacity:1;stroke:none;font-family:Sans"
       x="581.8479"
       y="314.27408"
       id="text4243"
       sodipodi:linespacing="125%"
       transform="translate(-203.17687,327.5303)"><tspan
         sodipodi:role="line"
         id="tspan4245"
         x="581.8479"
         y="314.27408" /></text>
    <flowRoot
       xml:space="preserve"
       id="flowRoot4247"
       style="font-size:12px;font-style:normal;font-weight:normal;line-height:125%;letter-spacing:0px;word-spacing:0px;fill:#000000;fill-opacity:1;stroke:none;font-family:Sans"
       transform="translate(-203.17687,327.5303)"><flowRegion
         id="flowRegion4249"><rect
           id="rect4251"
           width="278.80209"
           height="93.944183"
           x="597.00018"
           y="279.92889" /></flowRegion><flowPara
         id="flowPara4253" /></flowRoot>    <g
       id="g4255"
       transform="translate(-445.28218,60.042063)"
       style="stroke-width:0.1;stroke-miterlimit:4;stroke-dasharray:none;display:inline">
      <rect
         ry="27.274118"
         y="452.8862"
         x="423.32324"
         height="291.45105"
         width="689.91162"
         id="rect4257"
         style="fill:#ffffff;fill-opacity:1;stroke:#008000;stroke-width:3;stroke-miterlimit:4;stroke-opacity:1;stroke-dasharray:none;stroke-dashoffset:0" />
      <text
         sodipodi:linespacing="125%"
         id="text4259"
         y="503.93262"
         x="454.98392"
         style="font-size:40px;font-style:normal;font-weight:normal;line-height:125%;letter-spacing:0px;word-spacing:0px;fill:#000000;fill-opacity:1;stroke:none;font-family:Sans"
         xml:space="preserve"><tspan
           y="503.93262"
           x="454.98392"
           sodipodi:role="line"
           id="tspan4265">An agent MUST specify the</tspan><tspan
           y="553.93262"
           x="454.98392"
           sodipodi:role="line"
           id="tspan4274">skill to use for a</tspan><tspan
           y="603.93262"
           x="454.98392"
           sodipodi:role="line"
           id="tspan4276">capacity (except for the</tspan><tspan
           y="653.93262"
           x="454.98392"
           sodipodi:role="line"
           id="tspan4278">buildin skills that are provided</tspan><tspan
           y="703.93262"
           x="454.98392"
           sodipodi:role="line"
           id="tspan4280">by the execution framework)</tspan></text>
    </g>
  </g>
</svg>
