<?xml version="1.0" encoding="UTF-8" standalone="no"?>
<!-- Created with Inkscape (http://www.inkscape.org/) -->

<svg
   xmlns:dc="http://purl.org/dc/elements/1.1/"
   xmlns:cc="http://creativecommons.org/ns#"
   xmlns:rdf="http://www.w3.org/1999/02/22-rdf-syntax-ns#"
   xmlns:svg="http://www.w3.org/2000/svg"
   xmlns="http://www.w3.org/2000/svg"
   xmlns:sodipodi="http://sodipodi.sourceforge.net/DTD/sodipodi-0.dtd"
   xmlns:inkscape="http://www.inkscape.org/namespaces/inkscape"
   width="234.8336mm"
   height="41.821133mm"
   viewBox="0 0 234.83361 41.821133"
   version="1.1"
   id="svg8"
   inkscape:version="0.92.3 (2405546, 2018-03-11)"
   sodipodi:docname="decisiontree_unbalanced.svg">
  <defs
     id="defs2" />
  <sodipodi:namedview
     id="base"
     pagecolor="#ffffff"
     bordercolor="#666666"
     borderopacity="1.0"
     inkscape:pageopacity="0.0"
     inkscape:pageshadow="2"
     inkscape:zoom="1"
     inkscape:cx="226.60711"
     inkscape:cy="-86.702539"
     inkscape:document-units="mm"
     inkscape:current-layer="layer1"
     showgrid="false"
     inkscape:window-width="1920"
     inkscape:window-height="1025"
     inkscape:window-x="0"
     inkscape:window-y="27"
     inkscape:window-maximized="1"
     fit-margin-top="1"
     fit-margin-left="1"
     fit-margin-right="1"
     fit-margin-bottom="1" />
  <metadata
     id="metadata5">
    <rdf:RDF>
      <cc:Work
         rdf:about="">
        <dc:format>image/svg+xml</dc:format>
        <dc:type
           rdf:resource="http://purl.org/dc/dcmitype/StillImage" />
        <dc:title></dc:title>
      </cc:Work>
    </rdf:RDF>
  </metadata>
  <g
     inkscape:label="Calque 1"
     inkscape:groupmode="layer"
     id="layer1"
     transform="translate(109.49922,3.7032746)">
    <path
       style="fill:none;stroke:#000000;stroke-width:0.26458332px;stroke-linecap:butt;stroke-linejoin:miter;stroke-opacity:1"
       d="M -98.386533,4.2889758 H 4.2714963"
       id="path928-2"
       inkscape:connector-curvature="0" />
    <path
       style="fill:none;stroke:#000000;stroke-width:0.26458332px;stroke-linecap:butt;stroke-linejoin:miter;stroke-opacity:1"
       d="M 43.665653,7.6876506 V 27.866495"
       id="path930-9"
       inkscape:connector-curvature="0" />
    <path
       style="fill:none;stroke:#000000;stroke-width:0.26458332px;stroke-linecap:butt;stroke-linejoin:miter;stroke-opacity:1"
       d="M 77.532341,7.6876501 V 27.866495"
       id="path930-9-1"
       inkscape:connector-curvature="0" />
    <path
       style="fill:none;stroke:#000000;stroke-width:0.26458332px;stroke-linecap:butt;stroke-linejoin:miter;stroke-opacity:1"
       d="M 7.5947991,10.298228 V 30.477072"
       id="path930"
       inkscape:connector-curvature="0" />
    <path
       style="fill:none;stroke:#000000;stroke-width:0.26458332px;stroke-linecap:butt;stroke-linejoin:miter;stroke-opacity:1"
       d="M 7.4177161,4.2833227 H 110.07605"
       id="path928"
       inkscape:connector-curvature="0" />
    <g
       id="g845"
       transform="translate(-74.992999,-25.052838)">
      <rect
         transform="rotate(45)"
         y="-42.094864"
         x="74.70192"
         height="8.6934528"
         width="8.6934528"
         id="rect837"
         style="opacity:1;fill:#ffffff;fill-opacity:1;stroke:#000000;stroke-width:1;stroke-miterlimit:4;stroke-dasharray:none;stroke-opacity:1" />
      <text
         id="text841"
         y="31.258524"
         x="82.691147"
         style="font-style:normal;font-weight:normal;font-size:5.64444447px;line-height:1.25;font-family:sans-serif;text-align:center;letter-spacing:0px;word-spacing:0px;text-anchor:middle;fill:#000000;fill-opacity:1;stroke:none;stroke-width:0.26458332"
         xml:space="preserve"><tspan
           style="font-style:normal;font-variant:normal;font-weight:normal;font-stretch:normal;font-size:5.64444447px;font-family:sans-serif;-inkscape-font-specification:sans-serif;text-align:center;text-anchor:middle;stroke-width:0.26458332"
           y="31.258524"
           x="82.691147"
           id="tspan839"
           sodipodi:role="line">C4</tspan></text>
    </g>
    <g
       id="g941"
       transform="translate(43.920837,-51.896129)">
      <rect
         y="77.924995"
         x="24.077084"
         height="10.583328"
         width="19.579166"
         id="rect932"
         style="opacity:1;fill:#ffffff;fill-opacity:1;stroke:#000000;stroke-width:1;stroke-miterlimit:4;stroke-dasharray:none;stroke-opacity:1" />
      <text
         id="text936"
         y="85.53125"
         x="34.136417"
         style="font-style:normal;font-weight:normal;font-size:4.23333311px;line-height:1.25;font-family:sans-serif;letter-spacing:0px;word-spacing:0px;fill:#000000;fill-opacity:1;stroke:none;stroke-width:0.26458332"
         xml:space="preserve"><tspan
           style="font-size:6.3499999px;text-align:center;text-anchor:middle;stroke-width:0.26458332"
           y="85.53125"
           x="34.136417"
           id="tspan934"
           sodipodi:role="line">A6</tspan></text>
    </g>
    <g
       id="g941-3"
       transform="translate(9.7115068,-51.896129)">
      <rect
         y="77.924995"
         x="24.077084"
         height="10.583328"
         width="19.579166"
         id="rect932-6"
         style="opacity:1;fill:#ffffff;fill-opacity:1;stroke:#000000;stroke-width:1;stroke-miterlimit:4;stroke-dasharray:none;stroke-opacity:1" />
      <text
         id="text936-7"
         y="85.53125"
         x="34.136417"
         style="font-style:normal;font-weight:normal;font-size:4.23333311px;line-height:1.25;font-family:sans-serif;letter-spacing:0px;word-spacing:0px;fill:#000000;fill-opacity:1;stroke:none;stroke-width:0.26458332"
         xml:space="preserve"><tspan
           style="font-size:6.3499999px;text-align:center;text-anchor:middle;stroke-width:0.26458332"
           y="85.53125"
           x="34.136417"
           id="tspan934-5"
           sodipodi:role="line">A5</tspan></text>
    </g>
    <g
       id="g941-3-3"
       transform="translate(-26.271868,-51.896129)">
      <rect
         y="77.924995"
         x="24.077084"
         height="10.583328"
         width="19.579166"
         id="rect932-6-5"
         style="opacity:1;fill:#ffffff;fill-opacity:1;stroke:#000000;stroke-width:1;stroke-miterlimit:4;stroke-dasharray:none;stroke-opacity:1" />
      <text
         id="text936-7-6"
         y="85.53125"
         x="34.136417"
         style="font-style:normal;font-weight:normal;font-size:4.23333311px;line-height:1.25;font-family:sans-serif;letter-spacing:0px;word-spacing:0px;fill:#000000;fill-opacity:1;stroke:none;stroke-width:0.26458332"
         xml:space="preserve"><tspan
           style="font-size:6.3499999px;text-align:center;text-anchor:middle;stroke-width:0.26458332"
           y="85.53125"
           x="34.136417"
           id="tspan934-5-2"
           sodipodi:role="line">A4</tspan></text>
    </g>
    <g
       id="g845-3"
       transform="translate(-39.009623,-25.052838)">
      <rect
         transform="rotate(45)"
         y="-42.094864"
         x="74.70192"
         height="8.6934528"
         width="8.6934528"
         id="rect837-6"
         style="opacity:1;fill:#ffffff;fill-opacity:1;stroke:#000000;stroke-width:1;stroke-miterlimit:4;stroke-dasharray:none;stroke-opacity:1" />
      <text
         id="text841-75"
         y="31.258524"
         x="82.691147"
         style="font-style:normal;font-variant:normal;font-weight:normal;font-stretch:normal;font-size:5.64444447px;line-height:1.25;font-family:sans-serif;-inkscape-font-specification:sans-serif;text-align:center;letter-spacing:0px;word-spacing:0px;text-anchor:middle;fill:#000000;fill-opacity:1;stroke:none;stroke-width:0.26458332"
         xml:space="preserve"><tspan
           style="font-style:normal;font-variant:normal;font-weight:normal;font-stretch:normal;font-size:5.64444447px;font-family:sans-serif;-inkscape-font-specification:sans-serif;text-align:center;text-anchor:middle;stroke-width:0.26458332"
           y="31.258524"
           x="82.691147"
           id="tspan839-3"
           sodipodi:role="line">C5</tspan></text>
    </g>
    <g
       id="g845-5"
       transform="translate(-4.8002938,-25.052838)">
      <rect
         transform="rotate(45)"
         y="-42.094864"
         x="74.70192"
         height="8.6934528"
         width="8.6934528"
         id="rect837-62"
         style="opacity:1;fill:#ffffff;fill-opacity:1;stroke:#000000;stroke-width:1;stroke-miterlimit:4;stroke-dasharray:none;stroke-opacity:1" />
      <text
         id="text841-9"
         y="31.258524"
         x="82.691147"
         style="font-style:normal;font-variant:normal;font-weight:normal;font-stretch:normal;font-size:5.64444447px;line-height:1.25;font-family:sans-serif;-inkscape-font-specification:sans-serif;text-align:center;letter-spacing:0px;word-spacing:0px;text-anchor:middle;fill:#000000;fill-opacity:1;stroke:none;stroke-width:0.26458332"
         xml:space="preserve"><tspan
           style="font-style:normal;font-variant:normal;font-weight:normal;font-stretch:normal;font-size:5.64444447px;font-family:sans-serif;-inkscape-font-specification:sans-serif;text-align:center;text-anchor:middle;stroke-width:0.26458332"
           y="31.258524"
           x="82.691147"
           id="tspan839-1"
           sodipodi:role="line">C6</tspan></text>
    </g>
    <g
       id="g941-2"
       transform="translate(80.178138,-79.065628)">
      <rect
         y="77.924995"
         x="24.077084"
         height="10.583328"
         width="19.579166"
         id="rect932-7"
         style="opacity:1;fill:#ffffff;fill-opacity:1;stroke:#000000;stroke-width:1;stroke-miterlimit:4;stroke-dasharray:none;stroke-opacity:1" />
      <text
         id="text936-0"
         y="85.53125"
         x="34.136417"
         style="font-style:normal;font-weight:normal;font-size:4.23333311px;line-height:1.25;font-family:sans-serif;letter-spacing:0px;word-spacing:0px;fill:#000000;fill-opacity:1;stroke:none;stroke-width:0.26458332"
         xml:space="preserve"><tspan
           style="font-size:6.3499999px;text-align:center;text-anchor:middle;stroke-width:0.26458332"
           y="85.53125"
           x="34.136417"
           id="tspan934-9"
           sodipodi:role="line">A7</tspan></text>
    </g>
    <path
       style="fill:none;stroke:#000000;stroke-width:0.26458332px;stroke-linecap:butt;stroke-linejoin:miter;stroke-opacity:1"
       d="M -62.138596,7.6933036 V 27.872159"
       id="path930-9-7"
       inkscape:connector-curvature="0" />
    <path
       style="fill:none;stroke:#000000;stroke-width:0.26458332px;stroke-linecap:butt;stroke-linejoin:miter;stroke-opacity:1"
       d="M -28.272019,7.693303 V 27.872159"
       id="path930-9-1-5"
       inkscape:connector-curvature="0" />
    <path
       style="fill:none;stroke:#000000;stroke-width:0.26458332px;stroke-linecap:butt;stroke-linejoin:miter;stroke-opacity:1"
       d="M -98.20945,10.303883 V 30.482736"
       id="path930-92"
       inkscape:connector-curvature="0" />
    <g
       id="g845-8"
       transform="translate(-180.79772,-25.047176)">
      <rect
         transform="rotate(45)"
         y="-42.094864"
         x="74.70192"
         height="8.6934528"
         width="8.6934528"
         id="rect837-9"
         style="opacity:1;fill:#ffffff;fill-opacity:1;stroke:#000000;stroke-width:1;stroke-miterlimit:4;stroke-dasharray:none;stroke-opacity:1" />
      <text
         id="text841-7"
         y="31.258524"
         x="82.691147"
         style="font-style:normal;font-weight:normal;font-size:5.64444447px;line-height:1.25;font-family:sans-serif;text-align:center;letter-spacing:0px;word-spacing:0px;text-anchor:middle;fill:#000000;fill-opacity:1;stroke:none;stroke-width:0.26458332"
         xml:space="preserve"><tspan
           style="font-style:normal;font-variant:normal;font-weight:normal;font-stretch:normal;font-size:5.64444447px;font-family:sans-serif;-inkscape-font-specification:sans-serif;text-align:center;text-anchor:middle;stroke-width:0.26458332"
           y="31.258524"
           x="82.691147"
           id="tspan839-36"
           sodipodi:role="line">C1</tspan></text>
    </g>
    <g
       id="g941-1"
       transform="translate(-61.883414,-51.890466)">
      <rect
         y="77.924995"
         x="24.077084"
         height="10.583328"
         width="19.579166"
         id="rect932-2"
         style="opacity:1;fill:#ffffff;fill-opacity:1;stroke:#000000;stroke-width:1;stroke-miterlimit:4;stroke-dasharray:none;stroke-opacity:1" />
      <text
         id="text936-9"
         y="85.53125"
         x="34.136417"
         style="font-style:normal;font-weight:normal;font-size:4.23333311px;line-height:1.25;font-family:sans-serif;letter-spacing:0px;word-spacing:0px;fill:#000000;fill-opacity:1;stroke:none;stroke-width:0.26458332"
         xml:space="preserve"><tspan
           style="font-size:6.3499999px;text-align:center;text-anchor:middle;stroke-width:0.26458332"
           y="85.53125"
           x="34.136417"
           id="tspan934-3"
           sodipodi:role="line">A3</tspan></text>
    </g>
    <g
       id="g941-3-1"
       transform="translate(-96.092742,-51.890466)">
      <rect
         y="77.924995"
         x="24.077084"
         height="10.583328"
         width="19.579166"
         id="rect932-6-9"
         style="opacity:1;fill:#ffffff;fill-opacity:1;stroke:#000000;stroke-width:1;stroke-miterlimit:4;stroke-dasharray:none;stroke-opacity:1" />
      <text
         id="text936-7-4"
         y="85.53125"
         x="34.136417"
         style="font-style:normal;font-weight:normal;font-size:4.23333311px;line-height:1.25;font-family:sans-serif;letter-spacing:0px;word-spacing:0px;fill:#000000;fill-opacity:1;stroke:none;stroke-width:0.26458332"
         xml:space="preserve"><tspan
           style="font-size:6.3499999px;text-align:center;text-anchor:middle;stroke-width:0.26458332"
           y="85.53125"
           x="34.136417"
           id="tspan934-5-7"
           sodipodi:role="line">A2</tspan></text>
    </g>
    <g
       id="g941-3-3-8"
       transform="translate(-132.0763,-51.890466)">
      <rect
         y="77.924995"
         x="24.077084"
         height="10.583328"
         width="19.579166"
         id="rect932-6-5-4"
         style="opacity:1;fill:#ffffff;fill-opacity:1;stroke:#000000;stroke-width:1;stroke-miterlimit:4;stroke-dasharray:none;stroke-opacity:1" />
      <text
         id="text936-7-6-5"
         y="85.53125"
         x="34.136417"
         style="font-style:normal;font-weight:normal;font-size:4.23333311px;line-height:1.25;font-family:sans-serif;letter-spacing:0px;word-spacing:0px;fill:#000000;fill-opacity:1;stroke:none;stroke-width:0.26458332"
         xml:space="preserve"><tspan
           style="font-size:6.3499999px;text-align:center;text-anchor:middle;stroke-width:0.26458332"
           y="85.53125"
           x="34.136417"
           id="tspan934-5-2-0"
           sodipodi:role="line">A1</tspan></text>
    </g>
    <g
       id="g845-3-3"
       transform="translate(-144.81413,-25.047176)">
      <rect
         transform="rotate(45)"
         y="-42.094864"
         x="74.70192"
         height="8.6934528"
         width="8.6934528"
         id="rect837-6-6"
         style="opacity:1;fill:#ffffff;fill-opacity:1;stroke:#000000;stroke-width:1;stroke-miterlimit:4;stroke-dasharray:none;stroke-opacity:1" />
      <text
         id="text841-75-1"
         y="31.258524"
         x="82.691147"
         style="font-style:normal;font-variant:normal;font-weight:normal;font-stretch:normal;font-size:5.64444447px;line-height:1.25;font-family:sans-serif;-inkscape-font-specification:sans-serif;text-align:center;letter-spacing:0px;word-spacing:0px;text-anchor:middle;fill:#000000;fill-opacity:1;stroke:none;stroke-width:0.26458332"
         xml:space="preserve"><tspan
           style="font-style:normal;font-variant:normal;font-weight:normal;font-stretch:normal;font-size:5.64444447px;font-family:sans-serif;-inkscape-font-specification:sans-serif;text-align:center;text-anchor:middle;stroke-width:0.26458332"
           y="31.258524"
           x="82.691147"
           id="tspan839-3-0"
           sodipodi:role="line">C2</tspan></text>
    </g>
    <g
       id="g845-5-6"
       transform="translate(-110.6046,-25.047176)">
      <rect
         transform="rotate(45)"
         y="-42.094864"
         x="74.70192"
         height="8.6934528"
         width="8.6934528"
         id="rect837-62-3"
         style="opacity:1;fill:#ffffff;fill-opacity:1;stroke:#000000;stroke-width:1;stroke-miterlimit:4;stroke-dasharray:none;stroke-opacity:1" />
      <text
         id="text841-9-2"
         y="31.258524"
         x="82.691147"
         style="font-style:normal;font-variant:normal;font-weight:normal;font-stretch:normal;font-size:5.64444447px;line-height:1.25;font-family:sans-serif;-inkscape-font-specification:sans-serif;text-align:center;letter-spacing:0px;word-spacing:0px;text-anchor:middle;fill:#000000;fill-opacity:1;stroke:none;stroke-width:0.26458332"
         xml:space="preserve"><tspan
           style="font-style:normal;font-variant:normal;font-weight:normal;font-stretch:normal;font-size:5.64444447px;font-family:sans-serif;-inkscape-font-specification:sans-serif;text-align:center;text-anchor:middle;stroke-width:0.26458332"
           y="31.258524"
           x="82.691147"
           id="tspan839-1-0"
           sodipodi:role="line">C3</tspan></text>
    </g>
  </g>
</svg>
