<?xml version="1.0" encoding="UTF-8" standalone="no"?>
<!-- Created with Inkscape (http://www.inkscape.org/) -->

<svg
   xmlns:dc="http://purl.org/dc/elements/1.1/"
   xmlns:cc="http://creativecommons.org/ns#"
   xmlns:rdf="http://www.w3.org/1999/02/22-rdf-syntax-ns#"
   xmlns:svg="http://www.w3.org/2000/svg"
   xmlns="http://www.w3.org/2000/svg"
   xmlns:sodipodi="http://sodipodi.sourceforge.net/DTD/sodipodi-0.dtd"
   xmlns:inkscape="http://www.inkscape.org/namespaces/inkscape"
   width="327.99994"
   height="216.91679"
   id="svg2"
   version="1.1"
   inkscape:version="0.48.4 r9939"
   sodipodi:docname="Nouveau document 1">
  <defs
     id="defs4" />
  <sodipodi:namedview
     id="base"
     pagecolor="#ffffff"
     bordercolor="#666666"
     borderopacity="1.0"
     inkscape:pageopacity="0.0"
     inkscape:pageshadow="2"
     inkscape:zoom="1.4"
     inkscape:cx="12.050732"
     inkscape:cy="27.075566"
     inkscape:document-units="px"
     inkscape:current-layer="layer1"
     showgrid="false"
     fit-margin-top="2"
     fit-margin-left="2"
     fit-margin-right="2"
     fit-margin-bottom="2"
     inkscape:window-width="1920"
     inkscape:window-height="1056"
     inkscape:window-x="0"
     inkscape:window-y="24"
     inkscape:window-maximized="1" />
  <metadata
     id="metadata7">
    <rdf:RDF>
      <cc:Work
         rdf:about="">
        <dc:format>image/svg+xml</dc:format>
        <dc:type
           rdf:resource="http://purl.org/dc/dcmitype/StillImage" />
        <dc:title></dc:title>
      </cc:Work>
    </rdf:RDF>
  </metadata>
  <g
     inkscape:label="Calque 1"
     inkscape:groupmode="layer"
     id="layer1"
     transform="translate(-349.4286,-139.63043)">
    <path
       style="fill:#000000;fill-opacity:1"
       d="m 375.82377,353.36095 c -3.31868,-1.44463 -4.35945,-3.76882 -4.38157,-9.78465 l -0.0136,-3.71447 -4.58291,1.96447 c -5.29964,2.27169 -7.3281,2.41776 -10.91022,0.78564 -3.06716,-1.3975 -3.02367,-1.75894 2.20451,-18.32118 7.88417,-24.97608 8.02996,-25.65097 7.14941,-33.09568 -8.6786,-73.37429 -13.86079,-122.73714 -13.86079,-132.03077 0,-5.10855 0.42743,-6.75893 2.32042,-8.95967 2.07866,-2.41658 3.3029,-2.79044 11.75,-3.58822 16.96021,-1.60178 115.74335,-5.65712 119.12827,-4.89056 5.59286,1.26656 9.81045,4.00825 11.32219,7.36009 1.34161,2.97466 14.72231,79.38677 19.47333,111.20481 1.14974,7.7 3.57182,21.78039 5.38238,31.28976 2.75896,14.49055 3.64526,17.53725 5.4744,18.81842 3.97166,2.78186 1.66766,3.9987 -20.83239,11.00243 -20.87244,6.4971 -86.88181,24.48025 -91.0186,24.7965 -1.925,0.14716 -10.115,2.14076 -18.2,4.43023 -16.41193,4.64743 -16.10191,4.60591 -20.40478,2.73285 z m 3.22652,-5.32019 c -1.34576,-6.88945 -8.82654,-67.16571 -12.13159,-97.75 -2.51516,-23.27485 -5.4672,-48.76575 -6.94846,-60 -2.39052,-18.13034 -3.73876,-34.57869 -3.057,-37.29504 0.56011,-2.23163 0.44368,-2.3904 -0.92181,-1.25715 -2.42021,2.0086 -1.98626,11.71183 2.00762,44.8906 1.96377,16.31387 6.64848,57.28513 10.41047,91.04724 4.91837,44.14007 7.2163,61.62418 8.17951,62.23469 2.3329,1.47867 3.01429,0.96087 2.46126,-1.87034 z m 141.15118,-37.68958 c 0.81777,-0.81778 -25.76373,-156.97406 -27.29804,-160.3657 -2.24871,-4.97083 -6.52433,-6.3461 -17.73874,-5.70574 -5.07988,0.29006 -21.16114,0.97867 -35.73614,1.53024 -58.33312,2.20751 -74.45836,3.15921 -76.62177,4.52214 -1.16697,0.73519 -2.37884,2.60164 -2.69303,4.14767 -0.54099,2.66196 4.25709,49.55319 6.27356,61.31097 0.95373,5.5611 3.4972,26.67559 9.03459,75 2.91942,25.47762 6.6033,53.24921 7.63555,57.56194 0.46889,1.95907 3.89116,1.07383 68.59179,-17.74281 37.45404,-10.89261 68.30255,-20.00904 68.55223,-20.25871 z M 386.5789,342.54076 c -0.55261,-1.7875 -1.71228,-8.875 -2.57703,-15.75 -2.32756,-18.50479 -7.54909,-63.17223 -8.59199,-73.5 -1.4178,-14.04034 -5.77553,-52.34096 -7.9644,-70 -2.40448,-19.39848 -2.69934,-26.21759 -1.19853,-27.7184 1.48908,-1.48908 82.17765,-5.77434 108.82082,-5.77933 17.32205,-0.003 15.82165,-2.1622 20.84732,29.99773 2.03232,13.00511 7.2586,44.89105 15.07928,92 0.86742,5.225 2.23008,13.775 3.02813,19 0.79805,5.225 1.93946,11.00393 2.53646,12.84206 0.60136,1.85155 0.70283,3.70331 0.22753,4.15205 -0.88812,0.83848 -126.1721,38.00589 -128.11033,38.00589 -0.60088,0 -1.54465,-1.4625 -2.09726,-3.25 z m 11.84965,-2.18764 c 4.125,-1.31986 6.45792,-2.43634 5.18426,-2.48105 -2.6129,-0.0917 -6.31606,-1.82929 -7.41895,-3.48101 -1.66113,-2.48778 -0.57135,-10.03622 2.78646,-19.30069 3.05761,-8.43618 9.94877,-31.97737 11.87,-40.54961 0.57776,-2.57789 0.40543,-2.75 -2.75349,-2.75 -8.46921,0 -11.66828,-3.29263 -11.66828,-12.00954 0,-4.64445 3.07057,-14.98173 5.27748,-17.76701 0.71659,-0.90438 0.24725,-2.68069 -1.60984,-6.09277 -1.44172,-2.64892 -3.11412,-7.11409 -3.71643,-9.92259 -1.01946,-4.75357 -0.91086,-5.42081 1.57185,-9.65723 1.46684,-2.50297 2.75805,-4.55086 2.86935,-4.55086 0.11131,0 0.076,3.0375 -0.0784,6.75 l -0.28078,6.75 1.33316,-5.90357 c 1.2973,-5.74476 3.43879,-8.59643 6.45558,-8.59643 1.46523,0 1.44749,0.49576 -0.35783,10 l -0.66483,3.5 2.20948,-4 c 3.01244,-5.45368 4.96223,-7.5 7.1462,-7.5 2.80738,0 2.25338,2.9203 -1.65499,8.7239 -3.49524,5.19013 -4.56787,7.74397 -2.3,5.4761 0.66,-0.66 2.58101,-1.2 4.26891,-1.2 2.91152,0 3.21776,-0.39744 5.97156,-7.75 6.1764,-16.49075 10.71246,-23.25 15.60282,-23.25 1.49433,0 4.62392,1.49261 7.11045,3.39122 5.13943,3.92424 14.70693,15.35524 17.54563,20.96305 1.82404,3.60335 2.26151,3.86662 6.71985,4.04396 l 4.7688,0.18969 -5.62175,-5.04396 c -3.09196,-2.77418 -5.60926,-5.60646 -5.59401,-6.29396 0.0566,-2.54913 4.21208,-1.12286 8.74064,3 l 4.66821,4.25 -2.69056,-4.87595 c -3.30797,-5.99487 -3.32949,-6.62405 -0.2266,-6.62405 1.72545,0 3.22405,1.11859 5,3.73213 1.39483,2.05268 2.53605,4.37768 2.53605,5.16667 0,0.78899 0.27808,1.15646 0.61795,0.81658 0.33987,-0.33987 -0.19535,-2.87965 -1.18938,-5.64395 -2.22121,-6.17698 -1.18241,-7.59874 2.52241,-3.45232 3.48507,3.90047 4.77491,12.18659 3.02952,19.46216 -1.13499,4.73119 -1.06058,5.11932 1.85456,9.67384 6.43072,10.04714 6.04612,13.65857 -2.23041,20.94386 l -4.66912,4.10992 2.06364,5.34555 c 1.95551,5.06546 8.00083,37.22357 8.00083,42.56043 0,1.58778 0.45583,2.32464 1.25,2.02068 0.6875,-0.26313 5.6375,-1.74516 11,-3.2934 8.22646,-2.37511 9.75,-3.1337 9.75,-4.85465 0,-1.12181 -1.33555,-9.92543 -2.96788,-19.56358 -1.63234,-9.63816 -6.84096,-40.92392 -11.57473,-69.52392 -4.73376,-28.6 -9.08938,-53.96311 -9.67915,-56.36246 -1.77185,-7.20841 -1.98598,-7.23785 -40.84491,-5.61443 -49.61389,2.07272 -76.14556,3.62821 -78.78012,4.61869 -2.2246,0.83636 -2.31216,1.20709 -1.68183,7.12025 0.79049,7.41562 4.41153,37.79036 8.55204,71.73795 1.64351,13.475 4.31762,36.425 5.94245,51 1.62484,14.575 3.87222,32.71218 4.99419,40.30485 1.12197,7.59267 2.03994,14.00517 2.03994,14.25 0,0.76222 1.26789,0.48153 9,-1.99249 z m 46.37047,-13.67734 c 14.82781,-4.40296 25.09113,-7.95286 25.41694,-8.79126 0.31257,-0.80432 -0.81584,-2.62347 -2.63624,-4.25 -2.87966,-2.57298 -3.87157,-2.84263 -10.41695,-2.83189 -15.52699,0.0255 -26.90996,5.42152 -42.53954,20.16566 l -7.03373,6.63528 6.16952,-1.77139 c 3.39324,-0.97426 17.36124,-5.09464 31.04,-9.1564 z m -31.69218,1.29726 c 7.08384,-7.04181 17.19899,-13.71197 26.48815,-17.46689 7.19611,-2.90885 29.29066,-3.18464 34.83356,-0.43481 l 3.5,1.73635 -3.75,-0.44559 c -3.95987,-0.47054 -4.73508,0.36623 -2.25,2.42866 0.825,0.68469 1.5,1.86479 1.5,2.62244 0,1.7592 0.004,1.75887 8.14219,-0.66479 l 6.85781,-2.04234 0,-5.85069 c 0,-3.21788 -0.71325,-9.29961 -1.585,-13.51495 -0.87175,-4.21534 -1.3485,-8.28058 -1.05944,-9.03385 0.28906,-0.75328 -0.12269,-1.90759 -0.915,-2.56515 -0.79231,-0.65756 -1.44056,-1.74966 -1.44056,-2.42689 0,-0.67724 -2.06004,-7.57758 -4.57786,-15.33411 l -4.57787,-14.10277 -4.17213,-0.85323 c -3.58739,-0.73365 -4.69788,-0.51078 -7.92321,1.59014 -4.97101,3.23803 -16.43768,4.26537 -20.18711,1.80865 -1.3703,-0.89785 -2.96219,-1.63246 -3.53754,-1.63246 -2.13896,0 -17.25368,7.92422 -21.693,11.37303 -0.0928,0.0721 -0.4706,1.33387 -0.83956,2.80395 -0.59853,2.38471 -0.36471,2.70794 2.16871,2.99795 3.63656,0.41631 3.57618,2.17453 -0.097,2.82507 -2.73079,0.48364 -2.96388,1.0236 -7.12247,16.5 -2.36461,8.8 -6.13116,21.08288 -8.37012,27.29529 -5.50615,15.27785 -5.29368,19.20471 1.0391,19.20471 2.01095,0 4.47897,-1.75853 9.56835,-6.81772 z m 51.32171,-49.67546 c -9.13684,-5.3494 -17.28661,-8.44326 -22.96095,-8.71655 -5.91035,-0.28466 -6.85807,-0.94992 -5.1629,-3.62412 0.67244,-1.06079 0.9786,-0.98704 1.49561,0.36025 0.5684,1.48123 1.99951,1.64569 11.38916,1.30887 9.63556,-0.34565 11.38131,-0.70843 16.98908,-3.53044 3.4375,-1.72986 6.25,-2.75768 6.25,-2.28403 0,0.47364 -0.45009,1.13934 -1.0002,1.47932 -0.55011,0.33999 0.90858,2.07404 3.24154,3.85345 8.43337,6.43234 7.12868,12.65997 -2.64633,12.63169 -2.80225,-0.008 -6.22001,-0.6734 -7.59501,-1.47844 z m 9.61905,-18.03063 c -0.89048,-0.89048 -1.61905,-2.1369 -1.61905,-2.76984 0,-0.63294 0.9875,-0.16329 2.19444,1.04365 1.20695,1.20694 1.93552,2.45337 1.61905,2.76984 -0.31647,0.31647 -1.30397,-0.15317 -2.19444,-1.04365 z m -60.13032,-1.22619 c 0.94869,-5.3625 2.54127,-13.79806 3.53907,-18.74568 0.99779,-4.94762 1.66128,-9.14858 1.4744,-9.33545 -0.93827,-0.93827 -7.39379,3.33805 -10.27084,6.80368 -5.82821,7.02055 -8.64577,13.78446 -8.69093,20.86371 -0.035,5.47873 0.27907,6.59527 2.32035,8.25 1.39314,1.12933 3.90652,1.91374 6.13192,1.91374 l 3.77113,0 1.7249,-9.75 z m 71.46916,-5.09516 c 4.82857,-4.59331 5.16522,-7.56268 1.55573,-13.72182 -3.02784,-5.1666 -11.164,-11.33975 -15.97462,-12.1204 -4.09245,-0.66412 -4.16115,-0.48225 -1.69134,4.47722 1.01621,2.04059 3.77919,8.54766 6.13995,14.46016 2.36076,5.9125 4.66037,10.75 5.11024,10.75 0.44986,0 2.63688,-1.73032 4.86004,-3.84516 z m -124.26383,78.07118 c 4.82943,-16.13318 6.60853,-23.25676 5.96824,-23.89705 -0.36426,-0.36427 -0.84809,-0.4748 -1.07518,-0.24564 -0.92766,0.93618 -9.34822,31.47897 -8.8866,32.2332 0.85758,1.40119 1.60624,-0.11551 3.99354,-8.09051 z m 274.80594,13.26613 c -4.26899,-2.31239 -7.15834,-5.23343 -10.03933,-10.14947 -4.38357,-7.48 -15.38319,-13.37164 -24.8696,-13.32072 -5.17205,0.0278 -11.79546,3.00587 -17.65038,7.93619 -10.42496,8.77868 -16.90691,10.41319 -20.98573,5.29185 -2.00507,-2.51756 -2.14101,-3.51072 -1.60822,-11.75 0.3201,-4.95 1.22898,-11.1375 2.01976,-13.75 1.36384,-4.50578 1.33997,-4.75 -0.46437,-4.75 -2.73933,0 -2.34315,-2.42812 1.02144,-6.26017 l 2.92357,-3.32977 -3.91793,-5.13794 c -2.16114,-2.8341 -3.6702,-5.78352 -3.36544,-6.57771 0.30387,-0.79187 2.58504,-2.48515 5.06927,-3.76283 4.85392,-2.49647 12.36696,-9.59679 12.36696,-11.6876 0,-4.12172 15.89543,-38.23344 24.9947,-53.63884 9.66741,-16.36726 15.79228,-20.21231 21.46251,-13.47363 6.3813,7.58375 21.55908,47.00343 26.67805,69.28816 1.81175,7.88719 2.65197,9.86559 4.78137,11.25832 5.1714,3.38234 21.08337,16.43424 21.08337,17.29377 0,1.39491 -4.11546,4.27308 -10.76453,7.52824 -3.37034,1.65 -6.15209,3.54444 -6.18168,4.20986 -0.0296,0.66542 1.74621,1.74915 3.94621,2.40829 3.85716,1.15563 5.13338,3.06335 2.95144,4.41186 -0.72081,0.44549 -0.6939,1.07538 0.0861,2.01521 1.69216,2.03892 0.10409,3.70256 -3.08725,3.23418 -3.33838,-0.48998 -3.91607,0.88094 -3.93663,9.34199 -0.0123,5.07196 -0.38017,6.03272 -3.76365,9.82983 -3.46121,3.88435 -4.21207,4.24532 -9.75,4.68719 -4.3719,0.34884 -6.81405,0.0378 -9,-1.14626 z m 13.42947,-4.45617 c 4.26944,-2.1781 6.07053,-5.80485 6.07053,-12.22384 0,-3.17718 -0.73248,-4.65171 -4,-8.05222 -3.18678,-3.3165 -4,-4.91041 -4,-7.84005 0,-3.14866 0.43423,-3.85709 3.02093,-4.92854 3.40565,-1.41067 3.40526,-0.91735 0.0133,-16.59937 -1.53735,-7.10756 -2.23336,-8.54756 -5.64059,-11.67005 -4.12304,-3.77849 -4.06999,-5.80675 0.10216,-3.90579 2.95639,1.34702 2.93459,1.47208 0.93971,-5.39006 -1.73491,-5.96787 -3.89898,-7.9901 -12.63706,-11.80878 -8.52135,-3.72397 -11.34113,-3.96415 -13.20176,-1.12445 -2.65029,4.04485 -12.59879,5.74624 -19.69744,3.36865 -3.91943,-1.31275 -7.89925,-4.60564 -7.89925,-6.53579 0,-1.67068 -2.09848,-1.70746 -4.31789,-0.0757 -2.57101,1.89028 -9.14025,17.90502 -16.71565,40.75 -8.7062,26.25513 -9.98295,36.31525 -4.95065,39.00846 2.52892,1.35344 5.38074,0.12637 13.619,-5.85993 8.94114,-6.49704 17.90779,-9.57846 25.36519,-8.71684 3.025,0.34951 7.12461,1.07077 9.11025,1.6028 4.6339,1.24162 11.95076,7.68752 15.39235,13.56016 1.87902,3.2063 3.94107,5.15743 6.84339,6.47526 5.30081,2.40688 7.81237,2.40011 12.58348,-0.0339 z m -42.2005,-58.12785 c -2.88109,-1.6773 -0.96127,-2.90171 3.57489,-2.27996 5.70822,0.7824 12.13601,-1.10062 14.64497,-4.29024 1.94554,-2.47336 1.96186,-2.68537 0.30362,-3.9441 -1.60418,-1.21767 -1.53573,-1.33291 0.80899,-1.36203 2.49411,-0.031 6.93856,3.13853 6.93856,4.94814 0,1.43706 -1.79835,2.15536 -2.51066,1.00281 -0.39512,-0.63931 -1.97569,0.1151 -4.04177,1.92914 -5.15873,4.52942 -15.27955,6.58055 -19.7186,3.99624 z m 57.03765,18.03997 5.26661,-2.22856 -7.26661,-5.31856 c -3.99664,-2.9252 -7.52932,-5.3371 -7.85039,-5.35977 -0.32107,-0.0227 0.10505,3.57293 0.94693,7.99021 0.90473,4.74697 1.96136,7.85022 2.58377,7.58833 0.57919,-0.2437 3.42305,-1.44594 6.31969,-2.67165 z m -92.34071,-18.70243 c 0.70008,-2.21779 0.63892,-2.20969 -3.77251,0.5 l -4.48413,2.75433 2.63833,2.78744 2.63832,2.78744 1.13419,-3.28744 c 0.6238,-1.80809 1.45441,-4.30189 1.8458,-5.54177 z"
       id="path2996"
       inkscape:connector-curvature="0" />
    <path
       sodipodi:type="arc"
       style="fill:#ff0000;fill-opacity:1;stroke:none"
       id="path3766"
       sodipodi:cx="298.75262"
       sodipodi:cy="484.15137"
       sodipodi:rx="12.879445"
       sodipodi:ry="8.0812206"
       d="m 311.63207,484.15137 c 0,4.46313 -5.76632,8.08122 -12.87945,8.08122 -7.11312,0 -12.87944,-3.61809 -12.87944,-8.08122 0,-4.46314 5.76632,-8.08122 12.87944,-8.08122 7.11313,0 12.87945,3.61808 12.87945,8.08122 z"
       transform="matrix(0.99350283,-0.11380742,0.11380742,0.99350283,100.20565,-202.67869)" />
    <path
       sodipodi:type="arc"
       style="fill:#ff0000;fill-opacity:1;stroke:none"
       id="path3766-0"
       sodipodi:cx="298.75262"
       sodipodi:cy="484.15137"
       sodipodi:rx="12.879445"
       sodipodi:ry="8.0812206"
       d="m 311.63207,484.15137 c 0,4.46313 -5.76632,8.08122 -12.87945,8.08122 -7.11312,0 -12.87944,-3.61809 -12.87944,-8.08122 0,-4.46314 5.76632,-8.08122 12.87944,-8.08122 7.11313,0 12.87945,3.61808 12.87945,8.08122 z"
       transform="matrix(0.99613173,0.08787252,-0.08787252,0.99613173,351.90038,-257.57661)" />
    <path
       transform="matrix(0.94457695,0.32829009,-0.32829009,0.94457695,342.28297,-283.92643)"
       style="fill:#ff0000;fill-opacity:1;stroke:none"
       d="m 310.73727,484.84046 c -3.71803,3.94081 -4.04254,3.71113 -11.15567,3.71113 -6.89302,-0.45459 -14.69752,-3.10807 -11.5383,-2.50776 3.68726,-1.64315 9.55675,-5.4592 12.8877,-9.6065 2.5993,2.57981 13.41609,4.58767 9.80627,8.40313 z"
       id="path3766-08"
       inkscape:connector-curvature="0"
       sodipodi:nodetypes="ccccc" />
    <path
       style="fill:none;stroke:#000000;stroke-width:1px;stroke-linecap:butt;stroke-linejoin:miter;stroke-opacity:1"
       d="m 463.75,267.54075 6.42857,4.82143"
       id="path3794"
       inkscape:connector-curvature="0" />
  </g>
</svg>
