<?xml version="1.0" encoding="UTF-8" standalone="no"?>
<!-- Created with Inkscape (http://www.inkscape.org/) -->

<svg
   xmlns:dc="http://purl.org/dc/elements/1.1/"
   xmlns:cc="http://creativecommons.org/ns#"
   xmlns:rdf="http://www.w3.org/1999/02/22-rdf-syntax-ns#"
   xmlns:svg="http://www.w3.org/2000/svg"
   xmlns="http://www.w3.org/2000/svg"
   xmlns:sodipodi="http://sodipodi.sourceforge.net/DTD/sodipodi-0.dtd"
   xmlns:inkscape="http://www.inkscape.org/namespaces/inkscape"
   width="827.23914"
   height="416.08484"
   id="svg2"
   version="1.1"
   inkscape:version="0.48.4 r9939"
   sodipodi:docname="message_routing+layers.svg"
   inkscape:export-filename="/home/sgalland/git/sarl/docs/io.sarl.docs.suite/src/test/resources/io/sarl/docs/reference/contexts.png"
   inkscape:export-xdpi="107"
   inkscape:export-ydpi="107">
  <defs
     id="defs4">
    <marker
       inkscape:stockid="Arrow2Mend"
       orient="auto"
       refY="0"
       refX="0"
       id="Arrow2Mend"
       style="overflow:visible">
      <path
         id="path3832"
         style="fill-rule:evenodd;stroke-width:0.625;stroke-linejoin:round"
         d="M 8.7185878,4.0337352 -2.2072895,0.01601326 8.7185884,-4.0017078 c -1.7454984,2.3720609 -1.7354408,5.6174519 -6e-7,8.035443 z"
         transform="scale(-0.6,-0.6)"
         inkscape:connector-curvature="0" />
    </marker>
    <marker
       inkscape:stockid="Arrow2Lend"
       orient="auto"
       refY="0"
       refX="0"
       id="Arrow2Lend"
       style="overflow:visible">
      <path
         id="path3826"
         style="fill-rule:evenodd;stroke-width:0.625;stroke-linejoin:round"
         d="M 8.7185878,4.0337352 -2.2072895,0.01601326 8.7185884,-4.0017078 c -1.7454984,2.3720609 -1.7354408,5.6174519 -6e-7,8.035443 z"
         transform="matrix(-1.1,0,0,-1.1,-1.1,0)"
         inkscape:connector-curvature="0" />
    </marker>
  </defs>
  <sodipodi:namedview
     id="base"
     pagecolor="#ffffff"
     bordercolor="#666666"
     borderopacity="1.0"
     inkscape:pageopacity="0.0"
     inkscape:pageshadow="2"
     inkscape:zoom="1.4"
     inkscape:cx="432.29299"
     inkscape:cy="161.63639"
     inkscape:document-units="px"
     inkscape:current-layer="g4720"
     showgrid="false"
     inkscape:window-width="1920"
     inkscape:window-height="1056"
     inkscape:window-x="0"
     inkscape:window-y="24"
     inkscape:window-maximized="1"
     fit-margin-top="2"
     fit-margin-left="2"
     fit-margin-right="2"
     fit-margin-bottom="2" />
  <metadata
     id="metadata7">
    <rdf:RDF>
      <cc:Work
         rdf:about="">
        <dc:format>image/svg+xml</dc:format>
        <dc:type
           rdf:resource="http://purl.org/dc/dcmitype/StillImage" />
        <dc:title />
      </cc:Work>
    </rdf:RDF>
  </metadata>
  <g
     inkscape:label="background &lt;1-&gt;"
     inkscape:groupmode="layer"
     id="layer1"
     transform="translate(-193.19475,-349.57597)"
     sodipodi:insensitive="true">
    <rect
       style="fill:#7bbeff;fill-opacity:1;stroke:#000000;stroke-width:1;stroke-miterlimit:4;stroke-opacity:1;stroke-dasharray:none;stroke-dashoffset:0"
       id="rect3055-7"
       width="187.52071"
       height="308.6796"
       x="830.41315"
       y="438.33044"
       rx="0"
       ry="0" />
    <rect
       style="fill:#7bbeff;fill-opacity:1;stroke:#000000;stroke-width:1;stroke-miterlimit:4;stroke-opacity:1;stroke-dasharray:none;stroke-dashoffset:0"
       id="rect3055"
       width="401.03055"
       height="309.10669"
       x="195.69475"
       y="438.33044"
       rx="0"
       ry="0" />
    <g
       id="g4204" />
    <g
       transform="matrix(-1,0,0,1,662.84499,-2.8937881)"
       id="g4142-7"
       style="stroke-width:1.5;stroke-miterlimit:4;stroke-dasharray:none" />
    <g
       id="g3037"
       transform="translate(-80,0)">
      <g
         transform="translate(0.3479843,2.0697021)"
         id="g4158">
        <path
           sodipodi:type="arc"
           style="fill:#faeec9;fill-opacity:1;fill-rule:nonzero;stroke:#290000;stroke-width:1.42102122;stroke-linecap:butt;stroke-linejoin:miter;stroke-miterlimit:4;stroke-opacity:1;stroke-dasharray:none;stroke-dashoffset:0"
           id="path2984-4-1-8-1"
           sodipodi:cx="88.068443"
           sodipodi:cy="229.64684"
           sodipodi:rx="16.721857"
           sodipodi:ry="15.607066"
           d="m 104.7903,229.64684 c 0,8.61954 -7.48663,15.60706 -16.721857,15.60706 -9.235226,0 -16.721857,-6.98752 -16.721857,-15.60706 0,-8.61955 7.486631,-15.60707 16.721857,-15.60707 9.235227,0 16.721857,6.98752 16.721857,15.60707 z"
           transform="matrix(0.694239,0,0,0.713329,523.93293,300.22949)" />
        <rect
           style="fill:#faeec9;fill-opacity:1;fill-rule:nonzero;stroke:#290000;stroke-width:1;stroke-linecap:butt;stroke-linejoin:miter;stroke-miterlimit:4;stroke-opacity:1;stroke-dasharray:none;stroke-dashoffset:0"
           id="rect2986-6-6-7-5"
           width="24.658279"
           height="76.315735"
           x="572.74432"
           y="475.08777"
           rx="6.6667728"
           ry="2.1258495" />
      </g>
      <text
         sodipodi:linespacing="125%"
         id="text3384-8"
         y="587.73376"
         x="586.34918"
         style="font-size:20px;font-style:normal;font-weight:normal;text-align:center;line-height:125%;letter-spacing:0px;word-spacing:0px;text-anchor:middle;fill:#000000;fill-opacity:1;stroke:none;font-family:Sans"
         xml:space="preserve"><tspan
           y="587.73376"
           x="586.34918"
           id="tspan3386-8"
           sodipodi:role="line">Agent 2</tspan></text>
    </g>
    <g
       id="g3030">
      <g
         transform="translate(3.4818954,0)"
         id="g4162">
        <path
           sodipodi:type="arc"
           style="fill:#faeec9;fill-opacity:1;fill-rule:nonzero;stroke:#290000;stroke-width:1.42102122;stroke-linecap:butt;stroke-linejoin:miter;stroke-miterlimit:4;stroke-opacity:1;stroke-dasharray:none;stroke-dashoffset:0"
           id="path2984-4-1-8"
           sodipodi:cx="88.068443"
           sodipodi:cy="229.64684"
           sodipodi:rx="16.721857"
           sodipodi:ry="15.607066"
           d="m 104.7903,229.64684 c 0,8.61954 -7.48663,15.60706 -16.721857,15.60706 -9.235226,0 -16.721857,-6.98752 -16.721857,-15.60706 0,-8.61955 7.486631,-15.60707 16.721857,-15.60707 9.235227,0 16.721857,6.98752 16.721857,15.60707 z"
           transform="matrix(0.694239,0,0,0.713329,198.50072,302.29921)" />
        <rect
           style="fill:#faeec9;fill-opacity:1;fill-rule:nonzero;stroke:#290000;stroke-width:1;stroke-linecap:butt;stroke-linejoin:miter;stroke-miterlimit:4;stroke-opacity:1;stroke-dasharray:none;stroke-dashoffset:0"
           id="rect2986-6-6-7"
           width="24.658279"
           height="76.315735"
           x="247.31213"
           y="477.15747"
           rx="6.6667728"
           ry="2.1258495" />
      </g>
      <text
         sodipodi:linespacing="125%"
         id="text3384-8-9"
         y="587.47009"
         x="263.97278"
         style="font-size:20px;font-style:normal;font-weight:normal;text-align:center;line-height:125%;letter-spacing:0px;word-spacing:0px;text-anchor:middle;fill:#000000;fill-opacity:1;stroke:none;font-family:Sans"
         xml:space="preserve"><tspan
           y="587.47009"
           x="263.97278"
           id="tspan3386-8-2"
           sodipodi:role="line">Agent 1</tspan></text>
    </g>
    <g
       id="g3044">
      <g
         transform="translate(346.01233,2.0697021)"
         id="g4158-0">
        <path
           sodipodi:type="arc"
           style="fill:#faeec9;fill-opacity:1;fill-rule:nonzero;stroke:#290000;stroke-width:1.42102122;stroke-linecap:butt;stroke-linejoin:miter;stroke-miterlimit:4;stroke-opacity:1;stroke-dasharray:none;stroke-dashoffset:0"
           id="path2984-4-1-8-1-8"
           sodipodi:cx="88.068443"
           sodipodi:cy="229.64684"
           sodipodi:rx="16.721857"
           sodipodi:ry="15.607066"
           d="m 104.7903,229.64684 c 0,8.61954 -7.48663,15.60706 -16.721857,15.60706 -9.235226,0 -16.721857,-6.98752 -16.721857,-15.60706 0,-8.61955 7.486631,-15.60707 16.721857,-15.60707 9.235227,0 16.721857,6.98752 16.721857,15.60707 z"
           transform="matrix(0.694239,0,0,0.713329,523.93293,300.22949)" />
        <rect
           style="fill:#faeec9;fill-opacity:1;fill-rule:nonzero;stroke:#290000;stroke-width:1;stroke-linecap:butt;stroke-linejoin:miter;stroke-miterlimit:4;stroke-opacity:1;stroke-dasharray:none;stroke-dashoffset:0"
           id="rect2986-6-6-7-5-3"
           width="24.658279"
           height="76.315735"
           x="572.74432"
           y="475.08777"
           rx="6.6667728"
           ry="2.1258495" />
      </g>
      <text
         sodipodi:linespacing="125%"
         id="text3384-8-0"
         y="587.73376"
         x="932.01355"
         style="font-size:20px;font-style:normal;font-weight:normal;text-align:center;line-height:125%;letter-spacing:0px;word-spacing:0px;text-anchor:middle;fill:#000000;fill-opacity:1;stroke:none;font-family:Sans"
         xml:space="preserve"><tspan
           y="587.73376"
           x="932.01355"
           id="tspan3386-8-62"
           sodipodi:role="line">Agent 3</tspan></text>
    </g>
    <text
       xml:space="preserve"
       style="font-size:22px;font-style:normal;font-weight:normal;text-align:center;line-height:125%;letter-spacing:0px;word-spacing:0px;text-anchor:middle;fill:#000000;fill-opacity:1;stroke:none;font-family:Sans"
       x="708.25494"
       y="482.48999"
       id="text3051"
       sodipodi:linespacing="125%"><tspan
         sodipodi:role="line"
         id="tspan3053"
         x="708.25494"
         y="482.48999"
         style="font-size:18px">Application</tspan><tspan
         sodipodi:role="line"
         x="708.25494"
         y="504.98999"
         style="font-size:18px"
         id="tspan4199">Interaction Space</tspan></text>
    <rect
       style="fill:#ff8d4f;fill-opacity:1;fill-rule:evenodd;stroke:#000000;stroke-width:0.87282658px;stroke-linecap:butt;stroke-linejoin:miter;stroke-opacity:1"
       id="rect3111-7-3"
       width="712.50189"
       height="7.4693604"
       x="242.24411"
       y="515.72589"
       rx="3.3173835"
       ry="2.1163173"
       inkscape:export-filename="/home/srodriguez/workspaces/presentations/pres-sarl-2014-set/images/concepts-projection.png"
       inkscape:export-xdpi="90"
       inkscape:export-ydpi="90" />
    <text
       xml:space="preserve"
       style="font-size:18px;font-style:normal;font-weight:normal;text-align:center;line-height:125%;letter-spacing:0px;word-spacing:0px;text-anchor:middle;fill:#000000;fill-opacity:1;stroke:none;font-family:Sans"
       x="708.18903"
       y="730.67755"
       id="text3051-3"
       sodipodi:linespacing="125%"><tspan
         sodipodi:role="line"
         id="tspan3053-4"
         x="708.18903"
         y="730.67755">Computer Network</tspan></text>
    <text
       xml:space="preserve"
       style="font-size:28px;font-style:normal;font-weight:normal;text-align:center;line-height:125%;letter-spacing:0px;word-spacing:0px;text-anchor:middle;fill:#000000;fill-opacity:1;stroke:none;font-family:Sans"
       x="396.13483"
       y="740.32251"
       id="text4205"
       sodipodi:linespacing="125%"><tspan
         sodipodi:role="line"
         id="tspan4207"
         x="396.13483"
         y="740.32251">Kernel 1</tspan></text>
    <text
       xml:space="preserve"
       style="font-size:28px;font-style:normal;font-weight:normal;text-align:center;line-height:125%;letter-spacing:0px;word-spacing:0px;text-anchor:middle;fill:#000000;fill-opacity:1;stroke:none;font-family:Sans"
       x="924.2077"
       y="740.32251"
       id="text4205-4"
       sodipodi:linespacing="125%"><tspan
         sodipodi:role="line"
         id="tspan4207-1"
         x="924.2077"
         y="740.32251">Kernel 2</tspan></text>
    <g
       id="g4388"
       transform="translate(395.86856,137.85714)">
      <rect
         transform="translate(222.96887,452.47997)"
         y="30.699669"
         x="-375"
         height="58.571434"
         width="38.571468"
         id="rect4382"
         style="fill:#f363ae;fill-opacity:1;stroke:#000000;stroke-width:1;stroke-miterlimit:4;stroke-opacity:1;stroke-dasharray:none;stroke-dashoffset:0" />
      <text
         transform="matrix(0,-1,1,0,0,0)"
         sodipodi:linespacing="125%"
         id="text4384"
         y="-127.64921"
         x="-512.7627"
         style="font-size:28px;font-style:normal;font-weight:normal;text-align:center;line-height:125%;letter-spacing:0px;word-spacing:0px;text-anchor:middle;fill:#ffffff;fill-opacity:1;stroke:none;font-family:Sans"
         xml:space="preserve"><tspan
           style="font-size:14px"
           y="-127.64921"
           x="-512.7627"
           id="tspan4386"
           sodipodi:role="line">MTS</tspan></text>
    </g>
    <g
       id="g4393">
      <path
         id="rect4001"
         transform="translate(222.96887,452.47997)"
         d="m 21.375,223.09375 c -8.114555,0 -14.65625,6.54169 -14.65625,14.65625 0,8.11456 6.541695,14.65625 14.65625,14.65625 l 404.40625,0 18.5625,-29.3125 -422.96875,0 z m 510.90625,0 -18.5625,29.3125 215.78125,0 c 8.11456,0 14.625,-6.54169 14.625,-14.65625 0,-8.11456 -6.51044,-14.65625 -14.625,-14.65625 l -197.21875,0 z"
         style="fill:#a20d59;fill-opacity:1;stroke:#000000;stroke-width:1;stroke-miterlimit:4;stroke-opacity:1;stroke-dasharray:none;stroke-dashoffset:0"
         inkscape:connector-curvature="0" />
      <text
         sodipodi:linespacing="125%"
         id="text4201"
         y="696.0368"
         x="442.52451"
         style="font-size:20px;font-style:normal;font-weight:normal;text-align:center;line-height:125%;letter-spacing:0px;word-spacing:0px;text-anchor:middle;fill:#ffffff;fill-opacity:1;stroke:none;font-family:Sans"
         xml:space="preserve"><tspan
           y="696.0368"
           x="442.52451"
           id="tspan4203"
           sodipodi:role="line">Agent Communication Channel</tspan></text>
    </g>
    <g
       id="g4450"
       transform="translate(19.595432,280)">
      <rect
         y="321.19202"
         x="458.68314"
         height="29.285727"
         width="54.285759"
         id="rect4382-7"
         style="fill:#f363ae;fill-opacity:1;stroke:#000000;stroke-width:1;stroke-miterlimit:4;stroke-opacity:1;stroke-dasharray:none;stroke-dashoffset:0" />
      <text
         sodipodi:linespacing="125%"
         id="text4384-5"
         y="340.9379"
         x="485.6312"
         style="font-size:28px;font-style:normal;font-weight:normal;text-align:center;line-height:125%;letter-spacing:0px;word-spacing:0px;text-anchor:middle;fill:#ffffff;fill-opacity:1;stroke:none;font-family:Sans"
         xml:space="preserve"><tspan
           style="font-size:14px"
           y="340.9379"
           x="485.6312"
           id="tspan4386-7"
           sodipodi:role="line">MB</tspan></text>
    </g>
    <g
       id="g4450-2"
       transform="translate(445.46,280)">
      <rect
         y="321.19202"
         x="458.68314"
         height="29.285727"
         width="54.285759"
         id="rect4382-7-2"
         style="fill:#f363ae;fill-opacity:1;stroke:#000000;stroke-width:1;stroke-miterlimit:4;stroke-opacity:1;stroke-dasharray:none;stroke-dashoffset:0" />
      <text
         sodipodi:linespacing="125%"
         id="text4384-5-6"
         y="340.9379"
         x="485.6312"
         style="font-size:28px;font-style:normal;font-weight:normal;text-align:center;line-height:125%;letter-spacing:0px;word-spacing:0px;text-anchor:middle;fill:#ffffff;fill-opacity:1;stroke:none;font-family:Sans"
         xml:space="preserve"><tspan
           style="font-size:14px"
           y="340.9379"
           x="485.6312"
           id="tspan4386-7-3"
           sodipodi:role="line">MB</tspan></text>
    </g>
  </g>
  <g
     inkscape:groupmode="layer"
     id="layer2"
     inkscape:label="Send 1 &lt;2&gt;"
     style="display:inline"
     sodipodi:insensitive="true"
     transform="translate(2.0751953e-6,86.254465)">
    <path
       style="fill:none;stroke:#000000;stroke-width:1px;stroke-linecap:butt;stroke-linejoin:miter;stroke-opacity:1;marker-end:url(#Arrow2Lend)"
       d="m 69.285714,156.24955 0,25"
       id="path3031"
       inkscape:connector-curvature="0" />
    <g
       id="g4313">
      <path
         transform="translate(74.285714,89.285714)"
         d="m 18.571428,-73.75045 c 0,2.761424 -2.238576,5 -5,5 -2.761423,0 -4.9999997,-2.238576 -4.9999997,-5 0,-2.761424 2.2385767,-5 4.9999997,-5 2.761424,0 5,2.238576 5,5 z"
         sodipodi:ry="5"
         sodipodi:rx="5"
         sodipodi:cy="-73.75045"
         sodipodi:cx="13.571428"
         id="path4286"
         style="fill:#ffffff;fill-opacity:1;stroke:#000000;stroke-width:1;stroke-miterlimit:4;stroke-opacity:1;stroke-dasharray:none;stroke-dashoffset:0"
         sodipodi:type="arc" />
      <path
         transform="translate(85,76.428568)"
         d="m 18.571428,-73.75045 c 0,2.761424 -2.238576,5 -5,5 -2.761423,0 -4.9999997,-2.238576 -4.9999997,-5 0,-2.761424 2.2385767,-5 4.9999997,-5 2.761424,0 5,2.238576 5,5 z"
         sodipodi:ry="5"
         sodipodi:rx="5"
         sodipodi:cy="-73.75045"
         sodipodi:cx="13.571428"
         id="path4286-5"
         style="fill:#ffffff;fill-opacity:1;stroke:#000000;stroke-width:1;stroke-miterlimit:4;stroke-opacity:1;stroke-dasharray:none;stroke-dashoffset:0;display:inline"
         sodipodi:type="arc" />
      <path
         transform="matrix(1.6493506,0,0,1.6493506,88.330243,109.31847)"
         d="m 18.571428,-73.75045 c 0,2.761424 -2.238576,5 -5,5 -2.761423,0 -4.9999997,-2.238576 -4.9999997,-5 0,-2.761424 2.2385767,-5 4.9999997,-5 2.761424,0 5,2.238576 5,5 z"
         sodipodi:ry="5"
         sodipodi:rx="5"
         sodipodi:cy="-73.75045"
         sodipodi:cx="13.571428"
         id="path4286-3"
         style="fill:#ffffff;fill-opacity:1;stroke:#000000;stroke-width:0.60629922;stroke-miterlimit:4;stroke-opacity:1;stroke-dasharray:none;stroke-dashoffset:0;display:inline"
         sodipodi:type="arc" />
      <g
         transform="translate(4.2857143,-19.285714)"
         id="g4278">
        <path
           inkscape:connector-curvature="0"
           style="font-size:20px;font-style:normal;font-weight:normal;text-align:center;line-height:125%;letter-spacing:0px;word-spacing:0px;text-anchor:middle;fill:#ffffff;fill-opacity:1;stroke:none;font-family:Sans"
           d="m 246.78125,-64.46875 c -15.82205,0 -29.92445,4.816558 -39.15625,12.34375 -8.15052,-5.855211 -19.43324,-9.46875 -31.90625,-9.46875 -11.2126,0 -21.46479,2.904492 -29.34375,7.75 -6.94581,-3.946339 -15.88858,-6.34375 -25.65625,-6.34375 -22.09139,0 -40,12.165664 -40,27.15625 0,9.667751 7.440809,18.160403 18.65625,22.96875 3.55075,11.3452723 18.61544,19.875 36.6875,19.875 9.49385,0 18.17494,-2.3410928 24.78125,-6.21875 7.09324,5.899289 19.26416,9.8125 33.09375,9.8125 16.37296,0 30.42145,-5.4669924 36.46875,-13.25 5.13612,1.164967 10.63938,1.8125 16.375,1.8125 27.81148,0 50.375,-14.875006 50.375,-33.21875 0,-18.343744 -22.56352,-33.21875 -50.375,-33.21875 z"
           id="text4245" />
        <path
           inkscape:connector-curvature="0"
           style="font-size:20px;font-style:normal;font-weight:normal;text-align:center;line-height:125%;letter-spacing:0px;word-spacing:0px;text-anchor:middle;fill:none;stroke:#000000;stroke-opacity:1;font-family:Sans"
           d="m 246.78125,-64.468751 c -15.82205,0 -29.92445,4.816558 -39.15625,12.34375 -8.15052,-5.855211 -19.43324,-9.46875 -31.90625,-9.46875 -11.2126,0 -21.46479,2.904492 -29.34375,7.75 -6.94581,-3.946339 -15.88858,-6.34375 -25.65625,-6.34375 -22.09139,0 -40,12.165664 -40,27.15625 0,9.667751 7.440809,18.160403 18.65625,22.96875 3.55075,11.3452725 18.61544,19.8750005 36.6875,19.8750005 9.49385,0 18.17494,-2.341093 24.78125,-6.21875 7.09324,5.899289 19.26416,9.8124995 33.09375,9.8124995 16.37296,0 30.42145,-5.4669915 36.46875,-13.24999955 5.13612,1.16496705 10.63938,1.81250005 16.375,1.81250005 27.81148,0 50.375,-14.8750065 50.375,-33.2187505 0,-18.343744 -22.56352,-33.21875 -50.375,-33.21875 z"
           id="text4245-2" />
      </g>
      <text
         sodipodi:linespacing="125%"
         id="text4282"
         y="-42.32188"
         x="195.84976"
         style="font-size:28px;font-style:normal;font-weight:normal;text-align:center;line-height:125%;letter-spacing:0px;word-spacing:0px;text-anchor:middle;fill:#000000;fill-opacity:1;stroke:none;font-family:Sans"
         xml:space="preserve"><tspan
           style="font-size:18px"
           y="-42.32188"
           x="195.84976"
           id="tspan4284"
           sodipodi:role="line">Send M to Agent 2</tspan></text>
    </g>
    <text
       xml:space="preserve"
       style="font-size:20px;font-style:normal;font-weight:normal;line-height:125%;letter-spacing:0px;word-spacing:0px;fill:#000000;fill-opacity:1;stroke:none;font-family:Sans"
       x="80.714287"
       y="176.82098"
       id="text4323"
       sodipodi:linespacing="125%"><tspan
         sodipodi:role="line"
         id="tspan4325"
         x="80.714287"
         y="176.82098">M</tspan></text>
  </g>
  <g
     inkscape:groupmode="layer"
     id="layer3"
     inkscape:label="Search 1 &lt;3&gt;"
     style="display:inline"
     sodipodi:insensitive="true"
     transform="translate(2.0751953e-6,86.254465)">
    <g
       style="display:inline"
       id="g4357">
      <path
         sodipodi:nodetypes="ccsssscc"
         inkscape:connector-curvature="0"
         id="path4328"
         d="m 83.3125,215.96875 44.25,49.59375 c -3.9956,5.62221 -6.125,11.63754 -6.125,17.84375 0,32.7426 62.0824,43.92411 136.04911,43.92411 73.96671,0 127.86607,-10.46722 127.86607,-43.20982 0,-32.7426 -55.68508,-46.09822 -129.65179,-46.09822 -48.01262,0 -90.46552,-2.73222 -114.10714,14.07143 z"
         style="fill:#ffffff;fill-opacity:1;stroke:#000000;stroke-width:1;stroke-miterlimit:4;stroke-opacity:1;stroke-dasharray:none;stroke-dashoffset:0" />
      <text
         sodipodi:linespacing="125%"
         id="text4330"
         y="262.10669"
         x="251.56555"
         style="font-size:28px;font-style:normal;font-weight:normal;line-height:125%;letter-spacing:0px;word-spacing:0px;fill:#000000;fill-opacity:1;stroke:none;font-family:Sans"
         xml:space="preserve"><tspan
           style="font-size:18px;text-align:center;text-anchor:middle"
           y="262.10669"
           x="251.56555"
           id="tspan4332"
           sodipodi:role="line">Whitepages says</tspan><tspan
           style="font-size:18px;text-align:center;text-anchor:middle"
           id="tspan4334"
           y="284.60669"
           x="251.56555"
           sodipodi:role="line">Agent 2 is local.</tspan><tspan
           style="font-size:18px;text-align:center;text-anchor:middle"
           id="tspan4336"
           y="307.10669"
           x="251.56555"
           sodipodi:role="line">Get the agent instance.</tspan></text>
    </g>
    <text
       xml:space="preserve"
       style="font-size:20px;font-style:normal;font-weight:normal;line-height:125%;letter-spacing:0px;word-spacing:0px;fill:#000000;fill-opacity:1;stroke:none;display:inline;font-family:Sans"
       x="95.652901"
       y="218.53958"
       id="text4323-2"
       sodipodi:linespacing="125%"><tspan
         sodipodi:role="line"
         id="tspan4325-1"
         x="95.652901"
         y="218.53958">M</tspan></text>
  </g>
  <g
     inkscape:groupmode="layer"
     id="layer4"
     inkscape:label="Route 1 &lt;4&gt;"
     style="display:inline"
     sodipodi:insensitive="true"
     transform="translate(2.0751953e-6,86.254465)">
    <path
       style="fill:none;stroke:#000000;stroke-width:5;stroke-linecap:butt;stroke-linejoin:miter;stroke-miterlimit:4;stroke-opacity:1;stroke-dasharray:none;marker-end:url(#Arrow2Mend);display:inline"
       d="m 69.228851,234.1243 0.09466,21.24684 240.346399,-0.27941 0.27323,-53.11029"
       id="path3031-2"
       inkscape:connector-curvature="0"
       sodipodi:nodetypes="cccc" />
    <text
       xml:space="preserve"
       style="font-size:20px;font-style:normal;font-weight:normal;line-height:125%;letter-spacing:0px;word-spacing:0px;fill:#000000;fill-opacity:1;stroke:none;display:inline;font-family:Sans"
       x="276.36719"
       y="222.11101"
       id="text4323-5"
       sodipodi:linespacing="125%"><tspan
         sodipodi:role="line"
         id="tspan4325-19"
         x="276.36719"
         y="222.11101">M</tspan></text>
  </g>
  <g
     style="display:inline"
     inkscape:label="Send 2 &lt;5&gt;"
     id="g4634"
     inkscape:groupmode="layer"
     sodipodi:insensitive="true"
     transform="translate(2.0751953e-6,86.254465)">
    <path
       inkscape:connector-curvature="0"
       id="path4636"
       d="m 69.285714,156.24955 0,25"
       style="fill:none;stroke:#000000;stroke-width:1px;stroke-linecap:butt;stroke-linejoin:miter;stroke-opacity:1;marker-end:url(#Arrow2Lend)" />
    <g
       id="g4638">
      <path
         sodipodi:type="arc"
         style="fill:#ffffff;fill-opacity:1;stroke:#000000;stroke-width:1;stroke-miterlimit:4;stroke-opacity:1;stroke-dasharray:none;stroke-dashoffset:0"
         id="path4640"
         sodipodi:cx="13.571428"
         sodipodi:cy="-73.75045"
         sodipodi:rx="5"
         sodipodi:ry="5"
         d="m 18.571428,-73.75045 c 0,2.761424 -2.238576,5 -5,5 -2.761423,0 -4.9999997,-2.238576 -4.9999997,-5 0,-2.761424 2.2385767,-5 4.9999997,-5 2.761424,0 5,2.238576 5,5 z"
         transform="translate(74.285714,89.285714)" />
      <path
         sodipodi:type="arc"
         style="fill:#ffffff;fill-opacity:1;stroke:#000000;stroke-width:1;stroke-miterlimit:4;stroke-opacity:1;stroke-dasharray:none;stroke-dashoffset:0;display:inline"
         id="path4642"
         sodipodi:cx="13.571428"
         sodipodi:cy="-73.75045"
         sodipodi:rx="5"
         sodipodi:ry="5"
         d="m 18.571428,-73.75045 c 0,2.761424 -2.238576,5 -5,5 -2.761423,0 -4.9999997,-2.238576 -4.9999997,-5 0,-2.761424 2.2385767,-5 4.9999997,-5 2.761424,0 5,2.238576 5,5 z"
         transform="translate(85,76.428568)" />
      <path
         sodipodi:type="arc"
         style="fill:#ffffff;fill-opacity:1;stroke:#000000;stroke-width:0.60629922;stroke-miterlimit:4;stroke-opacity:1;stroke-dasharray:none;stroke-dashoffset:0;display:inline"
         id="path4644"
         sodipodi:cx="13.571428"
         sodipodi:cy="-73.75045"
         sodipodi:rx="5"
         sodipodi:ry="5"
         d="m 18.571428,-73.75045 c 0,2.761424 -2.238576,5 -5,5 -2.761423,0 -4.9999997,-2.238576 -4.9999997,-5 0,-2.761424 2.2385767,-5 4.9999997,-5 2.761424,0 5,2.238576 5,5 z"
         transform="matrix(1.6493506,0,0,1.6493506,88.330243,109.31847)" />
      <g
         id="g4646"
         transform="translate(4.2857143,-19.285714)">
        <path
           id="path4648"
           d="m 246.78125,-64.46875 c -15.82205,0 -29.92445,4.816558 -39.15625,12.34375 -8.15052,-5.855211 -19.43324,-9.46875 -31.90625,-9.46875 -11.2126,0 -21.46479,2.904492 -29.34375,7.75 -6.94581,-3.946339 -15.88858,-6.34375 -25.65625,-6.34375 -22.09139,0 -40,12.165664 -40,27.15625 0,9.667751 7.440809,18.160403 18.65625,22.96875 3.55075,11.3452723 18.61544,19.875 36.6875,19.875 9.49385,0 18.17494,-2.3410928 24.78125,-6.21875 7.09324,5.899289 19.26416,9.8125 33.09375,9.8125 16.37296,0 30.42145,-5.4669924 36.46875,-13.25 5.13612,1.164967 10.63938,1.8125 16.375,1.8125 27.81148,0 50.375,-14.875006 50.375,-33.21875 0,-18.343744 -22.56352,-33.21875 -50.375,-33.21875 z"
           style="font-size:20px;font-style:normal;font-weight:normal;text-align:center;line-height:125%;letter-spacing:0px;word-spacing:0px;text-anchor:middle;fill:#ffffff;fill-opacity:1;stroke:none;font-family:Sans"
           inkscape:connector-curvature="0" />
        <path
           id="path4650"
           d="m 246.78125,-64.468751 c -15.82205,0 -29.92445,4.816558 -39.15625,12.34375 -8.15052,-5.855211 -19.43324,-9.46875 -31.90625,-9.46875 -11.2126,0 -21.46479,2.904492 -29.34375,7.75 -6.94581,-3.946339 -15.88858,-6.34375 -25.65625,-6.34375 -22.09139,0 -40,12.165664 -40,27.15625 0,9.667751 7.440809,18.160403 18.65625,22.96875 3.55075,11.3452725 18.61544,19.8750005 36.6875,19.8750005 9.49385,0 18.17494,-2.341093 24.78125,-6.21875 7.09324,5.899289 19.26416,9.8124995 33.09375,9.8124995 16.37296,0 30.42145,-5.4669915 36.46875,-13.24999955 5.13612,1.16496705 10.63938,1.81250005 16.375,1.81250005 27.81148,0 50.375,-14.8750065 50.375,-33.2187505 0,-18.343744 -22.56352,-33.21875 -50.375,-33.21875 z"
           style="font-size:20px;font-style:normal;font-weight:normal;text-align:center;line-height:125%;letter-spacing:0px;word-spacing:0px;text-anchor:middle;fill:none;stroke:#000000;stroke-opacity:1;font-family:Sans"
           inkscape:connector-curvature="0" />
      </g>
      <text
         xml:space="preserve"
         style="font-size:28px;font-style:normal;font-weight:normal;text-align:center;line-height:125%;letter-spacing:0px;word-spacing:0px;text-anchor:middle;fill:#000000;fill-opacity:1;stroke:none;font-family:Sans"
         x="195.84976"
         y="-42.32188"
         id="text4652"
         sodipodi:linespacing="125%"><tspan
           sodipodi:role="line"
           id="tspan4654"
           x="195.84976"
           y="-42.32188"
           style="font-size:18px">Send M to Agent 3</tspan></text>
    </g>
    <text
       sodipodi:linespacing="125%"
       id="text4656"
       y="176.82098"
       x="80.714287"
       style="font-size:20px;font-style:normal;font-weight:normal;line-height:125%;letter-spacing:0px;word-spacing:0px;fill:#000000;fill-opacity:1;stroke:none;font-family:Sans"
       xml:space="preserve"><tspan
         y="176.82098"
         x="80.714287"
         id="tspan4658"
         sodipodi:role="line">M</tspan></text>
  </g>
  <g
     style="display:inline"
     inkscape:label="Search 2 &lt;6&gt;"
     id="g4702"
     inkscape:groupmode="layer"
     sodipodi:insensitive="true"
     transform="translate(2.0751953e-6,86.254465)">
    <g
       id="g4704"
       style="display:inline">
      <path
         style="fill:#ffffff;fill-opacity:1;stroke:#000000;stroke-width:1;stroke-miterlimit:4;stroke-opacity:1;stroke-dasharray:none;stroke-dashoffset:0"
         d="m 83.3125,215.96875 44.25,49.59375 c -3.9956,5.62221 -6.125,11.63754 -6.125,17.84375 0,32.7426 62.0824,43.92411 136.04911,43.92411 73.96671,0 127.86607,-10.46722 127.86607,-43.20982 0,-32.7426 -55.68508,-46.09822 -129.65179,-46.09822 -48.01262,0 -90.46552,-2.73222 -114.10714,14.07143 z"
         id="path4706"
         inkscape:connector-curvature="0"
         sodipodi:nodetypes="ccsssscc" />
      <text
         xml:space="preserve"
         style="font-size:28px;font-style:normal;font-weight:normal;line-height:125%;letter-spacing:0px;word-spacing:0px;fill:#000000;fill-opacity:1;stroke:none;font-family:Sans"
         x="251.56555"
         y="262.10669"
         id="text4708"
         sodipodi:linespacing="125%"><tspan
           sodipodi:role="line"
           id="tspan4710"
           x="251.56555"
           y="262.10669"
           style="font-size:18px;text-align:center;text-anchor:middle">Whitepages says</tspan><tspan
           sodipodi:role="line"
           x="251.56555"
           y="284.60669"
           id="tspan4712"
           style="font-size:18px;text-align:center;text-anchor:middle">Agent 3 is remote.</tspan><tspan
           sodipodi:role="line"
           x="251.56555"
           y="307.10669"
           id="tspan4714"
           style="font-size:18px;text-align:center;text-anchor:middle">Send to Kernel 2.</tspan></text>
    </g>
    <text
       sodipodi:linespacing="125%"
       id="text4716"
       y="218.53958"
       x="95.652901"
       style="font-size:20px;font-style:normal;font-weight:normal;line-height:125%;letter-spacing:0px;word-spacing:0px;fill:#000000;fill-opacity:1;stroke:none;display:inline;font-family:Sans"
       xml:space="preserve"><tspan
         y="218.53958"
         x="95.652901"
         id="tspan4718"
         sodipodi:role="line">M</tspan></text>
  </g>
  <g
     style="display:inline"
     inkscape:label="Route 2a &lt;7&gt;"
     id="g4720"
     inkscape:groupmode="layer"
     sodipodi:insensitive="true"
     transform="translate(2.0751953e-6,86.254465)">
    <path
       sodipodi:nodetypes="ccc"
       inkscape:connector-curvature="0"
       id="path4722"
       d="m 69.228851,234.1243 0.09466,21.24684 594.346399,-0.27941"
       style="fill:none;stroke:#000000;stroke-width:5;stroke-linecap:butt;stroke-linejoin:miter;stroke-miterlimit:4;stroke-opacity:1;stroke-dasharray:none;marker-end:url(#Arrow2Mend);display:inline" />
    <text
       sodipodi:linespacing="125%"
       id="text4724"
       y="246.39673"
       x="499.93863"
       style="font-size:20px;font-style:normal;font-weight:normal;line-height:125%;letter-spacing:0px;word-spacing:0px;fill:#000000;fill-opacity:1;stroke:none;display:inline;font-family:Sans"
       xml:space="preserve"><tspan
         y="246.39673"
         x="499.93863"
         id="tspan4726"
         sodipodi:role="line">M</tspan></text>
    <g
       id="g4783"
       transform="translate(-98.571429,-182.85714)">
      <path
         style="fill:#ffffff;fill-opacity:1;stroke:#000000;stroke-width:1;stroke-miterlimit:4;stroke-opacity:1;stroke-dasharray:none;stroke-dashoffset:0"
         d="m 788.16295,419.07321 -44.25,-49.59375 c 3.9956,-5.62221 6.125,-11.63754 6.125,-17.84375 0,-32.7426 -62.0824,-43.92411 -136.04911,-43.92411 -73.96671,0 -127.86607,10.46722 -127.86607,43.20982 0,32.7426 55.68508,46.09822 129.65179,46.09822 48.01262,0 90.46552,2.73222 114.10714,-14.07143 z"
         id="path4706-5"
         inkscape:connector-curvature="0"
         sodipodi:nodetypes="ccsssscc" />
      <text
         xml:space="preserve"
         style="font-size:28px;font-style:normal;font-weight:normal;line-height:125%;letter-spacing:0px;word-spacing:0px;fill:#000000;fill-opacity:1;stroke:none;font-family:Sans"
         x="619.37579"
         y="336.7067"
         id="text4708-8"
         sodipodi:linespacing="125%"><tspan
           sodipodi:role="line"
           x="619.37579"
           y="336.7067"
           id="tspan4714-1"
           style="font-size:18px;text-align:center;text-anchor:middle">Search for the</tspan><tspan
           sodipodi:role="line"
           x="619.37579"
           y="359.2067"
           style="font-size:18px;text-align:center;text-anchor:middle"
           id="tspan4774">Agent 3 inside the</tspan><tspan
           sodipodi:role="line"
           x="619.37579"
           y="381.7067"
           style="font-size:18px;text-align:center;text-anchor:middle"
           id="tspan4776">local repository.</tspan></text>
    </g>
  </g>
  <g
     inkscape:groupmode="layer"
     id="g4728"
     inkscape:label="Route 2b &lt;8&gt;"
     style="display:inline"
     sodipodi:insensitive="true"
     transform="translate(2.0751953e-6,86.254465)">
    <path
       style="fill:none;stroke:#000000;stroke-width:5;stroke-linecap:butt;stroke-linejoin:miter;stroke-miterlimit:4;stroke-opacity:1;stroke-dasharray:none;marker-end:url(#Arrow2Mend);display:inline"
       d="m 673.32351,255.37114 63.83906,0.73271 0.50734,-53.01212"
       id="path4730"
       inkscape:connector-curvature="0"
       sodipodi:nodetypes="ccc" />
    <text
       xml:space="preserve"
       style="font-size:20px;font-style:normal;font-weight:normal;line-height:125%;letter-spacing:0px;word-spacing:0px;fill:#000000;fill-opacity:1;stroke:none;display:inline;font-family:Sans"
       x="754.93866"
       y="224.96815"
       id="text4732"
       sodipodi:linespacing="125%"><tspan
         sodipodi:role="line"
         id="tspan4734"
         x="754.93866"
         y="224.96815">M</tspan></text>
  </g>
</svg>
