<?xml version="1.0" encoding="UTF-8" standalone="no"?>
<!-- Created with Inkscape (http://www.inkscape.org/) -->

<svg
   xmlns:dc="http://purl.org/dc/elements/1.1/"
   xmlns:cc="http://creativecommons.org/ns#"
   xmlns:rdf="http://www.w3.org/1999/02/22-rdf-syntax-ns#"
   xmlns:svg="http://www.w3.org/2000/svg"
   xmlns="http://www.w3.org/2000/svg"
   xmlns:sodipodi="http://sodipodi.sourceforge.net/DTD/sodipodi-0.dtd"
   xmlns:inkscape="http://www.inkscape.org/namespaces/inkscape"
   width="1229.2549"
   height="319.91153"
   id="svg2"
   version="1.1"
   inkscape:version="0.48.4 r9939"
   sodipodi:docname="msgloop_assert+layers.svg">
  <defs
     id="defs4" />
  <sodipodi:namedview
     id="base"
     pagecolor="#ffffff"
     bordercolor="#666666"
     borderopacity="1.0"
     inkscape:pageopacity="0.0"
     inkscape:pageshadow="2"
     inkscape:zoom="0.7"
     inkscape:cx="347.15139"
     inkscape:cy="-83.106007"
     inkscape:document-units="px"
     inkscape:current-layer="layer1"
     showgrid="false"
     fit-margin-top="2"
     fit-margin-left="2"
     fit-margin-right="2"
     fit-margin-bottom="2"
     inkscape:window-width="1920"
     inkscape:window-height="1056"
     inkscape:window-x="0"
     inkscape:window-y="24"
     inkscape:window-maximized="1" />
  <metadata
     id="metadata7">
    <rdf:RDF>
      <cc:Work
         rdf:about="">
        <dc:format>image/svg+xml</dc:format>
        <dc:type
           rdf:resource="http://purl.org/dc/dcmitype/StillImage" />
        <dc:title />
      </cc:Work>
    </rdf:RDF>
  </metadata>
  <g
     inkscape:label="package"
     inkscape:groupmode="layer"
     id="layer1"
     transform="translate(-45.854008,-244.70389)"
     style="display:inline" />
  <g
     style="display:inline"
     transform="translate(-45.854008,-244.70389)"
     id="g4005"
     inkscape:groupmode="layer"
     inkscape:label="agent"
     sodipodi:insensitive="true">
    <path
       style="opacity:0.5;fill:none;stroke:#008000;stroke-width:5;stroke-linecap:butt;stroke-linejoin:miter;stroke-miterlimit:4;stroke-opacity:1;stroke-dasharray:none;display:inline"
       d="M 750.9504,395.68008 465.07002,502.54193"
       id="path4074-9"
       inkscape:connector-curvature="0"
       sodipodi:nodetypes="cc" />
    <rect
       ry="0"
       y="500.93481"
       x="50.354008"
       height="59.180603"
       width="415.53461"
       id="rect4007"
       style="opacity:0.5;fill:none;stroke:#008000;stroke-width:5;stroke-miterlimit:4;stroke-opacity:1;stroke-dasharray:none;stroke-dashoffset:0" />
    <text
       transform="translate(-203.17687,327.5303)"
       sodipodi:linespacing="125%"
       id="text4009"
       y="314.27408"
       x="581.8479"
       style="font-size:12px;font-style:normal;font-weight:normal;line-height:125%;letter-spacing:0px;word-spacing:0px;fill:#000000;fill-opacity:1;stroke:none;font-family:Sans"
       xml:space="preserve"><tspan
         y="314.27408"
         x="581.8479"
         id="tspan4011"
         sodipodi:role="line" /></text>
    <flowRoot
       transform="translate(-203.17687,327.5303)"
       style="font-size:12px;font-style:normal;font-weight:normal;line-height:125%;letter-spacing:0px;word-spacing:0px;fill:#000000;fill-opacity:1;stroke:none;font-family:Sans"
       id="flowRoot4013"
       xml:space="preserve"><flowRegion
         id="flowRegion4015"><rect
           y="279.92889"
           x="597.00018"
           height="93.944183"
           width="278.80209"
           id="rect4017" /></flowRegion><flowPara
         id="flowPara4019" /></flowRoot>    <g
       transform="translate(199.43079,-93.532983)"
       id="g4021">
      <rect
         style="fill:#ffffff;fill-opacity:1;stroke:#008000;stroke-width:1;stroke-miterlimit:4;stroke-opacity:1;stroke-dasharray:none;stroke-dashoffset:0"
         id="rect4023"
         width="564.19745"
         height="194.30823"
         x="712.15753"
         y="13.206573"
         transform="translate(-203.17687,327.5303)"
         ry="27.274118" />
      <text
         xml:space="preserve"
         style="font-size:40px;font-style:normal;font-weight:normal;line-height:125%;letter-spacing:0px;word-spacing:0px;fill:#000000;fill-opacity:1;stroke:none;font-family:Sans"
         x="529.37738"
         y="405.35474"
         id="text4025"
         sodipodi:linespacing="125%"><tspan
           sodipodi:role="line"
           x="529.37738"
           y="405.35474"
           id="tspan4042"
           style="font-size:56px">How to ensure this</tspan><tspan
           sodipodi:role="line"
           x="529.37738"
           y="475.35474"
           id="tspan3126"
           style="font-size:56px">assertion?</tspan></text>
    </g>
  </g>
</svg>
