<?xml version="1.0" encoding="UTF-8" standalone="no"?>
<!-- Created with Inkscape (http://www.inkscape.org/) -->

<svg
   xmlns:dc="http://purl.org/dc/elements/1.1/"
   xmlns:cc="http://creativecommons.org/ns#"
   xmlns:rdf="http://www.w3.org/1999/02/22-rdf-syntax-ns#"
   xmlns:svg="http://www.w3.org/2000/svg"
   xmlns="http://www.w3.org/2000/svg"
   xmlns:sodipodi="http://sodipodi.sourceforge.net/DTD/sodipodi-0.dtd"
   xmlns:inkscape="http://www.inkscape.org/namespaces/inkscape"
   width="638.10016"
   height="386.56091"
   id="svg3239"
   version="1.1"
   inkscape:version="0.48.4 r9939"
   sodipodi:docname="null_messages+layers.svg">
  <defs
     id="defs3241">
    <marker
       inkscape:stockid="Arrow2Mend"
       orient="auto"
       refY="0"
       refX="0"
       id="Arrow2Mend"
       style="overflow:visible">
      <path
         id="path4129"
         style="fill-rule:evenodd;stroke-width:0.625;stroke-linejoin:round"
         d="M 8.7185878,4.0337352 -2.2072895,0.01601326 8.7185884,-4.0017078 c -1.7454984,2.3720609 -1.7354408,5.6174519 -6e-7,8.035443 z"
         transform="scale(-0.6,-0.6)"
         inkscape:connector-curvature="0" />
    </marker>
    <marker
       inkscape:stockid="Arrow2Mend"
       orient="auto"
       refY="0"
       refX="0"
       id="Arrow2Mend-3"
       style="overflow:visible">
      <path
         id="path4129-6"
         style="fill-rule:evenodd;stroke-width:0.625;stroke-linejoin:round"
         d="M 8.7185878,4.0337352 -2.2072895,0.01601326 8.7185884,-4.0017078 c -1.7454984,2.3720609 -1.7354408,5.6174519 -6e-7,8.035443 z"
         transform="scale(-0.6,-0.6)"
         inkscape:connector-curvature="0" />
    </marker>
    <marker
       inkscape:stockid="Arrow2Mend"
       orient="auto"
       refY="0"
       refX="0"
       id="Arrow2Mend-30"
       style="overflow:visible">
      <path
         id="path4129-2"
         style="fill-rule:evenodd;stroke-width:0.625;stroke-linejoin:round"
         d="M 8.7185878,4.0337352 -2.2072895,0.01601326 8.7185884,-4.0017078 c -1.7454984,2.3720609 -1.7354408,5.6174519 -6e-7,8.035443 z"
         transform="scale(-0.6,-0.6)"
         inkscape:connector-curvature="0" />
    </marker>
    <marker
       inkscape:stockid="Arrow2Mend"
       orient="auto"
       refY="0"
       refX="0"
       id="Arrow2Mend-0"
       style="overflow:visible">
      <path
         id="path4129-3"
         style="fill-rule:evenodd;stroke-width:0.625;stroke-linejoin:round"
         d="M 8.7185878,4.0337352 -2.2072895,0.01601326 8.7185884,-4.0017078 c -1.7454984,2.3720609 -1.7354408,5.6174519 -6e-7,8.035443 z"
         transform="scale(-0.6,-0.6)"
         inkscape:connector-curvature="0" />
    </marker>
    <marker
       inkscape:stockid="Arrow2Mend"
       orient="auto"
       refY="0"
       refX="0"
       id="Arrow2Mend-4"
       style="overflow:visible">
      <path
         id="path4129-9"
         style="fill-rule:evenodd;stroke-width:0.625;stroke-linejoin:round"
         d="M 8.7185878,4.0337352 -2.2072895,0.01601326 8.7185884,-4.0017078 c -1.7454984,2.3720609 -1.7354408,5.6174519 -6e-7,8.035443 z"
         transform="scale(-0.6,-0.6)"
         inkscape:connector-curvature="0" />
    </marker>
    <marker
       style="overflow:visible"
       id="Arrow2Mend-2"
       refX="0"
       refY="0"
       orient="auto"
       inkscape:stockid="Arrow2Mend">
      <path
         inkscape:connector-curvature="0"
         transform="scale(-0.6,-0.6)"
         d="M 8.7185878,4.0337352 -2.2072895,0.01601326 8.7185884,-4.0017078 c -1.7454984,2.3720609 -1.7354408,5.6174519 -6e-7,8.035443 z"
         style="fill-rule:evenodd;stroke-width:0.625;stroke-linejoin:round"
         id="path4129-30" />
    </marker>
  </defs>
  <sodipodi:namedview
     id="base"
     pagecolor="#ffffff"
     bordercolor="#666666"
     borderopacity="1.0"
     inkscape:pageopacity="0.0"
     inkscape:pageshadow="2"
     inkscape:zoom="1.4"
     inkscape:cx="271.41761"
     inkscape:cy="149.91763"
     inkscape:document-units="px"
     inkscape:current-layer="layer5"
     showgrid="false"
     inkscape:window-width="1920"
     inkscape:window-height="1056"
     inkscape:window-x="0"
     inkscape:window-y="24"
     inkscape:window-maximized="1"
     fit-margin-top="2"
     fit-margin-left="2"
     fit-margin-right="2"
     fit-margin-bottom="2" />
  <metadata
     id="metadata3244">
    <rdf:RDF>
      <cc:Work
         rdf:about="">
        <dc:format>image/svg+xml</dc:format>
        <dc:type
           rdf:resource="http://purl.org/dc/dcmitype/StillImage" />
        <dc:title />
      </cc:Work>
    </rdf:RDF>
  </metadata>
  <g
     inkscape:groupmode="layer"
     id="layer2"
     inkscape:label="background &lt;1-&gt;"
     transform="translate(27.251389,-583.11926)"
     sodipodi:insensitive="true">
    <g
       style="fill-rule:evenodd;stroke-width:28.22200012;stroke-linejoin:round;display:inline"
       transform="translate(-187.1639,762.39895)"
       id="g4204" />
    <g
       style="fill-rule:evenodd;stroke-width:1.5;stroke-linejoin:round;stroke-miterlimit:4;stroke-dasharray:none;display:inline"
       id="g4142-7"
       transform="matrix(-1,0,0,1,475.68112,759.50516)" />
    <g
       id="g3237"
       transform="translate(110.10663,-100.0051)">
      <g
         transform="translate(-296.20575,399.76782)"
         id="g4158-0-6"
         style="fill-rule:evenodd;stroke-width:28.22200012;stroke-linejoin:round">
        <path
           sodipodi:type="arc"
           style="fill:#faeec9;fill-opacity:1;fill-rule:nonzero;stroke:#290000;stroke-width:1.42102122;stroke-linecap:butt;stroke-linejoin:miter;stroke-miterlimit:4;stroke-opacity:1;stroke-dasharray:none;stroke-dashoffset:0"
           id="path2984-4-1-8-1-8-8"
           sodipodi:cx="88.068443"
           sodipodi:cy="229.64684"
           sodipodi:rx="16.721857"
           sodipodi:ry="15.607066"
           d="m 104.7903,229.64684 c 0,8.61954 -7.48663,15.60706 -16.721857,15.60706 -9.235226,0 -16.721857,-6.98752 -16.721857,-15.60706 0,-8.61955 7.486631,-15.60707 16.721857,-15.60707 9.235227,0 16.721857,6.98752 16.721857,15.60707 z"
           transform="matrix(0.694239,0,0,0.713329,523.93293,300.22949)" />
        <rect
           style="fill:#faeec9;fill-opacity:1;fill-rule:nonzero;stroke:#290000;stroke-width:1;stroke-linecap:butt;stroke-linejoin:miter;stroke-miterlimit:4;stroke-opacity:1;stroke-dasharray:none;stroke-dashoffset:0"
           id="rect2986-6-6-7-5-3-8"
           width="24.658264"
           height="29.692095"
           x="572.74432"
           y="475.08777"
           rx="6.6667728"
           ry="2.1258495" />
      </g>
      <text
         sodipodi:linespacing="125%"
         id="text4704"
         y="871.95233"
         x="288.67972"
         style="font-size:24px;font-style:normal;font-weight:normal;text-align:center;line-height:125%;letter-spacing:0px;word-spacing:0px;text-anchor:middle;fill:#000000;fill-opacity:1;fill-rule:evenodd;stroke:none;font-family:Sans"
         xml:space="preserve"><tspan
           style="font-size:22px"
           y="871.95233"
           x="288.67972"
           id="tspan4706"
           sodipodi:role="line">A</tspan></text>
    </g>
    <g
       id="g3237-9"
       transform="translate(-64.613841,-33.332004)">
      <g
         transform="translate(-296.20575,399.76782)"
         id="g4158-0-6-8"
         style="fill-rule:evenodd;stroke-width:28.22200012;stroke-linejoin:round">
        <path
           sodipodi:type="arc"
           style="fill:#faeec9;fill-opacity:1;fill-rule:nonzero;stroke:#290000;stroke-width:1.42102122;stroke-linecap:butt;stroke-linejoin:miter;stroke-miterlimit:4;stroke-opacity:1;stroke-dasharray:none;stroke-dashoffset:0"
           id="path2984-4-1-8-1-8-8-3"
           sodipodi:cx="88.068443"
           sodipodi:cy="229.64684"
           sodipodi:rx="16.721857"
           sodipodi:ry="15.607066"
           d="m 104.7903,229.64684 c 0,8.61954 -7.48663,15.60706 -16.721857,15.60706 -9.235226,0 -16.721857,-6.98752 -16.721857,-15.60706 0,-8.61955 7.486631,-15.60707 16.721857,-15.60707 9.235227,0 16.721857,6.98752 16.721857,15.60707 z"
           transform="matrix(0.694239,0,0,0.713329,523.93293,300.22949)" />
        <rect
           style="fill:#faeec9;fill-opacity:1;fill-rule:nonzero;stroke:#290000;stroke-width:1;stroke-linecap:butt;stroke-linejoin:miter;stroke-miterlimit:4;stroke-opacity:1;stroke-dasharray:none;stroke-dashoffset:0"
           id="rect2986-6-6-7-5-3-8-6"
           width="24.658264"
           height="29.692095"
           x="572.74432"
           y="475.08777"
           rx="6.6667728"
           ry="2.1258495" />
      </g>
      <text
         sodipodi:linespacing="125%"
         id="text4704-6"
         y="871.95233"
         x="288.67972"
         style="font-size:24px;font-style:normal;font-weight:normal;text-align:center;line-height:125%;letter-spacing:0px;word-spacing:0px;text-anchor:middle;fill:#000000;fill-opacity:1;fill-rule:evenodd;stroke:none;font-family:Sans"
         xml:space="preserve"><tspan
           style="font-size:22px"
           y="871.95233"
           x="288.67972"
           id="tspan4706-2"
           sodipodi:role="line">B</tspan></text>
    </g>
    <g
       id="g3237-7"
       transform="translate(3.0663796,-171.7229)">
      <g
         transform="translate(-296.20575,399.76782)"
         id="g4158-0-6-80"
         style="fill-rule:evenodd;stroke-width:28.22200012;stroke-linejoin:round">
        <path
           sodipodi:type="arc"
           style="fill:#faeec9;fill-opacity:1;fill-rule:nonzero;stroke:#290000;stroke-width:1.42102122;stroke-linecap:butt;stroke-linejoin:miter;stroke-miterlimit:4;stroke-opacity:1;stroke-dasharray:none;stroke-dashoffset:0"
           id="path2984-4-1-8-1-8-8-32"
           sodipodi:cx="88.068443"
           sodipodi:cy="229.64684"
           sodipodi:rx="16.721857"
           sodipodi:ry="15.607066"
           d="m 104.7903,229.64684 c 0,8.61954 -7.48663,15.60706 -16.721857,15.60706 -9.235226,0 -16.721857,-6.98752 -16.721857,-15.60706 0,-8.61955 7.486631,-15.60707 16.721857,-15.60707 9.235227,0 16.721857,6.98752 16.721857,15.60707 z"
           transform="matrix(0.694239,0,0,0.713329,523.93293,300.22949)" />
        <rect
           style="fill:#faeec9;fill-opacity:1;fill-rule:nonzero;stroke:#290000;stroke-width:1;stroke-linecap:butt;stroke-linejoin:miter;stroke-miterlimit:4;stroke-opacity:1;stroke-dasharray:none;stroke-dashoffset:0"
           id="rect2986-6-6-7-5-3-8-5"
           width="24.658264"
           height="29.692095"
           x="572.74432"
           y="475.08777"
           rx="6.6667728"
           ry="2.1258495" />
      </g>
      <text
         sodipodi:linespacing="125%"
         id="text4704-9"
         y="871.95233"
         x="288.67972"
         style="font-size:24px;font-style:normal;font-weight:normal;text-align:center;line-height:125%;letter-spacing:0px;word-spacing:0px;text-anchor:middle;fill:#000000;fill-opacity:1;fill-rule:evenodd;stroke:none;font-family:Sans"
         xml:space="preserve"><tspan
           style="font-size:22px"
           y="871.95233"
           x="288.67972"
           id="tspan4706-4"
           sodipodi:role="line">C</tspan></text>
    </g>
    <g
       id="g3237-4"
       transform="translate(17.208515,62.632488)">
      <g
         transform="translate(-296.20575,399.76782)"
         id="g4158-0-6-86"
         style="fill-rule:evenodd;stroke-width:28.22200012;stroke-linejoin:round">
        <path
           sodipodi:type="arc"
           style="fill:#faeec9;fill-opacity:1;fill-rule:nonzero;stroke:#290000;stroke-width:1.42102122;stroke-linecap:butt;stroke-linejoin:miter;stroke-miterlimit:4;stroke-opacity:1;stroke-dasharray:none;stroke-dashoffset:0"
           id="path2984-4-1-8-1-8-8-4"
           sodipodi:cx="88.068443"
           sodipodi:cy="229.64684"
           sodipodi:rx="16.721857"
           sodipodi:ry="15.607066"
           d="m 104.7903,229.64684 c 0,8.61954 -7.48663,15.60706 -16.721857,15.60706 -9.235226,0 -16.721857,-6.98752 -16.721857,-15.60706 0,-8.61955 7.486631,-15.60707 16.721857,-15.60707 9.235227,0 16.721857,6.98752 16.721857,15.60707 z"
           transform="matrix(0.694239,0,0,0.713329,523.93293,300.22949)" />
        <rect
           style="fill:#faeec9;fill-opacity:1;fill-rule:nonzero;stroke:#290000;stroke-width:1;stroke-linecap:butt;stroke-linejoin:miter;stroke-miterlimit:4;stroke-opacity:1;stroke-dasharray:none;stroke-dashoffset:0"
           id="rect2986-6-6-7-5-3-8-51"
           width="24.658264"
           height="29.692095"
           x="572.74432"
           y="475.08777"
           rx="6.6667728"
           ry="2.1258495" />
      </g>
      <text
         sodipodi:linespacing="125%"
         id="text4704-8"
         y="871.95233"
         x="288.67972"
         style="font-size:24px;font-style:normal;font-weight:normal;text-align:center;line-height:125%;letter-spacing:0px;word-spacing:0px;text-anchor:middle;fill:#000000;fill-opacity:1;fill-rule:evenodd;stroke:none;font-family:Sans"
         xml:space="preserve"><tspan
           style="font-size:22px"
           y="871.95233"
           x="288.67972"
           id="tspan4706-1"
           sodipodi:role="line">D</tspan></text>
    </g>
    <g
       id="g3237-8"
       transform="translate(164.69079,27.277148)">
      <g
         transform="translate(-296.20575,399.76782)"
         id="g4158-0-6-5"
         style="fill-rule:evenodd;stroke-width:28.22200012;stroke-linejoin:round">
        <path
           sodipodi:type="arc"
           style="fill:#faeec9;fill-opacity:1;fill-rule:nonzero;stroke:#290000;stroke-width:1.42102122;stroke-linecap:butt;stroke-linejoin:miter;stroke-miterlimit:4;stroke-opacity:1;stroke-dasharray:none;stroke-dashoffset:0"
           id="path2984-4-1-8-1-8-8-2"
           sodipodi:cx="88.068443"
           sodipodi:cy="229.64684"
           sodipodi:rx="16.721857"
           sodipodi:ry="15.607066"
           d="m 104.7903,229.64684 c 0,8.61954 -7.48663,15.60706 -16.721857,15.60706 -9.235226,0 -16.721857,-6.98752 -16.721857,-15.60706 0,-8.61955 7.486631,-15.60707 16.721857,-15.60707 9.235227,0 16.721857,6.98752 16.721857,15.60707 z"
           transform="matrix(0.694239,0,0,0.713329,523.93293,300.22949)" />
        <rect
           style="fill:#faeec9;fill-opacity:1;fill-rule:nonzero;stroke:#290000;stroke-width:1;stroke-linecap:butt;stroke-linejoin:miter;stroke-miterlimit:4;stroke-opacity:1;stroke-dasharray:none;stroke-dashoffset:0"
           id="rect2986-6-6-7-5-3-8-60"
           width="24.658264"
           height="29.692095"
           x="572.74432"
           y="475.08777"
           rx="6.6667728"
           ry="2.1258495" />
      </g>
      <text
         sodipodi:linespacing="125%"
         id="text4704-2"
         y="871.95233"
         x="288.67972"
         style="font-size:24px;font-style:normal;font-weight:normal;text-align:center;line-height:125%;letter-spacing:0px;word-spacing:0px;text-anchor:middle;fill:#000000;fill-opacity:1;fill-rule:evenodd;stroke:none;font-family:Sans"
         xml:space="preserve"><tspan
           style="font-size:22px"
           y="871.95233"
           x="288.67972"
           id="tspan4706-3"
           sodipodi:role="line">E</tspan></text>
    </g>
    <path
       style="fill:none;stroke:#000000;stroke-width:1;stroke-linecap:butt;stroke-linejoin:miter;stroke-miterlimit:4.19999981;stroke-opacity:1;stroke-dasharray:none;marker-end:url(#Arrow2Mend)"
       d="M 380.82751,229.15123 241.42646,280.66901"
       id="path3328"
       inkscape:connector-curvature="0"
       transform="translate(-1.6609344e-7,570.67279)" />
    <path
       style="fill:none;stroke:#000000;stroke-width:1px;stroke-linecap:butt;stroke-linejoin:miter;stroke-opacity:1;marker-end:url(#Arrow2Mend)"
       d="m 235.735,812.45092 44.44672,-72.73098"
       id="path3328-4"
       inkscape:connector-curvature="0"
       sodipodi:nodetypes="cc" />
    <path
       style="fill:none;stroke:#000000;stroke-width:1px;stroke-linecap:butt;stroke-linejoin:miter;stroke-opacity:1;marker-end:url(#Arrow2Mend)"
       d="m 310.48629,730.62857 70.71069,23.23351"
       id="path3328-6"
       inkscape:connector-curvature="0"
       sodipodi:nodetypes="cc" />
    <path
       style="fill:none;stroke:#000000;stroke-width:1px;stroke-linecap:butt;stroke-linejoin:miter;stroke-opacity:1;marker-end:url(#Arrow2Mend)"
       d="m 238.76546,874.07023 50.50763,45.45686"
       id="path3328-7"
       inkscape:connector-curvature="0"
       sodipodi:nodetypes="cc" />
    <path
       style="fill:none;stroke:#000000;stroke-width:1px;stroke-linecap:butt;stroke-linejoin:miter;stroke-opacity:1;marker-end:url(#Arrow2Mend)"
       d="M 323.61828,949.83167 436.75536,907.40526"
       id="path3328-44"
       inkscape:connector-curvature="0"
       sodipodi:nodetypes="cc" />
    <path
       style="fill:none;stroke:#000000;stroke-width:1px;stroke-linecap:butt;stroke-linejoin:miter;stroke-opacity:1;marker-end:url(#Arrow2Mend)"
       d="M 445.84673,877.10068 416.55232,805.37985"
       id="path3328-2"
       inkscape:connector-curvature="0"
       sodipodi:nodetypes="cc" />
    <text
       xml:space="preserve"
       style="font-size:28px;font-style:normal;font-weight:normal;line-height:125%;letter-spacing:0px;word-spacing:0px;fill:#000000;fill-opacity:1;stroke:none;font-family:Sans"
       x="8.0812216"
       y="601.83411"
       id="text4610"
       sodipodi:linespacing="125%"><tspan
         sodipodi:role="line"
         x="8.0812216"
         y="601.83411"
         id="tspan4614"
         style="font-size:22px">t=0 : A generates the start event.</tspan></text>
  </g>
  <g
     inkscape:groupmode="layer"
     id="layer1"
     inkscape:label="A0 &lt;1&gt;"
     style="display:inline"
     sodipodi:insensitive="true"
     transform="translate(27.251389,-12.446473)">
    <text
       xml:space="preserve"
       style="font-size:28px;font-style:normal;font-weight:bold;line-height:125%;letter-spacing:0px;word-spacing:0px;fill:#a20d59;fill-opacity:1;stroke:none;font-family:Sans;-inkscape-font-specification:Sans Bold"
       x="388.83023"
       y="229.02461"
       id="text4617"
       sodipodi:linespacing="125%"><tspan
         sodipodi:role="line"
         id="tspan4619"
         x="388.83023"
         y="229.02461">0</tspan></text>
  </g>
  <g
     style="display:inline"
     inkscape:label="A4 &lt;2-8&gt;"
     id="g5225"
     inkscape:groupmode="layer"
     sodipodi:insensitive="true"
     transform="translate(27.251389,-12.446473)">
    <text
       sodipodi:linespacing="125%"
       id="text5227"
       y="229.02461"
       x="388.83023"
       style="font-size:28px;font-style:normal;font-weight:bold;line-height:125%;letter-spacing:0px;word-spacing:0px;fill:#a20d59;fill-opacity:1;stroke:none;font-family:Sans;-inkscape-font-specification:Sans Bold"
       xml:space="preserve"><tspan
         y="229.02461"
         x="388.83023"
         id="tspan5229"
         sodipodi:role="line">4</tspan></text>
  </g>
  <g
     transform="translate(27.251389,-12.446473)"
     inkscape:groupmode="layer"
     id="g4102"
     inkscape:label="A27 &lt;9&gt;"
     style="display:inline"
     sodipodi:insensitive="true">
    <text
       xml:space="preserve"
       style="font-size:28px;font-style:normal;font-weight:bold;line-height:125%;letter-spacing:0px;word-spacing:0px;fill:#a20d59;fill-opacity:1;stroke:none;font-family:Sans;-inkscape-font-specification:Sans Bold"
       x="378.83023"
       y="229.02461"
       id="text4104"
       sodipodi:linespacing="125%"><tspan
         sodipodi:role="line"
         id="tspan4106"
         x="378.83023"
         y="229.02461">27</tspan></text>
  </g>
  <g
     style="display:inline"
     inkscape:label="B0 &lt;1-2&gt;"
     id="g5093"
     inkscape:groupmode="layer"
     sodipodi:insensitive="true"
     transform="translate(27.251389,-12.446473)">
    <text
       sodipodi:linespacing="125%"
       id="text5103"
       y="296.16745"
       x="213.83022"
       style="font-size:28px;font-style:normal;font-weight:bold;line-height:125%;letter-spacing:0px;word-spacing:0px;fill:#a20d59;fill-opacity:1;stroke:none;font-family:Sans;-inkscape-font-specification:Sans Bold"
       xml:space="preserve"><tspan
         y="296.16745"
         x="213.83022"
         id="tspan5105"
         sodipodi:role="line">0</tspan></text>
  </g>
  <g
     inkscape:groupmode="layer"
     id="g5231"
     inkscape:label="B4 &lt;3&gt;"
     style="display:inline"
     sodipodi:insensitive="true"
     transform="translate(27.251389,-12.446473)">
    <text
       xml:space="preserve"
       style="font-size:28px;font-style:normal;font-weight:bold;line-height:125%;letter-spacing:0px;word-spacing:0px;fill:#a20d59;fill-opacity:1;stroke:none;font-family:Sans;-inkscape-font-specification:Sans Bold"
       x="213.83022"
       y="296.16745"
       id="text5233"
       sodipodi:linespacing="125%"><tspan
         sodipodi:role="line"
         id="tspan5235"
         x="213.83022"
         y="296.16745">4</tspan></text>
  </g>
  <g
     transform="translate(27.251389,-12.446473)"
     style="display:inline"
     inkscape:label="B27 &lt;4-9&gt;"
     id="g3097"
     inkscape:groupmode="layer"
     sodipodi:insensitive="true">
    <text
       sodipodi:linespacing="125%"
       id="text3099"
       y="296.16745"
       x="203.83022"
       style="font-size:28px;font-style:normal;font-weight:bold;line-height:125%;letter-spacing:0px;word-spacing:0px;fill:#a20d59;fill-opacity:1;stroke:none;font-family:Sans;-inkscape-font-specification:Sans Bold"
       xml:space="preserve"><tspan
         y="296.16745"
         x="203.83022"
         id="tspan3101"
         sodipodi:role="line">27</tspan></text>
  </g>
  <g
     inkscape:groupmode="layer"
     id="g5115"
     inkscape:label="C0 &lt;1-4&gt;"
     style="display:inline"
     sodipodi:insensitive="true"
     transform="translate(27.251389,-12.446473)">
    <text
       xml:space="preserve"
       style="font-size:28px;font-style:normal;font-weight:bold;line-height:125%;letter-spacing:0px;word-spacing:0px;fill:#a20d59;fill-opacity:1;stroke:none;font-family:Sans;-inkscape-font-specification:Sans Bold"
       x="281.68735"
       y="156.88174"
       id="text5121"
       sodipodi:linespacing="125%"><tspan
         sodipodi:role="line"
         id="tspan5123"
         x="281.68735"
         y="156.88174">0</tspan></text>
  </g>
  <g
     transform="translate(27.251389,-12.446473)"
     style="display:inline"
     inkscape:label="C27 &lt;5&gt;"
     id="g3943"
     inkscape:groupmode="layer"
     sodipodi:insensitive="true">
    <text
       sodipodi:linespacing="125%"
       id="text3945"
       y="156.88174"
       x="271.68735"
       style="font-size:28px;font-style:normal;font-weight:bold;line-height:125%;letter-spacing:0px;word-spacing:0px;fill:#a20d59;fill-opacity:1;stroke:none;font-family:Sans;-inkscape-font-specification:Sans Bold"
       xml:space="preserve"><tspan
         y="156.88174"
         x="271.68735"
         id="tspan3947"
         sodipodi:role="line">27</tspan></text>
  </g>
  <g
     inkscape:groupmode="layer"
     id="g4050"
     inkscape:label="C28 &lt;6-9&gt;"
     style="display:inline"
     transform="translate(27.251389,-12.446473)"
     sodipodi:insensitive="true">
    <text
       xml:space="preserve"
       style="font-size:28px;font-style:normal;font-weight:bold;line-height:125%;letter-spacing:0px;word-spacing:0px;fill:#a20d59;fill-opacity:1;stroke:none;font-family:Sans;-inkscape-font-specification:Sans Bold"
       x="271.68735"
       y="156.88174"
       id="text4052"
       sodipodi:linespacing="125%"><tspan
         sodipodi:role="line"
         id="tspan4054"
         x="271.68735"
         y="156.88174">28</tspan></text>
  </g>
  <g
     style="display:inline"
     inkscape:label="D0 &lt;1-4&gt;"
     id="g5137"
     inkscape:groupmode="layer"
     sodipodi:insensitive="true"
     transform="translate(27.251389,-12.446473)">
    <text
       sodipodi:linespacing="125%"
       id="text5151"
       y="391.88174"
       x="296.68735"
       style="font-size:28px;font-style:normal;font-weight:bold;line-height:125%;letter-spacing:0px;word-spacing:0px;fill:#a20d59;fill-opacity:1;stroke:none;font-family:Sans;-inkscape-font-specification:Sans Bold"
       xml:space="preserve"><tspan
         y="391.88174"
         x="296.68735"
         id="tspan5153"
         sodipodi:role="line">0</tspan></text>
  </g>
  <g
     transform="translate(27.251389,-12.446473)"
     inkscape:groupmode="layer"
     id="g3949"
     inkscape:label="D27 &lt;5-9&gt;"
     style="display:inline"
     sodipodi:insensitive="true">
    <text
       xml:space="preserve"
       style="font-size:28px;font-style:normal;font-weight:bold;line-height:125%;letter-spacing:0px;word-spacing:0px;fill:#a20d59;fill-opacity:1;stroke:none;font-family:Sans;-inkscape-font-specification:Sans Bold"
       x="286.68735"
       y="391.88174"
       id="text3951"
       sodipodi:linespacing="125%"><tspan
         sodipodi:role="line"
         id="tspan3953"
         x="286.68735"
         y="391.88174">27</tspan></text>
  </g>
  <g
     inkscape:groupmode="layer"
     id="g5159"
     inkscape:label="E0 &lt;1-6&gt;"
     style="display:inline"
     sodipodi:insensitive="true"
     transform="translate(27.251389,-12.446473)">
    <text
       xml:space="preserve"
       style="font-size:28px;font-style:normal;font-weight:bold;line-height:125%;letter-spacing:0px;word-spacing:0px;fill:#a20d59;fill-opacity:1;stroke:none;font-family:Sans;-inkscape-font-specification:Sans Bold"
       x="443.97308"
       y="356.88174"
       id="text5177"
       sodipodi:linespacing="125%"><tspan
         sodipodi:role="line"
         id="tspan5179"
         x="443.97308"
         y="356.88174">0</tspan></text>
  </g>
  <g
     transform="translate(27.251389,-12.446473)"
     style="display:inline"
     inkscape:label="E27 &lt;7-9&gt;"
     id="g4044"
     inkscape:groupmode="layer"
     sodipodi:insensitive="true">
    <text
       sodipodi:linespacing="125%"
       id="text4046"
       y="356.88174"
       x="433.97308"
       style="font-size:28px;font-style:normal;font-weight:bold;line-height:125%;letter-spacing:0px;word-spacing:0px;fill:#a20d59;fill-opacity:1;stroke:none;font-family:Sans;-inkscape-font-specification:Sans Bold"
       xml:space="preserve"><tspan
         y="356.88174"
         x="433.97308"
         id="tspan4048"
         sodipodi:role="line">27</tspan></text>
  </g>
  <g
     inkscape:groupmode="layer"
     id="layer3"
     inkscape:label="t0send &lt;2-3&gt;"
     style="display:inline"
     sodipodi:insensitive="true"
     transform="translate(27.251389,-12.446473)">
    <path
       style="fill:none;stroke:#000000;stroke-width:5;stroke-linecap:butt;stroke-linejoin:miter;stroke-miterlimit:4.19999981;stroke-opacity:1;stroke-dasharray:none;marker-end:url(#Arrow2Mend)"
       d="M 380.82751,229.15123 241.42646,280.66901"
       id="path3328-0"
       inkscape:connector-curvature="0" />
    <text
       xml:space="preserve"
       style="font-size:28px;font-style:normal;font-weight:normal;line-height:125%;letter-spacing:0px;word-spacing:0px;fill:#000000;fill-opacity:1;stroke:none;font-family:Sans"
       x="305.71429"
       y="285.97507"
       id="text5089"
       sodipodi:linespacing="125%"><tspan
         sodipodi:role="line"
         id="tspan5091"
         x="305.71429"
         y="285.97507">tm=4</tspan></text>
  </g>
  <g
     transform="translate(27.251389,-12.446473)"
     style="display:inline"
     inkscape:label="csend28 &lt;6-7&gt;"
     id="g3955"
     inkscape:groupmode="layer"
     sodipodi:insensitive="true">
    <text
       sodipodi:linespacing="125%"
       id="text3959"
       y="145.26079"
       x="338.57144"
       style="font-size:28px;font-style:normal;font-weight:normal;line-height:125%;letter-spacing:0px;word-spacing:0px;fill:#000000;fill-opacity:1;stroke:none;font-family:Sans"
       xml:space="preserve"><tspan
         y="145.26079"
         x="338.57144"
         id="tspan3961"
         sodipodi:role="line">tm=28</tspan></text>
    <path
       style="fill:none;stroke:#000000;stroke-width:5;stroke-linecap:butt;stroke-linejoin:miter;stroke-miterlimit:4;stroke-opacity:1;stroke-dasharray:none;marker-end:url(#Arrow2Mend)"
       d="m 310.48629,159.95579 70.71069,23.23351"
       id="path3328-6-7"
       inkscape:connector-curvature="0"
       sodipodi:nodetypes="cc" />
    <path
       style="fill:none;stroke:#000000;stroke-width:5;stroke-linecap:butt;stroke-linejoin:miter;stroke-miterlimit:4;stroke-opacity:1;stroke-dasharray:none;marker-end:url(#Arrow2Mend)"
       d="M 323.61828,379.15888 436.75536,336.73247"
       id="path3328-44-0"
       inkscape:connector-curvature="0"
       sodipodi:nodetypes="cc" />
    <text
       sodipodi:linespacing="125%"
       id="text3959-5"
       y="390.62833"
       x="388.20871"
       style="font-size:28px;font-style:normal;font-weight:normal;line-height:125%;letter-spacing:0px;word-spacing:0px;fill:#000000;fill-opacity:1;stroke:none;display:inline;font-family:Sans"
       xml:space="preserve"><tspan
         y="390.62833"
         x="388.20871"
         id="tspan3961-4"
         sodipodi:role="line">NULL(tm=27)</tspan></text>
  </g>
  <g
     inkscape:groupmode="layer"
     id="layer4"
     inkscape:label="bsend27 &lt;4-5&gt;"
     style="display:inline"
     transform="translate(27.251389,-12.446473)"
     sodipodi:insensitive="true">
    <path
       style="fill:none;stroke:#000000;stroke-width:5;stroke-linecap:butt;stroke-linejoin:miter;stroke-miterlimit:4;stroke-opacity:1;stroke-dasharray:none;marker-end:url(#Arrow2Mend)"
       d="m 235.735,241.77813 44.44672,-72.73098"
       id="path3328-4-6"
       inkscape:connector-curvature="0"
       sodipodi:nodetypes="cc" />
    <text
       xml:space="preserve"
       style="font-size:28px;font-style:normal;font-weight:normal;line-height:125%;letter-spacing:0px;word-spacing:0px;fill:#000000;fill-opacity:1;stroke:none;display:inline;font-family:Sans"
       x="267.77469"
       y="226.18114"
       id="text5089-7"
       sodipodi:linespacing="125%"><tspan
         sodipodi:role="line"
         id="tspan5091-4"
         x="267.77469"
         y="226.18114">tm=27</tspan></text>
    <path
       style="fill:none;stroke:#000000;stroke-width:5;stroke-linecap:butt;stroke-linejoin:miter;stroke-miterlimit:4;stroke-opacity:1;stroke-dasharray:none;marker-end:url(#Arrow2Mend)"
       d="m 238.76546,303.39744 50.50763,45.45686"
       id="path3328-7-0"
       inkscape:connector-curvature="0"
       sodipodi:nodetypes="cc" />
    <text
       xml:space="preserve"
       style="font-size:28px;font-style:normal;font-weight:normal;line-height:125%;letter-spacing:0px;word-spacing:0px;fill:#000000;fill-opacity:1;stroke:none;display:inline;font-family:Sans"
       x="59.162251"
       y="345.82657"
       id="text5089-7-6"
       sodipodi:linespacing="125%"><tspan
         sodipodi:role="line"
         id="tspan5091-4-9"
         x="59.162251"
         y="345.82657">NULL(tm=27)</tspan></text>
  </g>
  <g
     transform="translate(27.251389,-12.446473)"
     style="display:inline"
     inkscape:label="esend27 &lt;8-9&gt;"
     id="g4062"
     inkscape:groupmode="layer"
     sodipodi:insensitive="true">
    <text
       sodipodi:linespacing="125%"
       id="text4072"
       y="247.96942"
       x="447.01941"
       style="font-size:28px;font-style:normal;font-weight:normal;line-height:125%;letter-spacing:0px;word-spacing:0px;fill:#000000;fill-opacity:1;stroke:none;display:inline;font-family:Sans"
       xml:space="preserve"><tspan
         y="247.96942"
         x="447.01941"
         id="tspan4074"
         sodipodi:role="line">NULL</tspan><tspan
         y="282.96942"
         x="447.01941"
         sodipodi:role="line"
         id="tspan4100">(tm=27)</tspan></text>
    <path
       style="fill:none;stroke:#000000;stroke-width:5;stroke-linecap:butt;stroke-linejoin:miter;stroke-miterlimit:4;stroke-opacity:1;stroke-dasharray:none;marker-end:url(#Arrow2Mend)"
       d="M 445.84673,306.42789 416.55232,234.70706"
       id="path3328-2-0"
       inkscape:connector-curvature="0"
       sodipodi:nodetypes="cc" />
  </g>
  <g
     style="display:inline"
     inkscape:label="Bdecide &lt;4&gt;"
     id="g5328"
     inkscape:groupmode="layer"
     transform="translate(27.251389,-12.446473)"
     sodipodi:insensitive="true">
    <g
       transform="translate(47.142857,-102.85714)"
       id="g5330">
      <rect
         ry="0"
         rx="0"
         y="169.61067"
         x="-33.749725"
         height="132.14287"
         width="222.85715"
         id="rect5332"
         style="fill:#edf6ff;fill-opacity:1;stroke:#000000;stroke-opacity:1" />
      <text
         sodipodi:linespacing="125%"
         id="text5334"
         y="192.2711"
         x="77.94252"
         style="font-size:28px;font-style:normal;font-weight:normal;text-align:center;line-height:125%;letter-spacing:0px;word-spacing:0px;text-anchor:middle;fill:#000000;fill-opacity:1;stroke:none;font-family:Sans"
         xml:space="preserve"><tspan
           y="192.2711"
           x="77.94252"
           id="tspan5336"
           sodipodi:role="line"
           style="font-size:20px">Agent B decide</tspan><tspan
           y="217.2711"
           x="77.94252"
           sodipodi:role="line"
           style="font-size:20px"
           id="tspan5338">to send a message</tspan><tspan
           y="242.2711"
           x="77.94252"
           sodipodi:role="line"
           style="font-size:20px"
           id="tspan5340">to agent C only.</tspan><tspan
           y="267.27112"
           x="77.94252"
           sodipodi:role="line"
           style="font-size:20px"
           id="tspan3093">NULL message</tspan><tspan
           y="292.27112"
           x="77.94252"
           sodipodi:role="line"
           style="font-size:20px"
           id="tspan3095">for agent D.</tspan></text>
    </g>
  </g>
  <g
     inkscape:groupmode="layer"
     id="layer5"
     inkscape:label="end &lt;9&gt;"
     sodipodi:insensitive="true"
     style="display:inline">
    <text
       sodipodi:linespacing="125%"
       id="text5418-7"
       y="79.253288"
       x="138.39371"
       style="font-size:28px;font-style:normal;font-weight:bold;text-align:center;line-height:125%;letter-spacing:0px;word-spacing:0px;text-anchor:middle;fill:#a20d59;fill-opacity:1;stroke:none;display:inline;font-family:Sans;-inkscape-font-specification:Sans Bold"
       xml:space="preserve"><tspan
         y="79.253288"
         x="138.39371"
         sodipodi:role="line"
         id="tspan4365">Deadlock is still</tspan><tspan
         y="114.25329"
         x="138.39371"
         sodipodi:role="line"
         id="tspan4369">possible if only</tspan><tspan
         y="149.2533"
         x="138.39371"
         sodipodi:role="line"
         id="tspan4371">NULL messages</tspan><tspan
         y="184.2533"
         x="138.39371"
         sodipodi:role="line"
         id="tspan4377">are exchanged.</tspan></text>
    <text
       sodipodi:linespacing="125%"
       id="text5418-7-4"
       y="291.67615"
       x="128.47572"
       style="font-size:28px;font-style:normal;font-weight:bold;text-align:center;line-height:125%;letter-spacing:0px;word-spacing:0px;text-anchor:middle;fill:#a20d59;fill-opacity:1;stroke:none;display:inline;font-family:Sans;-inkscape-font-specification:Sans Bold"
       xml:space="preserve"><tspan
         y="291.67615"
         x="128.47572"
         sodipodi:role="line"
         id="tspan4377-0"
         style="fill:#000000">Solution:</tspan><tspan
         y="326.67615"
         x="128.47572"
         sodipodi:role="line"
         style="fill:#000000"
         id="tspan4422">tm of NULL</tspan><tspan
         y="361.67615"
         x="128.47572"
         sodipodi:role="line"
         style="fill:#000000"
         id="tspan4424">= tm + epsilon</tspan></text>
  </g>
</svg>
