<?xml version="1.0" encoding="UTF-8" standalone="no"?>
<!-- Created with Inkscape (http://www.inkscape.org/) -->

<svg
   xmlns:dc="http://purl.org/dc/elements/1.1/"
   xmlns:cc="http://creativecommons.org/ns#"
   xmlns:rdf="http://www.w3.org/1999/02/22-rdf-syntax-ns#"
   xmlns:svg="http://www.w3.org/2000/svg"
   xmlns="http://www.w3.org/2000/svg"
   xmlns:sodipodi="http://sodipodi.sourceforge.net/DTD/sodipodi-0.dtd"
   xmlns:inkscape="http://www.inkscape.org/namespaces/inkscape"
   width="383.67056"
   height="454.62173"
   id="svg6409"
   version="1.1"
   inkscape:version="0.48.3.1 r9886"
   sodipodi:docname="Overview_Junction.svg">
  <defs
     id="defs6411" />
  <sodipodi:namedview
     id="base"
     pagecolor="#ffffff"
     bordercolor="#666666"
     borderopacity="1.0"
     inkscape:pageopacity="0.0"
     inkscape:pageshadow="2"
     inkscape:zoom="1.4"
     inkscape:cx="193.13616"
     inkscape:cy="232.99697"
     inkscape:document-units="px"
     inkscape:current-layer="layer1"
     showgrid="false"
     showguides="true"
     inkscape:guide-bbox="true"
     fit-margin-top="0"
     fit-margin-left="0"
     fit-margin-right="0"
     fit-margin-bottom="0"
     inkscape:window-width="1440"
     inkscape:window-height="876"
     inkscape:window-x="0"
     inkscape:window-y="24"
     inkscape:window-maximized="1" />
  <metadata
     id="metadata6414">
    <rdf:RDF>
      <cc:Work
         rdf:about="">
        <dc:format>image/svg+xml</dc:format>
        <dc:type
           rdf:resource="http://purl.org/dc/dcmitype/StillImage" />
        <dc:title />
      </cc:Work>
    </rdf:RDF>
  </metadata>
  <g
     inkscape:label="Layer 1"
     inkscape:groupmode="layer"
     id="layer1"
     transform="translate(-201.61913,-214.11857)">
    <path
       id="path6953"
       style="fill:#7d0028;fill-opacity:0.35978836;stroke:#0000ff;stroke-width:1px;stroke-linecap:butt;stroke-linejoin:miter;stroke-opacity:1"
       d="m 417.8913,491.41569 0.0433,44.43619 20.35843,58.39451 41.59208,43.23497 -26.42856,30.35714 -48.21428,-50.35714 -27.14286,-74.64286 -0.35714,-51.42857 z"
       inkscape:connector-curvature="0"
       sodipodi:nodetypes="ccccccccc" />
    <path
       id="path6957"
       style="fill:#f32f31;fill-opacity:0.50793654;stroke:#0000ff;stroke-width:1px;stroke-linecap:butt;stroke-linejoin:miter;stroke-opacity:1"
       d="m 417.74227,491.76707 48.92857,0.35714 62.85715,-13.21429 55,-35.71428 -20.00001,-32.14285 -46.78571,30.71428 -53.57143,10.71429 -46.07143,-0.71429 z"
       inkscape:connector-curvature="0"
       sodipodi:nodetypes="ccccccccc" />
    <path
       id="path6949"
       style="fill:#6b6423;fill-opacity:0.50793654;stroke:#0000ff;stroke-width:1px;stroke-linecap:butt;stroke-linejoin:miter;stroke-opacity:1"
       d="m 377.23719,491.40993 -45.1046,0.5484 -37.96174,8.02303 -38.57144,19.99999 -19.28571,-35.35714 47.5,-24.64285 45.2092,-8.73731 47.98342,-0.54841 z"
       inkscape:connector-curvature="0"
       sodipodi:nodetypes="ccccccccc" />
    <path
       id="path6945"
       style="fill:#83f400;fill-opacity:0.25098039;stroke:#0000ff;stroke-width:1px;stroke-linecap:butt;stroke-linejoin:miter;stroke-opacity:1"
       d="m 202.38513,250.33849 55,38.92857 59.82142,18.125 60.00001,0.0893 0.17857,-40.35714 -53.75,-10e-6 -49.46429,-15.35714 -46.42857,-36.78571 z"
       inkscape:connector-curvature="0"
       sodipodi:nodetypes="ccccccccc" />
    <rect
       y="-417.54947"
       x="307.43063"
       height="40.406033"
       width="143.6942"
       id="rect6935"
       style="fill:#ff8080;fill-opacity:0.25098039;stroke:#000080;stroke-width:1;stroke-miterlimit:4;stroke-dasharray:none;stroke-dashoffset:0"
       transform="matrix(0,1,-1,0,0,0)" />
    <rect
       y="-417.52057"
       x="267.06158"
       height="40.406101"
       width="40.406101"
       id="rect6419"
       style="fill:#ff3300;fill-opacity:0.25098039;stroke:#ff0000"
       transform="matrix(0,1,-1,0,0,0)" />
    <rect
       style="fill:#004556;fill-opacity:0.25098039;stroke:#ff0000"
       id="rect6421"
       width="40.406101"
       height="40.406101"
       x="451.1282"
       y="-417.53549"
       transform="matrix(0,1,-1,0,0,0)" />
    <path
       style="fill:none;stroke:#ff0000;stroke-width:1px;stroke-linecap:butt;stroke-linejoin:miter;stroke-opacity:1"
       d="m 228.03492,214.61857 -25.91579,36.15126"
       id="path6967"
       inkscape:connector-curvature="0"
       sodipodi:nodetypes="cc" />
    <path
       style="fill:none;stroke:#ff0000;stroke-width:1px;stroke-linecap:butt;stroke-linejoin:miter;stroke-opacity:1"
       d="m 236.13015,484.23236 19.73627,36.21121"
       id="path6969"
       inkscape:connector-curvature="0"
       sodipodi:nodetypes="cc" />
    <path
       style="fill:none;stroke:#ff0000;stroke-width:1px;stroke-linecap:butt;stroke-linejoin:miter;stroke-opacity:1"
       d="m 480.19763,637.12421 -27.07589,31.11608"
       id="path6971"
       inkscape:connector-curvature="0"
       sodipodi:nodetypes="cc" />
    <path
       style="fill:none;stroke:#ff0000;stroke-width:1px;stroke-linecap:butt;stroke-linejoin:miter;stroke-opacity:1"
       d="m 564.25882,410.62515 20.53086,32.99835"
       id="path6973"
       inkscape:connector-curvature="0"
       sodipodi:nodetypes="cc" />
    <text
       xml:space="preserve"
       style="font-size:22px;font-style:normal;font-variant:normal;font-weight:normal;font-stretch:normal;text-align:end;line-height:125%;letter-spacing:0px;word-spacing:0px;text-anchor:end;fill:#000000;fill-opacity:1;stroke:none;font-family:Arial;-inkscape-font-specification:Arial"
       x="554.84033"
       y="376.71405"
       id="text3029"
       sodipodi:linespacing="125%"><tspan
         sodipodi:role="line"
         id="tspan3031"
         x="554.84033"
         y="376.71405">Junctions</tspan></text>
    <path
       style="fill:none;stroke:#000000;stroke-width:1px;stroke-linecap:butt;stroke-linejoin:miter;stroke-opacity:1"
       d="M 385.71428,212.95628 329.28571,133.67056"
       id="path3033"
       inkscape:connector-curvature="0"
       transform="translate(72.435596,155.8862)" />
    <path
       style="fill:none;stroke:#000000;stroke-width:1px;stroke-linecap:butt;stroke-linejoin:miter;stroke-opacity:1"
       d="m 385.71429,212.95628 -55.00001,99.28571"
       id="path3035"
       inkscape:connector-curvature="0"
       transform="translate(72.435596,155.8862)"
       sodipodi:nodetypes="cc" />
  </g>
</svg>
