<?xml version="1.0" encoding="UTF-8" standalone="no"?>
<!-- Created with Inkscape (http://www.inkscape.org/) -->

<svg
   xmlns:dc="http://purl.org/dc/elements/1.1/"
   xmlns:cc="http://creativecommons.org/ns#"
   xmlns:rdf="http://www.w3.org/1999/02/22-rdf-syntax-ns#"
   xmlns:svg="http://www.w3.org/2000/svg"
   xmlns="http://www.w3.org/2000/svg"
   xmlns:sodipodi="http://sodipodi.sourceforge.net/DTD/sodipodi-0.dtd"
   xmlns:inkscape="http://www.inkscape.org/namespaces/inkscape"
   width="573.57141"
   height="301"
   id="svg4063"
   version="1.1"
   inkscape:version="0.48.3.1 r9886"
   sodipodi:docname="tree_world.svg">
  <defs
     id="defs4065" />
  <sodipodi:namedview
     id="base"
     pagecolor="#ffffff"
     bordercolor="#666666"
     borderopacity="1.0"
     inkscape:pageopacity="0.0"
     inkscape:pageshadow="2"
     inkscape:zoom="1.979899"
     inkscape:cx="283.05133"
     inkscape:cy="123.93886"
     inkscape:document-units="px"
     inkscape:current-layer="layer1"
     showgrid="false"
     inkscape:window-width="1440"
     inkscape:window-height="876"
     inkscape:window-x="0"
     inkscape:window-y="24"
     inkscape:window-maximized="1"
     fit-margin-top="0"
     fit-margin-left="0"
     fit-margin-right="0"
     fit-margin-bottom="0" />
  <metadata
     id="metadata4068">
    <rdf:RDF>
      <cc:Work
         rdf:about="">
        <dc:format>image/svg+xml</dc:format>
        <dc:type
           rdf:resource="http://purl.org/dc/dcmitype/StillImage" />
        <dc:title />
      </cc:Work>
    </rdf:RDF>
  </metadata>
  <g
     inkscape:label="Calque 1"
     inkscape:groupmode="layer"
     id="layer1"
     transform="translate(-46.928571,-29.005039)">
    <rect
       style="fill:#c8b7b7;fill-opacity:1;stroke:#000000;stroke-width:3;stroke-linecap:round;stroke-linejoin:round;stroke-miterlimit:4;stroke-opacity:1;stroke-dasharray:none;stroke-dashoffset:0"
       id="rect4071"
       width="105.71429"
       height="72.85714"
       x="74.285713"
       y="68.076462"
       rx="1.212211"
       ry="1.212211" />
    <rect
       style="fill:#c8b7b7;fill-opacity:1;stroke:#000000;stroke-width:3;stroke-linecap:round;stroke-linejoin:round;stroke-miterlimit:4;stroke-opacity:1;stroke-dasharray:none;stroke-dashoffset:0"
       id="rect4073"
       width="131.42857"
       height="40"
       x="429.23499"
       y="37.91547"
       rx="1.212211"
       ry="1.212211" />
    <path
       sodipodi:type="arc"
       style="fill:#c8b7b7;fill-opacity:1;stroke:#000000;stroke-width:3;stroke-linecap:round;stroke-linejoin:round;stroke-miterlimit:4;stroke-opacity:1;stroke-dasharray:none;stroke-dashoffset:0"
       id="path4075"
       sodipodi:cx="343.57144"
       sodipodi:cy="241.6479"
       sodipodi:rx="35"
       sodipodi:ry="32.142857"
       d="m 378.57144,241.6479 c 0,17.75201 -15.67003,32.14286 -35,32.14286 -19.32996,0 -35,-14.39085 -35,-32.14286 0,-17.75201 15.67004,-32.14285 35,-32.14285 19.21591,0 34.8383,14.22776 34.99878,31.87441"
       sodipodi:start="0"
       sodipodi:end="6.2748335"
       sodipodi:open="true"
       transform="translate(91.428571,28.571429)" />
    <path
       sodipodi:type="arc"
       style="fill:#c8b7b7;fill-opacity:1;stroke:#000000;stroke-width:3;stroke-linecap:round;stroke-linejoin:round;stroke-miterlimit:4;stroke-opacity:1;stroke-dasharray:none;stroke-dashoffset:0"
       id="path4077"
       sodipodi:cx="227.85715"
       sodipodi:cy="143.79076"
       sodipodi:rx="19.285715"
       sodipodi:ry="18.571428"
       d="m 247.14286,143.79076 c 0,10.25671 -8.63451,18.57142 -19.28571,18.57142 -10.65121,0 -19.28572,-8.31471 -19.28572,-18.57142 0,-10.25672 8.63451,-18.57143 19.28572,-18.57143 10.58836,0 19.19661,8.22048 19.28504,18.41632"
       sodipodi:start="0"
       sodipodi:end="6.2748335"
       sodipodi:open="true" />
    <text
       xml:space="preserve"
       style="font-size:20px;font-style:normal;font-variant:normal;font-weight:normal;font-stretch:normal;line-height:125%;letter-spacing:0px;word-spacing:0px;fill:#000000;fill-opacity:1;stroke:none;font-family:Symbol;-inkscape-font-specification:Symbol"
       x="125.71429"
       y="100.93361"
       id="text4079"
       sodipodi:linespacing="125%"><tspan
         sodipodi:role="line"
         id="tspan4081"
         x="125.71429"
         y="100.93361">A</tspan></text>
    <text
       xml:space="preserve"
       style="font-size:20px;font-style:normal;font-variant:normal;font-weight:normal;font-stretch:normal;line-height:125%;letter-spacing:0px;word-spacing:0px;fill:#000000;fill-opacity:1;stroke:none;font-family:Symbol;-inkscape-font-specification:Symbol"
       x="222.85713"
       y="150.93362"
       id="text4083"
       sodipodi:linespacing="125%"><tspan
         sodipodi:role="line"
         id="tspan4085"
         x="222.85713"
         y="150.93362">B</tspan></text>
    <text
       xml:space="preserve"
       style="font-size:20px;font-style:normal;font-variant:normal;font-weight:normal;font-stretch:normal;line-height:125%;letter-spacing:0px;word-spacing:0px;fill:#000000;fill-opacity:1;stroke:none;font-family:Symbol;-inkscape-font-specification:Symbol"
       x="487.8064"
       y="63.629749"
       id="text4087"
       sodipodi:linespacing="125%"><tspan
         sodipodi:role="line"
         id="tspan4089"
         x="487.8064"
         y="63.629749">C</tspan></text>
    <text
       xml:space="preserve"
       style="font-size:20px;font-style:normal;font-variant:normal;font-weight:normal;font-stretch:normal;line-height:125%;letter-spacing:0px;word-spacing:0px;fill:#000000;fill-opacity:1;stroke:none;font-family:Symbol;-inkscape-font-specification:Symbol"
       x="425.71429"
       y="276.64789"
       id="text4091"
       sodipodi:linespacing="125%"><tspan
         sodipodi:role="line"
         id="tspan4093"
         x="425.71429"
         y="276.64789">D</tspan></text>
    <path
       style="fill:none;stroke:#000000;stroke-width:1px;stroke-linecap:butt;stroke-linejoin:miter;stroke-opacity:1"
       d="m 351.42857,29.505039 0,300.000001"
       id="path4097"
       inkscape:connector-curvature="0" />
    <path
       style="fill:none;stroke:#000000;stroke-width:1px;stroke-linecap:butt;stroke-linejoin:miter;stroke-opacity:1"
       d="M 52.857143,186.6479 620,186.6479"
       id="path4099"
       inkscape:connector-curvature="0" />
    <path
       style="fill:none;stroke:#000000;stroke-width:1px;stroke-linecap:butt;stroke-linejoin:miter;stroke-opacity:1"
       d="m 195.71429,29.505039 0,155.714291"
       id="path4101"
       inkscape:connector-curvature="0" />
    <path
       style="fill:none;stroke:#000000;stroke-width:1px;stroke-linecap:butt;stroke-linejoin:miter;stroke-opacity:1"
       d="m 47.428571,103.21932 302.857139,0"
       id="path4103"
       inkscape:connector-curvature="0" />
    <text
       xml:space="preserve"
       style="font-size:20px;font-style:normal;font-variant:normal;font-weight:normal;font-stretch:normal;line-height:125%;letter-spacing:0px;word-spacing:0px;fill:#000000;fill-opacity:1;stroke:none;font-family:Symbol;-inkscape-font-specification:Symbol"
       x="348.57144"
       y="183.79076"
       id="text2998"
       sodipodi:linespacing="125%"><tspan
         sodipodi:role="line"
         id="tspan3000"
         x="348.57144"
         y="183.79076" /></text>
    <g
       id="g3008"
       transform="translate(214.65742,-196.47467)">
      <path
         transform="matrix(0.74262396,0,0,0.74262396,31.602102,95.083362)"
         sodipodi:open="true"
         sodipodi:end="6.2748335"
         sodipodi:start="0"
         d="m 158.57143,388.07648 c 0,9.46774 -7.67512,17.14285 -17.14286,17.14285 -9.46773,0 -17.14285,-7.67511 -17.14285,-17.14285 0,-9.46774 7.67512,-17.14286 17.14285,-17.14286 9.41188,0 17.06366,7.58814 17.14226,16.99968"
         sodipodi:ry="17.142857"
         sodipodi:rx="17.142857"
         sodipodi:cy="388.07648"
         sodipodi:cx="141.42857"
         id="path3002"
         style="fill:#ffffff;fill-opacity:1;stroke:#000000;stroke-width:3;stroke-linecap:round;stroke-linejoin:round;stroke-miterlimit:4;stroke-opacity:1;stroke-dasharray:none;stroke-dashoffset:0"
         sodipodi:type="arc" />
      <text
         sodipodi:linespacing="125%"
         id="text3004"
         y="389.75012"
         x="131.67368"
         style="font-size:20px;font-style:normal;font-variant:normal;font-weight:normal;font-stretch:normal;line-height:125%;letter-spacing:0px;word-spacing:0px;fill:#000000;fill-opacity:1;stroke:none;font-family:Symbol;-inkscape-font-specification:Symbol"
         xml:space="preserve"><tspan
           y="389.75012"
           x="131.67368"
           id="tspan3006"
           sodipodi:role="line">1</tspan></text>
    </g>
    <g
       id="g3008-2"
       transform="translate(58.83417,-279.95438)">
      <path
         transform="matrix(0.74262396,0,0,0.74262396,31.602102,95.083362)"
         sodipodi:open="true"
         sodipodi:end="6.2748335"
         sodipodi:start="0"
         d="m 158.57143,388.07648 c 0,9.46774 -7.67512,17.14285 -17.14286,17.14285 -9.46773,0 -17.14285,-7.67511 -17.14285,-17.14285 0,-9.46774 7.67512,-17.14286 17.14285,-17.14286 9.41188,0 17.06366,7.58814 17.14226,16.99968"
         sodipodi:ry="17.142857"
         sodipodi:rx="17.142857"
         sodipodi:cy="388.07648"
         sodipodi:cx="141.42857"
         id="path3002-1"
         style="fill:#ffffff;fill-opacity:1;stroke:#000000;stroke-width:3;stroke-linecap:round;stroke-linejoin:round;stroke-miterlimit:4;stroke-opacity:1;stroke-dasharray:none;stroke-dashoffset:0"
         sodipodi:type="arc" />
      <text
         sodipodi:linespacing="125%"
         id="text3004-9"
         y="389.75012"
         x="131.67368"
         style="font-size:20px;font-style:normal;font-variant:normal;font-weight:normal;font-stretch:normal;line-height:125%;letter-spacing:0px;word-spacing:0px;fill:#000000;fill-opacity:1;stroke:none;font-family:Symbol;-inkscape-font-specification:Symbol"
         xml:space="preserve"><tspan
           y="389.75012"
           x="131.67368"
           id="tspan3006-4"
           sodipodi:role="line">2</tspan></text>
    </g>
    <g
       id="g3008-6"
       transform="translate(367.43577,-280.45946)">
      <path
         transform="matrix(0.74262396,0,0,0.74262396,31.602102,95.083362)"
         sodipodi:open="true"
         sodipodi:end="6.2748335"
         sodipodi:start="0"
         d="m 158.57143,388.07648 c 0,9.46774 -7.67512,17.14285 -17.14286,17.14285 -9.46773,0 -17.14285,-7.67511 -17.14285,-17.14285 0,-9.46774 7.67512,-17.14286 17.14285,-17.14286 9.41188,0 17.06366,7.58814 17.14226,16.99968"
         sodipodi:ry="17.142857"
         sodipodi:rx="17.142857"
         sodipodi:cy="388.07648"
         sodipodi:cx="141.42857"
         id="path3002-7"
         style="fill:#ffffff;fill-opacity:1;stroke:#000000;stroke-width:3;stroke-linecap:round;stroke-linejoin:round;stroke-miterlimit:4;stroke-opacity:1;stroke-dasharray:none;stroke-dashoffset:0"
         sodipodi:type="arc" />
      <text
         sodipodi:linespacing="125%"
         id="text3004-3"
         y="389.75012"
         x="131.67368"
         style="font-size:20px;font-style:normal;font-variant:normal;font-weight:normal;font-stretch:normal;line-height:125%;letter-spacing:0px;word-spacing:0px;fill:#000000;fill-opacity:1;stroke:none;font-family:Symbol;-inkscape-font-specification:Symbol"
         xml:space="preserve"><tspan
           y="389.75012"
           x="131.67368"
           id="tspan3006-8"
           sodipodi:role="line">3</tspan></text>
    </g>
    <g
       id="g3008-0"
       transform="translate(365.41546,-124.3909)">
      <path
         transform="matrix(0.74262396,0,0,0.74262396,31.602102,95.083362)"
         sodipodi:open="true"
         sodipodi:end="6.2748335"
         sodipodi:start="0"
         d="m 158.57143,388.07648 c 0,9.46774 -7.67512,17.14285 -17.14286,17.14285 -9.46773,0 -17.14285,-7.67511 -17.14285,-17.14285 0,-9.46774 7.67512,-17.14286 17.14285,-17.14286 9.41188,0 17.06366,7.58814 17.14226,16.99968"
         sodipodi:ry="17.142857"
         sodipodi:rx="17.142857"
         sodipodi:cy="388.07648"
         sodipodi:cx="141.42857"
         id="path3002-74"
         style="fill:#ffffff;fill-opacity:1;stroke:#000000;stroke-width:3;stroke-linecap:round;stroke-linejoin:round;stroke-miterlimit:4;stroke-opacity:1;stroke-dasharray:none;stroke-dashoffset:0"
         sodipodi:type="arc" />
      <text
         sodipodi:linespacing="125%"
         id="text3004-8"
         y="389.75012"
         x="131.67368"
         style="font-size:20px;font-style:normal;font-variant:normal;font-weight:normal;font-stretch:normal;line-height:125%;letter-spacing:0px;word-spacing:0px;fill:#000000;fill-opacity:1;stroke:none;font-family:Symbol;-inkscape-font-specification:Symbol"
         xml:space="preserve"><tspan
           y="389.75012"
           x="131.67368"
           id="tspan3006-87"
           sodipodi:role="line">5</tspan></text>
    </g>
    <g
       id="g3008-7"
       transform="translate(57.824014,-121.86551)">
      <path
         transform="matrix(0.74262396,0,0,0.74262396,31.602102,95.083362)"
         sodipodi:open="true"
         sodipodi:end="6.2748335"
         sodipodi:start="0"
         d="m 158.57143,388.07648 c 0,9.46774 -7.67512,17.14285 -17.14286,17.14285 -9.46773,0 -17.14285,-7.67511 -17.14285,-17.14285 0,-9.46774 7.67512,-17.14286 17.14285,-17.14286 9.41188,0 17.06366,7.58814 17.14226,16.99968"
         sodipodi:ry="17.142857"
         sodipodi:rx="17.142857"
         sodipodi:cy="388.07648"
         sodipodi:cx="141.42857"
         id="path3002-6"
         style="fill:#ffffff;fill-opacity:1;stroke:#000000;stroke-width:3;stroke-linecap:round;stroke-linejoin:round;stroke-miterlimit:4;stroke-opacity:1;stroke-dasharray:none;stroke-dashoffset:0"
         sodipodi:type="arc" />
      <text
         sodipodi:linespacing="125%"
         id="text3004-1"
         y="389.75012"
         x="131.67368"
         style="font-size:20px;font-style:normal;font-variant:normal;font-weight:normal;font-stretch:normal;line-height:125%;letter-spacing:0px;word-spacing:0px;fill:#000000;fill-opacity:1;stroke:none;font-family:Symbol;-inkscape-font-specification:Symbol"
         xml:space="preserve"><tspan
           y="389.75012"
           x="131.67368"
           id="tspan3006-7"
           sodipodi:role="line">4</tspan></text>
    </g>
    <g
       id="g3008-8"
       transform="translate(-9.3511285,-336.01785)">
      <path
         transform="matrix(0.74262396,0,0,0.74262396,31.602102,95.083362)"
         sodipodi:open="true"
         sodipodi:end="6.2748335"
         sodipodi:start="0"
         d="m 158.57143,388.07648 c 0,9.46774 -7.67512,17.14285 -17.14286,17.14285 -9.46773,0 -17.14285,-7.67511 -17.14285,-17.14285 0,-9.46774 7.67512,-17.14286 17.14285,-17.14286 9.41188,0 17.06366,7.58814 17.14226,16.99968"
         sodipodi:ry="17.142857"
         sodipodi:rx="17.142857"
         sodipodi:cy="388.07648"
         sodipodi:cx="141.42857"
         id="path3002-4"
         style="fill:#ffffff;fill-opacity:1;stroke:#000000;stroke-width:3;stroke-linecap:round;stroke-linejoin:round;stroke-miterlimit:4;stroke-opacity:1;stroke-dasharray:none;stroke-dashoffset:0"
         sodipodi:type="arc" />
      <text
         sodipodi:linespacing="125%"
         id="text3004-89"
         y="389.75012"
         x="131.67368"
         style="font-size:20px;font-style:normal;font-variant:normal;font-weight:normal;font-stretch:normal;line-height:125%;letter-spacing:0px;word-spacing:0px;fill:#000000;fill-opacity:1;stroke:none;font-family:Symbol;-inkscape-font-specification:Symbol"
         xml:space="preserve"><tspan
           y="389.75012"
           x="131.67368"
           id="tspan3006-2"
           sodipodi:role="line">6</tspan></text>
    </g>
    <g
       id="g3008-8-2"
       transform="translate(139.64637,-323.39095)">
      <path
         transform="matrix(0.74262396,0,0,0.74262396,31.602102,95.083362)"
         sodipodi:open="true"
         sodipodi:end="6.2748335"
         sodipodi:start="0"
         d="m 158.57143,388.07648 c 0,9.46774 -7.67512,17.14285 -17.14286,17.14285 -9.46773,0 -17.14285,-7.67511 -17.14285,-17.14285 0,-9.46774 7.67512,-17.14286 17.14285,-17.14286 9.41188,0 17.06366,7.58814 17.14226,16.99968"
         sodipodi:ry="17.142857"
         sodipodi:rx="17.142857"
         sodipodi:cy="388.07648"
         sodipodi:cx="141.42857"
         id="path3002-4-7"
         style="fill:#ffffff;fill-opacity:1;stroke:#000000;stroke-width:3;stroke-linecap:round;stroke-linejoin:round;stroke-miterlimit:4;stroke-opacity:1;stroke-dasharray:none;stroke-dashoffset:0"
         sodipodi:type="arc" />
      <text
         sodipodi:linespacing="125%"
         id="text3004-89-8"
         y="389.75012"
         x="131.67368"
         style="font-size:20px;font-style:normal;font-variant:normal;font-weight:normal;font-stretch:normal;line-height:125%;letter-spacing:0px;word-spacing:0px;fill:#000000;fill-opacity:1;stroke:none;font-family:Symbol;-inkscape-font-specification:Symbol"
         xml:space="preserve"><tspan
           y="389.75012"
           x="131.67368"
           id="tspan3006-2-4"
           sodipodi:role="line">7</tspan></text>
    </g>
    <g
       id="g3008-8-2-4"
       transform="translate(-11.371437,-223.89092)">
      <path
         transform="matrix(0.74262396,0,0,0.74262396,31.602102,95.083362)"
         sodipodi:open="true"
         sodipodi:end="6.2748335"
         sodipodi:start="0"
         d="m 158.57143,388.07648 c 0,9.46774 -7.67512,17.14285 -17.14286,17.14285 -9.46773,0 -17.14285,-7.67511 -17.14285,-17.14285 0,-9.46774 7.67512,-17.14286 17.14285,-17.14286 9.41188,0 17.06366,7.58814 17.14226,16.99968"
         sodipodi:ry="17.142857"
         sodipodi:rx="17.142857"
         sodipodi:cy="388.07648"
         sodipodi:cx="141.42857"
         id="path3002-4-7-2"
         style="fill:#ffffff;fill-opacity:1;stroke:#000000;stroke-width:3;stroke-linecap:round;stroke-linejoin:round;stroke-miterlimit:4;stroke-opacity:1;stroke-dasharray:none;stroke-dashoffset:0"
         sodipodi:type="arc" />
      <text
         sodipodi:linespacing="125%"
         id="text3004-89-8-4"
         y="389.75012"
         x="131.67368"
         style="font-size:20px;font-style:normal;font-variant:normal;font-weight:normal;font-stretch:normal;line-height:125%;letter-spacing:0px;word-spacing:0px;fill:#000000;fill-opacity:1;stroke:none;font-family:Symbol;-inkscape-font-specification:Symbol"
         xml:space="preserve"><tspan
           y="389.75012"
           x="131.67368"
           id="tspan3006-2-4-1"
           sodipodi:role="line">8</tspan></text>
    </g>
    <g
       id="g3008-8-2-4-7"
       transform="translate(141.66668,-237.02291)">
      <path
         transform="matrix(0.74262396,0,0,0.74262396,31.602102,95.083362)"
         sodipodi:open="true"
         sodipodi:end="6.2748335"
         sodipodi:start="0"
         d="m 158.57143,388.07648 c 0,9.46774 -7.67512,17.14285 -17.14286,17.14285 -9.46773,0 -17.14285,-7.67511 -17.14285,-17.14285 0,-9.46774 7.67512,-17.14286 17.14285,-17.14286 9.41188,0 17.06366,7.58814 17.14226,16.99968"
         sodipodi:ry="17.142857"
         sodipodi:rx="17.142857"
         sodipodi:cy="388.07648"
         sodipodi:cx="141.42857"
         id="path3002-4-7-2-9"
         style="fill:#ffffff;fill-opacity:1;stroke:#000000;stroke-width:3;stroke-linecap:round;stroke-linejoin:round;stroke-miterlimit:4;stroke-opacity:1;stroke-dasharray:none;stroke-dashoffset:0"
         sodipodi:type="arc" />
      <text
         sodipodi:linespacing="125%"
         id="text3004-89-8-4-0"
         y="389.75012"
         x="131.67368"
         style="font-size:20px;font-style:normal;font-variant:normal;font-weight:normal;font-stretch:normal;line-height:125%;letter-spacing:0px;word-spacing:0px;fill:#000000;fill-opacity:1;stroke:none;font-family:Symbol;-inkscape-font-specification:Symbol"
         xml:space="preserve"><tspan
           y="389.75012"
           x="131.67368"
           id="tspan3006-2-4-1-6"
           sodipodi:role="line">9</tspan></text>
    </g>
  </g>
</svg>
