<?xml version="1.0" encoding="UTF-8" standalone="no"?>
<!-- Created with Inkscape (http://www.inkscape.org/) -->

<svg
   xmlns:dc="http://purl.org/dc/elements/1.1/"
   xmlns:cc="http://creativecommons.org/ns#"
   xmlns:rdf="http://www.w3.org/1999/02/22-rdf-syntax-ns#"
   xmlns:svg="http://www.w3.org/2000/svg"
   xmlns="http://www.w3.org/2000/svg"
   xmlns:sodipodi="http://sodipodi.sourceforge.net/DTD/sodipodi-0.dtd"
   xmlns:inkscape="http://www.inkscape.org/namespaces/inkscape"
   width="317.10715"
   height="185.77869"
   id="svg2"
   version="1.1"
   inkscape:version="0.48.4 r9939"
   sodipodi:docname="chevronformation_example.svg">
  <defs
     id="defs4">
    <marker
       inkscape:stockid="Arrow1Mend"
       orient="auto"
       refY="0"
       refX="0"
       id="Arrow1Mend"
       style="overflow:visible">
      <path
         id="path3856"
         d="M 0,0 5,-5 -12.5,0 5,5 0,0 z"
         style="fill-rule:evenodd;stroke:#000000;stroke-width:1pt"
         transform="matrix(-0.4,0,0,-0.4,-4,0)"
         inkscape:connector-curvature="0" />
    </marker>
    <marker
       inkscape:stockid="Arrow1Mend"
       orient="auto"
       refY="0"
       refX="0"
       id="Arrow1Mend-1"
       style="overflow:visible">
      <path
         id="path3856-6"
         d="M 0,0 5,-5 -12.5,0 5,5 0,0 z"
         style="fill-rule:evenodd;stroke:#000000;stroke-width:1pt"
         transform="matrix(-0.4,0,0,-0.4,-4,0)"
         inkscape:connector-curvature="0" />
    </marker>
    <marker
       inkscape:stockid="Arrow1Mend"
       orient="auto"
       refY="0"
       refX="0"
       id="marker3039"
       style="overflow:visible">
      <path
         id="path3041"
         d="M 0,0 5,-5 -12.5,0 5,5 0,0 z"
         style="fill-rule:evenodd;stroke:#000000;stroke-width:1pt"
         transform="matrix(-0.4,0,0,-0.4,-4,0)"
         inkscape:connector-curvature="0" />
    </marker>
  </defs>
  <sodipodi:namedview
     id="base"
     pagecolor="#ffffff"
     bordercolor="#666666"
     borderopacity="1.0"
     inkscape:pageopacity="0.0"
     inkscape:pageshadow="2"
     inkscape:zoom="2.8"
     inkscape:cx="87.399968"
     inkscape:cy="113.00042"
     inkscape:document-units="px"
     inkscape:current-layer="layer5"
     showgrid="false"
     fit-margin-top="1"
     fit-margin-left="1"
     fit-margin-right="1"
     fit-margin-bottom="1"
     inkscape:window-width="1920"
     inkscape:window-height="1056"
     inkscape:window-x="0"
     inkscape:window-y="24"
     inkscape:window-maximized="1"
     showguides="true"
     inkscape:guide-bbox="true" />
  <metadata
     id="metadata7">
    <rdf:RDF>
      <cc:Work
         rdf:about="">
        <dc:format>image/svg+xml</dc:format>
        <dc:type
           rdf:resource="http://purl.org/dc/dcmitype/StillImage" />
        <dc:title />
      </cc:Work>
    </rdf:RDF>
  </metadata>
  <g
     inkscape:groupmode="layer"
     id="layer5"
     inkscape:label="all"
     transform="translate(-166.85362,140.65579)"
     style="display:inline">
    <path
       style="fill:none;stroke:#000000;stroke-width:1px;stroke-linecap:butt;stroke-linejoin:miter;stroke-opacity:1"
       d="m 311.44849,-87.869153 0.0221,-6.43025 -0.0221,6.43025 z m -0.53033,-7.02688 -36.90213,36.90214 36.90213,-36.90214 z m -0.4861,-0.44197 -6.43025,0.0221 6.43025,-0.0221 z"
       id="path3986"
       inkscape:connector-curvature="0" />
    <g
       id="g3030"
       transform="translate(26.607143,19.107143)">
      <g
         transform="matrix(0,-1,1,0,441.29865,102.90861)"
         id="g3980">
        <path
           style="fill:#000000;fill-opacity:1;stroke:#000000;stroke-width:1px;stroke-linecap:butt;stroke-linejoin:miter;stroke-opacity:1"
           d="m 187.63583,-151.11573 8,6.69226 -8,6.69226"
           id="path3982"
           inkscape:connector-curvature="0"
           transform="translate(-2.7661132e-7,-64.649764)"
           sodipodi:nodetypes="ccc" />
        <path
           sodipodi:type="arc"
           style="fill:#7bbeff;fill-opacity:1;stroke:#000000;stroke-width:1;stroke-miterlimit:4;stroke-opacity:1;stroke-dasharray:none;stroke-dashoffset:0"
           id="path3984"
           sodipodi:cx="166.78571"
           sodipodi:cy="-144.18811"
           sodipodi:rx="21.785713"
           sodipodi:ry="21.785713"
           d="m 188.57142,-144.18811 c 0,12.03192 -9.7538,21.78571 -21.78571,21.78571 -12.03192,0 -21.78572,-9.75379 -21.78572,-21.78571 0,-12.03192 9.7538,-21.78571 21.78572,-21.78571 12.03191,0 21.78571,9.75379 21.78571,21.78571 z"
           transform="translate(-2.7661132e-7,-64.649764)" />
      </g>
      <text
         xml:space="preserve"
         style="font-size:32px;font-style:normal;font-variant:normal;font-weight:normal;font-stretch:normal;text-align:center;line-height:125%;letter-spacing:0px;word-spacing:0px;text-anchor:middle;fill:#000000;fill-opacity:1;stroke:none;font-family:DejaVu Sans;-inkscape-font-specification:DejaVu Sans"
         x="232.78082"
         y="-52.945038"
         id="text3065"
         sodipodi:linespacing="125%"><tspan
           sodipodi:role="line"
           id="tspan3067"
           x="232.78082"
           y="-52.945038">1</tspan></text>
    </g>
    <g
       id="g3069"
       transform="translate(-215,255.71428)">
      <g
         id="g3199"
         transform="matrix(0,-1,1,0,613.97721,-67.091391)">
        <path
           sodipodi:nodetypes="ccc"
           transform="translate(-2.7661132e-7,-64.649764)"
           inkscape:connector-curvature="0"
           id="path3201"
           d="m 187.63583,-151.11573 8,6.69226 -8,6.69226"
           style="fill:#000000;fill-opacity:1;stroke:#000000;stroke-width:1px;stroke-linecap:butt;stroke-linejoin:miter;stroke-opacity:1" />
        <path
           transform="translate(-2.7661132e-7,-64.649764)"
           d="m 188.57142,-144.18811 c 0,12.03192 -9.7538,21.78571 -21.78571,21.78571 -12.03192,0 -21.78572,-9.75379 -21.78572,-21.78571 0,-12.03192 9.7538,-21.78571 21.78572,-21.78571 12.03191,0 21.78571,9.75379 21.78571,21.78571 z"
           sodipodi:ry="21.785713"
           sodipodi:rx="21.785713"
           sodipodi:cy="-144.18811"
           sodipodi:cx="166.78571"
           id="path3203"
           style="fill:#7bbeff;fill-opacity:1;stroke:#000000;stroke-width:1;stroke-miterlimit:4;stroke-opacity:1;stroke-dasharray:none;stroke-dashoffset:0"
           sodipodi:type="arc" />
      </g>
      <text
         xml:space="preserve"
         style="font-size:32px;font-style:normal;font-variant:normal;font-weight:normal;font-stretch:normal;text-align:center;line-height:125%;letter-spacing:0px;word-spacing:0px;text-anchor:middle;fill:#000000;fill-opacity:1;stroke:none;font-family:DejaVu Sans;-inkscape-font-specification:DejaVu Sans"
         x="405.75583"
         y="-222.52316"
         id="text3073"
         sodipodi:linespacing="125%"><tspan
           sodipodi:role="line"
           id="tspan3075"
           x="405.75583"
           y="-222.52316">3</tspan></text>
    </g>
    <path
       style="fill:none;stroke:#000000;stroke-width:1px;stroke-linecap:butt;stroke-linejoin:miter;stroke-opacity:1;marker-end:url(#Arrow1Mend)"
       d="m 327.5583,33.320516 29.29442,0"
       id="path3073"
       inkscape:connector-curvature="0" />
    <path
       inkscape:connector-curvature="0"
       id="path4287"
       d="m 328.11187,33.848706 0,-29.2944204"
       style="fill:none;stroke:#000000;stroke-width:1px;stroke-linecap:butt;stroke-linejoin:miter;stroke-opacity:1;marker-end:url(#Arrow1Mend)" />
    <text
       xml:space="preserve"
       style="font-size:14px;font-style:normal;font-variant:normal;font-weight:normal;font-stretch:normal;text-align:center;line-height:125%;letter-spacing:0px;word-spacing:0px;text-anchor:middle;fill:#000000;fill-opacity:1;stroke:none;font-family:DejaVu Sans;-inkscape-font-specification:DejaVu Sans"
       x="363.10364"
       y="41.372898"
       id="text4289"
       sodipodi:linespacing="125%"><tspan
         sodipodi:role="line"
         id="tspan4291"
         x="363.10364"
         y="41.372898">x</tspan></text>
    <text
       sodipodi:linespacing="125%"
       id="text4293"
       y="5.8371916"
       x="322.38934"
       style="font-size:14px;font-style:normal;font-variant:normal;font-weight:normal;font-stretch:normal;text-align:center;line-height:125%;letter-spacing:0px;word-spacing:0px;text-anchor:middle;fill:#000000;fill-opacity:1;stroke:none;font-family:DejaVu Sans;-inkscape-font-specification:DejaVu Sans"
       xml:space="preserve"><tspan
         y="5.8371916"
         x="322.38934"
         id="tspan4295"
         sodipodi:role="line">y</tspan></text>
    <g
       id="g3044">
      <g
         transform="matrix(0,-1,1,0,535.58436,56.480037)"
         id="g3958">
        <path
           style="fill:#000000;fill-opacity:1;stroke:#000000;stroke-width:1px;stroke-linecap:butt;stroke-linejoin:miter;stroke-opacity:1"
           d="m 187.63583,-151.11573 8,6.69226 -8,6.69226"
           id="path3956"
           inkscape:connector-curvature="0"
           transform="translate(-2.7661132e-7,-64.649764)"
           sodipodi:nodetypes="ccc" />
        <path
           sodipodi:type="arc"
           style="fill:#7bbeff;fill-opacity:1;stroke:#000000;stroke-width:1;stroke-miterlimit:4;stroke-opacity:1;stroke-dasharray:none;stroke-dashoffset:0"
           id="path3162"
           sodipodi:cx="166.78571"
           sodipodi:cy="-144.18811"
           sodipodi:rx="21.785713"
           sodipodi:ry="21.785713"
           d="m 188.57142,-144.18811 c 0,12.03192 -9.7538,21.78571 -21.78571,21.78571 -12.03192,0 -21.78572,-9.75379 -21.78572,-21.78571 0,-12.03192 9.7538,-21.78571 21.78572,-21.78571 12.03191,0 21.78571,9.75379 21.78571,21.78571 z"
           transform="translate(-2.7661132e-7,-64.649764)" />
      </g>
      <g
         transform="matrix(0,-0.27476224,0.27476224,0,384.28202,-64.794522)"
         id="g3958-9"
         style="display:inline">
        <path
           style="fill:#000000;fill-opacity:1;stroke:#000000;stroke-width:1px;stroke-linecap:butt;stroke-linejoin:miter;stroke-opacity:1"
           d="m 187.63583,-151.11573 8,6.69226 -8,6.69226"
           id="path3956-7"
           inkscape:connector-curvature="0"
           transform="translate(-2.7661132e-7,-64.649764)"
           sodipodi:nodetypes="ccc" />
        <path
           sodipodi:type="arc"
           style="fill:#800000;fill-opacity:1;stroke:#000000;stroke-width:1;stroke-miterlimit:4;stroke-opacity:1;stroke-dasharray:none;stroke-dashoffset:0"
           id="path3162-9"
           sodipodi:cx="166.78571"
           sodipodi:cy="-144.18811"
           sodipodi:rx="21.785713"
           sodipodi:ry="21.785713"
           d="m 188.57142,-144.18811 c 0,12.03192 -9.7538,21.78571 -21.78571,21.78571 -12.03192,0 -21.78572,-9.75379 -21.78572,-21.78571 0,-12.03192 9.7538,-21.78571 21.78572,-21.78571 12.03191,0 21.78571,9.75379 21.78571,21.78571 z"
           transform="translate(-2.7661132e-7,-64.649764)" />
      </g>
      <text
         sodipodi:linespacing="125%"
         id="text3998"
         y="-99.373611"
         x="325.2543"
         style="font-size:32px;font-style:normal;font-variant:normal;font-weight:normal;font-stretch:normal;text-align:center;line-height:125%;letter-spacing:0px;word-spacing:0px;text-anchor:middle;fill:#000000;fill-opacity:1;stroke:none;font-family:DejaVu Sans;-inkscape-font-specification:DejaVu Sans"
         xml:space="preserve"><tspan
           y="-99.373611"
           x="325.2543"
           id="tspan4000"
           sodipodi:role="line">L</tspan></text>
    </g>
    <path
       inkscape:connector-curvature="0"
       id="path3087"
       d="m 342.32384,-87.869153 -0.0221,-6.43025 0.0221,6.43025 z m 0.53033,-7.02688 36.90213,36.90214 -36.90213,-36.90214 z m 0.4861,-0.44197 6.43025,0.0221 -6.43025,-0.0221 z"
       style="fill:none;stroke:#000000;stroke-width:1px;stroke-linecap:butt;stroke-linejoin:miter;stroke-opacity:1" />
    <g
       id="g3058"
       transform="translate(84.285709,189.10714)">
      <g
         transform="matrix(0,-1,1,0,519.51293,-67.091391)"
         id="g3189">
        <path
           style="fill:#000000;fill-opacity:1;stroke:#000000;stroke-width:1px;stroke-linecap:butt;stroke-linejoin:miter;stroke-opacity:1"
           d="m 187.63583,-151.11573 8,6.69226 -8,6.69226"
           id="path3191"
           inkscape:connector-curvature="0"
           transform="translate(-2.7661132e-7,-64.649764)"
           sodipodi:nodetypes="ccc" />
        <path
           sodipodi:type="arc"
           style="fill:#7bbeff;fill-opacity:1;stroke:#000000;stroke-width:1;stroke-miterlimit:4;stroke-opacity:1;stroke-dasharray:none;stroke-dashoffset:0"
           id="path3193"
           sodipodi:cx="166.78571"
           sodipodi:cy="-144.18811"
           sodipodi:rx="21.785713"
           sodipodi:ry="21.785713"
           d="m 188.57142,-144.18811 c 0,12.03192 -9.7538,21.78571 -21.78571,21.78571 -12.03192,0 -21.78572,-9.75379 -21.78572,-21.78571 0,-12.03192 9.7538,-21.78571 21.78572,-21.78571 12.03191,0 21.78571,9.75379 21.78571,21.78571 z"
           transform="translate(-2.7661132e-7,-64.649764)" />
      </g>
      <text
         sodipodi:linespacing="125%"
         id="text3069"
         y="-222.52316"
         x="311.30658"
         style="font-size:32px;font-style:normal;font-variant:normal;font-weight:normal;font-stretch:normal;text-align:center;line-height:125%;letter-spacing:0px;word-spacing:0px;text-anchor:middle;fill:#000000;fill-opacity:1;stroke:none;font-family:DejaVu Sans;-inkscape-font-specification:DejaVu Sans"
         xml:space="preserve"><tspan
           y="-222.52316"
           x="311.30658"
           id="tspan3071"
           sodipodi:role="line">2</tspan></text>
    </g>
    <path
       inkscape:connector-curvature="0"
       id="path3100"
       d="m 244.30563,-21.797725 0.0221,-6.43025 -0.0221,6.43025 z m -0.53033,-7.02688 -36.90213,36.9021401 36.90213,-36.9021401 z m -0.4861,-0.44197 -6.43025,0.0221 6.43025,-0.0221 z"
       style="fill:none;stroke:#000000;stroke-width:1px;stroke-linecap:butt;stroke-linejoin:miter;stroke-opacity:1" />
    <path
       style="fill:none;stroke:#000000;stroke-width:1px;stroke-linecap:butt;stroke-linejoin:miter;stroke-opacity:1"
       d="m 409.82384,-21.440582 -0.0221,-6.43025 0.0221,6.43025 z m 0.53033,-7.02688 36.90213,36.90214 -36.90213,-36.90214 z m 0.4861,-0.44197 6.43025,0.0221 -6.43025,-0.0221 z"
       id="path3102"
       inkscape:connector-curvature="0" />
    <g
       id="g3080"
       transform="translate(-38.928571,255.71428)">
      <g
         transform="matrix(0,-1,1,0,708.4415,-67.091391)"
         id="g3209">
        <path
           style="fill:#000000;fill-opacity:1;stroke:#000000;stroke-width:1px;stroke-linecap:butt;stroke-linejoin:miter;stroke-opacity:1"
           d="m 187.63583,-151.11573 8,6.69226 -8,6.69226"
           id="path3211"
           inkscape:connector-curvature="0"
           transform="translate(-2.7661132e-7,-64.649764)"
           sodipodi:nodetypes="ccc" />
        <path
           sodipodi:type="arc"
           style="fill:#7bbeff;fill-opacity:1;stroke:#000000;stroke-width:1;stroke-miterlimit:4;stroke-opacity:1;stroke-dasharray:none;stroke-dashoffset:0"
           id="path3213"
           sodipodi:cx="166.78571"
           sodipodi:cy="-144.18811"
           sodipodi:rx="21.785713"
           sodipodi:ry="21.785713"
           d="m 188.57142,-144.18811 c 0,12.03192 -9.7538,21.78571 -21.78571,21.78571 -12.03192,0 -21.78572,-9.75379 -21.78572,-21.78571 0,-12.03192 9.7538,-21.78571 21.78572,-21.78571 12.03191,0 21.78571,9.75379 21.78571,21.78571 z"
           transform="translate(-2.7661132e-7,-64.649764)" />
      </g>
      <text
         sodipodi:linespacing="125%"
         id="text3077"
         y="-222.94504"
         x="498.68991"
         style="font-size:32px;font-style:normal;font-variant:normal;font-weight:normal;font-stretch:normal;text-align:center;line-height:125%;letter-spacing:0px;word-spacing:0px;text-anchor:middle;fill:#000000;fill-opacity:1;stroke:none;font-family:DejaVu Sans;-inkscape-font-specification:DejaVu Sans"
         xml:space="preserve"><tspan
           y="-222.94504"
           x="498.68991"
           id="tspan3079"
           sodipodi:role="line">4</tspan></text>
    </g>
  </g>
</svg>
