<?xml version="1.0" encoding="UTF-8" standalone="no"?>
<!-- Created with Inkscape (http://www.inkscape.org/) -->

<svg
   xmlns:dc="http://purl.org/dc/elements/1.1/"
   xmlns:cc="http://creativecommons.org/ns#"
   xmlns:rdf="http://www.w3.org/1999/02/22-rdf-syntax-ns#"
   xmlns:svg="http://www.w3.org/2000/svg"
   xmlns="http://www.w3.org/2000/svg"
   xmlns:sodipodi="http://sodipodi.sourceforge.net/DTD/sodipodi-0.dtd"
   xmlns:inkscape="http://www.inkscape.org/namespaces/inkscape"
   width="1531.6947"
   height="637.07593"
   id="svg2"
   version="1.1"
   inkscape:version="0.48.4 r9939"
   sodipodi:docname="circleformationfactory+layers.svg">
  <defs
     id="defs4">
    <marker
       inkscape:stockid="Arrow1Lstart"
       orient="auto"
       refY="0"
       refX="0"
       id="Arrow1Lstart"
       style="overflow:visible">
      <path
         id="path4929"
         d="M 0,0 5,-5 -12.5,0 5,5 0,0 z"
         style="fill-rule:evenodd;stroke:#000000;stroke-width:1pt"
         transform="matrix(0.8,0,0,0.8,10,0)"
         inkscape:connector-curvature="0" />
    </marker>
    <marker
       style="overflow:visible"
       id="Arrow1Mend"
       refX="0"
       refY="0"
       orient="auto"
       inkscape:stockid="Arrow1Mend">
      <path
         inkscape:connector-curvature="0"
         transform="matrix(-0.4,0,0,-0.4,-4,0)"
         style="fill-rule:evenodd;stroke:#000000;stroke-width:1pt"
         d="M 0,0 5,-5 -12.5,0 5,5 0,0 z"
         id="path3856" />
    </marker>
  </defs>
  <sodipodi:namedview
     id="base"
     pagecolor="#ffffff"
     bordercolor="#666666"
     borderopacity="1.0"
     inkscape:pageopacity="0.0"
     inkscape:pageshadow="2"
     inkscape:zoom="0.35"
     inkscape:cx="361.03802"
     inkscape:cy="462.9058"
     inkscape:document-units="px"
     inkscape:current-layer="g7089"
     showgrid="false"
     fit-margin-top="2"
     fit-margin-left="2"
     fit-margin-right="2"
     fit-margin-bottom="2"
     inkscape:window-width="1920"
     inkscape:window-height="1056"
     inkscape:window-x="0"
     inkscape:window-y="24"
     inkscape:window-maximized="1"
     showguides="true"
     inkscape:guide-bbox="true" />
  <metadata
     id="metadata7">
    <rdf:RDF>
      <cc:Work
         rdf:about="">
        <dc:format>image/svg+xml</dc:format>
        <dc:type
           rdf:resource="http://purl.org/dc/dcmitype/StillImage" />
        <dc:title />
      </cc:Work>
    </rdf:RDF>
  </metadata>
  <g
     inkscape:groupmode="layer"
     id="layer2"
     inkscape:label="base &lt;1-&gt;"
     style="display:inline"
     sodipodi:insensitive="true"
     transform="translate(81.552986,-1016.4421)" />
  <g
     inkscape:label="axis comments&lt;2&gt;"
     inkscape:groupmode="layer"
     id="layer1"
     transform="translate(134.27041,-1248.5912)"
     style="display:inline"
     sodipodi:insensitive="true">
    <text
       xml:space="preserve"
       style="font-size:12px;font-style:normal;font-weight:normal;line-height:125%;letter-spacing:0px;word-spacing:0px;fill:#000000;fill-opacity:1;stroke:none;font-family:Sans"
       x="581.8479"
       y="314.27408"
       id="text3943"
       sodipodi:linespacing="125%"
       transform="translate(-203.17687,327.5303)"><tspan
         sodipodi:role="line"
         id="tspan3945"
         x="581.8479"
         y="314.27408" /></text>
    <flowRoot
       xml:space="preserve"
       id="flowRoot3974"
       style="font-size:12px;font-style:normal;font-weight:normal;line-height:125%;letter-spacing:0px;word-spacing:0px;fill:#000000;fill-opacity:1;stroke:none;font-family:Sans"
       transform="translate(-203.17687,327.5303)"><flowRegion
         id="flowRegion3976"><rect
           id="rect3978"
           width="278.80209"
           height="93.944183"
           x="597.00018"
           y="279.92889" /></flowRegion><flowPara
         id="flowPara3980" /></flowRoot>    <g
       id="g3992"
       transform="translate(477.80217,905.40126)">
      <rect
         ry="17.17259"
         y="37.492287"
         x="712.15753"
         height="217.1828"
         width="393.95944"
         id="rect3990"
         style="fill:#ffffff;fill-opacity:1;stroke:#008000;stroke-width:1;stroke-miterlimit:4;stroke-opacity:1;stroke-dasharray:none;stroke-dashoffset:0"
         transform="translate(-203.17687,327.5303)" />
      <text
         sodipodi:linespacing="125%"
         id="text3982"
         y="405.35474"
         x="529.37738"
         style="font-size:40px;font-style:normal;font-weight:normal;line-height:125%;letter-spacing:0px;word-spacing:0px;fill:#000000;fill-opacity:1;stroke:none;font-family:Sans"
         xml:space="preserve"><tspan
           id="tspan3988"
           y="405.35474"
           x="529.37738"
           sodipodi:role="line">Example:</tspan><tspan
           y="455.35474"
           x="529.37738"
           sodipodi:role="line"
           id="tspan3590">numberSlots = 8</tspan><tspan
           y="505.35474"
           x="529.37738"
           sodipodi:role="line"
           id="tspan3592">Reference axes:</tspan><tspan
           y="555.35474"
           x="529.37738"
           sodipodi:role="line"
           id="tspan3594">Ox=(1;0)</tspan></text>
    </g>
    <path
       style="fill:none;stroke:#000000;stroke-width:1px;stroke-linecap:butt;stroke-linejoin:miter;stroke-opacity:1;marker-start:url(#Arrow1Lstart);display:inline"
       d="m 1269.2595,1710.1275 -78.4055,0"
       id="path4681-0"
       inkscape:connector-curvature="0"
       sodipodi:nodetypes="cc" />
  </g>
  <g
     style="display:inline"
     inkscape:label="radius &lt;3-10&gt;"
     id="g7077"
     inkscape:groupmode="layer"
     sodipodi:insensitive="true"
     transform="translate(81.552986,-1016.4421)">
    <path
       transform="translate(-49.22264,-26.733146)"
       d="m 1448.5588,1504.3412 c 0,87.589 -71.0049,158.5939 -158.594,158.5939 -87.589,0 -158.5939,-71.0049 -158.5939,-158.5939 0,-87.589 71.0049,-158.594 158.5939,-158.594 87.5891,0 158.594,71.005 158.594,158.594 z"
       sodipodi:ry="158.59395"
       sodipodi:rx="158.59395"
       sodipodi:cy="1504.3412"
       sodipodi:cx="1289.9648"
       id="path7079"
       style="fill:none;stroke:#000000;stroke-width:1;stroke-miterlimit:4;stroke-opacity:1;stroke-dasharray:none;stroke-dashoffset:0"
       sodipodi:type="arc" />
    <path
       sodipodi:nodetypes="cc"
       inkscape:connector-curvature="0"
       id="path7087"
       d="m 1399.1198,1477.9784 -155.5484,0"
       style="fill:none;stroke:#000000;stroke-width:1px;stroke-linecap:butt;stroke-linejoin:miter;stroke-opacity:1" />
  </g>
  <g
     inkscape:groupmode="layer"
     id="g7089"
     inkscape:label="radius code &lt;3&gt;"
     style="display:inline"
     transform="translate(81.552986,-1016.4421)">
    <rect
       ry="0"
       y="1020.9421"
       x="-77.052986"
       height="119.198"
       width="844.32648"
       id="rect7097"
       style="opacity:0.5;fill:none;stroke:#008000;stroke-width:5;stroke-miterlimit:4;stroke-opacity:1;stroke-dasharray:none;stroke-dashoffset:0;display:inline" />
    <text
       sodipodi:linespacing="125%"
       id="text7081"
       y="1503.8359"
       x="1328.3506"
       style="font-size:20px;font-style:normal;font-variant:normal;font-weight:normal;font-stretch:normal;text-align:center;line-height:125%;letter-spacing:0px;word-spacing:0px;text-anchor:middle;fill:#000000;fill-opacity:1;stroke:none;display:inline;font-family:DejaVu Sans;-inkscape-font-specification:DejaVu Sans"
       xml:space="preserve"><tspan
         y="1503.8359"
         x="1328.3506"
         id="tspan7083"
         sodipodi:role="line">radius</tspan></text>
    <g
       style="display:inline"
       id="g3992-4"
       transform="translate(530.51955,673.25216)">
      <rect
         ry="17.17259"
         y="37.492287"
         x="712.15753"
         height="68.611366"
         width="393.95941"
         id="rect3990-5"
         style="fill:#ffffff;fill-opacity:1;stroke:#008000;stroke-width:1;stroke-miterlimit:4;stroke-opacity:1;stroke-dasharray:none;stroke-dashoffset:0"
         transform="translate(-203.17687,327.5303)" />
      <text
         sodipodi:linespacing="125%"
         id="text3982-0"
         y="405.35474"
         x="529.37738"
         style="font-size:40px;font-style:normal;font-weight:normal;line-height:125%;letter-spacing:0px;word-spacing:0px;fill:#000000;fill-opacity:1;stroke:none;font-family:Sans"
         xml:space="preserve"><tspan
           y="405.35474"
           x="529.37738"
           sodipodi:role="line"
           id="tspan3594-1">perimeter = 2πr</tspan></text>
    </g>
  </g>
  <g
     inkscape:groupmode="layer"
     id="layer4"
     inkscape:label="delta &lt;4-10&gt;"
     style="display:inline"
     sodipodi:insensitive="true"
     transform="translate(81.552986,-1016.4421)">
    <path
       style="fill:none;stroke:#000000;stroke-width:1px;stroke-linecap:butt;stroke-linejoin:miter;stroke-opacity:1"
       d="m 1243.5714,1477.9784 107.4567,-113.9286"
       id="path4681"
       inkscape:connector-curvature="0"
       sodipodi:nodetypes="cc" />
  </g>
  <g
     style="display:inline"
     inkscape:label="delta comment &lt;4&gt;"
     id="g7122"
     inkscape:groupmode="layer"
     sodipodi:insensitive="true"
     transform="translate(81.552986,-1016.4421)">
    <text
       sodipodi:linespacing="125%"
       id="text7124"
       y="1464.4401"
       x="1301.5815"
       style="font-size:20px;font-style:normal;font-variant:normal;font-weight:normal;font-stretch:normal;text-align:center;line-height:125%;letter-spacing:0px;word-spacing:0px;text-anchor:middle;fill:#000000;fill-opacity:1;stroke:none;font-family:DejaVu Sans;-inkscape-font-specification:DejaVu Sans"
       xml:space="preserve"><tspan
         y="1464.4401"
         x="1301.5815"
         id="tspan7126"
         sodipodi:role="line">delta</tspan></text>
    <rect
       style="opacity:0.5;fill:none;stroke:#008000;stroke-width:5;stroke-miterlimit:4;stroke-opacity:1;stroke-dasharray:none;stroke-dashoffset:0;display:inline"
       id="rect7128"
       width="765.53455"
       height="60.609177"
       x="-77.052986"
       y="1115.531"
       ry="0" />
  </g>
  <g
     style="display:inline"
     inkscape:label="angle &lt;5&gt;"
     id="g7132"
     inkscape:groupmode="layer"
     sodipodi:insensitive="true"
     transform="translate(81.552986,-1016.4421)">
    <path
       sodipodi:nodetypes="cc"
       inkscape:connector-curvature="0"
       id="path7134"
       d="m 1243.5732,1477.9803 141.6359,-65.8927"
       style="fill:none;stroke:#000000;stroke-width:5;stroke-linecap:butt;stroke-linejoin:miter;stroke-miterlimit:4;stroke-opacity:1;stroke-dasharray:none;stroke-dashoffset:0"
       inkscape:transform-center-x="-71.31975"
       inkscape:transform-center-y="-33.44445" />
    <text
       xml:space="preserve"
       style="font-size:20px;font-style:normal;font-variant:normal;font-weight:normal;font-stretch:normal;text-align:center;line-height:125%;letter-spacing:0px;word-spacing:0px;text-anchor:middle;fill:#000000;fill-opacity:1;stroke:none;font-family:DejaVu Sans;-inkscape-font-specification:DejaVu Sans"
       x="1421.4523"
       y="1413.3574"
       id="text7156"
       sodipodi:linespacing="125%"><tspan
         sodipodi:role="line"
         id="tspan7158"
         x="1421.4523"
         y="1413.3574">angle</tspan></text>
    <rect
       style="opacity:0.5;fill:none;stroke:#008000;stroke-width:5;stroke-miterlimit:4;stroke-opacity:1;stroke-dasharray:none;stroke-dashoffset:0;display:inline"
       id="rect7128-3"
       width="765.53455"
       height="60.609177"
       x="-77.052986"
       y="1185.531"
       ry="0" />
  </g>
  <g
     inkscape:groupmode="layer"
     id="g7433"
     inkscape:label="vector &lt;6&gt;"
     style="display:inline"
     sodipodi:insensitive="true"
     transform="translate(81.552986,-1016.4421)">
    <path
       inkscape:transform-center-y="-33.44445"
       inkscape:transform-center-x="-71.31975"
       style="fill:none;stroke:#000000;stroke-width:5;stroke-linecap:butt;stroke-linejoin:miter;stroke-miterlimit:4;stroke-opacity:1;stroke-dasharray:none;stroke-dashoffset:0;marker-end:url(#Arrow1Mend)"
       d="m 1243.5732,1477.9803 141.6359,-65.8927"
       id="path7435"
       inkscape:connector-curvature="0"
       sodipodi:nodetypes="cc" />
    <text
       sodipodi:linespacing="125%"
       id="text7437"
       y="1413.3574"
       x="1421.4523"
       style="font-size:20px;font-style:normal;font-variant:normal;font-weight:normal;font-stretch:normal;text-align:center;line-height:125%;letter-spacing:0px;word-spacing:0px;text-anchor:middle;fill:#000000;fill-opacity:1;stroke:none;font-family:DejaVu Sans;-inkscape-font-specification:DejaVu Sans"
       xml:space="preserve"><tspan
         y="1413.3574"
         x="1421.4523"
         id="tspan7439"
         sodipodi:role="line">angle</tspan></text>
    <rect
       ry="0"
       y="1255.531"
       x="-77.052986"
       height="81.822334"
       width="950.39246"
       id="rect7441"
       style="opacity:0.5;fill:none;stroke:#008000;stroke-width:5;stroke-miterlimit:4;stroke-opacity:1;stroke-dasharray:none;stroke-dashoffset:0;display:inline" />
  </g>
  <g
     style="display:inline"
     inkscape:label="slot1 &lt;7-&gt;"
     id="g7390"
     inkscape:groupmode="layer"
     sodipodi:insensitive="true"
     transform="translate(81.552986,-1016.4421)">
    <g
       style="display:inline"
       transform="matrix(0,1,-1,0,1321.8406,1185.7162)"
       id="g3696-3">
      <g
         id="g3698-5"
         transform="matrix(0.38268343,-0.92387953,0.92387953,0.38268343,361.43641,170.58943)">
        <path
           sodipodi:nodetypes="ccc"
           inkscape:connector-curvature="0"
           id="path3700-6"
           d="m 176.85268,-227.79598 10.389,-0.92471 -0.92471,10.389"
           style="fill:#000000;fill-opacity:1;stroke:#000000;stroke-width:1px;stroke-linecap:butt;stroke-linejoin:miter;stroke-opacity:1" />
        <path
           transform="translate(-2.7661132e-7,-64.649764)"
           d="m 188.57142,-144.18811 c 0,12.03192 -9.7538,21.78571 -21.78571,21.78571 -12.03192,0 -21.78572,-9.75379 -21.78572,-21.78571 0,-12.03192 9.7538,-21.78571 21.78572,-21.78571 12.03191,0 21.78571,9.75379 21.78571,21.78571 z"
           sodipodi:ry="21.785713"
           sodipodi:rx="21.785713"
           sodipodi:cy="-144.18811"
           sodipodi:cx="166.78571"
           id="path3702-6"
           style="fill:#7bbeff;fill-opacity:1;stroke:#000000;stroke-width:1;stroke-miterlimit:4;stroke-opacity:1;stroke-dasharray:none;stroke-dashoffset:0"
           sodipodi:type="arc" />
      </g>
      <text
         sodipodi:linespacing="125%"
         id="text3704-8"
         y="244.71832"
         x="64.335663"
         style="font-size:32px;font-style:normal;font-variant:normal;font-weight:normal;font-stretch:normal;text-align:center;line-height:125%;letter-spacing:0px;word-spacing:0px;text-anchor:middle;fill:#000000;fill-opacity:1;stroke:none;font-family:DejaVu Sans;-inkscape-font-specification:DejaVu Sans"
         xml:space="preserve"
         transform="matrix(0,-1,1,0,0,0)"><tspan
           y="244.71832"
           x="64.335663"
           id="tspan3706-5"
           sodipodi:role="line">1</tspan></text>
    </g>
  </g>
  <g
     inkscape:groupmode="layer"
     id="g8072"
     inkscape:label="slot1 comment &lt;7&gt;"
     style="display:inline"
     sodipodi:insensitive="true"
     transform="translate(81.552986,-1016.4421)">
    <rect
       ry="0"
       y="1351.531"
       x="-77.052986"
       height="224.89479"
       width="912.67743"
       id="rect8074"
       style="opacity:0.5;fill:none;stroke:#008000;stroke-width:5;stroke-miterlimit:4;stroke-opacity:1;stroke-dasharray:none;stroke-dashoffset:0;display:inline" />
  </g>
  <g
     inkscape:groupmode="layer"
     id="g7633"
     inkscape:label="angle2 &lt;8&gt;"
     style="display:inline"
     sodipodi:insensitive="true"
     transform="translate(81.552986,-1016.4421)">
    <text
       sodipodi:linespacing="125%"
       id="text7637"
       y="1320.4539"
       x="1323.9882"
       style="font-size:20px;font-style:normal;font-variant:normal;font-weight:normal;font-stretch:normal;text-align:center;line-height:125%;letter-spacing:0px;word-spacing:0px;text-anchor:middle;fill:#000000;fill-opacity:1;stroke:none;font-family:DejaVu Sans;-inkscape-font-specification:DejaVu Sans"
       xml:space="preserve"><tspan
         y="1320.4539"
         x="1323.9882"
         id="tspan7639"
         sodipodi:role="line">angle</tspan></text>
    <rect
       ry="0"
       y="1185.531"
       x="-77.052986"
       height="60.609177"
       width="765.53455"
       id="rect7641"
       style="opacity:0.5;fill:none;stroke:#008000;stroke-width:5;stroke-miterlimit:4;stroke-opacity:1;stroke-dasharray:none;stroke-dashoffset:0;display:inline" />
    <path
       sodipodi:nodetypes="cc"
       inkscape:connector-curvature="0"
       id="path7643"
       d="m 1243.0698,1477.7714 53.41,-149.557"
       style="fill:none;stroke:#000000;stroke-width:5;stroke-linecap:butt;stroke-linejoin:miter;stroke-miterlimit:4;stroke-opacity:1;stroke-dasharray:none;stroke-dashoffset:0"
       inkscape:transform-center-x="-26.34625"
       inkscape:transform-center-y="-74.2355" />
  </g>
  <g
     style="display:inline"
     inkscape:label="vector2 &lt;9&gt;"
     id="g7665"
     inkscape:groupmode="layer"
     sodipodi:insensitive="true"
     transform="translate(81.552986,-1016.4421)">
    <text
       xml:space="preserve"
       style="font-size:20px;font-style:normal;font-variant:normal;font-weight:normal;font-stretch:normal;text-align:center;line-height:125%;letter-spacing:0px;word-spacing:0px;text-anchor:middle;fill:#000000;fill-opacity:1;stroke:none;font-family:DejaVu Sans;-inkscape-font-specification:DejaVu Sans"
       x="1323.9882"
       y="1320.4539"
       id="text7667"
       sodipodi:linespacing="125%"><tspan
         sodipodi:role="line"
         id="tspan7669"
         x="1323.9882"
         y="1320.4539">angle</tspan></text>
    <path
       inkscape:transform-center-y="-74.2355"
       inkscape:transform-center-x="-26.34625"
       style="fill:none;stroke:#000000;stroke-width:5;stroke-linecap:butt;stroke-linejoin:miter;stroke-miterlimit:4;stroke-opacity:1;stroke-dasharray:none;stroke-dashoffset:0;marker-end:url(#Arrow1Mend)"
       d="m 1243.0698,1477.7714 53.41,-149.557"
       id="path7673"
       inkscape:connector-curvature="0"
       sodipodi:nodetypes="cc" />
    <rect
       ry="0"
       y="1255.531"
       x="-77.052986"
       height="81.822334"
       width="950.39246"
       id="rect7441-2"
       style="opacity:0.5;fill:none;stroke:#008000;stroke-width:5;stroke-miterlimit:4;stroke-opacity:1;stroke-dasharray:none;stroke-dashoffset:0;display:inline" />
  </g>
  <g
     inkscape:groupmode="layer"
     id="g7883"
     inkscape:label="slot2 &lt;10-&gt;"
     style="display:inline"
     sodipodi:insensitive="true"
     transform="translate(81.552986,-1016.4421)">
    <g
       style="display:inline"
       id="g3618-8"
       transform="matrix(0,1,-1,0,1231.688,1097.2676)">
      <g
         transform="matrix(-0.38268343,-0.92387953,0.92387953,-0.38268343,489.22794,10.29401)"
         id="g3620-8">
        <path
           style="fill:#000000;fill-opacity:1;stroke:#000000;stroke-width:1px;stroke-linecap:butt;stroke-linejoin:miter;stroke-opacity:1"
           d="m 176.87234,-227.54314 10.37424,-1.07781 -0.77141,10.40151"
           id="path3622-1"
           inkscape:connector-curvature="0"
           sodipodi:nodetypes="ccc" />
        <path
           sodipodi:type="arc"
           style="fill:#7bbeff;fill-opacity:1;stroke:#000000;stroke-width:1;stroke-miterlimit:4;stroke-opacity:1;stroke-dasharray:none;stroke-dashoffset:0"
           id="path3624-8"
           sodipodi:cx="166.78571"
           sodipodi:cy="-144.18811"
           sodipodi:rx="21.785713"
           sodipodi:ry="21.785713"
           d="m 188.57142,-144.18811 c 0,12.03192 -9.7538,21.78571 -21.78571,21.78571 -12.03192,0 -21.78572,-9.75379 -21.78572,-21.78571 0,-12.03192 9.7538,-21.78571 21.78572,-21.78571 12.03191,0 21.78571,9.75379 21.78571,21.78571 z"
           transform="translate(-2.7661132e-7,-64.649764)" />
      </g>
      <text
         xml:space="preserve"
         style="font-size:32px;font-style:normal;font-variant:normal;font-weight:normal;font-stretch:normal;text-align:center;line-height:125%;letter-spacing:0px;word-spacing:0px;text-anchor:middle;fill:#000000;fill-opacity:1;stroke:none;font-family:DejaVu Sans;-inkscape-font-specification:DejaVu Sans"
         x="65.257538"
         y="244.21832"
         id="text3626-2"
         sodipodi:linespacing="125%"
         transform="matrix(0,-1,1,0,0,0)"><tspan
           sodipodi:role="line"
           id="tspan3628-5"
           x="65.257538"
           y="244.21832">2</tspan></text>
    </g>
  </g>
  <g
     style="display:inline"
     inkscape:label="slot2 comment &lt;10&gt;"
     id="g8056"
     inkscape:groupmode="layer"
     sodipodi:insensitive="true"
     transform="translate(81.552986,-1016.4421)">
    <rect
       style="opacity:0.5;fill:none;stroke:#008000;stroke-width:5;stroke-miterlimit:4;stroke-opacity:1;stroke-dasharray:none;stroke-dashoffset:0;display:inline"
       id="rect8058"
       width="912.67743"
       height="224.89479"
       x="-77.052986"
       y="1351.531"
       ry="0" />
  </g>
  <g
     inkscape:groupmode="layer"
     id="layer5"
     inkscape:label="otherslots &lt;11&gt;"
     sodipodi:insensitive="true"
     transform="translate(81.552986,-1016.4421)">
    <g
       style="display:inline"
       id="g3630-3"
       transform="matrix(0,1,-1,0,1150.4835,1048.9661)">
      <g
         transform="matrix(-0.38268343,-0.92387953,0.92387953,-0.38268343,756.37079,-159.70599)"
         id="g3632-0">
        <path
           style="fill:#000000;fill-opacity:1;stroke:#000000;stroke-width:1px;stroke-linecap:butt;stroke-linejoin:miter;stroke-opacity:1"
           d="m 185.96341,-198.19852 0.92471,10.38899 -10.389,-0.92471"
           id="path3634-2"
           inkscape:connector-curvature="0"
           sodipodi:nodetypes="ccc" />
        <path
           sodipodi:type="arc"
           style="fill:#7bbeff;fill-opacity:1;stroke:#000000;stroke-width:1;stroke-miterlimit:4;stroke-opacity:1;stroke-dasharray:none;stroke-dashoffset:0"
           id="path3636-4"
           sodipodi:cx="166.78571"
           sodipodi:cy="-144.18811"
           sodipodi:rx="21.785713"
           sodipodi:ry="21.785713"
           d="m 188.57142,-144.18811 c 0,12.03192 -9.7538,21.78571 -21.78571,21.78571 -12.03192,0 -21.78572,-9.75379 -21.78572,-21.78571 0,-12.03192 9.7538,-21.78571 21.78572,-21.78571 12.03191,0 21.78571,9.75379 21.78571,21.78571 z"
           transform="translate(-2.7661132e-7,-64.649764)" />
      </g>
      <text
         sodipodi:linespacing="125%"
         id="text3638-0"
         y="511.03702"
         x="233.89482"
         style="font-size:32px;font-style:normal;font-variant:normal;font-weight:normal;font-stretch:normal;text-align:center;line-height:125%;letter-spacing:0px;word-spacing:0px;text-anchor:middle;fill:#000000;fill-opacity:1;stroke:none;font-family:DejaVu Sans;-inkscape-font-specification:DejaVu Sans"
         xml:space="preserve"
         transform="matrix(0,-1,1,0,0,0)"><tspan
           y="511.03702"
           x="233.89482"
           id="tspan3640-6"
           sodipodi:role="line">8</tspan></text>
    </g>
    <g
       style="display:inline"
       id="g3648-4"
       transform="matrix(0,1,-1,0,866.34063,1095.6447)">
      <g
         transform="matrix(-0.38268343,-0.92387953,0.92387953,-0.38268343,567.44222,-159.70599)"
         id="g3650-5">
        <path
           style="fill:#000000;fill-opacity:1;stroke:#000000;stroke-width:1px;stroke-linecap:butt;stroke-linejoin:miter;stroke-opacity:1"
           d="m 147.81078,-219.19033 -0.92471,-10.389 10.389,0.92471"
           id="path3652-4"
           inkscape:connector-curvature="0"
           sodipodi:nodetypes="ccc" />
        <path
           sodipodi:type="arc"
           style="fill:#7bbeff;fill-opacity:1;stroke:#000000;stroke-width:1;stroke-miterlimit:4;stroke-opacity:1;stroke-dasharray:none;stroke-dashoffset:0"
           id="path3654-4"
           sodipodi:cx="166.78571"
           sodipodi:cy="-144.18811"
           sodipodi:rx="21.785713"
           sodipodi:ry="21.785713"
           d="m 188.57142,-144.18811 c 0,12.03192 -9.7538,21.78571 -21.78571,21.78571 -12.03192,0 -21.78572,-9.75379 -21.78572,-21.78571 0,-12.03192 9.7538,-21.78571 21.78572,-21.78571 12.03191,0 21.78571,9.75379 21.78571,21.78571 z"
           transform="translate(-2.7661132e-7,-64.649764)" />
      </g>
      <text
         sodipodi:linespacing="125%"
         id="text3656-2"
         y="322.13135"
         x="232.16939"
         style="font-size:32px;font-style:normal;font-variant:normal;font-weight:normal;font-stretch:normal;text-align:center;line-height:125%;letter-spacing:0px;word-spacing:0px;text-anchor:middle;fill:#000000;fill-opacity:1;stroke:none;font-family:DejaVu Sans;-inkscape-font-specification:DejaVu Sans"
         xml:space="preserve"
         transform="matrix(0,-1,1,0,0,0)"><tspan
           y="322.13135"
           x="232.16939"
           id="tspan3658-1"
           sodipodi:role="line">4</tspan></text>
    </g>
    <g
       style="display:inline"
       id="g3660-9"
       transform="matrix(0,1,-1,0,949.34063,1219.2876)">
      <g
         id="g3662-0"
         transform="matrix(-0.38268343,-0.92387953,0.92387953,-0.38268343,661.9065,-159.70599)">
        <path
           sodipodi:nodetypes="ccc"
           inkscape:connector-curvature="0"
           id="path3664-0"
           d="m 157.84622,-188.98676 -10.38899,0.92471 0.92471,-10.389"
           style="fill:#000000;fill-opacity:1;stroke:#000000;stroke-width:1px;stroke-linecap:butt;stroke-linejoin:miter;stroke-opacity:1" />
        <path
           transform="translate(-2.7661132e-7,-64.649764)"
           d="m 188.57142,-144.18811 c 0,12.03192 -9.7538,21.78571 -21.78571,21.78571 -12.03192,0 -21.78572,-9.75379 -21.78572,-21.78571 0,-12.03192 9.7538,-21.78571 21.78572,-21.78571 12.03191,0 21.78571,9.75379 21.78571,21.78571 z"
           sodipodi:ry="21.785713"
           sodipodi:rx="21.785713"
           sodipodi:cy="-144.18811"
           sodipodi:cx="166.78571"
           id="path3666-8"
           style="fill:#7bbeff;fill-opacity:1;stroke:#000000;stroke-width:1;stroke-miterlimit:4;stroke-opacity:1;stroke-dasharray:none;stroke-dashoffset:0"
           sodipodi:type="arc" />
      </g>
      <text
         xml:space="preserve"
         style="font-size:32px;font-style:normal;font-variant:normal;font-weight:normal;font-stretch:normal;text-align:center;line-height:125%;letter-spacing:0px;word-spacing:0px;text-anchor:middle;fill:#000000;fill-opacity:1;stroke:none;font-family:DejaVu Sans;-inkscape-font-specification:DejaVu Sans"
         x="233.35576"
         y="415.36295"
         id="text3668-0"
         sodipodi:linespacing="125%"
         transform="matrix(0,-1,1,0,0,0)"><tspan
           sodipodi:role="line"
           id="tspan3670-5"
           x="233.35576"
           y="415.36295">6</tspan></text>
    </g>
    <g
       style="display:inline"
       transform="matrix(0,1,-1,0,1131.5549,1095.0019)"
       id="g3672-1">
      <g
         id="g3674-5"
         transform="matrix(-0.38268343,-0.92387953,0.92387953,-0.38268343,488.95403,8.9169725)">
        <path
           inkscape:transform-center-y="-7.19226"
           inkscape:transform-center-x="-11.785714"
           sodipodi:nodetypes="ccc"
           inkscape:connector-curvature="0"
           id="path3676-2"
           d="m 159.83548,-229.82033 6.69226,-8 6.69226,8"
           style="fill:#000000;fill-opacity:1;stroke:#000000;stroke-width:1px;stroke-linecap:butt;stroke-linejoin:miter;stroke-opacity:1" />
        <path
           transform="translate(-2.7661132e-7,-64.649764)"
           d="m 188.57142,-144.18811 c 0,12.03192 -9.7538,21.78571 -21.78571,21.78571 -12.03192,0 -21.78572,-9.75379 -21.78572,-21.78571 0,-12.03192 9.7538,-21.78571 21.78572,-21.78571 12.03191,0 21.78571,9.75379 21.78571,21.78571 z"
           sodipodi:ry="21.785713"
           sodipodi:rx="21.785713"
           sodipodi:cy="-144.18811"
           sodipodi:cx="166.78571"
           id="path3678-7"
           style="fill:#7bbeff;fill-opacity:1;stroke:#000000;stroke-width:1;stroke-miterlimit:4;stroke-opacity:1;stroke-dasharray:none;stroke-dashoffset:0"
           sodipodi:type="arc" />
      </g>
      <text
         sodipodi:linespacing="125%"
         id="text3680-4"
         y="243.64467"
         x="65.378075"
         style="font-size:32px;font-style:normal;font-variant:normal;font-weight:normal;font-stretch:normal;text-align:center;line-height:125%;letter-spacing:0px;word-spacing:0px;text-anchor:middle;fill:#000000;fill-opacity:1;stroke:none;font-family:DejaVu Sans;-inkscape-font-specification:DejaVu Sans"
         xml:space="preserve"
         transform="matrix(0,-1,1,0,0,0)"><tspan
           y="243.64467"
           x="65.378075"
           id="tspan3682-9"
           sodipodi:role="line">3</tspan></text>
    </g>
    <g
       style="display:inline"
       id="g3684-1"
       transform="matrix(0,-1,-1,0,1240.7692,1855.2267)">
      <g
         transform="matrix(0.38268343,-0.92387953,0.92387953,0.38268343,361.30178,171.50864)"
         id="g3686-4">
        <path
           style="fill:#000000;fill-opacity:1;stroke:#000000;stroke-width:1px;stroke-linecap:butt;stroke-linejoin:miter;stroke-opacity:1"
           d="m 159.83548,-229.82033 6.69226,-8 6.69226,8"
           id="path3688-9"
           inkscape:connector-curvature="0"
           sodipodi:nodetypes="ccc"
           inkscape:transform-center-x="-11.785714"
           inkscape:transform-center-y="-7.19226" />
        <path
           sodipodi:type="arc"
           style="fill:#7bbeff;fill-opacity:1;stroke:#000000;stroke-width:1;stroke-miterlimit:4;stroke-opacity:1;stroke-dasharray:none;stroke-dashoffset:0"
           id="path3690-3"
           sodipodi:cx="166.78571"
           sodipodi:cy="-144.18811"
           sodipodi:rx="21.785713"
           sodipodi:ry="21.785713"
           d="m 188.57142,-144.18811 c 0,12.03192 -9.7538,21.78571 -21.78571,21.78571 -12.03192,0 -21.78572,-9.75379 -21.78572,-21.78571 0,-12.03192 9.7538,-21.78571 21.78572,-21.78571 12.03191,0 21.78571,9.75379 21.78571,21.78571 z"
           transform="translate(-2.7661132e-7,-64.649764)" />
      </g>
      <text
         transform="matrix(0,-1,-1,0,0,0)"
         xml:space="preserve"
         style="font-size:32px;font-style:normal;font-variant:normal;font-weight:normal;font-stretch:normal;text-align:center;line-height:125%;letter-spacing:0px;word-spacing:0px;text-anchor:middle;fill:#000000;fill-opacity:1;stroke:none;font-family:DejaVu Sans;-inkscape-font-specification:DejaVu Sans"
         x="62.6716"
         y="-219.72614"
         id="text3692-3"
         sodipodi:linespacing="125%"><tspan
           sodipodi:role="line"
           id="tspan3694-3"
           x="62.6716"
           y="-219.72614">7</tspan></text>
    </g>
    <g
       style="display:inline"
       id="g3708-8"
       transform="matrix(0,1,1,0,1154.69,1303.2162)">
      <g
         transform="matrix(0.92387953,-0.38268343,0.38268343,0.92387953,157.00039,192.63362)"
         id="g3710-8">
        <path
           style="fill:#000000;fill-opacity:1;stroke:#000000;stroke-width:1px;stroke-linecap:butt;stroke-linejoin:miter;stroke-opacity:1"
           d="m 176.85268,-227.79598 10.389,-0.92471 -0.92471,10.389"
           id="path3712-5"
           inkscape:connector-curvature="0"
           sodipodi:nodetypes="ccc" />
        <path
           sodipodi:type="arc"
           style="fill:#7bbeff;fill-opacity:1;stroke:#000000;stroke-width:1;stroke-miterlimit:4;stroke-opacity:1;stroke-dasharray:none;stroke-dashoffset:0"
           id="path3714-3"
           sodipodi:cx="166.78571"
           sodipodi:cy="-144.18811"
           sodipodi:rx="21.785713"
           sodipodi:ry="21.785713"
           d="m 188.57142,-144.18811 c 0,12.03192 -9.7538,21.78571 -21.78571,21.78571 -12.03192,0 -21.78572,-9.75379 -21.78572,-21.78571 0,-12.03192 9.7538,-21.78571 21.78572,-21.78571 12.03191,0 21.78571,9.75379 21.78571,21.78571 z"
           transform="translate(-2.7661132e-7,-64.649764)" />
      </g>
      <text
         transform="matrix(0,1,1,0,0,0)"
         xml:space="preserve"
         style="font-size:32px;font-style:normal;font-variant:normal;font-weight:normal;font-stretch:normal;text-align:center;line-height:125%;letter-spacing:0px;word-spacing:0px;text-anchor:middle;fill:#000000;fill-opacity:1;stroke:none;font-family:DejaVu Sans;-inkscape-font-specification:DejaVu Sans"
         x="-64.663788"
         y="241.90361"
         id="text3716-4"
         sodipodi:linespacing="125%"><tspan
           sodipodi:role="line"
           id="tspan3718-5"
           x="-64.663788"
           y="241.90361">5</tspan></text>
    </g>
  </g>
  <g
     inkscape:groupmode="layer"
     id="layer3"
     inkscape:label="axis &lt;2-&gt;"
     sodipodi:insensitive="true"
     style="display:inline"
     transform="translate(81.552986,-1016.4421)">
    <g
       style="display:inline"
       transform="matrix(0,2.4231124,-2.4231124,0,862.94518,694.33392)"
       id="g3642-4">
      <path
         style="fill:#000000;fill-opacity:1;stroke:#000000;stroke-width:0.27476224px;stroke-linecap:butt;stroke-linejoin:miter;stroke-opacity:1"
         d="m 321.42638,-162.77833 1.83878,-2.1981 1.83878,2.1981"
         id="path3644-2"
         inkscape:connector-curvature="0"
         sodipodi:nodetypes="ccc" />
      <path
         sodipodi:type="arc"
         style="fill:#800000;fill-opacity:1;stroke:#000000;stroke-width:1;stroke-miterlimit:4;stroke-opacity:1;stroke-dasharray:none;stroke-dashoffset:0"
         id="path3646-4"
         sodipodi:cx="166.78571"
         sodipodi:cy="-144.18811"
         sodipodi:rx="21.785713"
         sodipodi:ry="21.785713"
         d="m 188.57142,-144.18811 c 0,12.03192 -9.7538,21.78571 -21.78571,21.78571 -12.03192,0 -21.78572,-9.75379 -21.78572,-21.78571 0,-12.03192 9.7538,-21.78571 21.78572,-21.78571 12.03191,0 21.78571,9.75379 21.78571,21.78571 z"
         transform="matrix(0,-0.27476224,0.27476224,0,362.94728,-111.22309)" />
    </g>
  </g>
</svg>
